{
    "verses": [
        {
            "id": 1201,
            "verse_number": 41,
            "verse_key": "8:41",
            "hizb_number": 19,
            "rub_el_hizb_number": 73,
            "ruku_number": 150,
            "manzil_number": 2,
            "sajdah_number": null,
            "text_uthmani": "۞ وَٱعْلَمُوٓا۟ أَنَّمَا غَنِمْتُم مِّن شَىْءٍ فَأَنَّ لِلَّهِ خُمُسَهُۥ وَلِلرَّسُولِ وَلِذِى ٱلْقُرْبَىٰ وَٱلْيَتَـٰمَىٰ وَٱلْمَسَـٰكِينِ وَٱبْنِ ٱلسَّبِيلِ إِن كُنتُمْ ءَامَنتُم بِٱللَّهِ وَمَآ أَنزَلْنَا عَلَىٰ عَبْدِنَا يَوْمَ ٱلْفُرْقَانِ يَوْمَ ٱلْتَقَى ٱلْجَمْعَانِ ۗ وَٱللَّهُ عَلَىٰ كُلِّ شَىْءٍ قَدِيرٌ",
            "page_number": 182,
            "juz_number": 10,
            "translations": [
                {
                    "id": 101964,
                    "resource_id": 20,
                    "text": "And know that anything you obtain of war booty - then indeed, for Allāh is one fifth of it and for the Messenger<sup foot_note=196373>1</sup> and for [his] near relatives<sup foot_note=196372>2</sup> and the orphans, the needy, and the [stranded] traveler,<sup foot_note=196371>3</sup> if you have believed in Allāh and in that which We sent down to Our Servant<sup foot_note=196370>4</sup> on the day of criterion [i.e., decisive encounter] - the day when the two armies met [at Badr]. And Allāh, over all things, is competent."
                },
                {
                    "id": 219788,
                    "resource_id": 39,
                    "text": "Dan ketahuilah, bahawa apa sahaja yang kamu dapati sebagai harta rampasan perang, maka sesungguhnya satu perlimanya (dibahagikan) untuk (jalan) Allah, dan untuk RasulNya, dan untuk kerabat (Rasulullah), dan anak-anak yatim, dan orang-orang miskin, serta ibnus-sabil (orang musafir yang keputusan), jika kamu beriman kepada Allah dan kepada apa yang telah diturunkan oleh Kami (Allah) kepada hamba Kami (Muhammad) pada \"Hari Al-Furqaan\", iaitu hari bertemunya dua angkatan tentera (Islam dan kafir, di medan perang Badar). Dan (ingatlah) Allah Maha Kuasa atas tiap-tiap sesuatu."
                },
                {
                    "id": 1092178,
                    "resource_id": 161,
                    "text": "তোমরা জেনে রেখ যে, যুদ্ধে যা তোমরা লাভ কর তার এক-পঞ্চমাংশ হচ্ছে আল্লাহ, তাঁর রসূল, রসূলের আত্মীয়স্বজন, ইয়াতীম, মিসকীন ও মুসাফিরদের জন্য যদি তোমরা আল্লাহর উপর আর চূড়ান্ত ফায়সালার দিন অর্থাৎ দু’পক্ষের (মুসলমান ও কাফের বাহিনীর) মিলিত হওয়ার দিন আমি যা আমার বান্দাহর উপর অবতীর্ণ করেছিলাম তার উপর বিশ্বাস করে থাক। আর আল্লাহ হলেন সকল বিষয়ের উপর ক্ষমতাবান।"
                }
            ]
        },
        {
            "id": 1202,
            "verse_number": 42,
            "verse_key": "8:42",
            "hizb_number": 19,
            "rub_el_hizb_number": 73,
            "ruku_number": 150,
            "manzil_number": 2,
            "sajdah_number": null,
            "text_uthmani": "إِذْ أَنتُم بِٱلْعُدْوَةِ ٱلدُّنْيَا وَهُم بِٱلْعُدْوَةِ ٱلْقُصْوَىٰ وَٱلرَّكْبُ أَسْفَلَ مِنكُمْ ۚ وَلَوْ تَوَاعَدتُّمْ لَٱخْتَلَفْتُمْ فِى ٱلْمِيعَـٰدِ ۙ وَلَـٰكِن لِّيَقْضِىَ ٱللَّهُ أَمْرًا كَانَ مَفْعُولًا لِّيَهْلِكَ مَنْ هَلَكَ عَنۢ بَيِّنَةٍ وَيَحْيَىٰ مَنْ حَىَّ عَنۢ بَيِّنَةٍ ۗ وَإِنَّ ٱللَّهَ لَسَمِيعٌ عَلِيمٌ",
            "page_number": 182,
            "juz_number": 10,
            "translations": [
                {
                    "id": 101976,
                    "resource_id": 20,
                    "text": "[Remember] when you were on the near side of the valley, and they were on the farther side, and the caravan was lower [in position] than you. If you had made an appointment [to meet], you would have missed the appointment. But [it was] so that Allāh might accomplish a matter already destined - that those who perished [through disbelief] would perish upon evidence and those who lived [in faith] would live upon evidence; and indeed, Allāh is Hearing and Knowing."
                },
                {
                    "id": 219800,
                    "resource_id": 39,
                    "text": "(Iaitu) ketika kamu berada di tepi lembah yang dekat (ke Madinah) dan mereka (pihak musuh) berada di tepi lembah yang jauh (dari Madinah), sedang Kafilah (pembawa dagangan musuh) berada di tempat yang rendah dari tempat kamu (di tepi laut). Dan kalaulah kamu berjanji (dengan mereka mengenai peperangan itu) nescaya kamu akan berselisih pada menentukan harinya. Akan tetapi (pertemuan angkatan kamu dengan angkatan mereka yang tidak disangka-sangka itu) ialah supaya Allah melakukan suatu perkara (kemenangan Islam) yang telah ditetapkan berlakunya, iaitu supaya orang (kafir musyrik) yang binasa itu, binasa dengan keterangan (yang membuktikan kesalahannya), dan supaya orang (Islam) yang hidup itu, hidup dengan keterangan (yang membuktikan kebenarannya); kerana sesungguhnya Allah Maha Mendengar, lagi Maha Mengetahui."
                },
                {
                    "id": 1092179,
                    "resource_id": 161,
                    "text": "স্মরণ কর, যখন তোমরা উপত্যকার নিকট প্রান্তে ছিলে আর তারা ছিল দূরের প্রান্তে আর উটের আরোহী কাফেলা (আবূ সুফইয়ানের নেতৃত্বে কুরাইশের সম্পদ সহ কাফেলা) ছিল তোমাদের অপেক্ষা নিম্নভূমিতে। যদি তোমরা যুদ্ধ করার ব্যাপারে পরস্পরের মধ্যে পূর্বেই সিদ্ধান্ত গ্রহণ করতে, তবুও যুদ্ধ করার এ সিদ্ধান্ত তোমরা অবশ্যই রক্ষা করতে পারতে না (তোমাদের দুর্বল অবস্থার কারণে), যাতে আল্লাহ সে কাজ সম্পন্ন করতে পারেন যা ছিল পূর্বেই স্থিরীকৃত, যেন যাকে ধ্বংস হতে হবে সে যেন সুস্পষ্ট দলীলের ভিত্তিতে ধ্বংস হয় আর যাকে জীবিত থাকতে হবে সেও যেন সুস্পষ্ট দলীলের ভিত্তিতে জীবিত থাকে। আল্লাহ নিশ্চয়ই সর্বশ্রোতা, সর্বজ্ঞ।"
                }
            ]
        },
        {
            "id": 1203,
            "verse_number": 43,
            "verse_key": "8:43",
            "hizb_number": 19,
            "rub_el_hizb_number": 73,
            "ruku_number": 150,
            "manzil_number": 2,
            "sajdah_number": null,
            "text_uthmani": "إِذْ يُرِيكَهُمُ ٱللَّهُ فِى مَنَامِكَ قَلِيلًا ۖ وَلَوْ أَرَىٰكَهُمْ كَثِيرًا لَّفَشِلْتُمْ وَلَتَنَـٰزَعْتُمْ فِى ٱلْأَمْرِ وَلَـٰكِنَّ ٱللَّهَ سَلَّمَ ۗ إِنَّهُۥ عَلِيمٌۢ بِذَاتِ ٱلصُّدُورِ",
            "page_number": 182,
            "juz_number": 10,
            "translations": [
                {
                    "id": 101984,
                    "resource_id": 20,
                    "text": "[Remember, O Muḥammad], when Allāh showed them to you in your dream as few; and if He had shown them to you as many, you [believers] would have lost courage and would have disputed in the matter [of whether to fight], but Allāh saved [you from that]. Indeed, He is Knowing of that within the breasts."
                },
                {
                    "id": 219809,
                    "resource_id": 39,
                    "text": "(Ingatlah wahai Muhammad) ketika Allah memperlihatkan mereka kepadamu dalam mimpimu sedikit bilangannya; dan kalaulah Ia perlihatkan mereka kepadamu ramai bilangannya, tentulah kamu akan merasa gerun dan tentulah kamu akan berbantah-bantahan dalam urusan (perang) itu. Akan tetapi Allah telah menyelamatkan kamu. Sesungguhnya Allah Maha Mengetahui akan segala (isi hati) yang ada di dalam dada."
                },
                {
                    "id": 1092180,
                    "resource_id": 161,
                    "text": "স্মরণ কর, আল্লাহ তোমাকে স্বপ্নের মাধ্যমে তাদের সংখ্যাকে অল্প করে দেখিয়েছিলেন, যদি তিনি তাদের সংখ্যাকে তোমার নিকট বেশি করে দেখাতেন তাহলে তোমরা অবশ্যই সাহস হারিয়ে ফেলতে আর যুদ্ধের বিষয় নিয়ে অবশ্যইঝগড়া শুরু করে দিতে। কিন্তু আল্লাহ্ই তোমাদেরকে রক্ষা করেছিলেন, অন্তরে যা আছে সে সম্পর্কে তিনি খুবই ভালভাবে অবহিত।"
                }
            ]
        },
        {
            "id": 1204,
            "verse_number": 44,
            "verse_key": "8:44",
            "hizb_number": 19,
            "rub_el_hizb_number": 73,
            "ruku_number": 150,
            "manzil_number": 2,
            "sajdah_number": null,
            "text_uthmani": "وَإِذْ يُرِيكُمُوهُمْ إِذِ ٱلْتَقَيْتُمْ فِىٓ أَعْيُنِكُمْ قَلِيلًا وَيُقَلِّلُكُمْ فِىٓ أَعْيُنِهِمْ لِيَقْضِىَ ٱللَّهُ أَمْرًا كَانَ مَفْعُولًا ۗ وَإِلَى ٱللَّهِ تُرْجَعُ ٱلْأُمُورُ",
            "page_number": 182,
            "juz_number": 10,
            "translations": [
                {
                    "id": 101986,
                    "resource_id": 20,
                    "text": "And [remember] when He showed them to you, when you met, as few in your eyes, and He made you [appear] as few in their eyes so that Allāh might accomplish a matter already destined. And to Allāh are [all] matters returned."
                },
                {
                    "id": 219811,
                    "resource_id": 39,
                    "text": "Dan (ingatlah) ketika Kami memperlihatkan mereka kepada kamu (wahai umat Islam) semasa kamu bertemu dengan mereka: sedikit bilangannya pada pandangan mata kamu, dan kamu pula diperlihatkanNya: sedikit bilangannya pada pandangan mata mereka; kerana Allah hendak melakukan sesuatu perkara (kemenangan Islam) yang telah ditetapkan berlakunya. Dan (ingatlah) kepada Allah jualah dikembalikan segala urusan."
                },
                {
                    "id": 1092181,
                    "resource_id": 161,
                    "text": "স্মরণ কর, যখন তোমরা পরস্পরের সম্মুখীন হয়েছিলে তখন তিনি তোমাদের চোখে তাদেরকে স্বল্প সংখ্যক দেখিয়েছিলেন এবং তাদের চোখে তোমাদেরকে স্বল্প সংখ্যক দেখিয়েছিলেন সেই ব্যাপারটি সম্পন্ন করার জন্য যা ছিল পূর্ব স্থিরীকৃত। যাবতীয় বিষয় (অবশেষে) আল্লাহরই নিকট ফিরে আসে।"
                }
            ]
        },
        {
            "id": 1205,
            "verse_number": 45,
            "verse_key": "8:45",
            "hizb_number": 19,
            "rub_el_hizb_number": 73,
            "ruku_number": 151,
            "manzil_number": 2,
            "sajdah_number": null,
            "text_uthmani": "يَـٰٓأَيُّهَا ٱلَّذِينَ ءَامَنُوٓا۟ إِذَا لَقِيتُمْ فِئَةً فَٱثْبُتُوا۟ وَٱذْكُرُوا۟ ٱللَّهَ كَثِيرًا لَّعَلَّكُمْ تُفْلِحُونَ",
            "page_number": 182,
            "juz_number": 10,
            "translations": [
                {
                    "id": 101988,
                    "resource_id": 20,
                    "text": "O you who have believed, when you encounter a company [from the enemy forces], stand firm and remember Allāh much that you may be successful."
                },
                {
                    "id": 219813,
                    "resource_id": 39,
                    "text": "Wahai orang-orang yang beriman! Apabila kamu bertemu dengan sesuatu pasukan (musuh) maka hendaklah kamu tetap teguh menghadapinya, dan sebutlah serta ingatilah Allah (dengan doa) banyak-banyak, supaya kamu berjaya (mencapai kemenangan)."
                },
                {
                    "id": 1092182,
                    "resource_id": 161,
                    "text": "হে ঈমানদারগণ! যখন তোমরা কোন বাহিনীর সম্মুখীন হবে তখন অবিচল থাকবে আর আল্লাহকে বেশি বেশি স্মরণ করবে, যাতে তোমরা সাফল্য লাভ করতে পার।"
                }
            ]
        },
        {
            "id": 1206,
            "verse_number": 46,
            "verse_key": "8:46",
            "hizb_number": 19,
            "rub_el_hizb_number": 73,
            "ruku_number": 151,
            "manzil_number": 2,
            "sajdah_number": null,
            "text_uthmani": "وَأَطِيعُوا۟ ٱللَّهَ وَرَسُولَهُۥ وَلَا تَنَـٰزَعُوا۟ فَتَفْشَلُوا۟ وَتَذْهَبَ رِيحُكُمْ ۖ وَٱصْبِرُوٓا۟ ۚ إِنَّ ٱللَّهَ مَعَ ٱلصَّـٰبِرِينَ",
            "page_number": 183,
            "juz_number": 10,
            "translations": [
                {
                    "id": 101989,
                    "resource_id": 20,
                    "text": "And obey Allāh and His Messenger, and do not dispute and [thus] lose courage and [then] your strength would depart; and be patient. Indeed, Allāh is with the patient."
                },
                {
                    "id": 219815,
                    "resource_id": 39,
                    "text": "Dan taatlah kamu kepada Allah dan RasulNya, dan janganlah kamu berbantah-bantahan; kalau tidak nescaya kamu menjadi lemah semangat dan hilang kekuatan kamu, dan sabarlah (menghadapi segala kesukaran dengan cekal hati); sesungguhnya Allah beserta orang-orang yang sabar."
                },
                {
                    "id": 1092183,
                    "resource_id": 161,
                    "text": "আল্লাহ ও তাঁর রসূলের আনুগত্য কর, পরস্পরে ঝগড়া বিবাদ করো না, তা করলে তোমরা সাহস হারিয়ে ফেলবে, তোমাদের শক্তি-ক্ষমতা বিলুপ্ত হবে। আর ধৈর্য ধারণ করবে, আল্লাহ ধৈর্যশীলদের সঙ্গে আছেন।"
                }
            ]
        },
        {
            "id": 1207,
            "verse_number": 47,
            "verse_key": "8:47",
            "hizb_number": 19,
            "rub_el_hizb_number": 73,
            "ruku_number": 151,
            "manzil_number": 2,
            "sajdah_number": null,
            "text_uthmani": "وَلَا تَكُونُوا۟ كَٱلَّذِينَ خَرَجُوا۟ مِن دِيَـٰرِهِم بَطَرًا وَرِئَآءَ ٱلنَّاسِ وَيَصُدُّونَ عَن سَبِيلِ ٱللَّهِ ۚ وَٱللَّهُ بِمَا يَعْمَلُونَ مُحِيطٌ",
            "page_number": 183,
            "juz_number": 10,
            "translations": [
                {
                    "id": 101991,
                    "resource_id": 20,
                    "text": "And do not be like those who came forth from their homes insolently and to be seen by people and avert [them] from the way of Allāh. And Allāh is encompassing<sup foot_note=196374>1</sup> of what they do."
                },
                {
                    "id": 219818,
                    "resource_id": 39,
                    "text": "Dan janganlah kamu menjadi seperti orang-orang yang keluar dari negerinya dengan berlagak sombong dan menunjuk-nunjuk (kekuatan mereka) kepada orang ramai (kerana hendak meminta dipuji), serta mereka pula menghalang manusia dari jalan Allah dan (ingatlah) Allah Maha Meliputi pengetahuanNya akan apa yang mereka kerjakan."
                },
                {
                    "id": 1092184,
                    "resource_id": 161,
                    "text": "তোমরা তাদের মত হয়ো না যারা গর্ব অহঙ্কারসহ লোক দেখানোর জন্য এবং আল্লাহর পথে বাধা দেয়ার জন্য নিজেদের ঘর হতে বের হয়েছিল, তারা যা কিছুই করুক না কেন, আল্লাহ তাদেরকে ঘিরে রেখেছেন।"
                }
            ]
        },
        {
            "id": 1208,
            "verse_number": 48,
            "verse_key": "8:48",
            "hizb_number": 19,
            "rub_el_hizb_number": 73,
            "ruku_number": 151,
            "manzil_number": 2,
            "sajdah_number": null,
            "text_uthmani": "وَإِذْ زَيَّنَ لَهُمُ ٱلشَّيْطَـٰنُ أَعْمَـٰلَهُمْ وَقَالَ لَا غَالِبَ لَكُمُ ٱلْيَوْمَ مِنَ ٱلنَّاسِ وَإِنِّى جَارٌ لَّكُمْ ۖ فَلَمَّا تَرَآءَتِ ٱلْفِئَتَانِ نَكَصَ عَلَىٰ عَقِبَيْهِ وَقَالَ إِنِّى بَرِىٓءٌ مِّنكُمْ إِنِّىٓ أَرَىٰ مَا لَا تَرَوْنَ إِنِّىٓ أَخَافُ ٱللَّهَ ۚ وَٱللَّهُ شَدِيدُ ٱلْعِقَابِ",
            "page_number": 183,
            "juz_number": 10,
            "translations": [
                {
                    "id": 101996,
                    "resource_id": 20,
                    "text": "And [remember] when Satan made their deeds pleasing to them and said, \"No one can overcome you today from among the people, and indeed, I am your protector.\" But when the two armies sighted each other, he turned on his heels and said, \"Indeed, I am disassociated from you. Indeed, I see what you do not see; indeed, I fear Allāh. And Allāh is severe in penalty.\""
                },
                {
                    "id": 219820,
                    "resource_id": 39,
                    "text": "Dan (ingatlah) ketika Syaitan memperhiaskan kepada mereka perbuatan mereka (yang salah itu, untuk dipandang elok dan diteruskan), serta menghasut mereka dengan berkata: \"Pada hari ini tidak ada sesiapa pun dari umat manusia yang dapat mengalahkan kamu, dan sesungguhnya aku adalah pelindung dan penolong kamu\". Maka apabila kedua-dua puak (angkatan tentera Islam dan kafir musyrik) masing-masing kelihatan (berhadapan), Syaitan itu berundur ke belakang sambil berkata: \"Aku berlepas diri dari kamu, kerana aku dapat melihat apa yang kamu tidak dapat melihatnya; sesungguhnya aku takut kepada Allah, dan Allah sangat berat azab seksaNya\"."
                },
                {
                    "id": 1092185,
                    "resource_id": 161,
                    "text": "স্মরণ কর, যখন শয়ত্বান তাদের কার্যকলাপকে তাদের দৃষ্টিতে খুবই চাকচিক্যময় করে দেখিয়েছিল আর তাদেরকে বলেছিল, ‘আজ তোমাদেরকে পরাজিত করতে পারে মানুষের মাঝে এমন কেউই নাই, আমি তোমাদের পাশেই আছি।’ অতঃপর দল দু’টি যখন পরস্পরের দৃষ্টির গোচরে আসলো তখন সে পিছনে সরে পড়ল আর বলল, ‘তোমাদের সাথে আমার কোনই সম্পর্ক নেই, আমি তো দেখি (কাফিরদের বিরুদ্ধে যুদ্ধ করার জন্য আল্লাহর নাযিলকৃত ফেরেশতা) যা তোমরা দেখতে পাও না, আমি অবশ্যই আল্লাহকে ভয় করি কেননা আল্লাহ শাস্তিদানে অত্যন্ত কঠোর।’"
                }
            ]
        },
        {
            "id": 1209,
            "verse_number": 49,
            "verse_key": "8:49",
            "hizb_number": 19,
            "rub_el_hizb_number": 73,
            "ruku_number": 152,
            "manzil_number": 2,
            "sajdah_number": null,
            "text_uthmani": "إِذْ يَقُولُ ٱلْمُنَـٰفِقُونَ وَٱلَّذِينَ فِى قُلُوبِهِم مَّرَضٌ غَرَّ هَـٰٓؤُلَآءِ دِينُهُمْ ۗ وَمَن يَتَوَكَّلْ عَلَى ٱللَّهِ فَإِنَّ ٱللَّهَ عَزِيزٌ حَكِيمٌ",
            "page_number": 183,
            "juz_number": 10,
            "translations": [
                {
                    "id": 101998,
                    "resource_id": 20,
                    "text": "[Remember] when the hypocrites and those in whose hearts was disease [i.e., arrogance and disbelief] said, \"Their religion has deluded those [Muslims].\" But whoever relies upon Allāh - then indeed, Allāh is Exalted in Might and Wise."
                },
                {
                    "id": 219833,
                    "resource_id": 39,
                    "text": "(Ingatlah) ketika orang-orang munafik dan orang-orang yang ada penyakit (syak) dalam hatinya berkata: \"Orang-orang (Islam) itu telah diperdayakan oleh ugama mereka (sehingga mereka berani menentang kami yang lebih besar bilangannya)\". Dan (yang sebenarnya) sesiapa yang bertawakal kepada Allah (dengan sepenuh-penuh yakin, maka Allah akan menolongnya untuk mengalahkan musuh yang lebih besar bilangannya), kerana Allah Maha Kuasa, lagi Maha Bijaksana."
                },
                {
                    "id": 1092186,
                    "resource_id": 161,
                    "text": "স্মরণ কর, মুনাফিক্বরা আর যাদের অন্তরে রোগ আছে তারা বলে, ‘এই লোকগুলোকে তাদের দ্বীন ধোঁকায় ফেলে দিয়েছে’। (কিন্তু আসল ব্যাপার হল) কেউ যদি আল্লাহর উপর ভরসা করে তাহলে আল্লাহ তো প্রবল পরাক্রান্ত, মহাবিজ্ঞানী।"
                }
            ]
        },
        {
            "id": 1210,
            "verse_number": 50,
            "verse_key": "8:50",
            "hizb_number": 19,
            "rub_el_hizb_number": 73,
            "ruku_number": 152,
            "manzil_number": 2,
            "sajdah_number": null,
            "text_uthmani": "وَلَوْ تَرَىٰٓ إِذْ يَتَوَفَّى ٱلَّذِينَ كَفَرُوا۟ ۙ ٱلْمَلَـٰٓئِكَةُ يَضْرِبُونَ وُجُوهَهُمْ وَأَدْبَـٰرَهُمْ وَذُوقُوا۟ عَذَابَ ٱلْحَرِيقِ",
            "page_number": 183,
            "juz_number": 10,
            "translations": [
                {
                    "id": 102001,
                    "resource_id": 20,
                    "text": "And if you could but see when the angels take the souls of those who disbelieved...<sup foot_note=196375>1</sup> They are striking their faces and their backs and [saying], \"Taste the punishment of the Burning Fire."
                },
                {
                    "id": 219834,
                    "resource_id": 39,
                    "text": "Dan (amatlah ngerinya) kalau engkau melihat (wahai orang yang memandang), ketika malaikat mengambil nyawa orang-orang kafir dengan memukul muka dan belakang mereka (sambil berkata): \"Rasalah kamu azab seksa neraka yang membakar\"."
                },
                {
                    "id": 1092187,
                    "resource_id": 161,
                    "text": "তুমি যদি দেখতে যখন ফেরেশতারা কাফিরদের প্রাণবায়ু নির্গত করছে তখন তাদের মুখে আর পিঠে প্রহার করছে আর বলছে অগ্নিতে দগ্ধ হওয়ার যন্ত্রণা ভোগ কর।"
                }
            ]
        }
    ],
    "pagination": {
        "per_page": 10,
        "current_page": 1,
        "next_page": 2,
        "total_pages": 13,
        "total_records": 127
    }
}