{
    "verses": [
        {
            "id": 1479,
            "verse_number": 6,
            "verse_key": "11:6",
            "hizb_number": 23,
            "rub_el_hizb_number": 89,
            "ruku_number": 183,
            "manzil_number": 3,
            "sajdah_number": null,
            "text_uthmani": "۞ وَمَا مِن دَآبَّةٍ فِى ٱلْأَرْضِ إِلَّا عَلَى ٱللَّهِ رِزْقُهَا وَيَعْلَمُ مُسْتَقَرَّهَا وَمُسْتَوْدَعَهَا ۚ كُلٌّ فِى كِتَـٰبٍ مُّبِينٍ",
            "page_number": 222,
            "juz_number": 12,
            "translations": [
                {
                    "id": 96447,
                    "resource_id": 20,
                    "text": "And there is no creature on earth but that upon Allāh is its provision, and He knows its place of dwelling and place of storage.<sup foot_note=196467>1</sup> All is in a clear register."
                },
                {
                    "id": 220378,
                    "resource_id": 39,
                    "text": "Dan tiadalah sesuatupun dari makhluk-makhluk yang bergerak di bumi melainkan Allah jualah yang menanggung rezekinya dan mengetahui tempat kediamannya dan tempat ia disimpan. Semuanya itu tersurat di dalam Kitab (Lauh mahfuz) yang nyata (kepada malaikat-malaikat yang berkenaan)."
                },
                {
                    "id": 1092456,
                    "resource_id": 161,
                    "text": "যমীনে বিচরণশীল এমন কোন জীব নেই যার জীবিকার দায়িত্ব আল্লাহর উপর নেই, তিনি জানেন তাদের থাকার জায়গা কোথায় আর কোথায় তাদেরকে (মৃত্যুর পর) রাখা হয়, সব কিছুই আছে সুস্পষ্ট লিপিকায়।"
                }
            ]
        },
        {
            "id": 1480,
            "verse_number": 7,
            "verse_key": "11:7",
            "hizb_number": 23,
            "rub_el_hizb_number": 89,
            "ruku_number": 183,
            "manzil_number": 3,
            "sajdah_number": null,
            "text_uthmani": "وَهُوَ ٱلَّذِى خَلَقَ ٱلسَّمَـٰوَٰتِ وَٱلْأَرْضَ فِى سِتَّةِ أَيَّامٍ وَكَانَ عَرْشُهُۥ عَلَى ٱلْمَآءِ لِيَبْلُوَكُمْ أَيُّكُمْ أَحْسَنُ عَمَلًا ۗ وَلَئِن قُلْتَ إِنَّكُم مَّبْعُوثُونَ مِنۢ بَعْدِ ٱلْمَوْتِ لَيَقُولَنَّ ٱلَّذِينَ كَفَرُوٓا۟ إِنْ هَـٰذَآ إِلَّا سِحْرٌ مُّبِينٌ",
            "page_number": 222,
            "juz_number": 12,
            "translations": [
                {
                    "id": 96458,
                    "resource_id": 20,
                    "text": "And it is He who created the heavens and the earth in six days - and His Throne had been upon water - that He might test you as to which of you is best in deed. But if you say, \"Indeed, you are resurrected after death,\" those who disbelieve will surely say, \"This is not but obvious magic.\""
                },
                {
                    "id": 220417,
                    "resource_id": 39,
                    "text": "Dan Dia lah yang menjadikan langit dan bumi dalam masa, sedang \"ArasyNya, berada di atas air (Ia menjadikan semuanya itu untuk menguji kamu: siapakah di antara kamu yang lebih baik amalnya. Dan demi sesungguhnya! Jika engkau (wahai Muhammad) berkata: \"Bahawa kamu akan dibangkitkan hidup kembali sesudah mati\" tentulah orang-orang yang ingkar akan berkata: \"Ini tidak lain, hanyalah seperti sihir yang nyata (tipuannya)\"."
                },
                {
                    "id": 1092457,
                    "resource_id": 161,
                    "text": "আর তিনিই আসমানসমূহ আর যমীনকে ছ’দিনে সৃষ্টি করেছেন। ইতোপূর্বে তাঁর আরশ ছিল পানির উপর। (সৃষ্টি করেছেন) তোমাদেরকে পরীক্ষা করার উদ্দেশে যে, তোমাদের মধ্যে ‘আমালের ক্ষেত্রে কারা শ্রেষ্ঠ। তুমি যদি বল, ‘‘মৃত্যুর পর তোমাদেরকে অবশ্য অবশ্যই আবার উঠানো হবে, তাহলে কাফিররা অবশ্যই বলবে যে, এতো সুস্পষ্ট যাদু।"
                }
            ]
        },
        {
            "id": 1481,
            "verse_number": 8,
            "verse_key": "11:8",
            "hizb_number": 23,
            "rub_el_hizb_number": 89,
            "ruku_number": 183,
            "manzil_number": 3,
            "sajdah_number": null,
            "text_uthmani": "وَلَئِنْ أَخَّرْنَا عَنْهُمُ ٱلْعَذَابَ إِلَىٰٓ أُمَّةٍ مَّعْدُودَةٍ لَّيَقُولُنَّ مَا يَحْبِسُهُۥٓ ۗ أَلَا يَوْمَ يَأْتِيهِمْ لَيْسَ مَصْرُوفًا عَنْهُمْ وَحَاقَ بِهِم مَّا كَانُوا۟ بِهِۦ يَسْتَهْزِءُونَ",
            "page_number": 222,
            "juz_number": 12,
            "translations": [
                {
                    "id": 96471,
                    "resource_id": 20,
                    "text": "And if We hold back from them the punishment for a limited time, they will surely say,<sup foot_note=196468>1</sup> \"What detains it?\" Unquestionably, on the Day it comes to them, it will not be averted from them, and they will be enveloped by what they used to ridicule."
                },
                {
                    "id": 220410,
                    "resource_id": 39,
                    "text": "Dan demi sesungguhnya! Jika kami tangguhkan azab daripada menimpa mereka hingga ke suatu masa yang tertentu, tentulah mereka akan berkata (secara mengejek): \"Apakah yang menghalangnya?\" Ketahuilah! Pada hari datangnya azab itu kepada mereka, tidak akan dapat ditolak daripada menimpa mereka, dan tentulah mereka akan diliputi oleh azab yang mereka telah ejek-ejek itu."
                },
                {
                    "id": 1092458,
                    "resource_id": 161,
                    "text": "আমি যদি নির্দিষ্ট সময়ের জন্য তাদের থেকে শাস্তি বিলম্বিত করি, তাহলে তারা অবশ্য অবশ্যই বলবে যে, ‘কিসে ওটাকে আটকে রাখল? সাবধান! এমন দিন তাদের কাছে আসবে যা তাদের থেকে কেউ ফিরিয়ে দিতে পারবে না, আর যা নিয়ে তারা ঠাট্টা বিদ্রূপ করছিল তাই তাদেরকে ঘিরে ফেলবে।"
                }
            ]
        },
        {
            "id": 1482,
            "verse_number": 9,
            "verse_key": "11:9",
            "hizb_number": 23,
            "rub_el_hizb_number": 89,
            "ruku_number": 184,
            "manzil_number": 3,
            "sajdah_number": null,
            "text_uthmani": "وَلَئِنْ أَذَقْنَا ٱلْإِنسَـٰنَ مِنَّا رَحْمَةً ثُمَّ نَزَعْنَـٰهَا مِنْهُ إِنَّهُۥ لَيَـُٔوسٌ كَفُورٌ",
            "page_number": 222,
            "juz_number": 12,
            "translations": [
                {
                    "id": 96482,
                    "resource_id": 20,
                    "text": "And if We give man a taste of mercy from Us and then We withdraw it from him, indeed, he is despairing and ungrateful."
                },
                {
                    "id": 220344,
                    "resource_id": 39,
                    "text": "Dan demi sesungguhnya! Jika Kami rasakan manusia sesuatu pemberian rahmat dari Kami kemudian Kami tarik balik pemberian itu daripadanya, mendapati dia amat berputus asa, lagi amat tidak bersyukur."
                },
                {
                    "id": 1092459,
                    "resource_id": 161,
                    "text": "আমি যদি মানুষকে আমার পক্ষ থেকে রহমত আস্বাদন করাই অতঃপর তা তার থেকে ছিনিয়ে নেই, তখন সে অবশ্যই হতাশ ও অকৃতজ্ঞ হয়ে পড়ে।"
                }
            ]
        },
        {
            "id": 1483,
            "verse_number": 10,
            "verse_key": "11:10",
            "hizb_number": 23,
            "rub_el_hizb_number": 89,
            "ruku_number": 184,
            "manzil_number": 3,
            "sajdah_number": null,
            "text_uthmani": "وَلَئِنْ أَذَقْنَـٰهُ نَعْمَآءَ بَعْدَ ضَرَّآءَ مَسَّتْهُ لَيَقُولَنَّ ذَهَبَ ٱلسَّيِّـَٔاتُ عَنِّىٓ ۚ إِنَّهُۥ لَفَرِحٌ فَخُورٌ",
            "page_number": 222,
            "juz_number": 12,
            "translations": [
                {
                    "id": 96348,
                    "resource_id": 20,
                    "text": "But if We give him a taste of favor after hardship has touched him, he will surely say, \"Bad times have left me.\" Indeed, he is exultant and boastful -"
                },
                {
                    "id": 220287,
                    "resource_id": 39,
                    "text": "Dan demi sesungguhnya! kalau Kami memberinya pula kesenangan sesudah ia menderita kesusahan, tentulah ia akan berkata: \"Telah hilang lenyaplah dariku segala kesusahan yang menimpaku\". Sesungguhnya ia (dengan kesenangannya itu) riang gembira, lagi bermegah-megah (kepada orang ramai)."
                },
                {
                    "id": 1092460,
                    "resource_id": 161,
                    "text": "আর যদি তার উপরে আসা দুঃখ কষ্টের পর তাকে নি‘মাতের স্বাদ আস্বাদন করাই, তখন সে অবশ্য অবশ্যই বলবে, ‘আমার দূরবস্থা কেটে গেছে’। তখন সে আনন্দে উৎফুল্ল হয়, হয়ে পড়ে অহঙ্কারী।"
                }
            ]
        },
        {
            "id": 1484,
            "verse_number": 11,
            "verse_key": "11:11",
            "hizb_number": 23,
            "rub_el_hizb_number": 89,
            "ruku_number": 184,
            "manzil_number": 3,
            "sajdah_number": null,
            "text_uthmani": "إِلَّا ٱلَّذِينَ صَبَرُوا۟ وَعَمِلُوا۟ ٱلصَّـٰلِحَـٰتِ أُو۟لَـٰٓئِكَ لَهُم مَّغْفِرَةٌ وَأَجْرٌ كَبِيرٌ",
            "page_number": 222,
            "juz_number": 12,
            "translations": [
                {
                    "id": 96359,
                    "resource_id": 20,
                    "text": "Except for those who are patient and do righteous deeds; those will have forgiveness and great reward."
                },
                {
                    "id": 220475,
                    "resource_id": 39,
                    "text": "Kecuali orang-orang yang sabar dan mengerjakan amal soleh maka mereka itu akan beroleh keampunan dan pahala yang besar."
                },
                {
                    "id": 1092461,
                    "resource_id": 161,
                    "text": "কিন্তু যারা ধৈর্যশীল ও নেক ‘আমালকারী তারা ওরকম নয়। আর এরাই হল যাদের জন্য আছে ক্ষমা ও বিরাট প্রতিদান।"
                }
            ]
        },
        {
            "id": 1485,
            "verse_number": 12,
            "verse_key": "11:12",
            "hizb_number": 23,
            "rub_el_hizb_number": 89,
            "ruku_number": 184,
            "manzil_number": 3,
            "sajdah_number": null,
            "text_uthmani": "فَلَعَلَّكَ تَارِكٌۢ بَعْضَ مَا يُوحَىٰٓ إِلَيْكَ وَضَآئِقٌۢ بِهِۦ صَدْرُكَ أَن يَقُولُوا۟ لَوْلَآ أُنزِلَ عَلَيْهِ كَنزٌ أَوْ جَآءَ مَعَهُۥ مَلَكٌ ۚ إِنَّمَآ أَنتَ نَذِيرٌ ۚ وَٱللَّهُ عَلَىٰ كُلِّ شَىْءٍ وَكِيلٌ",
            "page_number": 222,
            "juz_number": 12,
            "translations": [
                {
                    "id": 96371,
                    "resource_id": 20,
                    "text": "Then would you possibly leave [out] some of what is revealed to you,<sup foot_note=196469>1</sup> or is your breast constrained by it because they say, \"Why has there not been sent down to him a treasure or come with him an angel?\" But you are only a warner. And Allāh is Disposer of all things."
                },
                {
                    "id": 220325,
                    "resource_id": 39,
                    "text": "Jangan-jangan engkau (wahai Muhammad) tidak menyampaikan sebahagian dari apa yang diwahyukan kepadamu serta merasa sempit dada untuk menyampaikannya disebabkan orang-orang yang ingkar itu berkata: \"Mengapa tidak diturunkan kepada (Muhammad) perbendaharaan (harta benda yang banyak), ataupun datang bersama-sama dengannya malaikat (untuk menolongnya menyiarkan Islam)?\" Kerana sesungguhnya engkau hanyalah seorang Rasul pemberi amaran kepada orang-orang yang ingkar, dan Allah jualah Pentadbir yang menguruskan tiap-tiap sesuatu (maka berserahlah diri kepadaNya)."
                },
                {
                    "id": 1092462,
                    "resource_id": 161,
                    "text": "তুমি কি তোমার প্রতি যা ওয়াহী করা হয়েছে তার কিছু অংশ পরিত্যাগ করতে চাও আর তোমার মন সংকুচিত করতে চাও তাদের এ কথা বলার কারণে যে ‘‘তার কাছে ধনভান্ডার অবতীর্ণ হয় না কেন, কিংবা তার কাছে ফেরেশতা আসে না কেন?’’ তুমি তো কেবল ভয় প্রদর্শনকারী, যাবতীয় কাজ পরিচালনার দায়িত্ব আল্লাহর।"
                }
            ]
        },
        {
            "id": 1486,
            "verse_number": 13,
            "verse_key": "11:13",
            "hizb_number": 23,
            "rub_el_hizb_number": 89,
            "ruku_number": 184,
            "manzil_number": 3,
            "sajdah_number": null,
            "text_uthmani": "أَمْ يَقُولُونَ ٱفْتَرَىٰهُ ۖ قُلْ فَأْتُوا۟ بِعَشْرِ سُوَرٍ مِّثْلِهِۦ مُفْتَرَيَـٰتٍ وَٱدْعُوا۟ مَنِ ٱسْتَطَعْتُم مِّن دُونِ ٱللَّهِ إِن كُنتُمْ صَـٰدِقِينَ",
            "page_number": 223,
            "juz_number": 12,
            "translations": [
                {
                    "id": 96377,
                    "resource_id": 20,
                    "text": "Or do they say, \"He invented it\"? Say, \"Then bring ten sūrahs like it that have been invented and call upon [for assistance] whomever you can besides Allāh, if you should be truthful.\""
                },
                {
                    "id": 220329,
                    "resource_id": 39,
                    "text": "Bukan itu sahaja kata-kata mereka bahkan mereka menuduh dengan mengatakan: \"Ia (Muhammad) yang mereka-reka Al-Quran itu! \" katakanlah (wahai Muhammad): \"(Jika demikian tuduhan kamu), maka cubalah buat serta datangkan sepuluh surah rekaan yang sebanding dengan Al-Quran itu, dan panggilah siapa sahaja yang kamu sanggup memanggilnya, yang lain dari Allah, jika betul kamu orang-orang yang benar\"."
                },
                {
                    "id": 1092463,
                    "resource_id": 161,
                    "text": "তারা কি বলে ‘‘সে [অর্থাৎ মুহাম্মাদ (সা.)] ওটা রচনা করেছে? বল, ‘‘তাহলে তোমরা এর মত দশটি সূরাহ রচনা করে আন, আর (এ কাজে সাহায্য করার জন্য) আল্লাহকে বাদ দিয়ে যাকে ডাকতে পার ডেকে নাও যদি তোমরা সত্যবাদী হয়েই থাক ।"
                }
            ]
        },
        {
            "id": 1487,
            "verse_number": 14,
            "verse_key": "11:14",
            "hizb_number": 23,
            "rub_el_hizb_number": 89,
            "ruku_number": 184,
            "manzil_number": 3,
            "sajdah_number": null,
            "text_uthmani": "فَإِلَّمْ يَسْتَجِيبُوا۟ لَكُمْ فَٱعْلَمُوٓا۟ أَنَّمَآ أُنزِلَ بِعِلْمِ ٱللَّهِ وَأَن لَّآ إِلَـٰهَ إِلَّا هُوَ ۖ فَهَلْ أَنتُم مُّسْلِمُونَ",
            "page_number": 223,
            "juz_number": 12,
            "translations": [
                {
                    "id": 96380,
                    "resource_id": 20,
                    "text": "And if they do not respond to you - then know that it [i.e., the Qur’ān] was revealed with the knowledge of Allāh<sup foot_note=196471>1</sup> and that there is no deity except Him. Then,<sup foot_note=196470>2</sup> would you [not] be Muslims?"
                },
                {
                    "id": 220333,
                    "resource_id": 39,
                    "text": "Oleh itu, jika mereka (penolong-penolong kamu) tidak dapat melaksanakan permintaan kamu (untuk membuat surah-surah yang sebanding dengan Al-Quran), maka ketahuilah bahawa Al-Quran itu diturunkan hanyalah menurut pengetahuan Allah, dan bahawa tidak ada tuhan yang berhak disembah melainkan Allah. Setelah (terbukti hakikat yang demikian) maka adakah kamu mengakui Islam dan menurut aturannya?"
                },
                {
                    "id": 1092464,
                    "resource_id": 161,
                    "text": "তারা যদি তোমাদের ডাকে সাড়া না দেয় তাহলে জেনে নাও যে, আল্লাহর জ্ঞান অনুসারেই তা অবতীর্ণ হয়েছে। আরো জেনে রাখ যে, তিনি ছাড়া সত্যিকারের কোন ইলাহ নেই। তাহলে এখন কি তোমরা আত্মসমর্পণ করবে?"
                }
            ]
        },
        {
            "id": 1488,
            "verse_number": 15,
            "verse_key": "11:15",
            "hizb_number": 23,
            "rub_el_hizb_number": 89,
            "ruku_number": 184,
            "manzil_number": 3,
            "sajdah_number": null,
            "text_uthmani": "مَن كَانَ يُرِيدُ ٱلْحَيَوٰةَ ٱلدُّنْيَا وَزِينَتَهَا نُوَفِّ إِلَيْهِمْ أَعْمَـٰلَهُمْ فِيهَا وَهُمْ فِيهَا لَا يُبْخَسُونَ",
            "page_number": 223,
            "juz_number": 12,
            "translations": [
                {
                    "id": 96382,
                    "resource_id": 20,
                    "text": "Whoever desires the life of this world and its adornments - We fully repay them for their deeds therein,<sup foot_note=196472>1</sup> and they therein will not be deprived."
                },
                {
                    "id": 220437,
                    "resource_id": 39,
                    "text": "Sesiapa yang keadaan usahanya semata-mata berkehendakkan kehidupan dunia dan perhiasannya (dengan tidak disaksikan sama oleh Al-Quran tentang sah batalnya), maka Kami akan sempurnakan hasil usaha mereka di dunia, dan mereka tidak dikurangkan sedikitpun padanya."
                },
                {
                    "id": 1092465,
                    "resource_id": 161,
                    "text": "যারা এ দুনিয়ার জীবন আর তার শোভা সৌন্দর্য কামনা করে, তাদেরকে এখানে তাদের কর্মের পুরোপুরি ফল আমি দিয়ে দেই, আর তাতে তাদের প্রতি কোন কমতি করা হয় না।"
                }
            ]
        }
    ],
    "pagination": {
        "per_page": 10,
        "current_page": 1,
        "next_page": 2,
        "total_pages": 17,
        "total_records": 170
    }
}