{
    "verses": [
        {
            "id": 2030,
            "verse_number": 1,
            "verse_key": "17:1",
            "hizb_number": 29,
            "rub_el_hizb_number": 113,
            "ruku_number": 240,
            "manzil_number": 4,
            "sajdah_number": null,
            "text_uthmani": " سُبْحَـٰنَ ٱلَّذِىٓ أَسْرَىٰ بِعَبْدِهِۦ لَيْلًا مِّنَ ٱلْمَسْجِدِ ٱلْحَرَامِ إِلَى ٱلْمَسْجِدِ ٱلْأَقْصَا ٱلَّذِى بَـٰرَكْنَا حَوْلَهُۥ لِنُرِيَهُۥ مِنْ ءَايَـٰتِنَآ ۚ إِنَّهُۥ هُوَ ٱلسَّمِيعُ ٱلْبَصِيرُ",
            "page_number": 282,
            "juz_number": 15,
            "translations": [
                {
                    "id": 96933,
                    "resource_id": 20,
                    "text": "Exalted<sup foot_note=196638>1</sup> is He who took His Servant [i.e., Prophet Muḥammad (ﷺ)] by night from al-Masjid al-Ḥarām to al-Masjid al-Aqṣā,<sup foot_note=196637>2</sup> whose surroundings We have blessed, to show him of Our signs. Indeed, He is the Hearing,<sup foot_note=196636>3</sup> the Seeing.<sup foot_note=196635>4</sup>"
                },
                {
                    "id": 220901,
                    "resource_id": 39,
                    "text": "Maha Suci Allah yang telah menjalankan hambaNya (Muhammad) pada malam hari dari Masjid Al-Haraam (di Makkah) ke Masjid Al-Aqsa (di Palestin), yang Kami berkati sekelilingnya, untuk memperlihatkan kepadanya tanda-tanda (kekuasaan dan kebesaran) Kami. Sesungguhnya Allah jualah yang Maha Mendengar, lagi Maha Mengetahui."
                },
                {
                    "id": 1093007,
                    "resource_id": 161,
                    "text": "পবিত্র ও মহীয়ান তিনি যিনি তাঁর বান্দাহকে রাতের বেলা ভ্রমণ করিয়েছেন মাসজিদুল হারাম থেকে মাসজিদুল আকসা পর্যন্ত, যার চারপাশকে আমি কল্যাণময় করেছি। তাকে আমার নিদর্শনাবলী দেখানোর জন্য, তিনি সর্বশ্রোতা, সর্বদ্রষ্টা।"
                }
            ]
        },
        {
            "id": 2031,
            "verse_number": 2,
            "verse_key": "17:2",
            "hizb_number": 29,
            "rub_el_hizb_number": 113,
            "ruku_number": 240,
            "manzil_number": 4,
            "sajdah_number": null,
            "text_uthmani": "وَءَاتَيْنَا مُوسَى ٱلْكِتَـٰبَ وَجَعَلْنَـٰهُ هُدًى لِّبَنِىٓ إِسْرَٰٓءِيلَ أَلَّا تَتَّخِذُوا۟ مِن دُونِى وَكِيلًا",
            "page_number": 282,
            "juz_number": 15,
            "translations": [
                {
                    "id": 96956,
                    "resource_id": 20,
                    "text": "And We gave Moses the Scripture and made it a guidance for the Children of Israel that you not take other than Me as Disposer of affairs,<sup foot_note=196639>1</sup>"
                },
                {
                    "id": 216622,
                    "resource_id": 39,
                    "text": "Dan Kami telah memberikan Nabi Musa Kitab Taurat, dan Kami jadikan Kitab itu petunjuk bagi Bani Israil (serta Kami perintahkan mereka): \"Janganlah kamu jadikan yang lain daripadaKu sebagai Tuhan (untuk menyerahkan urusan kamu kepadanya)\"."
                },
                {
                    "id": 1093008,
                    "resource_id": 161,
                    "text": "আর আমি মূসাকে কিতাব দিয়েছিলাম আর সেটাকে করেছিলাম ইসরাঈল বংশীয়দের জন্য সত্যপথের নির্দেশক। (তাতে নির্দেশ দিয়েছিলাম) যে, আমাকে ছাড়া অন্যকে কর্ম নিয়ন্তা গ্রহণ করো না।"
                }
            ]
        },
        {
            "id": 2032,
            "verse_number": 3,
            "verse_key": "17:3",
            "hizb_number": 29,
            "rub_el_hizb_number": 113,
            "ruku_number": 240,
            "manzil_number": 4,
            "sajdah_number": null,
            "text_uthmani": "ذُرِّيَّةَ مَنْ حَمَلْنَا مَعَ نُوحٍ ۚ إِنَّهُۥ كَانَ عَبْدًا شَكُورًا",
            "page_number": 282,
            "juz_number": 15,
            "translations": [
                {
                    "id": 96967,
                    "resource_id": 20,
                    "text": "O descendants of those We carried [in the ship] with Noah. Indeed, he was a grateful servant."
                },
                {
                    "id": 214641,
                    "resource_id": 39,
                    "text": "(Wahai) keturunan orang-orang yang telah Kami bawa bersama-sama dengan Nabi Nuh (di dalam bahtera)! Sesungguhnya ia adalah seorang hamba yang bersyukur."
                },
                {
                    "id": 1093009,
                    "resource_id": 161,
                    "text": "(তোমরা তো) তাদের সন্তান! যাদেরকে আমি নূহের সঙ্গে নৌকায় বহন করেয়েছিলাম, সে ছিল এক শুকরগুজার বান্দা।"
                }
            ]
        },
        {
            "id": 2033,
            "verse_number": 4,
            "verse_key": "17:4",
            "hizb_number": 29,
            "rub_el_hizb_number": 113,
            "ruku_number": 240,
            "manzil_number": 4,
            "sajdah_number": null,
            "text_uthmani": "وَقَضَيْنَآ إِلَىٰ بَنِىٓ إِسْرَٰٓءِيلَ فِى ٱلْكِتَـٰبِ لَتُفْسِدُنَّ فِى ٱلْأَرْضِ مَرَّتَيْنِ وَلَتَعْلُنَّ عُلُوًّا كَبِيرًا",
            "page_number": 282,
            "juz_number": 15,
            "translations": [
                {
                    "id": 96978,
                    "resource_id": 20,
                    "text": "And We conveyed<sup foot_note=196640>1</sup> to the Children of Israel in the Scripture that, \"You will surely cause corruption on the earth twice, and you will surely reach [a degree of] great haughtiness.\""
                },
                {
                    "id": 214666,
                    "resource_id": 39,
                    "text": "Dan Kami menyatakan kepada Bani Israil dalam Kitab itu: \"Sesungguhnya kamu akan melakukan kerosakan di bumi (Palestin) dua kali, dan sesungguhnya kamu akan berlaku sombong angkuh dengan melampau."
                },
                {
                    "id": 1093010,
                    "resource_id": 161,
                    "text": "আমি কিতাবের মাধ্যমে বানী ইসরাঈলকে জানিয়ে দিয়েছিলাম যে, তোমরা অবশ্য অবশ্যই পৃথিবীর বুকে দু’ দু’বার বিপর্যয় সৃষ্টি করবে আর অবশ্য অবশ্যই অত্যধিক গর্বে ফুলে উঠবে।"
                }
            ]
        },
        {
            "id": 2034,
            "verse_number": 5,
            "verse_key": "17:5",
            "hizb_number": 29,
            "rub_el_hizb_number": 113,
            "ruku_number": 240,
            "manzil_number": 4,
            "sajdah_number": null,
            "text_uthmani": "فَإِذَا جَآءَ وَعْدُ أُولَىٰهُمَا بَعَثْنَا عَلَيْكُمْ عِبَادًا لَّنَآ أُو۟لِى بَأْسٍ شَدِيدٍ فَجَاسُوا۟ خِلَـٰلَ ٱلدِّيَارِ ۚ وَكَانَ وَعْدًا مَّفْعُولًا",
            "page_number": 282,
            "juz_number": 15,
            "translations": [
                {
                    "id": 96989,
                    "resource_id": 20,
                    "text": "So when the [time of] promise came for the first of them,<sup foot_note=196642>1</sup> We sent against you servants of Ours - those of great military might, and they probed [even] into the homes,<sup foot_note=196641>2</sup> and it was a promise fulfilled."
                },
                {
                    "id": 214686,
                    "resource_id": 39,
                    "text": "Maka apabila sampai masa janji (membalas kederhakaan kamu) kali yang pertama dari dua (kederhakaan) itu, Kami datangkan kepada kamu hamba-hamba Kami yang kuat gagah dan amat ganas serangannya lalu mereka menjelajah di segala ceruk rantau (membunuh dan membinasakan kamu); dan (sebenarnya peristiwa itu) adalah satu janji yang tetap berlaku."
                },
                {
                    "id": 1093011,
                    "resource_id": 161,
                    "text": "অতঃপর যখন দু’টির মধ্যে প্রথমটির সময় এসে উপস্থিত হল, তখন আমি তোমাদের বিরুদ্ধে পাঠিয়ে দিলাম আমার বান্দাদেরকে যারা ছিল যুদ্ধে অতি শক্তিশালী, তারা (তোমাদের) ঘরের কোণায় কোণায় ঢুকে পড়ল, আর সতর্কবাণী পূর্ণ হল।"
                }
            ]
        },
        {
            "id": 2035,
            "verse_number": 6,
            "verse_key": "17:6",
            "hizb_number": 29,
            "rub_el_hizb_number": 113,
            "ruku_number": 240,
            "manzil_number": 4,
            "sajdah_number": null,
            "text_uthmani": "ثُمَّ رَدَدْنَا لَكُمُ ٱلْكَرَّةَ عَلَيْهِمْ وَأَمْدَدْنَـٰكُم بِأَمْوَٰلٍ وَبَنِينَ وَجَعَلْنَـٰكُمْ أَكْثَرَ نَفِيرًا",
            "page_number": 282,
            "juz_number": 15,
            "translations": [
                {
                    "id": 97000,
                    "resource_id": 20,
                    "text": "Then We gave back to you a return victory over them. And We reinforced you with wealth and sons and made you more numerous in manpower."
                },
                {
                    "id": 214712,
                    "resource_id": 39,
                    "text": "Kemudian (setelah kamu bertaubat), Kami kembalikan kepada kamu kekuasaan untuk mengalahkan mereka, dan Kami beri kepada kamu dengan banyaknya harta kekayaan dan anak pinak, serta Kami jadikan kamu kaum yang lebih ramai pasukannya."
                },
                {
                    "id": 1093012,
                    "resource_id": 161,
                    "text": "অতঃপর আমি তোমাদেরকে তাদের উপর বিজয় দান করলাম আর তোমাদেরকে ধন-সম্পদ আর সন্তানাদি দিয়ে সাহায্য করলাম, তোমাদেরকে জনবলে বহুগুণ বাড়িয়ে দিলাম।"
                }
            ]
        },
        {
            "id": 2036,
            "verse_number": 7,
            "verse_key": "17:7",
            "hizb_number": 29,
            "rub_el_hizb_number": 113,
            "ruku_number": 240,
            "manzil_number": 4,
            "sajdah_number": null,
            "text_uthmani": "إِنْ أَحْسَنتُمْ أَحْسَنتُمْ لِأَنفُسِكُمْ ۖ وَإِنْ أَسَأْتُمْ فَلَهَا ۚ فَإِذَا جَآءَ وَعْدُ ٱلْـَٔاخِرَةِ لِيَسُـۥٓـُٔوا۟ وُجُوهَكُمْ وَلِيَدْخُلُوا۟ ٱلْمَسْجِدَ كَمَا دَخَلُوهُ أَوَّلَ مَرَّةٍ وَلِيُتَبِّرُوا۟ مَا عَلَوْا۟ تَتْبِيرًا",
            "page_number": 282,
            "juz_number": 15,
            "translations": [
                {
                    "id": 97011,
                    "resource_id": 20,
                    "text": "[And said], \"If you do good, you do good for yourselves; and if you do evil, [you do it] to them [i.e., yourselves].\" Then when the final [i.e., second] promise came, [We sent your enemies] to sadden your faces and to enter the masjid [i.e., the temple in Jerusalem], as they entered it the first time, and to destroy what they had taken over with [total] destruction."
                },
                {
                    "id": 214732,
                    "resource_id": 39,
                    "text": "Jika kamu berbuat kebaikan, (maka faedah) kebaikan yang kamu lakukan adalah untuk diri kamu; dan jika kamu berbuat kejahatan, maka (kesannya yang buruk) berbalik kepada diri kamu juga. Oleh itu, apabila sampai masa janji (membalas perbuatan derhaka kamu) kali kedua, (Kami datangkan musuh-musuh kamu) untuk memuramkan muka kamu (dengan penghinaan dan keganasannya); dan untuk memasuki masjid (BaitulMaqdis) sebagaimana mereka telah memasukinya pada kali yang pertama; dan untuk menghancurkan apa sahaja yang mereka telah kuasai, dengan sehancur-hancurnya."
                },
                {
                    "id": 1093013,
                    "resource_id": 161,
                    "text": "তোমরা ভাল কাজ করলে নিজেদের কল্যাণের জন্যই তা করবে, আর যদি তোমরা মন্দ কাজ কর, তাও করবে নিজেদেরই জন্য। অতঃপর যখন দ্বিতীয় প্রতিশ্রুতি পূরণের সময় আসলো, (তখন আমি তোমাদের শত্রুদেরকে শক্তি দিলাম) যেন তারা তোমাদের চেহারা বিকৃত করে দেয়, আর মাসজিদে (আকসায়) ঢুকে পড়ে যেভাবে তারা সেখানে প্রথমবার ঢুকে পড়েছিল, আর তাদের সম্মুখে যা পড়ে তাকে সম্পূর্ণরূপে ধ্বংস করে দেয়।"
                }
            ]
        },
        {
            "id": 2037,
            "verse_number": 8,
            "verse_key": "17:8",
            "hizb_number": 29,
            "rub_el_hizb_number": 113,
            "ruku_number": 240,
            "manzil_number": 4,
            "sajdah_number": null,
            "text_uthmani": "عَسَىٰ رَبُّكُمْ أَن يَرْحَمَكُمْ ۚ وَإِنْ عُدتُّمْ عُدْنَا ۘ وَجَعَلْنَا جَهَنَّمَ لِلْكَـٰفِرِينَ حَصِيرًا",
            "page_number": 283,
            "juz_number": 15,
            "translations": [
                {
                    "id": 97022,
                    "resource_id": 20,
                    "text": "[Then Allāh said], \"It is expected, [if you repent], that your Lord will have mercy upon you. But if you return [to sin], We will return [to punishment]. And We have made Hell, for the disbelievers, a prison-bed.\""
                },
                {
                    "id": 214752,
                    "resource_id": 39,
                    "text": "Mudah-mudahan Tuhan kamu akan mengasihani kamu (kalau kamu bertaubat); dan jika kamu kembali (menderhaka), maka Kami pula akan kembali (menyeksa kamu di dunia); dan kami telah jadikan neraka: penjara bagi orang-orang kafir (pada hari akhirat)."
                },
                {
                    "id": 1093014,
                    "resource_id": 161,
                    "text": "(এরপরও) হয়তো তোমাদের প্রতিপালক তোমাদের প্রতি দয়া করবেন, কিন্তু যদি তোমরা (তোমাদের পূর্বকৃত পাপের) পুনরাবৃত্তি কর, তবে আমিও (পূর্বে দেয়া শাস্তির) পুনরাবৃত্তি করব। ঈমান প্রত্যাখ্যানকারীদের জন্য আমি জাহান্নামকে কারাগার বানিয়ে রেখেছি।"
                }
            ]
        },
        {
            "id": 2038,
            "verse_number": 9,
            "verse_key": "17:9",
            "hizb_number": 29,
            "rub_el_hizb_number": 113,
            "ruku_number": 240,
            "manzil_number": 4,
            "sajdah_number": null,
            "text_uthmani": "إِنَّ هَـٰذَا ٱلْقُرْءَانَ يَهْدِى لِلَّتِى هِىَ أَقْوَمُ وَيُبَشِّرُ ٱلْمُؤْمِنِينَ ٱلَّذِينَ يَعْمَلُونَ ٱلصَّـٰلِحَـٰتِ أَنَّ لَهُمْ أَجْرًا كَبِيرًا",
            "page_number": 283,
            "juz_number": 15,
            "translations": [
                {
                    "id": 97033,
                    "resource_id": 20,
                    "text": "Indeed, this Qur’ān guides to that which is most suitable and gives good tidings to the believers who do righteous deeds that they will have a great reward"
                },
                {
                    "id": 214780,
                    "resource_id": 39,
                    "text": "Sesungguhnya Al-Quran ini memberi petunjuk ke jalan yang amat betul (ugama Islam), dan memberikan berita yang mengembirakan orang-orang yang beriman yang mengerjakan amal-amal soleh, bahawa mereka beroleh pahala yang besar."
                },
                {
                    "id": 1093015,
                    "resource_id": 161,
                    "text": "নিশ্চয়ই এ কুরআন সেই পথ দেখায় যা সোজা ও সুপ্রতিষ্ঠিত, আর যারা সৎ কাজ করে সেই মু’মিনদেরকে সুসংবাদ দেয় যে, তাদের জন্য রয়েছে মহা পুরস্কার।"
                }
            ]
        },
        {
            "id": 2039,
            "verse_number": 10,
            "verse_key": "17:10",
            "hizb_number": 29,
            "rub_el_hizb_number": 113,
            "ruku_number": 240,
            "manzil_number": 4,
            "sajdah_number": null,
            "text_uthmani": "وَأَنَّ ٱلَّذِينَ لَا يُؤْمِنُونَ بِٱلْـَٔاخِرَةِ أَعْتَدْنَا لَهُمْ عَذَابًا أَلِيمًا",
            "page_number": 283,
            "juz_number": 15,
            "translations": [
                {
                    "id": 96934,
                    "resource_id": 20,
                    "text": "And that those who do not believe in the Hereafter - We have prepared for them a painful punishment."
                },
                {
                    "id": 220910,
                    "resource_id": 39,
                    "text": "Dan bahawa orang-orang yang tidak beriman kepada hari akhirat, Kami sediakan bagi mereka azab seksa yang tidak terperi sakitnya."
                },
                {
                    "id": 1093016,
                    "resource_id": 161,
                    "text": "আর (তা সংবাদ দেয় যে) যারা আখেরাতে ঈমান আনে না, তাদের জন্য আমি ভয়ঙ্কর ‘আযাব প্রস্তুত করে রেখেছি।"
                }
            ]
        }
    ],
    "pagination": {
        "per_page": 10,
        "current_page": 1,
        "next_page": 2,
        "total_pages": 19,
        "total_records": 185
    }
}