{
    "verses": [
        {
            "id": 2215,
            "verse_number": 75,
            "verse_key": "18:75",
            "hizb_number": 31,
            "rub_el_hizb_number": 121,
            "ruku_number": 261,
            "manzil_number": 4,
            "sajdah_number": null,
            "text_uthmani": "۞ قَالَ أَلَمْ أَقُل لَّكَ إِنَّكَ لَن تَسْتَطِيعَ مَعِىَ صَبْرًا",
            "page_number": 302,
            "juz_number": 16,
            "translations": [
                {
                    "id": 97129,
                    "resource_id": 20,
                    "text": "[Al-Khiḍr] said, \"Did I not tell you that with me you would never be able to have patience?\""
                },
                {
                    "id": 214978,
                    "resource_id": 39,
                    "text": "Ia menjawab: \"Bukankah, aku telah katakan kepadamu, bahawa engkau tidak sekali-kali akan dapat bersabar bersamaku?\""
                },
                {
                    "id": 1093192,
                    "resource_id": 161,
                    "text": "সে বলল, ‘আমি কি আপনাকে বলিনি যে, আপনি আমার সঙ্গে কক্ষনো ধৈর্য ধরতে পারবেন না?’"
                }
            ]
        },
        {
            "id": 2216,
            "verse_number": 76,
            "verse_key": "18:76",
            "hizb_number": 31,
            "rub_el_hizb_number": 121,
            "ruku_number": 261,
            "manzil_number": 4,
            "sajdah_number": null,
            "text_uthmani": "قَالَ إِن سَأَلْتُكَ عَن شَىْءٍۭ بَعْدَهَا فَلَا تُصَـٰحِبْنِى ۖ قَدْ بَلَغْتَ مِن لَّدُنِّى عُذْرًا",
            "page_number": 302,
            "juz_number": 16,
            "translations": [
                {
                    "id": 97130,
                    "resource_id": 20,
                    "text": "[Moses] said, \"If I should ask you about anything after this, then do not keep me as a companion. You have obtained from me an excuse.\""
                },
                {
                    "id": 214976,
                    "resource_id": 39,
                    "text": "Nabi Musa berkata: \"Jika aku bertanya kepadamu tentang sebarang perkara sesudah ini, maka janganlah engkau jadikan daku sahabatmu lagi; sesungguhnya engkau telah cukup mendapat alasan-alasan berbuat demikian disebabkan pertanyaan-pertanyaan dan bantahanku\"."
                },
                {
                    "id": 1093193,
                    "resource_id": 161,
                    "text": "মূসা বলল, ‘এরপর আমি যদি কোন বিষয়ে আপনাকে জিজ্ঞেস করি, তাহলে আপনি আর আমাকে সঙ্গে রাখবেন না, ওযর অন্যায় আমার পক্ষ থেকেই ঘটেছে।’"
                }
            ]
        },
        {
            "id": 2217,
            "verse_number": 77,
            "verse_key": "18:77",
            "hizb_number": 31,
            "rub_el_hizb_number": 121,
            "ruku_number": 261,
            "manzil_number": 4,
            "sajdah_number": null,
            "text_uthmani": "فَٱنطَلَقَا حَتَّىٰٓ إِذَآ أَتَيَآ أَهْلَ قَرْيَةٍ ٱسْتَطْعَمَآ أَهْلَهَا فَأَبَوْا۟ أَن يُضَيِّفُوهُمَا فَوَجَدَا فِيهَا جِدَارًا يُرِيدُ أَن يَنقَضَّ فَأَقَامَهُۥ ۖ قَالَ لَوْ شِئْتَ لَتَّخَذْتَ عَلَيْهِ أَجْرًا",
            "page_number": 302,
            "juz_number": 16,
            "translations": [
                {
                    "id": 97131,
                    "resource_id": 20,
                    "text": "So they set out, until when they came to the people of a town, they asked its people for food, but they refused to offer them hospitality. And they found therein a wall about to collapse, so he [i.e., al-Khiḍr] restored it. [Moses] said, \"If you wished, you could have taken for it a payment.\""
                },
                {
                    "id": 214980,
                    "resource_id": 39,
                    "text": "Kemudian keduanya berjalan lagi, sehingga apabila mereka sampai kepada penduduk sebuah bandar, mereka meminta makan kepada orang-orang di situ, lalu orang-orang itu enggan menjamu mereka. Kemudian mereka dapati di situ sebuah tembok yang hendak runtuh, lalu ia membinanya. Nabi Musa berkata: \"Jika engkau mahu, tentulah engkau berhak mengambil upah mengenainya!\""
                },
                {
                    "id": 1093194,
                    "resource_id": 161,
                    "text": "তারপর তারা উভয়ে চলতে লাগল, চলতে চলতে তারা এক জনপদে পৌঁছে সেখানকার লোকেদের কাছে খাবার চাইল। কিন্তু তারা তাদের দু’জনকে আতিথ্য প্রদান করতে অস্বীকার করল। তারা দু’জন সেখানে একটা দেয়াল দেখতে পেল যা পড়ে যাবার উপক্রম হয়েছিল। তখন সে ব্যক্তি সেটিকে সুপ্রতিষ্ঠিত করে দিল। মূসা বলল, ‘আপনি ইচ্ছে করলে এর জন্য পারিশ্রমিক নিতে পারতেন।’"
                }
            ]
        },
        {
            "id": 2218,
            "verse_number": 78,
            "verse_key": "18:78",
            "hizb_number": 31,
            "rub_el_hizb_number": 121,
            "ruku_number": 261,
            "manzil_number": 4,
            "sajdah_number": null,
            "text_uthmani": "قَالَ هَـٰذَا فِرَاقُ بَيْنِى وَبَيْنِكَ ۚ سَأُنَبِّئُكَ بِتَأْوِيلِ مَا لَمْ تَسْتَطِع عَّلَيْهِ صَبْرًا",
            "page_number": 302,
            "juz_number": 16,
            "translations": [
                {
                    "id": 97132,
                    "resource_id": 20,
                    "text": "[Al-Khiḍr] said, \"This is parting between me and you. I will inform you of the interpretation of that about which you could not have patience."
                },
                {
                    "id": 214982,
                    "resource_id": 39,
                    "text": "Ia menjawab: \"Inilah masanya perpisahan antaraku denganmu, aku akan terangkan kepadamu maksud (kejadian-kejadian yang dimusykilkan) yang engkau tidak dapat bersabar mengenainya."
                },
                {
                    "id": 1093195,
                    "resource_id": 161,
                    "text": "লোকটি বলল, ‘এখানেই আপনার সাথে আমার সম্পর্কের বিচ্ছেদ ঘটল। এখন আমি আপনাকে ব্যাখ্যা জানিয়ে দেব যে বিষয়ে আপনি ধৈর্য ধরতে পারেননি।"
                }
            ]
        },
        {
            "id": 2219,
            "verse_number": 79,
            "verse_key": "18:79",
            "hizb_number": 31,
            "rub_el_hizb_number": 121,
            "ruku_number": 261,
            "manzil_number": 4,
            "sajdah_number": null,
            "text_uthmani": "أَمَّا ٱلسَّفِينَةُ فَكَانَتْ لِمَسَـٰكِينَ يَعْمَلُونَ فِى ٱلْبَحْرِ فَأَرَدتُّ أَنْ أَعِيبَهَا وَكَانَ وَرَآءَهُم مَّلِكٌ يَأْخُذُ كُلَّ سَفِينَةٍ غَصْبًا",
            "page_number": 302,
            "juz_number": 16,
            "translations": [
                {
                    "id": 97133,
                    "resource_id": 20,
                    "text": "As for the ship, it belonged to poor people working at sea. So I intended to cause defect in it as there was after them a king who seized every [good] ship by force."
                },
                {
                    "id": 214984,
                    "resource_id": 39,
                    "text": "Adapun perahu itu adalah ia dipunyai oleh orang-orang miskin yang bekerja di laut; oleh itu, aku bocorkan dengan tujuan hendak mencacatkannya, kerana di belakang mereka nanti ada seorang raja yang merampas tiap-tiap sebuah perahu yang tidak cacat."
                },
                {
                    "id": 1093196,
                    "resource_id": 161,
                    "text": "নৌকাটির ব্যাপার হল- তা ছিল কয়েকজন গরীব লোকের, তারা সমুদ্রে জীবিকার জন্য শ্রম করত। আমি সেটাকে খুঁতযুক্ত করতে চাইলাম, কারণ তাদের পশ্চাতে ছিল এক রাজা, সে জোরপূর্বক সব নৌকা কেড়ে নিত।"
                }
            ]
        },
        {
            "id": 2220,
            "verse_number": 80,
            "verse_key": "18:80",
            "hizb_number": 31,
            "rub_el_hizb_number": 121,
            "ruku_number": 261,
            "manzil_number": 4,
            "sajdah_number": null,
            "text_uthmani": "وَأَمَّا ٱلْغُلَـٰمُ فَكَانَ أَبَوَاهُ مُؤْمِنَيْنِ فَخَشِينَآ أَن يُرْهِقَهُمَا طُغْيَـٰنًا وَكُفْرًا",
            "page_number": 302,
            "juz_number": 16,
            "translations": [
                {
                    "id": 97135,
                    "resource_id": 20,
                    "text": "And as for the boy, his parents were believers, and we feared that he would overburden them by transgression and disbelief."
                },
                {
                    "id": 214986,
                    "resource_id": 39,
                    "text": "Adapun pemuda itu, kedua ibu bapanya adalah orang-orang yang beriman, maka kami bimbang bahawa ia akan mendesak mereka melakukan perbuatan yang zalim dan kufur."
                },
                {
                    "id": 1093197,
                    "resource_id": 161,
                    "text": "আর বালকটির ব্যাপার হল- তার মাতা-পিতা ছিল মু’মিন। আমরা শঙ্কা করলাম যে, সে তার বিদ্রোহমূলক আচরণ ও (আল্লাহর প্রতি) কুফুরী দ্বারা তাদেরকে কষ্ট দেবে।"
                }
            ]
        },
        {
            "id": 2221,
            "verse_number": 81,
            "verse_key": "18:81",
            "hizb_number": 31,
            "rub_el_hizb_number": 121,
            "ruku_number": 261,
            "manzil_number": 4,
            "sajdah_number": null,
            "text_uthmani": "فَأَرَدْنَآ أَن يُبْدِلَهُمَا رَبُّهُمَا خَيْرًا مِّنْهُ زَكَوٰةً وَأَقْرَبَ رُحْمًا",
            "page_number": 302,
            "juz_number": 16,
            "translations": [
                {
                    "id": 97136,
                    "resource_id": 20,
                    "text": "So we intended that their Lord should substitute for them one better than him in purity and nearer to mercy."
                },
                {
                    "id": 214990,
                    "resource_id": 39,
                    "text": "Oleh itu, kami ingin dan berharap, supaya Tuhan mereka gantikan bagi mereka anak yang lebih baik daripadanya tentang kebersihan jiwa, dan lebih mesra kasih sayangnya."
                },
                {
                    "id": 1093198,
                    "resource_id": 161,
                    "text": "এ কারণে আমরা চাইলাম যে, তাদের প্রতিপালক তাদেরকে তার পরিবর্তে অধিক পবিত্র ও দয়া-মায়ায় অধিক ঘনিষ্ঠ (সন্তান) দান করবেন।"
                }
            ]
        },
        {
            "id": 2222,
            "verse_number": 82,
            "verse_key": "18:82",
            "hizb_number": 31,
            "rub_el_hizb_number": 121,
            "ruku_number": 261,
            "manzil_number": 4,
            "sajdah_number": null,
            "text_uthmani": "وَأَمَّا ٱلْجِدَارُ فَكَانَ لِغُلَـٰمَيْنِ يَتِيمَيْنِ فِى ٱلْمَدِينَةِ وَكَانَ تَحْتَهُۥ كَنزٌ لَّهُمَا وَكَانَ أَبُوهُمَا صَـٰلِحًا فَأَرَادَ رَبُّكَ أَن يَبْلُغَآ أَشُدَّهُمَا وَيَسْتَخْرِجَا كَنزَهُمَا رَحْمَةً مِّن رَّبِّكَ ۚ وَمَا فَعَلْتُهُۥ عَنْ أَمْرِى ۚ ذَٰلِكَ تَأْوِيلُ مَا لَمْ تَسْطِع عَّلَيْهِ صَبْرًا",
            "page_number": 302,
            "juz_number": 16,
            "translations": [
                {
                    "id": 97137,
                    "resource_id": 20,
                    "text": "And as for the wall, it belonged to two orphan boys in the city, and there was beneath it a treasure for them, and their father had been righteous. So your Lord intended that they reach maturity and extract their treasure, as a mercy from your Lord. And I did it not of my own accord. That is the interpretation of that about which you could not have patience.\""
                },
                {
                    "id": 214988,
                    "resource_id": 39,
                    "text": "Adapun tembok itu pula, adalah ia dipunyai oleh dua orang anak yatim di bandar itu; dan di bawahnya ada \"harta terpendam\" kepuyaan mereka; dan bapa mereka pula adalah orang yang soleh. Maka Tuhanmu menghendaki supaya mereka cukup umur dan dapat mengeluarkan harta mereka yang terpendam itu, sebagai satu rahmat dari Tuhanmu (kepada mereka). Dan (ingatlah) aku tidak melakukannya menurut fikiranku sendiri. Demikianlah penjelasan tentang maksud dan tujuan perkara-perkara yang engkau tidak dapat bersabar mengenainya\"."
                },
                {
                    "id": 1093199,
                    "resource_id": 161,
                    "text": "আর ঐ দেয়ালটির বিষয় হল- তা ছিল ঐ শহরের দু’জন ইয়াতীম বালকের। তার নীচে ছিল তাদের জন্য রক্ষিত ধন, তাদের পিতা ছিল এক সৎ ব্যক্তি। তাই তোমার প্রতিপালক চাইলেন তারা দু’জন যৌবনে উপনীত হোক আর তাদের গচ্ছিত ধন বের করে নিক- যা হল তোমার প্রতিপালকের রহমত বিশেষ। এ সব আমি নিজের পক্ষ থেকে করিনি। এ হল সে বিষয়ের ব্যাখ্যা যে সম্পর্কে আপনি ধৈর্য ধারণ করতে পারেননি।’"
                }
            ]
        },
        {
            "id": 2223,
            "verse_number": 83,
            "verse_key": "18:83",
            "hizb_number": 31,
            "rub_el_hizb_number": 121,
            "ruku_number": 262,
            "manzil_number": 4,
            "sajdah_number": null,
            "text_uthmani": "وَيَسْـَٔلُونَكَ عَن ذِى ٱلْقَرْنَيْنِ ۖ قُلْ سَأَتْلُوا۟ عَلَيْكُم مِّنْهُ ذِكْرًا",
            "page_number": 302,
            "juz_number": 16,
            "translations": [
                {
                    "id": 97138,
                    "resource_id": 20,
                    "text": "And they ask you, [O Muḥammad], about Dhul-Qarnayn. Say, \"I will recite to you about him a report.\""
                },
                {
                    "id": 214996,
                    "resource_id": 39,
                    "text": "Dan mereka bertanya kepadamu (wahai Muhammad), mengenai Zulkarnain. Katakanlah: \"Aku akan bacakan kepada kamu (wahyu dari Allah yang menerangkan) sedikit tentang perihalnya\":"
                },
                {
                    "id": 1093200,
                    "resource_id": 161,
                    "text": "তোমাকে তারা যুলকারনাইন সম্পর্কে জিজ্ঞেস করছে। বল, ‘আমি তার বিষয় তোমাদের নিকট কিছু বর্ণনা করব।’"
                }
            ]
        },
        {
            "id": 2224,
            "verse_number": 84,
            "verse_key": "18:84",
            "hizb_number": 31,
            "rub_el_hizb_number": 121,
            "ruku_number": 262,
            "manzil_number": 4,
            "sajdah_number": null,
            "text_uthmani": "إِنَّا مَكَّنَّا لَهُۥ فِى ٱلْأَرْضِ وَءَاتَيْنَـٰهُ مِن كُلِّ شَىْءٍ سَبَبًا",
            "page_number": 303,
            "juz_number": 16,
            "translations": [
                {
                    "id": 97139,
                    "resource_id": 20,
                    "text": "Indeed, We established him upon the earth, and We gave him from everything a way [i.e., means]."
                },
                {
                    "id": 214992,
                    "resource_id": 39,
                    "text": "Sesungguhnya Kami telah memberikan kepadanya kekuasaan memerintah di bumi, dan Kami beri kepadanya jalan bagi menjayakan tiap-tiap sesuatu yang diperlukannya."
                },
                {
                    "id": 1093201,
                    "resource_id": 161,
                    "text": "আমি তাকে পৃথিবীতে আধিপত্য দান করেছিলাম আর তাকে সব রকমের উপায় উপাদান দিয়েছিলাম।"
                }
            ]
        }
    ],
    "pagination": {
        "per_page": 10,
        "current_page": 1,
        "next_page": 2,
        "total_pages": 27,
        "total_records": 269
    }
}