{
    "verses": [
        {
            "id": 149,
            "verse_number": 142,
            "verse_key": "2:142",
            "hizb_number": 3,
            "rub_el_hizb_number": 9,
            "ruku_number": 18,
            "manzil_number": 1,
            "sajdah_number": null,
            "text_uthmani": "۞ سَيَقُولُ ٱلسُّفَهَآءُ مِنَ ٱلنَّاسِ مَا وَلَّىٰهُمْ عَن قِبْلَتِهِمُ ٱلَّتِى كَانُوا۟ عَلَيْهَا ۚ قُل لِّلَّهِ ٱلْمَشْرِقُ وَٱلْمَغْرِبُ ۚ يَهْدِى مَن يَشَآءُ إِلَىٰ صِرَٰطٍ مُّسْتَقِيمٍ",
            "page_number": 22,
            "juz_number": 2,
            "translations": [
                {
                    "id": 97485,
                    "resource_id": 20,
                    "text": "The foolish among the people will say, \"What has turned them away from their qiblah,<sup foot_note=195979>1</sup> which they used to face?\"<sup foot_note=195978>2</sup> Say, \"To Allāh belongs the east and the west. He guides whom He wills to a straight path.\""
                },
                {
                    "id": 215360,
                    "resource_id": 39,
                    "text": "Orang-orang bodoh (yang kurang akal pertimbangannya) akan berkata: \"Apa sebabnya yang menjadikan orang-orang Islam berpaling dari kiblat yang mereka mengadapnya selama ini?\" Katakanlah (wahai Muhammad): \"Timur dan barat adalah kepunyaan Allah - (maka ke pihak mana sahaja kita diarahkan Allah mengadapnya, wajiblah kita mematuhiNya); Allah yang memberikan petunjuk hidayahNya kepada sesiapa yang dikehendakiNya ke jalan yang lurus\"."
                },
                {
                    "id": 1091126,
                    "resource_id": 161,
                    "text": "শীঘ্রই এ নির্বোধেরা বলবে, কিসে তাদেরকে ফিরিয়ে দিল তাদের সেই ক্বিবলা হতে যা তারা অনুসরণ করে আসছিল। বল, পূর্ব এবং পশ্চিম আল্লাহরই, তিনি যাকে ইচ্ছে সরল পথ প্রদর্শন করেন।"
                }
            ]
        },
        {
            "id": 150,
            "verse_number": 143,
            "verse_key": "2:143",
            "hizb_number": 3,
            "rub_el_hizb_number": 9,
            "ruku_number": 18,
            "manzil_number": 1,
            "sajdah_number": null,
            "text_uthmani": "وَكَذَٰلِكَ جَعَلْنَـٰكُمْ أُمَّةً وَسَطًا لِّتَكُونُوا۟ شُهَدَآءَ عَلَى ٱلنَّاسِ وَيَكُونَ ٱلرَّسُولُ عَلَيْكُمْ شَهِيدًا ۗ وَمَا جَعَلْنَا ٱلْقِبْلَةَ ٱلَّتِى كُنتَ عَلَيْهَآ إِلَّا لِنَعْلَمَ مَن يَتَّبِعُ ٱلرَّسُولَ مِمَّن يَنقَلِبُ عَلَىٰ عَقِبَيْهِ ۚ وَإِن كَانَتْ لَكَبِيرَةً إِلَّا عَلَى ٱلَّذِينَ هَدَى ٱللَّهُ ۗ وَمَا كَانَ ٱللَّهُ لِيُضِيعَ إِيمَـٰنَكُمْ ۚ إِنَّ ٱللَّهَ بِٱلنَّاسِ لَرَءُوفٌ رَّحِيمٌ",
            "page_number": 22,
            "juz_number": 2,
            "translations": [
                {
                    "id": 97487,
                    "resource_id": 20,
                    "text": "And thus We have made you a median [i.e., just] community that you will be witnesses over the people and the Messenger will be a witness over you. And We did not make the qiblah which you used to face except that We might make evident who would follow the Messenger from who would turn back on his heels.<sup foot_note=195980>1</sup> And indeed, it is difficult except for those whom Allāh has guided. And never would Allāh have caused you to lose your faith [i.e., your previous prayers]. Indeed Allāh is, to the people, Kind and Merciful."
                },
                {
                    "id": 215362,
                    "resource_id": 39,
                    "text": "Dan demikianlah (sebagaimana Kami telah memimpin kamu ke jalan yang lurus), Kami jadikan kamu (wahai umat Muhammad) satu umat yang pilihan lagi adil, supaya kamu layak menjadi orang yang memberi keterangan kepada umat manusia (tentang yang benar dan yang salah) dan Rasulullah (Muhammad) pula akan menjadi orang yang menerangkan kebenaran perbuatan kamu. (Sebenarnya kiblat kamu ialah Kaabah) dan tiadalah Kami jadikan kiblat yang engkau mengadapnya dahulu itu (wahai Muhammad), melainkan untuk menjadi ujian bagi melahirkan pengetahuan Kami tentang siapakah yang benar-benar mengikut Rasul serta membenarkannya dan siapa pula yang berpaling tadah (berbalik kepada kekufurannya) dan sesungguhnya (soal peralihan arah kiblat) itu adalah amat berat (untuk diterima) kecuali kepada orang-orang yang telah diberikan Allah petunjuk hidayah dan Allah tidak akan menghilangkan (bukti) iman kamu. Sesungguhnya Allah Amat melimpah belas kasihan dan rahmatNya kepada orang-orang (yang beriman)."
                },
                {
                    "id": 1091127,
                    "resource_id": 161,
                    "text": "আর এভাবে আমি তোমাদেরকে মধ্যপন্থী উম্মাত করেছি, যাতে তোমরা লোকেদের উপর সাক্ষী হও এবং নাবী তোমাদের উপর সাক্ষী হয়। আর তুমি এ যাবৎ যে ক্বিবলার উপর ছিলে, তাকে এ উদ্দেশ্যে ক্বিবলা করেছিলাম, যাতে আমি জানতে পারি কে রসূলের অনুসরণ করে আর কে পায়ের ভরে উল্টো দিকে ফিরে যায়। আল্লাহ যাদেরকে হিদায়াত দিয়েছেন তারা বাদে অন্যের নিকট এটা বড়ই কষ্টকর ছিল। আর আল্লাহ তোমাদের ঈমান বিনষ্ট করবেন না, নিশ্চয়ই আল্লাহ মানুষের প্রতি করুণাশীল, অতি দয়ালু।"
                }
            ]
        },
        {
            "id": 151,
            "verse_number": 144,
            "verse_key": "2:144",
            "hizb_number": 3,
            "rub_el_hizb_number": 9,
            "ruku_number": 18,
            "manzil_number": 1,
            "sajdah_number": null,
            "text_uthmani": "قَدْ نَرَىٰ تَقَلُّبَ وَجْهِكَ فِى ٱلسَّمَآءِ ۖ فَلَنُوَلِّيَنَّكَ قِبْلَةً تَرْضَىٰهَا ۚ فَوَلِّ وَجْهَكَ شَطْرَ ٱلْمَسْجِدِ ٱلْحَرَامِ ۚ وَحَيْثُ مَا كُنتُمْ فَوَلُّوا۟ وُجُوهَكُمْ شَطْرَهُۥ ۗ وَإِنَّ ٱلَّذِينَ أُوتُوا۟ ٱلْكِتَـٰبَ لَيَعْلَمُونَ أَنَّهُ ٱلْحَقُّ مِن رَّبِّهِمْ ۗ وَمَا ٱللَّهُ بِغَـٰفِلٍ عَمَّا يَعْمَلُونَ",
            "page_number": 22,
            "juz_number": 2,
            "translations": [
                {
                    "id": 97489,
                    "resource_id": 20,
                    "text": "We have certainly seen the turning of your face, [O Muḥammad], toward the heaven, and We will surely turn you to a qiblah with which you will be pleased. So turn your face [i.e., yourself] toward al-Masjid al-Ḥarām.<sup foot_note=195981>1</sup> And wherever you [believers] are, turn your faces [i.e., yourselves] toward it [in prayer]. Indeed, those who have been given the Scripture [i.e., the Jews and the Christians] well know that it is the truth from their Lord. And Allāh is not unaware of what they do."
                },
                {
                    "id": 215364,
                    "resource_id": 39,
                    "text": "Kerap kali Kami melihat engkau (wahai Muhammad), berulang-ulang menengadah ke langit, maka Kami benarkan engkau berpaling mengadap kiblat yang engkau sukai. Oleh itu palingkanlah mukamu ke arah masjid Al-Haraam (tempat letaknya Kaabah); dan di mana sahaja kamu berada maka hadapkanlah muka kamu ke arahnya. Dan sesungguhnya orang-orang (Yahudi dan Nasrani) yang telah diberikan Kitab, mereka mengetahui bahawa perkara (berkiblat ke Kaabah) itu adalah perintah yang benar dari Tuhan mereka; dan Allah tidak sekali-kali lalai akan apa yang mereka lakukan."
                },
                {
                    "id": 1091128,
                    "resource_id": 161,
                    "text": "নিশ্চয়ই আমি তোমার আকাশের দিকে মুখ ফিরিয়ে দেখাকে লক্ষ্য করেছি, যে ক্বিবলা তুমি পছন্দ কর, আমি তোমাকে সেদিকে ফিরে যেতে আদেশ করছি। তুমি মাসজিদুল হারামের দিকে মুখ ফিরাও এবং তোমরা যেখানেই থাক, ওরই দিকে মুখ ফিরাও; বস্তুতঃ যাদেরকে কিতাব দেয়া হয়েছে তাদের জানা আছে যে, ক্বিবলার পরিবর্তন তাদের প্রতিপালকের পক্ষ হতে প্রকৃতই সত্য এবং তারা যা করে আল্লাহ সে সম্পর্কে মোটেই গাফিল নন।"
                }
            ]
        },
        {
            "id": 152,
            "verse_number": 145,
            "verse_key": "2:145",
            "hizb_number": 3,
            "rub_el_hizb_number": 9,
            "ruku_number": 18,
            "manzil_number": 1,
            "sajdah_number": null,
            "text_uthmani": "وَلَئِنْ أَتَيْتَ ٱلَّذِينَ أُوتُوا۟ ٱلْكِتَـٰبَ بِكُلِّ ءَايَةٍ مَّا تَبِعُوا۟ قِبْلَتَكَ ۚ وَمَآ أَنتَ بِتَابِعٍ قِبْلَتَهُمْ ۚ وَمَا بَعْضُهُم بِتَابِعٍ قِبْلَةَ بَعْضٍ ۚ وَلَئِنِ ٱتَّبَعْتَ أَهْوَآءَهُم مِّنۢ بَعْدِ مَا جَآءَكَ مِنَ ٱلْعِلْمِ ۙ إِنَّكَ إِذًا لَّمِنَ ٱلظَّـٰلِمِينَ",
            "page_number": 22,
            "juz_number": 2,
            "translations": [
                {
                    "id": 97491,
                    "resource_id": 20,
                    "text": "And if you brought to those who were given the Scripture every sign, they would not follow your qiblah. Nor will you be a follower of their qiblah. Nor would they be followers of one another's qiblah. So if you were to follow their desires after what has come to you of knowledge, indeed, you would then be among the wrongdoers."
                },
                {
                    "id": 215366,
                    "resource_id": 39,
                    "text": "Dan demi sesungguhnya! Jika engkau bawakan kepada orang-orang (Yahudi dan Nasrani) yang telah diberikan Kitab, akan segala keterangan (yang menunjukkan kebenaran perintah berkiblat ke Kaabah itu), mereka tidak akan menurut kiblatmu, dan engkau pula tidak sekali-kali akan menurut kiblat mereka; dan sebahagian dari mereka juga tidak akan menurut kiblat sebahagian yang lain. Demi sesungguhnya! Kalau engkau menurut kehendak hawa nafsu mereka setelah datang kepadamu pengetahuan (yang telah diwahyukan kepadamu), sesungguhnya engkau, jika demikian, adalah dari golongan orang-orang yang zalim."
                },
                {
                    "id": 1091129,
                    "resource_id": 161,
                    "text": "আর যদি তুমি কিতাবধারীদের সামনে সমুদয় দলীল হাজির কর, তবুও তারা তোমার ক্বিবলার অনুসরণ করবে না আর তুমিও তাদের ক্বিবলার অনুসরণকারী নও, আর তারা একে অপরের ক্বিবলার অনুসরণকারী নয়। যদি তুমি তোমার নিকট জ্ঞান আসার পরেও তাদের মনগড়া মতবাদসমূহের অনুসরণ কর, সে অবস্থায় তুমিও অবাধ্য দলেরই অন্তর্ভুক্ত হবে।"
                }
            ]
        },
        {
            "id": 153,
            "verse_number": 146,
            "verse_key": "2:146",
            "hizb_number": 3,
            "rub_el_hizb_number": 9,
            "ruku_number": 18,
            "manzil_number": 1,
            "sajdah_number": null,
            "text_uthmani": "ٱلَّذِينَ ءَاتَيْنَـٰهُمُ ٱلْكِتَـٰبَ يَعْرِفُونَهُۥ كَمَا يَعْرِفُونَ أَبْنَآءَهُمْ ۖ وَإِنَّ فَرِيقًا مِّنْهُمْ لَيَكْتُمُونَ ٱلْحَقَّ وَهُمْ يَعْلَمُونَ",
            "page_number": 23,
            "juz_number": 2,
            "translations": [
                {
                    "id": 97494,
                    "resource_id": 20,
                    "text": "Those to whom We gave the Scripture know him [i.e., Prophet Muḥammad (ﷺ)] as they know their own sons. But indeed, a party of them conceal the truth while they know [it]."
                },
                {
                    "id": 215369,
                    "resource_id": 39,
                    "text": "Orang-orang (Yahudi dan Nasrani) yang Kami berikan Kitab itu mengetahui serta mengenalinya (Nabi Muhammad dan kebenarannya) sebagaimana mereka mengenal anak-anak mereka sendiri. Dan sesungguhnya sebahagian dari mereka berusaha menyembunyikan kebenaran itu, sedang mereka mengetahui (salahnya perbuatan yang demikian)."
                },
                {
                    "id": 1091130,
                    "resource_id": 161,
                    "text": "আমি যাদেরকে কিতাব দিয়েছি, তারা তাকে সে রকমই চিনে, যেমন চিনে নিজের পুত্রদেরকে, আর ওদের কতকলোক জেনে শুনে সত্যকে গোপন করে থাকে।"
                }
            ]
        },
        {
            "id": 154,
            "verse_number": 147,
            "verse_key": "2:147",
            "hizb_number": 3,
            "rub_el_hizb_number": 9,
            "ruku_number": 18,
            "manzil_number": 1,
            "sajdah_number": null,
            "text_uthmani": "ٱلْحَقُّ مِن رَّبِّكَ ۖ فَلَا تَكُونَنَّ مِنَ ٱلْمُمْتَرِينَ",
            "page_number": 23,
            "juz_number": 2,
            "translations": [
                {
                    "id": 97496,
                    "resource_id": 20,
                    "text": "The truth is from your Lord, so never be among the doubters."
                },
                {
                    "id": 215370,
                    "resource_id": 39,
                    "text": "Kebenaran (yang datangnya kepadamu dan disembunyikan oleh kaum Yahudi dan Nasrani) itu (wahai Muhammad), adalah datangnya dari Tuhanmu; oleh itu jangan sekali-kali engkau termasuk dalam golongan orang-orang yang ragu-ragu."
                },
                {
                    "id": 1091131,
                    "resource_id": 161,
                    "text": "প্রকৃত সত্য তোমার প্রতিপালকের নিকট হতেই (এসেছে), কাজেই তোমরা সন্দেহকারীদের অন্তর্ভুক্ত হয়ো না।"
                }
            ]
        },
        {
            "id": 155,
            "verse_number": 148,
            "verse_key": "2:148",
            "hizb_number": 3,
            "rub_el_hizb_number": 9,
            "ruku_number": 19,
            "manzil_number": 1,
            "sajdah_number": null,
            "text_uthmani": "وَلِكُلٍّ وِجْهَةٌ هُوَ مُوَلِّيهَا ۖ فَٱسْتَبِقُوا۟ ٱلْخَيْرَٰتِ ۚ أَيْنَ مَا تَكُونُوا۟ يَأْتِ بِكُمُ ٱللَّهُ جَمِيعًا ۚ إِنَّ ٱللَّهَ عَلَىٰ كُلِّ شَىْءٍ قَدِيرٌ",
            "page_number": 23,
            "juz_number": 2,
            "translations": [
                {
                    "id": 97498,
                    "resource_id": 20,
                    "text": "For each [religious following] is a [prayer] direction toward which it faces. So race to [all that is] good. Wherever you may be, Allāh will bring you forth [for judgement] all together. Indeed, Allāh is over all things competent."
                },
                {
                    "id": 215372,
                    "resource_id": 39,
                    "text": "Dan bagi tiap-tiap umat ada arah (kiblat) yang masing-masing menujunya; oleh itu berlumba-lumbalah kamu mengerjakan kebaikan; kerana di mana sahaja kamu berada maka Allah tetap akan membawa kamu semua (berhimpun pada hari kiamat untuk menerima balasan); sesungguhnya Allah Maha Kuasa atas tiap-tiap sesuatu."
                },
                {
                    "id": 1091132,
                    "resource_id": 161,
                    "text": "প্রত্যেকের জন্যই একটা নির্দিষ্ট লক্ষ্য আছে, সেদিকেই সে মুখ করে। কাজেই তোমরা সৎ কাজের দিকে ধাবমান হও। যেখানেই তোমরা অবস্থান কর, আল্লাহ তোমাদের সকলকে একত্রিত করবেন। নিশ্চয়ই আল্লাহ সকল বস্তুর উপর ক্ষমতাবান।"
                }
            ]
        },
        {
            "id": 156,
            "verse_number": 149,
            "verse_key": "2:149",
            "hizb_number": 3,
            "rub_el_hizb_number": 9,
            "ruku_number": 19,
            "manzil_number": 1,
            "sajdah_number": null,
            "text_uthmani": "وَمِنْ حَيْثُ خَرَجْتَ فَوَلِّ وَجْهَكَ شَطْرَ ٱلْمَسْجِدِ ٱلْحَرَامِ ۖ وَإِنَّهُۥ لَلْحَقُّ مِن رَّبِّكَ ۗ وَمَا ٱللَّهُ بِغَـٰفِلٍ عَمَّا تَعْمَلُونَ",
            "page_number": 23,
            "juz_number": 2,
            "translations": [
                {
                    "id": 97500,
                    "resource_id": 20,
                    "text": "So from wherever you go out [for prayer, O Muḥammad], turn your face toward al-Masjid al-Ḥarām, and indeed, it is the truth from your Lord. And Allāh is not unaware of what you do."
                },
                {
                    "id": 215374,
                    "resource_id": 39,
                    "text": "Dan dari mana sahaja engkau keluar (untuk mengerjakan sembahyang), maka hadapkanlah mukamu ke arah masjid Al-Haraam (Kaabah); dan sesungguhnya perintah berkiblat ke Kaabah itu adalah benar dari Tuhanmu. Dan (ingatlah), Allah tidak sekali-kali lalai akan segala apa yang kamu lakukan."
                },
                {
                    "id": 1091133,
                    "resource_id": 161,
                    "text": "আর তুমি যেখান থেকেই বের হও, নিজের মুখ মাসজিদে হারামের দিকে ফেরাও, নিশ্চয়ই তা তোমার প্রতিপালকের নিকট হতে পাঠানো সত্য, বস্তুতঃ তোমরা যা করছ আল্লাহ সে সম্পর্কে মোটেই গাফিল নন।"
                }
            ]
        },
        {
            "id": 157,
            "verse_number": 150,
            "verse_key": "2:150",
            "hizb_number": 3,
            "rub_el_hizb_number": 9,
            "ruku_number": 19,
            "manzil_number": 1,
            "sajdah_number": null,
            "text_uthmani": "وَمِنْ حَيْثُ خَرَجْتَ فَوَلِّ وَجْهَكَ شَطْرَ ٱلْمَسْجِدِ ٱلْحَرَامِ ۚ وَحَيْثُ مَا كُنتُمْ فَوَلُّوا۟ وُجُوهَكُمْ شَطْرَهُۥ لِئَلَّا يَكُونَ لِلنَّاسِ عَلَيْكُمْ حُجَّةٌ إِلَّا ٱلَّذِينَ ظَلَمُوا۟ مِنْهُمْ فَلَا تَخْشَوْهُمْ وَٱخْشَوْنِى وَلِأُتِمَّ نِعْمَتِى عَلَيْكُمْ وَلَعَلَّكُمْ تَهْتَدُونَ",
            "page_number": 23,
            "juz_number": 2,
            "translations": [
                {
                    "id": 97504,
                    "resource_id": 20,
                    "text": "And from wherever you go out [for prayer], turn your face toward al-Masjid al-Ḥarām. And wherever you [believers] may be, turn your faces toward it in order that the people will not have any argument against you, except for those of them who commit wrong; so fear them not but fear Me. And [it is] so I may complete My favor upon you and that you may be guided,"
                },
                {
                    "id": 215378,
                    "resource_id": 39,
                    "text": "Dan dari mana sahaja engkau keluar (untuk mengerjakan sembahyang), maka hadapkanlah mukamu ke arah masjid Al-Haraam (Kaabah); dan di mana sahaja kamu berada maka hadapkanlah muka kamu ke arahnya, supaya tidak ada lagi (sebarang) alasan bagi orang-orang (yang menyalahi kamu), kecuali orang-orang yang zalim di antara mereka (ada sahaja yang mereka jadikan alasan). Maka janganlah kamu takut kepada (cacat cela) mereka, dan takutlah kamu kepada Ku (semata-mata); dan supaya Aku sempurnakan nikmatKu kepada kamu, dan juga supaya kamu beroleh petunjuk hidayah (mengenai perkara yang benar)."
                },
                {
                    "id": 1091134,
                    "resource_id": 161,
                    "text": "তুমি যেখান থেকেই বের হও, নিজের মুখ মাসজিদে হারামের দিকে ফিরাও, তোমরা যেখানেই থাক না কেন, নিজেদের মুখগুলো ওর দিকে করিও, যাতে তাদের মধ্যেকার যালিম লোক ছাড়া অন্যান্য লোকেদের তোমাদের বিরুদ্ধে কোন কথা বলার না থাকে, কাজেই তাদেরকে ভয় করো না, আমাকেই ভয় কর, যাতে আমি তোমাদের প্রতি আমার নি‘মাত পূর্ণ করতে পারি, যাতে তোমরা সত্য পথে পরিচালিত হতে পার।"
                }
            ]
        },
        {
            "id": 158,
            "verse_number": 151,
            "verse_key": "2:151",
            "hizb_number": 3,
            "rub_el_hizb_number": 9,
            "ruku_number": 19,
            "manzil_number": 1,
            "sajdah_number": null,
            "text_uthmani": "كَمَآ أَرْسَلْنَا فِيكُمْ رَسُولًا مِّنكُمْ يَتْلُوا۟ عَلَيْكُمْ ءَايَـٰتِنَا وَيُزَكِّيكُمْ وَيُعَلِّمُكُمُ ٱلْكِتَـٰبَ وَٱلْحِكْمَةَ وَيُعَلِّمُكُم مَّا لَمْ تَكُونُوا۟ تَعْلَمُونَ",
            "page_number": 23,
            "juz_number": 2,
            "translations": [
                {
                    "id": 97506,
                    "resource_id": 20,
                    "text": "Just as We have sent among you a messenger from yourselves reciting to you Our verses and purifying you and teaching you the Book and wisdom<sup foot_note=195982>1</sup> and teaching you that which you did not know."
                },
                {
                    "id": 215380,
                    "resource_id": 39,
                    "text": "(Nikmat berkiblatkan Kaabah yang Kami berikan kepada kamu itu), samalah seperti (nikmat) Kami mengutuskan kepada kamu seorang Rasul dari kalangan kamu (iaitu Muhammad), yang membacakan ayat-ayat Kami kepada kamu, dan membersihkan kamu (dari amalan syirik dan maksiat), dan yang mengajarkan kamu kandungan Kitab (Al-Quran) serta Hikmat kebijaksanaan, dan mengajarkan kamu apa yang belum kamu ketahui."
                },
                {
                    "id": 1091135,
                    "resource_id": 161,
                    "text": "যেমন (তোমরা আমার একটি অনুগ্রহ লাভ করেছ যে) আমি তোমাদেরই মধ্য হতে তোমাদের কাছে একজন রসূল পাঠিয়েছি, যে আমার আয়াতগুলো তোমাদেরকে পড়ে শুনায়, তোমাদেরকে শুদ্ধ করে, তোমাদেরকে কিতাব ও জ্ঞান-বিজ্ঞান (সুন্নাত) শিক্ষা দেয় এবং তোমাদেরকে এমন সব বিষয় শিক্ষা দেয় যা তোমরা জানতে না।"
                }
            ]
        }
    ],
    "pagination": {
        "per_page": 10,
        "current_page": 1,
        "next_page": 2,
        "total_pages": 12,
        "total_records": 111
    }
}