{
    "verses": [
        {
            "id": 3564,
            "verse_number": 31,
            "verse_key": "33:31",
            "hizb_number": 43,
            "rub_el_hizb_number": 169,
            "ruku_number": 366,
            "manzil_number": 5,
            "sajdah_number": null,
            "text_uthmani": "۞ وَمَن يَقْنُتْ مِنكُنَّ لِلَّهِ وَرَسُولِهِۦ وَتَعْمَلْ صَـٰلِحًا نُّؤْتِهَآ أَجْرَهَا مَرَّتَيْنِ وَأَعْتَدْنَا لَهَا رِزْقًا كَرِيمًا",
            "page_number": 422,
            "juz_number": 22,
            "translations": [
                {
                    "id": 98884,
                    "resource_id": 20,
                    "text": "And whoever of you devoutly obeys Allāh and His Messenger and does righteousness - We will give her her reward twice; and We have prepared for her a noble provision."
                },
                {
                    "id": 216736,
                    "resource_id": 39,
                    "text": "Dan sesiapa di antara kamu semua tetap taat kepada Allah dan RasulNya serta mengerjakan amal yang soleh, Kami akan beri kepadanya pahala amalnya itu dua kali ganda, dan Kami sediakan baginya limpah kurnia yang mulia."
                },
                {
                    "id": 1094541,
                    "resource_id": 161,
                    "text": "তোমাদের মধ্যে যে কেউ আল্লাহ ও তাঁর রসূলের অনুগত হবে আর সৎ কাজ করবে, আমি তাকে দু’বার পুরস্কার দেব আর তার জন্য আমি সম্মানজনক রিযক প্রস্তুত রেখেছি।"
                }
            ]
        },
        {
            "id": 3565,
            "verse_number": 32,
            "verse_key": "33:32",
            "hizb_number": 43,
            "rub_el_hizb_number": 169,
            "ruku_number": 366,
            "manzil_number": 5,
            "sajdah_number": null,
            "text_uthmani": "يَـٰنِسَآءَ ٱلنَّبِىِّ لَسْتُنَّ كَأَحَدٍ مِّنَ ٱلنِّسَآءِ ۚ إِنِ ٱتَّقَيْتُنَّ فَلَا تَخْضَعْنَ بِٱلْقَوْلِ فَيَطْمَعَ ٱلَّذِى فِى قَلْبِهِۦ مَرَضٌ وَقُلْنَ قَوْلًا مَّعْرُوفًا",
            "page_number": 422,
            "juz_number": 22,
            "translations": [
                {
                    "id": 98885,
                    "resource_id": 20,
                    "text": "O wives of the Prophet, you are not like anyone among women. If you fear Allāh, then do not be soft in speech [to men],<sup foot_note=197092>1</sup> lest he in whose heart is disease should covet, but speak with appropriate speech."
                },
                {
                    "id": 216735,
                    "resource_id": 39,
                    "text": "Wahai isteri-isteri Nabi, kamu semua bukanlah seperti mana-mana perempuan yang lain kalau kamu tetap bertaqwa. Oleh itu janganlah kamu berkata-kata dengan lembut manja (semasa bercakap dengan lelaki asing) kerana yang demikian boleh menimbulkan keinginan orang yang ada penyakit dalam hatinya (menaruh tujuan buruk kepada kamu), dan sebaliknya berkatalah dengan kata-kata yang baik (sesuai dan sopan)."
                },
                {
                    "id": 1094542,
                    "resource_id": 161,
                    "text": "হে নবী পত্নীগণ! তোমরা অন্য নারীদের মত নও। তোমরা যদি আল্লাহকে ভয় কর, তাহলে পর পুরুষের সঙ্গে আকর্ষণীয় ভঙ্গিতে কথা বলো না, যাতে যার অন্তরে ব্যাধি আছে সে প্রলুদ্ধ হয়। তোমরা সঙ্গত কথা বলবে।"
                }
            ]
        },
        {
            "id": 3566,
            "verse_number": 33,
            "verse_key": "33:33",
            "hizb_number": 43,
            "rub_el_hizb_number": 169,
            "ruku_number": 366,
            "manzil_number": 5,
            "sajdah_number": null,
            "text_uthmani": "وَقَرْنَ فِى بُيُوتِكُنَّ وَلَا تَبَرَّجْنَ تَبَرُّجَ ٱلْجَـٰهِلِيَّةِ ٱلْأُولَىٰ ۖ وَأَقِمْنَ ٱلصَّلَوٰةَ وَءَاتِينَ ٱلزَّكَوٰةَ وَأَطِعْنَ ٱللَّهَ وَرَسُولَهُۥٓ ۚ إِنَّمَا يُرِيدُ ٱللَّهُ لِيُذْهِبَ عَنكُمُ ٱلرِّجْسَ أَهْلَ ٱلْبَيْتِ وَيُطَهِّرَكُمْ تَطْهِيرًا",
            "page_number": 422,
            "juz_number": 22,
            "translations": [
                {
                    "id": 98886,
                    "resource_id": 20,
                    "text": "And abide in your houses and do not display yourselves as [was] the display of the former times of ignorance. And establish prayer and give zakāh and obey Allāh and His Messenger. Allāh intends only to remove from you the impurity [of sin], O people of the [Prophet's] household, and to purify you with [extensive] purification."
                },
                {
                    "id": 216737,
                    "resource_id": 39,
                    "text": "Dan hendaklah kamu tetap diam di rumah kamu serta janganlah kamu mendedahkan diri seperti yang dilakukan oleh orang-orang Jahiliyah zaman dahulu; dan dirikanlah sembahyang serta berilah zakat; dan taatlah kamu kepada Allah dan RasulNya. Sesungguhnya Allah (perintahkan kamu dengan semuanya itu) hanyalah kerana hendak menghapuskan perkara-perkara yang mencemarkan diri kamu - wahai \"AhlulBait\" dan hendak membersihkan kamu sebersih-bersihnya (dari segala perkara yang keji)."
                },
                {
                    "id": 1094543,
                    "resource_id": 161,
                    "text": "আর তোমরা নিজেদের গৃহে অবস্থান কর, প্রাচীন অজ্ঞতার যুগের মত চোখ ঝলসানো প্রদর্শনী করে বেড়িও না। আর তোমরা নামায প্রতিষ্ঠা কর, যাকাত প্রদান কর এবং আল্লাহ ও তাঁর রসূলের আনুগত্য কর। হে নবীর পরিবার! আল্লাহ কেবল চান তোমাদের থেকে অপবিত্রতা দূর করতে এবং তোমাদেরকে পবিত্র ও নিষ্কলংক করতে।"
                }
            ]
        },
        {
            "id": 3567,
            "verse_number": 34,
            "verse_key": "33:34",
            "hizb_number": 43,
            "rub_el_hizb_number": 169,
            "ruku_number": 366,
            "manzil_number": 5,
            "sajdah_number": null,
            "text_uthmani": "وَٱذْكُرْنَ مَا يُتْلَىٰ فِى بُيُوتِكُنَّ مِنْ ءَايَـٰتِ ٱللَّهِ وَٱلْحِكْمَةِ ۚ إِنَّ ٱللَّهَ كَانَ لَطِيفًا خَبِيرًا",
            "page_number": 422,
            "juz_number": 22,
            "translations": [
                {
                    "id": 98887,
                    "resource_id": 20,
                    "text": "And remember what is recited in your houses of the verses of Allāh and wisdom.<sup foot_note=197094>1</sup> Indeed, Allāh is ever Subtle<sup foot_note=197093>2</sup> and Aware."
                },
                {
                    "id": 216738,
                    "resource_id": 39,
                    "text": "Dan ingatlah (serta amalkanlah) apa yang dibaca di rumah kamu dari ayat-ayat Allah (Al-Quran) dan hikmah pengetahuan (hadis-hadis Rasulullah). Sesungguhnya Allah Maha Halus tadbirNya, lagi Maha Mendalam pengetahuanNya."
                },
                {
                    "id": 1094544,
                    "resource_id": 161,
                    "text": "তোমাদের গৃহে আল্লাহর আয়াত ও হিকমত থেকে যা পাঠ করা হয় তার চর্চা কর। আল্লাহ অতি সূক্ষ্ণদর্শী, সর্ববিষয়ে খবর রাখেন।"
                }
            ]
        },
        {
            "id": 3568,
            "verse_number": 35,
            "verse_key": "33:35",
            "hizb_number": 43,
            "rub_el_hizb_number": 169,
            "ruku_number": 367,
            "manzil_number": 5,
            "sajdah_number": null,
            "text_uthmani": "إِنَّ ٱلْمُسْلِمِينَ وَٱلْمُسْلِمَـٰتِ وَٱلْمُؤْمِنِينَ وَٱلْمُؤْمِنَـٰتِ وَٱلْقَـٰنِتِينَ وَٱلْقَـٰنِتَـٰتِ وَٱلصَّـٰدِقِينَ وَٱلصَّـٰدِقَـٰتِ وَٱلصَّـٰبِرِينَ وَٱلصَّـٰبِرَٰتِ وَٱلْخَـٰشِعِينَ وَٱلْخَـٰشِعَـٰتِ وَٱلْمُتَصَدِّقِينَ وَٱلْمُتَصَدِّقَـٰتِ وَٱلصَّـٰٓئِمِينَ وَٱلصَّـٰٓئِمَـٰتِ وَٱلْحَـٰفِظِينَ فُرُوجَهُمْ وَٱلْحَـٰفِظَـٰتِ وَٱلذَّٰكِرِينَ ٱللَّهَ كَثِيرًا وَٱلذَّٰكِرَٰتِ أَعَدَّ ٱللَّهُ لَهُم مَّغْفِرَةً وَأَجْرًا عَظِيمًا",
            "page_number": 422,
            "juz_number": 22,
            "translations": [
                {
                    "id": 98888,
                    "resource_id": 20,
                    "text": "Indeed, the Muslim men and Muslim women, the believing men and believing women, the obedient men and obedient women, the truthful men and truthful women, the patient men and patient women, the humble men and humble women, the charitable men and charitable women, the fasting men and fasting women, the men who guard their private parts and the women who do so, and the men who remember Allāh often and the women who do so - for them Allāh has prepared forgiveness and a great reward."
                },
                {
                    "id": 216739,
                    "resource_id": 39,
                    "text": "Sesungguhnya orang-orang lelaki yang Islam serta orang-orang perempuan yang Islam, dan orang-orang lelaki yang beriman serta orang-orang perempuan yang beriman, dan orang-orang lelaki yang taat serta orang-orang perempuan yang taat, dan orang-orang lelaki yang benar serta orang-orang perempuan yang benar, dan orang-orang lelaki yang sabar serta orang-orang perempuan yang sabar, dan orang-orang lelaki yang merendah diri (kepada Allah) serta orang-orang perempuan yang merendah diri (kepada Allah), dan orang-orang lelaki yang bersedekah serta orang-orang perempuan yang bersedekah, dan orang-orang lelaki yang berpuasa serta orang-orang perempuan yang berpuasa, dan orang-orang lelaki yang memelihara kehormatannya serta orang-orang perempuan yang memelihara kehormatannya, dan orang-orang lelaki yang menyebut nama Allah banyak-banyak serta orang-orang perempuan yang menyebut nama Allah banyak-banyak, Allah telah menyediakan bagi mereka semuanya keampunan dan pahala yang besar."
                },
                {
                    "id": 1094545,
                    "resource_id": 161,
                    "text": "মুসলিম পুরুষ ও মুসলিম নারী, মু’মিন পুরুষ ও মু’মিন নারী, অনুগত পুরুষ ও অনুগত নারী, সত্যনিষ্ঠ পুরুষ ও সত্যনিষ্ঠ নারী, ধৈর্যশীল পুরুষ ও ধৈর্যশীল নারী, বিনয়ী পুরুষ ও বিনয়ী নারী, দানশীল পুরুষ ও দানশীল নারী, রোযাপালনকারী পুরুষ ও রোযাপালনারী নারী, যৌনাঙ্গের সুরক্ষাকারী পুরুষ ও যৌনাঙ্গের সুরক্ষাকারী নারী, আল্লাহকে অধিক স্মরণকারী পুরুষ ও আল্লাহকে অধিক স্মরণকারী নারী- আল্লাহ তাদের জন্য প্রস্তুত রেখেছেন ক্ষমা ও মহাপ্রতিদান।"
                }
            ]
        },
        {
            "id": 3569,
            "verse_number": 36,
            "verse_key": "33:36",
            "hizb_number": 43,
            "rub_el_hizb_number": 169,
            "ruku_number": 367,
            "manzil_number": 5,
            "sajdah_number": null,
            "text_uthmani": "وَمَا كَانَ لِمُؤْمِنٍ وَلَا مُؤْمِنَةٍ إِذَا قَضَى ٱللَّهُ وَرَسُولُهُۥٓ أَمْرًا أَن يَكُونَ لَهُمُ ٱلْخِيَرَةُ مِنْ أَمْرِهِمْ ۗ وَمَن يَعْصِ ٱللَّهَ وَرَسُولَهُۥ فَقَدْ ضَلَّ ضَلَـٰلًا مُّبِينًا",
            "page_number": 423,
            "juz_number": 22,
            "translations": [
                {
                    "id": 98889,
                    "resource_id": 20,
                    "text": "It is not for a believing man or a believing woman, when Allāh and His Messenger have decided a matter, that they should [thereafter] have any choice about their affair. And whoever disobeys Allāh and His Messenger has certainly strayed into clear error."
                },
                {
                    "id": 216755,
                    "resource_id": 39,
                    "text": "Dan tidaklah harus bagi orang-orang yang beriman, lelaki dan perempuan - apabila Allah dan RasulNya menetapkan keputusan mengenai sesuatu perkara - (tidaklah harus mereka) mempunyai hak memilih ketetapan sendiri mengenai urusan mereka. Dan sesiapa yang tidak taat kepada hukum Allah dan RasulNya maka sesungguhnya ia telah sesat dengan kesesatan yang jelas nyata."
                },
                {
                    "id": 1094546,
                    "resource_id": 161,
                    "text": "আল্লাহ ও তাঁর রসূল কোন নির্দেশ দিলে কোন মু’মিন পুরুষ ও মু’মিন নারী উক্ত নির্দেশের ভিন্নতা করার কোন অধিকার রাখে না। যে আল্লাহ ও তাঁর রসূলকে অমান্য করে সে স্পষ্টতই সত্য পথ হতে দুরে সরে পড়ল।"
                }
            ]
        },
        {
            "id": 3570,
            "verse_number": 37,
            "verse_key": "33:37",
            "hizb_number": 43,
            "rub_el_hizb_number": 169,
            "ruku_number": 367,
            "manzil_number": 5,
            "sajdah_number": null,
            "text_uthmani": "وَإِذْ تَقُولُ لِلَّذِىٓ أَنْعَمَ ٱللَّهُ عَلَيْهِ وَأَنْعَمْتَ عَلَيْهِ أَمْسِكْ عَلَيْكَ زَوْجَكَ وَٱتَّقِ ٱللَّهَ وَتُخْفِى فِى نَفْسِكَ مَا ٱللَّهُ مُبْدِيهِ وَتَخْشَى ٱلنَّاسَ وَٱللَّهُ أَحَقُّ أَن تَخْشَىٰهُ ۖ فَلَمَّا قَضَىٰ زَيْدٌ مِّنْهَا وَطَرًا زَوَّجْنَـٰكَهَا لِكَىْ لَا يَكُونَ عَلَى ٱلْمُؤْمِنِينَ حَرَجٌ فِىٓ أَزْوَٰجِ أَدْعِيَآئِهِمْ إِذَا قَضَوْا۟ مِنْهُنَّ وَطَرًا ۚ وَكَانَ أَمْرُ ٱللَّهِ مَفْعُولًا",
            "page_number": 423,
            "juz_number": 22,
            "translations": [
                {
                    "id": 98890,
                    "resource_id": 20,
                    "text": "And [remember, O Muḥammad], when you said to the one on whom Allāh bestowed favor and you bestowed favor,<sup foot_note=197098>1</sup> \"Keep your wife and fear Allāh,\" while you concealed within yourself that which Allāh is to disclose.<sup foot_note=197097>2</sup> And you feared the people,<sup foot_note=197096>3</sup> while Allāh has more right that you fear Him.<sup foot_note=197095>4</sup> So when Zayd had no longer any need for her, We married her to you in order that there not be upon the believers any discomfort [i.e., guilt] concerning the wives of their claimed [i.e., adopted] sons when they no longer have need of them. And ever is the command [i.e., decree] of Allāh accomplished."
                },
                {
                    "id": 216741,
                    "resource_id": 39,
                    "text": "Dan (ingatlah wahai Muhammad) ketika engkau berkata kepada orang yang telah dikurniakan oleh Allah (dengan nikmat Islam) dan yang engkau juga telah berbuat baik kepadanya: \"Jangan ceraikan isterimu itu dan bertaqwalah kepada Allah\", sambil engkau menyembunyikan dalam hatimu perkara yang Allah akan menyatakannya; dan engkau pula takut kepada (cacian manusia padahal Allah jualah yang berhak engkau takuti (melanggar perintahNya). Kemudian setelah Zaid selesai habis kemahuannya terhadap isterinya (dengan menceraikannya), Kami kahwinkan engkau dengannya supaya tidak ada keberatan atas orang-orang yang beriman untuk berkahwin dengan isteri-isteri anak-anak angkat mereka, apabila anak-anak angkat itu telah selesai habis kemahuannya terhadap isterinya (lalu menceraikannya). Dan sememangnya perkara yang dikehendaki Allah itu tetap berlaku."
                },
                {
                    "id": 1094547,
                    "resource_id": 161,
                    "text": "স্মরণ কর, আল্লাহ যাকে অনুগ্রহ করেছেন আর তুমিও যাকে অনুগ্রহ করেছ তাকে তুমি যখন বলছিলে- তুমি তোমার স্ত্রীকে (বিবাহবন্ধনে) রেখে দাও এবং আল্লাহকে ভয় কর। তুমি তোমার অন্তরে লুকিয়ে রাখছিলে যা আল্লাহ প্রকাশ করতে চান, তুমি লোকদেরকে ভয় করছিলে, অথচ আল্লাহই সবচেয়ে বেশি এ অধিকার রাখেন যে, তুমি তাঁকে ভয় করবে। অতঃপর যায়্দ যখন তার (যায়নাবের) সঙ্গে সম্পর্ক ছিন্ন করল তখন আমি তাকে তোমার সঙ্গে বিবাহবন্ধনে আবদ্ধ করে দিলাম যাতে মু’মিনদের পোষ্যপুত্ররা তাদের স্ত্রীদের সঙ্গে সম্পর্ক ছিন্ন করলে সেসব নারীকে বিবাহ করার ব্যাপারে মু’মিনদের কোন বিঘ্ন না হয়। আল্লাহর আদেশ কার্যকরী হবেই।"
                }
            ]
        },
        {
            "id": 3571,
            "verse_number": 38,
            "verse_key": "33:38",
            "hizb_number": 43,
            "rub_el_hizb_number": 169,
            "ruku_number": 367,
            "manzil_number": 5,
            "sajdah_number": null,
            "text_uthmani": "مَّا كَانَ عَلَى ٱلنَّبِىِّ مِنْ حَرَجٍ فِيمَا فَرَضَ ٱللَّهُ لَهُۥ ۖ سُنَّةَ ٱللَّهِ فِى ٱلَّذِينَ خَلَوْا۟ مِن قَبْلُ ۚ وَكَانَ أَمْرُ ٱللَّهِ قَدَرًا مَّقْدُورًا",
            "page_number": 423,
            "juz_number": 22,
            "translations": [
                {
                    "id": 98891,
                    "resource_id": 20,
                    "text": "There is not to be upon the Prophet any discomfort concerning that which Allāh has imposed upon him.<sup foot_note=197099>1</sup> [This is] the established way of Allāh with those [prophets] who have passed on before. And ever is the command of Allāh a destiny decreed."
                },
                {
                    "id": 216756,
                    "resource_id": 39,
                    "text": "Tidaklah ada sebarang keberatan yang ditanggung oleh Nabi dalam melaksanakan perkara yang telah ditetapkan Allah baginya. (Yang demikian itu) adalah menurut peraturan Allah yang tetap, yang berlaku juga kepada Nabi-nabi yang telah lalu. Dan (ingatlah) perintah Allah itu adalah satu ketetapan yang ditentukan berlakunya."
                },
                {
                    "id": 1094548,
                    "resource_id": 161,
                    "text": "আল্লাহ নবীর জন্য যা বিধিবদ্ধ করেছেন তার জন্য তা করতে কোন বাধা নেই। পূর্বে যারা অতীত হয়ে গেছে তাদের ক্ষেত্রেও এটাই ছিল আল্লাহর বিধান। আল্লাহর বিধান সুনির্ধারণে নির্ধারিত।"
                }
            ]
        },
        {
            "id": 3572,
            "verse_number": 39,
            "verse_key": "33:39",
            "hizb_number": 43,
            "rub_el_hizb_number": 169,
            "ruku_number": 367,
            "manzil_number": 5,
            "sajdah_number": null,
            "text_uthmani": "ٱلَّذِينَ يُبَلِّغُونَ رِسَـٰلَـٰتِ ٱللَّهِ وَيَخْشَوْنَهُۥ وَلَا يَخْشَوْنَ أَحَدًا إِلَّا ٱللَّهَ ۗ وَكَفَىٰ بِٱللَّهِ حَسِيبًا",
            "page_number": 423,
            "juz_number": 22,
            "translations": [
                {
                    "id": 98892,
                    "resource_id": 20,
                    "text": "[Allāh praises] those who convey the messages of Allāh<sup foot_note=197100>1</sup> and fear Him and do not fear anyone but Allāh. And sufficient is Allāh as Accountant."
                },
                {
                    "id": 216757,
                    "resource_id": 39,
                    "text": "(Nabi-nabi yang telah lalu itu) ialah orang-orang yang menyampaikan syariat Allah serta mereka takut melanggar perintahNya, dan mereka pula tidak takut kepada sesiapa pun melainkan kepada Allah. Dan cukuplah Allah menjadi Penghitung (segala yang dilakukan oleh makhluk-makhlukNya untuk membalas mereka)."
                },
                {
                    "id": 1094549,
                    "resource_id": 161,
                    "text": "তারা (নবীগণ) আল্লাহর বাণী প্রচার করত আর তাঁকে ভয় করত। আল্লাহ ছাড়া কাউকে তারা ভয় করত না। (মানুষদের) হিসাব গ্রহণে আল্লাহই যথেষ্ট।"
                }
            ]
        },
        {
            "id": 3573,
            "verse_number": 40,
            "verse_key": "33:40",
            "hizb_number": 43,
            "rub_el_hizb_number": 169,
            "ruku_number": 367,
            "manzil_number": 5,
            "sajdah_number": null,
            "text_uthmani": "مَّا كَانَ مُحَمَّدٌ أَبَآ أَحَدٍ مِّن رِّجَالِكُمْ وَلَـٰكِن رَّسُولَ ٱللَّهِ وَخَاتَمَ ٱلنَّبِيِّـۧنَ ۗ وَكَانَ ٱللَّهُ بِكُلِّ شَىْءٍ عَلِيمًا",
            "page_number": 423,
            "juz_number": 22,
            "translations": [
                {
                    "id": 98895,
                    "resource_id": 20,
                    "text": "Muḥammad is not the father of [any] one of your men, but [he is] the Messenger of Allāh and seal [i.e., last] of the prophets. And ever is Allāh, of all things, Knowing."
                },
                {
                    "id": 216759,
                    "resource_id": 39,
                    "text": "Bukanlah Nabi Muhammad itu (dengan sebab ada anak angkatnya) menjadi bapa yang sebenar bagi seseorang dari orang lelaki kamu, tetapi ia adalah Rasul Allah dan kesudahan segala Nabi-nabi. Dan (ingatlah) Allah adalah Maha Mengetahui akan tiap-tiap sesuatu."
                },
                {
                    "id": 1094550,
                    "resource_id": 161,
                    "text": "মুহাম্মাদ (সাঃ) তোমাদের মধ্যেকার কোন পুরুষের পিতা নয়, কিন্তু (সে) আল্লাহর রাসূল এবং শেষ নবী। আল্লাহ সর্ববিষয়ে সর্বজ্ঞাতা।"
                }
            ]
        }
    ],
    "pagination": {
        "per_page": 10,
        "current_page": 1,
        "next_page": 2,
        "total_pages": 17,
        "total_records": 169
    }
}