{
    "verses": [
        {
            "id": 4265,
            "verse_number": 47,
            "verse_key": "41:47",
            "hizb_number": 49,
            "rub_el_hizb_number": 193,
            "ruku_number": 420,
            "manzil_number": 6,
            "sajdah_number": null,
            "text_uthmani": "۞ إِلَيْهِ يُرَدُّ عِلْمُ ٱلسَّاعَةِ ۚ وَمَا تَخْرُجُ مِن ثَمَرَٰتٍ مِّنْ أَكْمَامِهَا وَمَا تَحْمِلُ مِنْ أُنثَىٰ وَلَا تَضَعُ إِلَّا بِعِلْمِهِۦ ۚ وَيَوْمَ يُنَادِيهِمْ أَيْنَ شُرَكَآءِى قَالُوٓا۟ ءَاذَنَّـٰكَ مَا مِنَّا مِن شَهِيدٍ",
            "page_number": 482,
            "juz_number": 25,
            "translations": [
                {
                    "id": 99711,
                    "resource_id": 20,
                    "text": "To Him [alone] is attributed knowledge of the Hour. And fruits emerge not from their coverings nor does a female conceive or give birth except with His knowledge. And the Day He will call to them, \"Where are My 'partners'?\" they will say, \"We announce to You that there is [no longer] among us any witness [to that].\""
                },
                {
                    "id": 217573,
                    "resource_id": 39,
                    "text": "Kepada (ilmu pengetahuan) Allah jua lah kembalinya soal mengetahui masa datangnya hari kiamat; dan (demikianlah tiap-tiap apa yang akan berlaku, kerana) sebiji buah (umpamanya) tidak akan keluar dari kelopaknya, dan seorang ibu tidak akan mengandung dan tidak akan melahirkan anak, melainkan (pada masa dan keadaan yang betul tepat) dengan pengetahuan Allah. Dan pada hari Tuhan menyeru mereka (yang musyrik, dengan bertanya kepada mereka): \"Mana dia makhluk-makhluk yang kamu sifatkan menjadi sekutu-sekutuKu?\" Mereka menjawab: \"Kami mengakui kepadaMu (wahai Tuhan kami), bahawa tidak ada di antara kami seorang pun yang mahu menjadi saksi (kerana anggapan kami dahulu telah nyata salahnya)!\""
                },
                {
                    "id": 1095242,
                    "resource_id": 161,
                    "text": "ক্বিয়ামত কখন সংঘটিত হবে সে সম্পর্কিত জ্ঞান একমাত্র তাঁর কাছেই আছে। কোন ফলই তার আবরণ থেকে বেরিয়ে আসে না, এবং কোন নারী গর্ভধারণ করে না আর সন্তান প্রসব করে না তাঁর অজ্ঞাতে। যে দিন তিনি তাদেরকে ডেকে বলবেন- আমার শরীকরা কোথায় (তোমরা যেগুলো বানিয়ে নিয়েছিলে)? তারা বলবে- আপনাকে নিশ্চয়তা দিচ্ছি যে, (আজ) আমাদের কেউ (আপনার শরীক থাকার ব্যাপারে) সাক্ষ্য দাতা হবে না।"
                }
            ]
        },
        {
            "id": 4266,
            "verse_number": 48,
            "verse_key": "41:48",
            "hizb_number": 49,
            "rub_el_hizb_number": 193,
            "ruku_number": 420,
            "manzil_number": 6,
            "sajdah_number": null,
            "text_uthmani": "وَضَلَّ عَنْهُم مَّا كَانُوا۟ يَدْعُونَ مِن قَبْلُ ۖ وَظَنُّوا۟ مَا لَهُم مِّن مَّحِيصٍ",
            "page_number": 482,
            "juz_number": 25,
            "translations": [
                {
                    "id": 99713,
                    "resource_id": 20,
                    "text": "And lost from them will be those they were invoking before, and they will be certain that they have no place of escape."
                },
                {
                    "id": 217575,
                    "resource_id": 39,
                    "text": "Dan (pada saat itu) hilang lenyaplah dari mereka apa yang mereka sembah dahulu (yang diharapkan pertolongannya), dan yakinlah mereka bahawa tidak ada sebarang jalan untuk mereka melepaskan diri (dari azab seksa)."
                },
                {
                    "id": 1095243,
                    "resource_id": 161,
                    "text": "পূর্বে তারা যাদেরকে ডাকত তারা তাদের থেকে উধাও হয়ে যাবে, আর তারা বুঝতে পারবে যে, তাদের পালানোর কোন জায়গা নেই।"
                }
            ]
        },
        {
            "id": 4267,
            "verse_number": 49,
            "verse_key": "41:49",
            "hizb_number": 49,
            "rub_el_hizb_number": 193,
            "ruku_number": 420,
            "manzil_number": 6,
            "sajdah_number": null,
            "text_uthmani": "لَّا يَسْـَٔمُ ٱلْإِنسَـٰنُ مِن دُعَآءِ ٱلْخَيْرِ وَإِن مَّسَّهُ ٱلشَّرُّ فَيَـُٔوسٌ قَنُوطٌ",
            "page_number": 482,
            "juz_number": 25,
            "translations": [
                {
                    "id": 99715,
                    "resource_id": 20,
                    "text": "Man is not weary of supplication for good [things], but if evil touches him, he is hopeless and despairing."
                },
                {
                    "id": 217577,
                    "resource_id": 39,
                    "text": "Manusia tidak jemu-jemu memohon kebaikan. Dan kalau ia ditimpa kesusahan maka menjadilah ia seorang yang sangat berputus asa, lagi sangat nyata kesan putus harapnya (dari rahmat pertolongan Allah)."
                },
                {
                    "id": 1095244,
                    "resource_id": 161,
                    "text": "মানুষ নিজের কল্যাণ কামনায় দু‘আ প্রার্থনা করতে ক্লান্ত হয় না, আর মন্দ যখন তাকে স্পর্শ করে, তখন সে নৈরাশ্যে ডুবে যায়।"
                }
            ]
        },
        {
            "id": 4268,
            "verse_number": 50,
            "verse_key": "41:50",
            "hizb_number": 49,
            "rub_el_hizb_number": 193,
            "ruku_number": 420,
            "manzil_number": 6,
            "sajdah_number": null,
            "text_uthmani": "وَلَئِنْ أَذَقْنَـٰهُ رَحْمَةً مِّنَّا مِنۢ بَعْدِ ضَرَّآءَ مَسَّتْهُ لَيَقُولَنَّ هَـٰذَا لِى وَمَآ أَظُنُّ ٱلسَّاعَةَ قَآئِمَةً وَلَئِن رُّجِعْتُ إِلَىٰ رَبِّىٓ إِنَّ لِى عِندَهُۥ لَلْحُسْنَىٰ ۚ فَلَنُنَبِّئَنَّ ٱلَّذِينَ كَفَرُوا۟ بِمَا عَمِلُوا۟ وَلَنُذِيقَنَّهُم مِّنْ عَذَابٍ غَلِيظٍ",
            "page_number": 482,
            "juz_number": 25,
            "translations": [
                {
                    "id": 99719,
                    "resource_id": 20,
                    "text": "And if We let him taste mercy from Us after an adversity which has touched him, he will surely say, \"This is [due] to me,<sup foot_note=197290>1</sup> and I do not think the Hour will occur; and [even] if I should be returned to my Lord, indeed, for me there will be with Him the best.\" But We will surely inform those who disbelieved about what they did, and We will surely make them taste a massive punishment."
                },
                {
                    "id": 217567,
                    "resource_id": 39,
                    "text": "Dan demi sesungguhnya! Jika Kami beri dia merasai sesuatu rahmat dari Kami sesudah ia ditimpa sesuatu kesusahan, berkatalah ia (dengan sikap tidak bersyukur): \"Ini ialah hakku (hasil usahaku semata-mata), dan aku tidak fikir bahawa hari kiamat akan berlaku; dan kalaulah aku dikembalikan kepada Tuhanku (sekalipun), sudah tentu aku aKan beroleh kebaikan di sisiNya (seperti kesenanganku sekarang ini)!\" Maka demi sesungguhnya! Kami akan memberi tahu kepada orang-orang yang kufur ingkar itu akan keburukan apa yang mereka telah kerjakan, dan Kami akan beri mereka merasai azab seksa yang seberat-beratnya."
                },
                {
                    "id": 1095245,
                    "resource_id": 161,
                    "text": "দুঃখ-বিপদ মানুষকে স্পর্শ করার পর আমি যখন তাকে আমার অনুগ্রহ আস্বাদন করাই তখন সে অবশ্য অবশ্যই বলে- এটা আমার ন্যায্য পাওনা। ক্বিয়ামত যে সংঘটিত হবে আমি মোটেই তা মনে করি না। আর যদি আমাকে আমার প্রতিপালকের নিকট ফিরিয়ে নেয়া হয়ই, তবে তাঁর কাছে আমার জন্য অবশ্যই কল্যাণ আছে। অতঃপর আমি কাফিরদেরকে অবশ্য অবশ্যই জানিয়ে দেব তারা (দুনিয়াতে) কী কাজ করেছিল। আর অবশ্য অবশ্যই তাদেরকে আমি কঠিন শাস্তি আস্বাদন করাব।"
                }
            ]
        },
        {
            "id": 4269,
            "verse_number": 51,
            "verse_key": "41:51",
            "hizb_number": 49,
            "rub_el_hizb_number": 193,
            "ruku_number": 420,
            "manzil_number": 6,
            "sajdah_number": null,
            "text_uthmani": "وَإِذَآ أَنْعَمْنَا عَلَى ٱلْإِنسَـٰنِ أَعْرَضَ وَنَـَٔا بِجَانِبِهِۦ وَإِذَا مَسَّهُ ٱلشَّرُّ فَذُو دُعَآءٍ عَرِيضٍ",
            "page_number": 482,
            "juz_number": 25,
            "translations": [
                {
                    "id": 99721,
                    "resource_id": 20,
                    "text": "And when We bestow favor upon man, he turns away and distances himself; but when evil touches him, then he is full of extensive supplication."
                },
                {
                    "id": 217580,
                    "resource_id": 39,
                    "text": "Dan apabila Kami kurniakan nikmat kepada manusia, berpalinglah dia serta menjauhkan diri (dari bersyukur); dan apabila ia ditimpa kesusahan, maka ia berdoa merayu dengan panjang lebar."
                },
                {
                    "id": 1095246,
                    "resource_id": 161,
                    "text": "আমি যখন মানুষকে নি‘মাত দেই তখন সে মুখ ফিরিয়ে নেয়, আর পাশ কেটে (আমার থেকে দূরে) সরে যায়। আর যখন মন্দ তাকে স্পর্শ করে, তখন সে লম্বা-চওড়া দু‘আ করতে থাকে।"
                }
            ]
        },
        {
            "id": 4270,
            "verse_number": 52,
            "verse_key": "41:52",
            "hizb_number": 49,
            "rub_el_hizb_number": 193,
            "ruku_number": 420,
            "manzil_number": 6,
            "sajdah_number": null,
            "text_uthmani": "قُلْ أَرَءَيْتُمْ إِن كَانَ مِنْ عِندِ ٱللَّهِ ثُمَّ كَفَرْتُم بِهِۦ مَنْ أَضَلُّ مِمَّنْ هُوَ فِى شِقَاقٍۭ بَعِيدٍ",
            "page_number": 482,
            "juz_number": 25,
            "translations": [
                {
                    "id": 99723,
                    "resource_id": 20,
                    "text": "Say, \"Have you considered: if it [i.e., the Qur’ān] is from Allāh and you disbelieved in it, who would be more astray than one who is in extreme dissension?\""
                },
                {
                    "id": 217581,
                    "resource_id": 39,
                    "text": "Katakanlah (wahai Muhammad): \"Sudahkah nampak baiknya keadaan kamu jika Al-Quran ini (yang datangnya) dari Allah kemudian kamu mengingkarinya? Siapakah yang lebih sesat daripada orang yang tetap berada dalam perbalahan dan pertentangan, yang menyimpang jauh dari kebenaran?\""
                },
                {
                    "id": 1095247,
                    "resource_id": 161,
                    "text": "বল- তোমরা কি ভেবে দেখেছ এ (কুরআন) যদি আল্লাহর পক্ষ থেকেই এসে থাকে, আর তোমরা সেটাকে অস্বীকার করতেই থাক, তাহলে সে ব্যক্তি ছাড়া অধিক পথভ্রষ্ট আর কে আছে, যে বিরোধিতায় বহু দূরে চলে গেছে?"
                }
            ]
        },
        {
            "id": 4271,
            "verse_number": 53,
            "verse_key": "41:53",
            "hizb_number": 49,
            "rub_el_hizb_number": 193,
            "ruku_number": 420,
            "manzil_number": 6,
            "sajdah_number": null,
            "text_uthmani": "سَنُرِيهِمْ ءَايَـٰتِنَا فِى ٱلْـَٔافَاقِ وَفِىٓ أَنفُسِهِمْ حَتَّىٰ يَتَبَيَّنَ لَهُمْ أَنَّهُ ٱلْحَقُّ ۗ أَوَلَمْ يَكْفِ بِرَبِّكَ أَنَّهُۥ عَلَىٰ كُلِّ شَىْءٍ شَهِيدٌ",
            "page_number": 482,
            "juz_number": 25,
            "translations": [
                {
                    "id": 99725,
                    "resource_id": 20,
                    "text": "We will show them Our signs in the horizons and within themselves until it becomes clear to them that it is the truth.<sup foot_note=197292>1</sup> But is it not sufficient concerning your Lord that He is, over all things, a Witness?<sup foot_note=197291>2</sup>"
                },
                {
                    "id": 217589,
                    "resource_id": 39,
                    "text": "Kami akan perlihatkan kepada mereka tanda-tanda kekuasaan Kami di merata-rata tempat (dalam alam yang terbentang luas ini) dan pada diri mereka sendiri, sehingga ternyata jelas kepada mereka bahawa Al-Quran adalah benar. Belumkah ternyata kepada mereka kebenaran itu dan belumkah cukup (bagi mereka) bahawa Tuhanmu mengetahui dan menyaksikan tiap-tiap sesuatu?"
                },
                {
                    "id": 1095248,
                    "resource_id": 161,
                    "text": "আমি তাদেরকে আমার নিদর্শনাবলী দেখাব দূর দিগন্তে (অর্থাৎ দূর পর্যন্ত ইসলামের আলো বিচ্ছুরিত হবে) আর তাদের নিজেদের মধ্যেও (অর্থাৎ কাফিররা নতজানু হয়ে ইসলাম কবূল করবে) যখন তাদের কাছে স্পষ্ট হয়ে যাবে যে, এ কুরআন সত্য। এটা কি যথেষ্ট নয় যে, তোমার প্রতিপালক সব কিছুরই সাক্ষী।"
                }
            ]
        },
        {
            "id": 4272,
            "verse_number": 54,
            "verse_key": "41:54",
            "hizb_number": 49,
            "rub_el_hizb_number": 193,
            "ruku_number": 420,
            "manzil_number": 6,
            "sajdah_number": null,
            "text_uthmani": "أَلَآ إِنَّهُمْ فِى مِرْيَةٍ مِّن لِّقَآءِ رَبِّهِمْ ۗ أَلَآ إِنَّهُۥ بِكُلِّ شَىْءٍ مُّحِيطٌۢ",
            "page_number": 482,
            "juz_number": 25,
            "translations": [
                {
                    "id": 99727,
                    "resource_id": 20,
                    "text": "Unquestionably, they are in doubt about the meeting with their Lord. Unquestionably He is, of all things, encompassing."
                },
                {
                    "id": 217582,
                    "resource_id": 39,
                    "text": "Ingatlah! Sesungguhnya mereka (yang kufur ingkar) sentiasa berada di dalam keadaan syak - ragu-ragu tentang pertemuan dengan Tuhan mereka. Ingatlah! Sesungguhnya Allah Maha Meliputi pengetahuanNya akan tiap-tiap sesuatu."
                },
                {
                    "id": 1095249,
                    "resource_id": 161,
                    "text": "শুনে রাখ, এরা তাদের প্রতিপালকের সঙ্গে সাক্ষাতের ব্যাপারে সন্দেহে পড়ে আছে। শুনে রাখ, তিনি সব কিছুকেই বেষ্টন করে আছেন।"
                }
            ]
        },
        {
            "id": 4273,
            "verse_number": 1,
            "verse_key": "42:1",
            "hizb_number": 49,
            "rub_el_hizb_number": 193,
            "ruku_number": 421,
            "manzil_number": 6,
            "sajdah_number": null,
            "text_uthmani": " حمٓ",
            "page_number": 483,
            "juz_number": 25,
            "translations": [
                {
                    "id": 99760,
                    "resource_id": 20,
                    "text": "Ḥā, Meem."
                },
                {
                    "id": 214818,
                    "resource_id": 39,
                    "text": "Haa, Miim."
                },
                {
                    "id": 1095250,
                    "resource_id": 161,
                    "text": "হা-মীম।"
                }
            ]
        },
        {
            "id": 4274,
            "verse_number": 2,
            "verse_key": "42:2",
            "hizb_number": 49,
            "rub_el_hizb_number": 193,
            "ruku_number": 421,
            "manzil_number": 6,
            "sajdah_number": null,
            "text_uthmani": "عٓسٓقٓ",
            "page_number": 483,
            "juz_number": 25,
            "translations": [
                {
                    "id": 99774,
                    "resource_id": 20,
                    "text": "ʿAyn, Seen, Qāf.<sup foot_note=197293>1</sup>"
                },
                {
                    "id": 214820,
                    "resource_id": 39,
                    "text": "Ain, Siin, Qaaf."
                },
                {
                    "id": 1095251,
                    "resource_id": 161,
                    "text": "‘আইন-সীন-ক্বাফ।"
                }
            ]
        }
    ],
    "pagination": {
        "per_page": 10,
        "current_page": 1,
        "next_page": 2,
        "total_pages": 25,
        "total_records": 246
    }
}