{
    "verses": [
        {
            "id": 260,
            "verse_number": 253,
            "verse_key": "2:253",
            "hizb_number": 5,
            "rub_el_hizb_number": 17,
            "ruku_number": 34,
            "manzil_number": 1,
            "sajdah_number": null,
            "text_uthmani": "۞ تِلْكَ ٱلرُّسُلُ فَضَّلْنَا بَعْضَهُمْ عَلَىٰ بَعْضٍ ۘ مِّنْهُم مَّن كَلَّمَ ٱللَّهُ ۖ وَرَفَعَ بَعْضَهُمْ دَرَجَـٰتٍ ۚ وَءَاتَيْنَا عِيسَى ٱبْنَ مَرْيَمَ ٱلْبَيِّنَـٰتِ وَأَيَّدْنَـٰهُ بِرُوحِ ٱلْقُدُسِ ۗ وَلَوْ شَآءَ ٱللَّهُ مَا ٱقْتَتَلَ ٱلَّذِينَ مِنۢ بَعْدِهِم مِّنۢ بَعْدِ مَا جَآءَتْهُمُ ٱلْبَيِّنَـٰتُ وَلَـٰكِنِ ٱخْتَلَفُوا۟ فَمِنْهُم مَّنْ ءَامَنَ وَمِنْهُم مَّن كَفَرَ ۚ وَلَوْ شَآءَ ٱللَّهُ مَا ٱقْتَتَلُوا۟ وَلَـٰكِنَّ ٱللَّهَ يَفْعَلُ مَا يُرِيدُ",
            "page_number": 42,
            "juz_number": 3,
            "translations": [
                {
                    "id": 97724,
                    "resource_id": 20,
                    "text": "Those messengers - some of them We caused to exceed others. Among them were those to whom Allāh spoke, and He raised some of them in degree. And We gave Jesus, the son of Mary, clear proofs, and We supported him with the Pure Spirit [i.e., Gabriel]. If Allāh had willed, those [generations] succeeding them would not have fought each other after the clear proofs had come to them. But they differed, and some of them believed and some of them disbelieved. And if Allāh had willed, they would not have fought each other, but Allāh does what He intends."
                },
                {
                    "id": 215593,
                    "resource_id": 39,
                    "text": "Rasul-rasul Kami lebihkan sebahagian daripada mereka atas sebahagian yang lain (dengan kelebihan-kelebihan yang tertentu). Di antara mereka ada yang Allah berkata-kata dengannya, dan ditinggikanNya (pangkat) sebahagian daripada mereka beberapa darjat kelebihan. Dan Kami berikan Nabi Isa ibni Maryam beberapa keterangan kebenaran (mukjizat), serta Kami kuatkan dia dengan Ruhul-Qudus (Jibril). Dan sekiranya Allah menghendaki nescaya orang-orang yang datang kemudian daripada Rasul-rasul itu tidak berbunuh-bunuhan sesudah datang kepada mereka keterangan-keterangan (yang dibawa oleh Rasul mereka). Tetapi mereka bertelingkah, maka timbulah di antara mereka: orang yang beriman, dan orang yang kafir. Dan kalaulah Allah menghendaki tentulah mereka tidak berbunuh-bunuhan; tetapi Allah melakukan apa yang dikehendakiNya."
                },
                {
                    "id": 1091237,
                    "resource_id": 161,
                    "text": "এ রসূলগণ এরূপ যে, তাদের মধ্যে কাউকে অন্য কারও উপর শ্রেষ্ঠত্ব দিয়েছি। তাদের মধ্যে কেউ এমন আছে যে, তাদের সাথে আল্লাহ কথা বলেছেন এবং তাদের কাউকে পদমর্যাদায় উচ্চ করেছেন। আমি মারইয়ামের পুত্র ঈসাকে সুস্পষ্ট দলীলসমূহ প্রদান করেছি, রূহুল কুদুস (জিবরাঈল) দ্বারা সাহায্য করেছি এবং আল্লাহ যদি ইচ্ছে করতেন, তাহলে তাদের পরবর্তীরা তাদের নিকট সুস্পষ্ট দলীল পৌঁছার পর পরস্পর যুদ্ধ বিগ্রহ করত না, কিন্তু তারা পরস্পর মতভেদ সৃষ্টি করল, তাদের কেউ কেউ ঈমান আনল এবং কেউ কেউ কুফরী করল, আল্লাহ যদি ইচ্ছে করতেন, তাহলে তারা যুদ্ধবিগ্রহ করত না, কিন্তু আল্লাহ যা ইচ্ছে করেন, তা-ই করে থাকেন।"
                }
            ]
        },
        {
            "id": 261,
            "verse_number": 254,
            "verse_key": "2:254",
            "hizb_number": 5,
            "rub_el_hizb_number": 17,
            "ruku_number": 35,
            "manzil_number": 1,
            "sajdah_number": null,
            "text_uthmani": "يَـٰٓأَيُّهَا ٱلَّذِينَ ءَامَنُوٓا۟ أَنفِقُوا۟ مِمَّا رَزَقْنَـٰكُم مِّن قَبْلِ أَن يَأْتِىَ يَوْمٌ لَّا بَيْعٌ فِيهِ وَلَا خُلَّةٌ وَلَا شَفَـٰعَةٌ ۗ وَٱلْكَـٰفِرُونَ هُمُ ٱلظَّـٰلِمُونَ",
            "page_number": 42,
            "juz_number": 3,
            "translations": [
                {
                    "id": 97726,
                    "resource_id": 20,
                    "text": "O you who have believed, spend from that which We have provided for you before there comes a Day in which there is no exchange [i.e., ransom] and no friendship and no intercession. And the disbelievers - they are the wrongdoers."
                },
                {
                    "id": 215595,
                    "resource_id": 39,
                    "text": "Wahai orang-orang yang beriman! Sebarkanlah sebahagian dari apa yang telah Kami berikan kepada kamu, sebelum tibanya hari (kiamat) yang tidak ada jual-beli padanya, dan tidak ada kawan teman (yang memberi manfaat), serta tidak ada pula pertolongan syafaat. Dan orang-orang kafir, mereka itulah orang-orang yang zalim."
                },
                {
                    "id": 1091238,
                    "resource_id": 161,
                    "text": "হে ঈমানদারগণ! আমার দেয়া জীবিকা থেকে খরচ কর সেদিন আসার পূর্বে যেদিন কোন বিক্রয়, বন্ধুত্ব এবং সুপারিশ কাজে আসবে না। বস্তুতঃ কাফিরগণই অত্যাচারী।"
                }
            ]
        },
        {
            "id": 262,
            "verse_number": 255,
            "verse_key": "2:255",
            "hizb_number": 5,
            "rub_el_hizb_number": 17,
            "ruku_number": 35,
            "manzil_number": 1,
            "sajdah_number": null,
            "text_uthmani": "ٱللَّهُ لَآ إِلَـٰهَ إِلَّا هُوَ ٱلْحَىُّ ٱلْقَيُّومُ ۚ لَا تَأْخُذُهُۥ سِنَةٌ وَلَا نَوْمٌ ۚ لَّهُۥ مَا فِى ٱلسَّمَـٰوَٰتِ وَمَا فِى ٱلْأَرْضِ ۗ مَن ذَا ٱلَّذِى يَشْفَعُ عِندَهُۥٓ إِلَّا بِإِذْنِهِۦ ۚ يَعْلَمُ مَا بَيْنَ أَيْدِيهِمْ وَمَا خَلْفَهُمْ ۖ وَلَا يُحِيطُونَ بِشَىْءٍ مِّنْ عِلْمِهِۦٓ إِلَّا بِمَا شَآءَ ۚ وَسِعَ كُرْسِيُّهُ ٱلسَّمَـٰوَٰتِ وَٱلْأَرْضَ ۖ وَلَا يَـُٔودُهُۥ حِفْظُهُمَا ۚ وَهُوَ ٱلْعَلِىُّ ٱلْعَظِيمُ",
            "page_number": 42,
            "juz_number": 3,
            "translations": [
                {
                    "id": 97729,
                    "resource_id": 20,
                    "text": "Allāh - there is no deity except Him, the Ever-Living,<sup foot_note=196031>1</sup> the Self-Sustaining.<sup foot_note=196030>2</sup> Neither drowsiness overtakes Him nor sleep. To Him belongs whatever is in the heavens and whatever is on the earth. Who is it that can intercede with Him except by His permission? He knows what is [presently] before them and what will be after them,<sup foot_note=196029>3</sup> and they encompass not a thing of His knowledge except for what He wills. His Kursī<sup foot_note=196028>4</sup> extends over the heavens and the earth, and their preservation tires Him not. And He is the Most High,<sup foot_note=196027>5</sup> the Most Great.<sup foot_note=196026>6</sup>"
                },
                {
                    "id": 215598,
                    "resource_id": 39,
                    "text": "Allah, tiada Tuhan (yang berhak disembah) melainkan Dia, Yang Tetap hidup, Yang Kekal selama-lamanya mentadbirkan (sekalian makhlukNya). Yang tidak mengantuk usahkan tidur. Yang memiliki segala yang ada di langit dan yang ada di bumi. Tiada sesiapa yang dapat memberi syafaat (pertolongan) di sisiNya melainkan dengan izinNya. yang mengetahui apa yang ada di hadapan mereka dan apa yang ada di belakang mereka, sedang mereka tidak mengetahui sesuatu pun dari (kandungan) ilmu Allah melainkan apa yang Allah kehendaki (memberitahu kepadanya). Luasnya Kursi Allah (ilmuNya dan kekuasaanNya) meliputi langit dan bumi; dan tiadalah menjadi keberatan kepada Allah menjaga serta memelihara keduanya. Dan Dia lah Yang Maha Tinggi (darjat kemuliaanNya), lagi Maha Besar (kekuasaanNya)"
                },
                {
                    "id": 1091239,
                    "resource_id": 161,
                    "text": "আল্লাহ, তিনি ছাড়া সত্যিকারের কোন উপাস্য নেই, তিনি চিরঞ্জীব, সর্বদা রক্ষণাবেক্ষণকারী। তাঁকে তন্দ্রা ও নিদ্রা স্পর্শ করে না। আকাশমন্ডলে ও ভূমন্ডলে যা কিছু আছে, তাঁরই। কে সেই ব্যক্তি যে তাঁর অনুমতি ছাড়া তাঁর নিকট সুপারিশ করে? তিনি লোকদের সমুদয় প্রকাশ্য ও অপ্রকাশ্য অবস্থা জানেন। পক্ষান্তরে মানুষ তাঁর জ্ঞানের কোনকিছুই আয়ত্ত করতে সক্ষম নয়, তিনি যে পরিমাণ ইচ্ছে করেন সেটুকু ছাড়া। তাঁর কুরসী আকাশ ও পৃথিবী পরিবেষ্টন করে আছে এবং এ দু’য়ের রক্ষণাবেক্ষণ তাঁকে ক্লান্ত করে না, তিনি উচ্চ মর্যাদাশীল, মহান।"
                }
            ]
        },
        {
            "id": 263,
            "verse_number": 256,
            "verse_key": "2:256",
            "hizb_number": 5,
            "rub_el_hizb_number": 17,
            "ruku_number": 35,
            "manzil_number": 1,
            "sajdah_number": null,
            "text_uthmani": "لَآ إِكْرَاهَ فِى ٱلدِّينِ ۖ قَد تَّبَيَّنَ ٱلرُّشْدُ مِنَ ٱلْغَىِّ ۚ فَمَن يَكْفُرْ بِٱلطَّـٰغُوتِ وَيُؤْمِنۢ بِٱللَّهِ فَقَدِ ٱسْتَمْسَكَ بِٱلْعُرْوَةِ ٱلْوُثْقَىٰ لَا ٱنفِصَامَ لَهَا ۗ وَٱللَّهُ سَمِيعٌ عَلِيمٌ",
            "page_number": 42,
            "juz_number": 3,
            "translations": [
                {
                    "id": 97731,
                    "resource_id": 20,
                    "text": "There shall be no compulsion in [acceptance of] the religion. The right course has become distinct from the wrong. So whoever disbelieves in ṭāghūt<sup foot_note=196032>1</sup> and believes in Allāh has grasped the most trustworthy handhold with no break in it. And Allāh is Hearing and Knowing."
                },
                {
                    "id": 215602,
                    "resource_id": 39,
                    "text": "Tidak ada paksaan dalam ugama (Islam), kerana sesungguhnya telah nyata kebenaran (Islam) dari kesesatan (kufur). Oleh itu, sesiapa yang tidak percayakan Taghut, dan ia pula beriman kepada Allah, maka sesungguhnya ia telah berpegang kepada simpulan (tali ugama) yang teguh yang tidak akan putus. Dan (ingatlah), Allah Maha Mendengar, lagi Maha Mengetahui."
                },
                {
                    "id": 1091240,
                    "resource_id": 161,
                    "text": "দীনের মধ্যে জবরদস্তির অবকাশ নেই, নিশ্চয় হিদায়াত গোমরাহী হতে সুস্পষ্ট হয়ে গেছে। কাজেই যে ব্যক্তি মিথ্যে মা’বুদদেরকে (তাগুতকে) অমান্য করল এবং আল্লাহর প্রতি ঈমান আনল, নিশ্চয়ই সে দৃঢ়তর রজ্জু ধারণ করল যা ছিন্ন হওয়ার নয়। আল্লাহ সর্বশ্রোতা এবং সর্বজ্ঞাতা।"
                }
            ]
        },
        {
            "id": 264,
            "verse_number": 257,
            "verse_key": "2:257",
            "hizb_number": 5,
            "rub_el_hizb_number": 17,
            "ruku_number": 35,
            "manzil_number": 1,
            "sajdah_number": null,
            "text_uthmani": "ٱللَّهُ وَلِىُّ ٱلَّذِينَ ءَامَنُوا۟ يُخْرِجُهُم مِّنَ ٱلظُّلُمَـٰتِ إِلَى ٱلنُّورِ ۖ وَٱلَّذِينَ كَفَرُوٓا۟ أَوْلِيَآؤُهُمُ ٱلطَّـٰغُوتُ يُخْرِجُونَهُم مِّنَ ٱلنُّورِ إِلَى ٱلظُّلُمَـٰتِ ۗ أُو۟لَـٰٓئِكَ أَصْحَـٰبُ ٱلنَّارِ ۖ هُمْ فِيهَا خَـٰلِدُونَ",
            "page_number": 43,
            "juz_number": 3,
            "translations": [
                {
                    "id": 97733,
                    "resource_id": 20,
                    "text": "Allāh is the Ally<sup foot_note=196034>1</sup> of those who believe. He brings them out from darknesses into the light. And those who disbelieve - their allies are ṭāghūt. They take them out of the light into darknesses.<sup foot_note=196033>2</sup> Those are the companions of the Fire; they will abide eternally therein."
                },
                {
                    "id": 215601,
                    "resource_id": 39,
                    "text": "Allah Pelindung (Yang mengawal dan menolong) orang-orang yang beriman. Ia mengeluarkan mereka dari kegelapan (kufur) kepada cahaya (iman). Dan orang-orang yang kafir, penolong-penolong mereka ialah Taghut yang mengeluarkan mereka dari cahaya (iman) kepada kegelapan (kufur). Mereka itulah ahli neraka, mereka kekal di dalamnya."
                },
                {
                    "id": 1091241,
                    "resource_id": 161,
                    "text": "আল্লাহ মু’মিনদের অভিভাবক, তাদেরকে অন্ধকার থেকে আলোর দিকে বের করে আনেন এবং কাফিরদের অভিভাবক হচ্ছে তাগুত, সে তাদেরকে আলো থেকে অন্ধকারের দিকে নিয়ে যায়। এরাই আগুনের বাসিন্দা, এরা চিরকাল সেখানে থাকবে।"
                }
            ]
        },
        {
            "id": 265,
            "verse_number": 258,
            "verse_key": "2:258",
            "hizb_number": 5,
            "rub_el_hizb_number": 17,
            "ruku_number": 36,
            "manzil_number": 1,
            "sajdah_number": null,
            "text_uthmani": "أَلَمْ تَرَ إِلَى ٱلَّذِى حَآجَّ إِبْرَٰهِـۧمَ فِى رَبِّهِۦٓ أَنْ ءَاتَىٰهُ ٱللَّهُ ٱلْمُلْكَ إِذْ قَالَ إِبْرَٰهِـۧمُ رَبِّىَ ٱلَّذِى يُحْىِۦ وَيُمِيتُ قَالَ أَنَا۠ أُحْىِۦ وَأُمِيتُ ۖ قَالَ إِبْرَٰهِـۧمُ فَإِنَّ ٱللَّهَ يَأْتِى بِٱلشَّمْسِ مِنَ ٱلْمَشْرِقِ فَأْتِ بِهَا مِنَ ٱلْمَغْرِبِ فَبُهِتَ ٱلَّذِى كَفَرَ ۗ وَٱللَّهُ لَا يَهْدِى ٱلْقَوْمَ ٱلظَّـٰلِمِينَ",
            "page_number": 43,
            "juz_number": 3,
            "translations": [
                {
                    "id": 97735,
                    "resource_id": 20,
                    "text": "Have you not considered the one who argued with Abraham about his Lord [merely] because Allāh had given him kingship? When Abraham said, \"My Lord is the one who gives life and causes death,\" he said, \"I give life and cause death.\" Abraham said, \"Indeed, Allāh brings up the sun from the east, so bring it up from the west.\" So the disbeliever was overwhelmed [by astonishment], and Allāh does not guide the wrongdoing people."
                },
                {
                    "id": 215603,
                    "resource_id": 39,
                    "text": "Tidakkah engkau (pelik) memikirkan (wahai Muhammad) tentang orang yang berhujah membantah Nabi Ibrahim (dengan sombongnya) mengenai Tuhannya, kerana Allah memberikan orang itu kuasa pemerintahan? Ketika Nabi Ibrahim berkata: \"Tuhanku ialah Yang menghidupkan dan Yang mematikan\". Ia menjawab: \"Aku juga boleh menghidupkan dan mematikan\". Nabi Ibrahim berkata lagi: \"Sesungguhnya Allah menerbitkan matahari dari timur, oleh itu terbitkanlah dia dari barat?\" Maka tercenganglah orang yang kafir itu (lalu diam membisu). Dan (ingatlah), Allah tidak akan memberikan petunjuk kepada kaum yang zalim."
                },
                {
                    "id": 1091242,
                    "resource_id": 161,
                    "text": "তুমি কি সেই ব্যক্তির ঘটনা সম্পর্কে চিন্তা কর নি, যে ইবরাহীমের সঙ্গে তার প্রতিপালক সম্বন্ধে তর্ক করেছিল, যেহেতু আল্লাহ তাকে রাজত্ব দান করেছিলেন। ইবরাহীম তাকে যখন বলল, ‘আমার প্রতিপালক তিনিই, যিনি জীবিত করেন এবং মৃত্যু ঘটান’। সে বলল, ‘আমিও জীবিত করি এবং মৃত্যু ঘটাই’। ইবরাহীম বলল, ‘আল্লাহ সূর্যকে পূর্ব দিক থেকে উদিত করেন, তুমি তাকে পশ্চিম দিক থেকে উদিত কর’। তখন সেই কাফিরটি হতভম্ব হয়ে গেল। বস্তুতঃ আল্লাহ যালিমদেরকে সুপথ দেখান না।"
                }
            ]
        },
        {
            "id": 266,
            "verse_number": 259,
            "verse_key": "2:259",
            "hizb_number": 5,
            "rub_el_hizb_number": 17,
            "ruku_number": 36,
            "manzil_number": 1,
            "sajdah_number": null,
            "text_uthmani": "أَوْ كَٱلَّذِى مَرَّ عَلَىٰ قَرْيَةٍ وَهِىَ خَاوِيَةٌ عَلَىٰ عُرُوشِهَا قَالَ أَنَّىٰ يُحْىِۦ هَـٰذِهِ ٱللَّهُ بَعْدَ مَوْتِهَا ۖ فَأَمَاتَهُ ٱللَّهُ مِا۟ئَةَ عَامٍ ثُمَّ بَعَثَهُۥ ۖ قَالَ كَمْ لَبِثْتَ ۖ قَالَ لَبِثْتُ يَوْمًا أَوْ بَعْضَ يَوْمٍ ۖ قَالَ بَل لَّبِثْتَ مِا۟ئَةَ عَامٍ فَٱنظُرْ إِلَىٰ طَعَامِكَ وَشَرَابِكَ لَمْ يَتَسَنَّهْ ۖ وَٱنظُرْ إِلَىٰ حِمَارِكَ وَلِنَجْعَلَكَ ءَايَةً لِّلنَّاسِ ۖ وَٱنظُرْ إِلَى ٱلْعِظَامِ كَيْفَ نُنشِزُهَا ثُمَّ نَكْسُوهَا لَحْمًا ۚ فَلَمَّا تَبَيَّنَ لَهُۥ قَالَ أَعْلَمُ أَنَّ ٱللَّهَ عَلَىٰ كُلِّ شَىْءٍ قَدِيرٌ",
            "page_number": 43,
            "juz_number": 3,
            "translations": [
                {
                    "id": 97737,
                    "resource_id": 20,
                    "text": "Or [consider such an example] as the one who passed by a township which had fallen into ruin. He said, \"How will Allāh bring this to life after its death?\" So Allāh caused him to die for a hundred years; then He revived him. He said, \"How long have you remained?\" He [the man] said, \"I have remained a day or part of a day.\" He said, \"Rather, you have remained one hundred years. Look at your food and your drink; it has not changed with time. And look at your donkey; and We will make you a sign for the people. And look at the bones [of this donkey] - how We raise them and then We cover them with flesh.\" And when it became clear to him, he said, \"I know that Allāh is over all things competent.\""
                },
                {
                    "id": 215606,
                    "resource_id": 39,
                    "text": "Atau (tidakkah engkau pelik memikirkan wahai Muhammad) tentang orang yang melalui sebuah negeri yang telah runtuh segala bangunannya, orang itu berkata: \"Bagaimana Allah akan menghidupkan (membina semula) negeri ini sesudah matinya (rosak binasanya)? \" Lalu ia dimatikan oleh Allah (dan dibiarkan tidak berubah) selama seratus tahun, kemudian Allah hidupkan dia semula lalu bertanya kepadanya: \"Berapa lama engkau tinggal (di sini)?\" Ia menjawab: \"Aku telah tinggal (di sini) sehari atau setengah hari\". Allah berfirman:\" (Tidak benar), bahkan engkau telah tinggal (berkeadaan demikian) selama seratus tahun. Oleh itu, perhatikanlah kepada makanan dan minumanmu, masih tidak berubah keadaannya, dan perhatikanlah pula kepada keldaimu (hanya tinggal tulang-tulangnya bersepah), dan Kami (lakukan ini ialah untuk) menjadikan engkau sebagai tanda (kekuasaan Kami) bagi umat manusia; dan lihatlah kepada tulang-tulang (keldai) itu, bagaimana Kami menyusunnya kembali kemudian Kami menyalutnya dengan daging \". Maka apabila telah jelas kepadanya (apa yang berlaku itu), berkatalah dia: Sekarang aku mengetahuinya (dengan yakin), sesungguhnya Allah Maha Kuasa atas tiap-tiap sesuatu\"."
                },
                {
                    "id": 1091243,
                    "resource_id": 161,
                    "text": "কিংবা এমন ব্যক্তির ঘটনা সম্পর্কে (তুমি কি চিন্তা করনি) যে এক নগর দিয়ে এমন অবস্থায় যাচ্ছিল যে তা উজাড় অবস্থায় ছিল। সে বলল, ‘আল্লাহ এ নগরীকে এর মৃত্যুর পরে কীভাবে জীবিত করবেন’? তখন আল্লাহ তাকে একশ’ বছর মৃত রাখলেন। তারপর তাকে জীবিত করে তুললেন ও জিজ্ঞেস করলেন, ‘তুমি এ অবস্থায় কতকাল ছিলে’? সে বলল, ‘একদিন ছিলাম কিংবা একদিন হতেও কম’। আল্লাহ বললেন, ‘বরং তুমি একশ’ বছর ছিলে, এক্ষণে তুমি তোমার খাদ্যের ও পানীয়ের দিকে লক্ষ্য কর, এটা পচে যায়নি। আর গাধাটার দিকে তাকিয়ে দেখ, আর এতে উদ্দেশ্য এই যে, আমি তোমাকে মানুষের জন্য উদাহরণ করব। আবার তুমি হাড়গুলোর দিকে লক্ষ্য কর, আমি কীভাবে ওগুলো জোড়া লাগিয়ে দেই, তারপর গোশত দ্বারা ঢেকে দেই। এরপর যখন তার কাছে স্পষ্ট হয়ে গেল, তখন সে বলল, ‘এখন আমি পূর্ণ বিশ্বাস করছি যে, আল্লাহ্ই সর্ববিষয়ে সর্বশক্তিমান’।"
                }
            ]
        },
        {
            "id": 267,
            "verse_number": 260,
            "verse_key": "2:260",
            "hizb_number": 5,
            "rub_el_hizb_number": 17,
            "ruku_number": 36,
            "manzil_number": 1,
            "sajdah_number": null,
            "text_uthmani": "وَإِذْ قَالَ إِبْرَٰهِـۧمُ رَبِّ أَرِنِى كَيْفَ تُحْىِ ٱلْمَوْتَىٰ ۖ قَالَ أَوَلَمْ تُؤْمِن ۖ قَالَ بَلَىٰ وَلَـٰكِن لِّيَطْمَئِنَّ قَلْبِى ۖ قَالَ فَخُذْ أَرْبَعَةً مِّنَ ٱلطَّيْرِ فَصُرْهُنَّ إِلَيْكَ ثُمَّ ٱجْعَلْ عَلَىٰ كُلِّ جَبَلٍ مِّنْهُنَّ جُزْءًا ثُمَّ ٱدْعُهُنَّ يَأْتِينَكَ سَعْيًا ۚ وَٱعْلَمْ أَنَّ ٱللَّهَ عَزِيزٌ حَكِيمٌ",
            "page_number": 44,
            "juz_number": 3,
            "translations": [
                {
                    "id": 97741,
                    "resource_id": 20,
                    "text": "And [mention] when Abraham said, \"My Lord, show me how You give life to the dead.\" [Allāh] said, \"Have you not believed?\" He said, \"Yes, but [I ask] only that my heart may be satisfied.\" [Allāh] said, \"Take four birds and commit them to yourself.<sup foot_note=196035>1</sup> Then [after slaughtering them] put on each hill a portion of them; then call them - they will come [flying] to you in haste. And know that Allāh is Exalted in Might and Wise.\""
                },
                {
                    "id": 215610,
                    "resource_id": 39,
                    "text": "Dan (ingatlah) ketika Nabi Ibrahim (merayu dengan) berkata: \"Wahai Tuhanku! Perlihatkanlah kepadaku bagaimana Engkau menghidupkan makhluk-makhluk yang mati?\" Allah berfirman: \"Adakah engkau belum percaya (kepada kekuasaanku)?\" Nabi Ibrahim menjawab: \"Bahkan (aku percaya dan yakin), akan tetapi (aku memohon yang demikian ialah) supaya tenteram hatiku (yang amat ingin menyaksikannya)\". Allah berfirman: \"(Jika demikian), ambilah empat ekor burung, kemudian kumpulkanlah olehmu (dan cincanglah semuanya). Setelah itu letakkanlah di atas tiap-tiap sebuah bukit sebahagian daripadanya. Kemudian serulah burung-burung itu nescaya semuanya akan datang kepadamu dengan segera\". Dan ketahuilah sesungguhnya Allah Maha Kuasa, lagi Maha Bijaksana."
                },
                {
                    "id": 1091244,
                    "resource_id": 161,
                    "text": "যখন ইবরাহীম বলেছিল, ‘হে আমার প্রতিপালক! তুমি মৃতকে কীরূপে জীবিত করবে আমাকে দেখাও’। আল্লাহ বললেন, ‘তুমি কি বিশ্বাস কর না’? সে আরয করল, ‘নিশ্চয়ই, তবে যাতে আমার অন্তঃকরণ স্বস্তি লাভ করে (এজন্য তা দেখতে চাই)’। আল্লাহ বললেন, তাহলে চারটি পাখী নাও এবং তাদেরকে বশীভূত কর। তারপর ওদের এক এক টুকরো প্রত্যেক পাহাড়ের উপর রেখে দাও, অতঃপর সেগুলোকে ডাক দাও, তোমার নিকট দৌড়ে আসবে। জেনে রেখ যে, নিশ্চয় আল্লাহ মহাপরাক্রমশালী, প্রজ্ঞাময়।"
                }
            ]
        },
        {
            "id": 268,
            "verse_number": 261,
            "verse_key": "2:261",
            "hizb_number": 5,
            "rub_el_hizb_number": 17,
            "ruku_number": 37,
            "manzil_number": 1,
            "sajdah_number": null,
            "text_uthmani": "مَّثَلُ ٱلَّذِينَ يُنفِقُونَ أَمْوَٰلَهُمْ فِى سَبِيلِ ٱللَّهِ كَمَثَلِ حَبَّةٍ أَنۢبَتَتْ سَبْعَ سَنَابِلَ فِى كُلِّ سُنۢبُلَةٍ مِّا۟ئَةُ حَبَّةٍ ۗ وَٱللَّهُ يُضَـٰعِفُ لِمَن يَشَآءُ ۗ وَٱللَّهُ وَٰسِعٌ عَلِيمٌ",
            "page_number": 44,
            "juz_number": 3,
            "translations": [
                {
                    "id": 97743,
                    "resource_id": 20,
                    "text": "The example of those who spend their wealth in the way of Allāh is like a seed [of grain] which grows seven spikes; in each spike is a hundred grains. And Allāh multiplies [His reward] for whom He wills. And Allāh is all-Encompassing and Knowing."
                },
                {
                    "id": 215612,
                    "resource_id": 39,
                    "text": "Bandingan (derma) orang-orang yang membelanjakan hartanya pada jalan Allah, ialah sama seperti sebiji benih yang tumbuh menerbitkan tujuh tangkai; tiap-tiap tangkai itu pula mengandungi seratus biji. Dan (ingatlah), Allah akan melipatgandakan pahala bagi sesiapa yang dikehendakiNya, dan Allah Maha Luas (rahmat) kurniaNya, lagi Meliputi ilmu pengetahuanNya."
                },
                {
                    "id": 1091245,
                    "resource_id": 161,
                    "text": "যারা আল্লাহর পথে নিজেদের মাল ব্যয় করে, তাদের (দানের) তুলনা সেই বীজের মত, যাত্থেকে সাতটি শীষ জন্মিল, প্রত্যেক শীষে একশত করে দানা এবং আল্লাহ যাকে ইচ্ছে করেন, বর্ধিত হারে দিয়ে থাকেন। বস্তুতঃ আল্লাহ প্রাচুর্যের অধিকারী, জ্ঞানময়।"
                }
            ]
        },
        {
            "id": 269,
            "verse_number": 262,
            "verse_key": "2:262",
            "hizb_number": 5,
            "rub_el_hizb_number": 17,
            "ruku_number": 37,
            "manzil_number": 1,
            "sajdah_number": null,
            "text_uthmani": "ٱلَّذِينَ يُنفِقُونَ أَمْوَٰلَهُمْ فِى سَبِيلِ ٱللَّهِ ثُمَّ لَا يُتْبِعُونَ مَآ أَنفَقُوا۟ مَنًّا وَلَآ أَذًى ۙ لَّهُمْ أَجْرُهُمْ عِندَ رَبِّهِمْ وَلَا خَوْفٌ عَلَيْهِمْ وَلَا هُمْ يَحْزَنُونَ",
            "page_number": 44,
            "juz_number": 3,
            "translations": [
                {
                    "id": 97745,
                    "resource_id": 20,
                    "text": "Those who spend their wealth in the way of Allāh and then do not follow up what they have spent with reminders [of it] or [other] injury will have their reward with their Lord, and there will be no fear concerning them, nor will they grieve."
                },
                {
                    "id": 215614,
                    "resource_id": 39,
                    "text": "Orang-orang yang membelanjakan hartanya pada jalan (ugama) Allah, kemudian mereka tidak mengiringi apa yang mereka belanjakan itu dengan perkataan membangkit-bangkit (pemberiannya), dan tidak pula menyinggung atau menyakiti (pihak yang diberi), mereka beroleh pahala di sisi Tuhan mereka, dan tidak ada kebimbangan (dari berlakunya kejadian yang tidak baik) terhadap mereka, dan mereka pula tidak akan berdukacita."
                },
                {
                    "id": 1091246,
                    "resource_id": 161,
                    "text": "যারা আল্লাহর পথে নিজেদের ধন ব্যয় ক’রে নিজেদের দানের কথা মনে করিয়ে দেয় না আর (দান গ্রহীতাকে) কষ্ট দেয় না, তাদের প্রতিদান তাদের প্রতিপালকের নিকট নির্ধারিত আছে, তাদের কোন ভয় নেই, মর্মপীড়াও নেই।"
                }
            ]
        }
    ],
    "pagination": {
        "per_page": 10,
        "current_page": 1,
        "next_page": 2,
        "total_pages": 13,
        "total_records": 126
    }
}