{
    "verses": [
        {
            "id": 5673,
            "verse_number": 1,
            "verse_key": "78:1",
            "hizb_number": 59,
            "rub_el_hizb_number": 233,
            "ruku_number": 520,
            "manzil_number": 7,
            "sajdah_number": null,
            "text_uthmani": " عَمَّ يَتَسَآءَلُونَ",
            "page_number": 582,
            "juz_number": 30,
            "translations": [
                {
                    "id": 101701,
                    "resource_id": 20,
                    "text": "About what are they asking one another?"
                },
                {
                    "id": 219530,
                    "resource_id": 39,
                    "text": "Tentang apakah mereka bertanya-tanya?"
                },
                {
                    "id": 1096650,
                    "resource_id": 161,
                    "text": "লোকেরা কোন বিষয়ে একে অন্যের কাছে জিজ্ঞাসাবাদ করছে?"
                }
            ]
        },
        {
            "id": 5674,
            "verse_number": 2,
            "verse_key": "78:2",
            "hizb_number": 59,
            "rub_el_hizb_number": 233,
            "ruku_number": 520,
            "manzil_number": 7,
            "sajdah_number": null,
            "text_uthmani": "عَنِ ٱلنَّبَإِ ٱلْعَظِيمِ",
            "page_number": 582,
            "juz_number": 30,
            "translations": [
                {
                    "id": 101713,
                    "resource_id": 20,
                    "text": "About the great news<sup foot_note=197673>1</sup> -"
                },
                {
                    "id": 219540,
                    "resource_id": 39,
                    "text": "Tentang berita yang besar, (berita kebangkitan manusia hidup semula menerima balasannya)."
                },
                {
                    "id": 1096651,
                    "resource_id": 161,
                    "text": "(ক্বিয়ামত সংঘটিত হওয়ার) সেই মহা সংবাদের বিষয়ে,"
                }
            ]
        },
        {
            "id": 5675,
            "verse_number": 3,
            "verse_key": "78:3",
            "hizb_number": 59,
            "rub_el_hizb_number": 233,
            "ruku_number": 520,
            "manzil_number": 7,
            "sajdah_number": null,
            "text_uthmani": "ٱلَّذِى هُمْ فِيهِ مُخْتَلِفُونَ",
            "page_number": 582,
            "juz_number": 30,
            "translations": [
                {
                    "id": 101725,
                    "resource_id": 20,
                    "text": "That over which they are in disagreement."
                },
                {
                    "id": 219551,
                    "resource_id": 39,
                    "text": "Yang mereka (ragu-ragu dan) berselisihan mengenainya."
                },
                {
                    "id": 1096652,
                    "resource_id": 161,
                    "text": "যে বিষয়ে তাদের মাঝে মতপার্থক্য আছে।"
                }
            ]
        },
        {
            "id": 5676,
            "verse_number": 4,
            "verse_key": "78:4",
            "hizb_number": 59,
            "rub_el_hizb_number": 233,
            "ruku_number": 520,
            "manzil_number": 7,
            "sajdah_number": null,
            "text_uthmani": "كَلَّا سَيَعْلَمُونَ",
            "page_number": 582,
            "juz_number": 30,
            "translations": [
                {
                    "id": 101733,
                    "resource_id": 20,
                    "text": "No! They are going to know."
                },
                {
                    "id": 219563,
                    "resource_id": 39,
                    "text": "Jangan! (Janganlah mereka bersikap demikian!) Mereka akan mengetahui (dengan yakin tentang kebenaran hari balasan itu)."
                },
                {
                    "id": 1096653,
                    "resource_id": 161,
                    "text": "কক্ষনো না, (তারা যা ধারণা করে তা একেবারে, অলীক ও অবাস্তব), তারা শীঘ্রই জানতে পারবে।"
                }
            ]
        },
        {
            "id": 5677,
            "verse_number": 5,
            "verse_key": "78:5",
            "hizb_number": 59,
            "rub_el_hizb_number": 233,
            "ruku_number": 520,
            "manzil_number": 7,
            "sajdah_number": null,
            "text_uthmani": "ثُمَّ كَلَّا سَيَعْلَمُونَ",
            "page_number": 582,
            "juz_number": 30,
            "translations": [
                {
                    "id": 101736,
                    "resource_id": 20,
                    "text": "Then, no! They are going to know."
                },
                {
                    "id": 219733,
                    "resource_id": 39,
                    "text": "Sekali lagi jangan! (Janganlah mereka berselisihan!) Mereka akan mengetahui kelak (tentang apa yang akan menimpa mereka)."
                },
                {
                    "id": 1096654,
                    "resource_id": 161,
                    "text": "আবার বলছি, কক্ষনো না (তাদের ধারণা একেবারে অলীক ও অবাস্তব), তারা শীঘ্রই জানতে পারবে।"
                }
            ]
        },
        {
            "id": 5678,
            "verse_number": 6,
            "verse_key": "78:6",
            "hizb_number": 59,
            "rub_el_hizb_number": 233,
            "ruku_number": 520,
            "manzil_number": 7,
            "sajdah_number": null,
            "text_uthmani": "أَلَمْ نَجْعَلِ ٱلْأَرْضَ مِهَـٰدًا",
            "page_number": 582,
            "juz_number": 30,
            "translations": [
                {
                    "id": 101738,
                    "resource_id": 20,
                    "text": "Have We not made the earth a resting place?"
                },
                {
                    "id": 219742,
                    "resource_id": 39,
                    "text": "(Mengapa kamu ragu-ragukan kekuasaan Kami menghidupkan semula orang-orang yang telah mati?) Bukankah Kami telah menjadikan bumi (terbentang luas) sebagai hamparan?"
                },
                {
                    "id": 1096655,
                    "resource_id": 161,
                    "text": "(আমি যে সব কিছুকে দ্বিতীয়বার সৃষ্টি করতে সক্ষম তা তোমরা অস্বীকার করছ কীভাবে) আমি কি যমীনকে (তোমাদের জন্য) শয্যা বানাইনি?"
                }
            ]
        },
        {
            "id": 5679,
            "verse_number": 7,
            "verse_key": "78:7",
            "hizb_number": 59,
            "rub_el_hizb_number": 233,
            "ruku_number": 520,
            "manzil_number": 7,
            "sajdah_number": null,
            "text_uthmani": "وَٱلْجِبَالَ أَوْتَادًا",
            "page_number": 582,
            "juz_number": 30,
            "translations": [
                {
                    "id": 101740,
                    "resource_id": 20,
                    "text": "And the mountains as stakes?<sup foot_note=197674>1</sup>"
                },
                {
                    "id": 219743,
                    "resource_id": 39,
                    "text": "Dan gunung-ganang sebagai pancang pasaknya?"
                },
                {
                    "id": 1096656,
                    "resource_id": 161,
                    "text": "আর পর্বতগুলোকে কীলক (বানাইনি)?"
                }
            ]
        },
        {
            "id": 5680,
            "verse_number": 8,
            "verse_key": "78:8",
            "hizb_number": 59,
            "rub_el_hizb_number": 233,
            "ruku_number": 520,
            "manzil_number": 7,
            "sajdah_number": null,
            "text_uthmani": "وَخَلَقْنَـٰكُمْ أَزْوَٰجًا",
            "page_number": 582,
            "juz_number": 30,
            "translations": [
                {
                    "id": 101742,
                    "resource_id": 20,
                    "text": "And We created you in pairs."
                },
                {
                    "id": 219746,
                    "resource_id": 39,
                    "text": "Dan Kami telah menciptakan kamu berpasang-pasang?"
                },
                {
                    "id": 1096657,
                    "resource_id": 161,
                    "text": "আর আমি তোমাদেরকে সৃষ্টি করেছি জোড়ায় জোড়ায়।"
                }
            ]
        },
        {
            "id": 5681,
            "verse_number": 9,
            "verse_key": "78:9",
            "hizb_number": 59,
            "rub_el_hizb_number": 233,
            "ruku_number": 520,
            "manzil_number": 7,
            "sajdah_number": null,
            "text_uthmani": "وَجَعَلْنَا نَوْمَكُمْ سُبَاتًا",
            "page_number": 582,
            "juz_number": 30,
            "translations": [
                {
                    "id": 101744,
                    "resource_id": 20,
                    "text": "And made your sleep [a means for] rest"
                },
                {
                    "id": 214941,
                    "resource_id": 39,
                    "text": "Dan Kami telah menjadikan tidur kamu untuk berehat?"
                },
                {
                    "id": 1096658,
                    "resource_id": 161,
                    "text": "আর তোমাদের নিদ্রাকে করেছি বিশ্রামদায়ী।"
                }
            ]
        },
        {
            "id": 5682,
            "verse_number": 10,
            "verse_key": "78:10",
            "hizb_number": 59,
            "rub_el_hizb_number": 233,
            "ruku_number": 520,
            "manzil_number": 7,
            "sajdah_number": null,
            "text_uthmani": "وَجَعَلْنَا ٱلَّيْلَ لِبَاسًا",
            "page_number": 582,
            "juz_number": 30,
            "translations": [
                {
                    "id": 101702,
                    "resource_id": 20,
                    "text": "And made the night as clothing<sup foot_note=197675>1</sup>."
                },
                {
                    "id": 219559,
                    "resource_id": 39,
                    "text": "Dan Kami telah menjadikan malam (dengan gelapnya) sebagai pakaian (yang melindungi)?"
                },
                {
                    "id": 1096659,
                    "resource_id": 161,
                    "text": "রাতকে করেছি আবরণ,"
                }
            ]
        }
    ],
    "pagination": {
        "per_page": 10,
        "current_page": 1,
        "next_page": 2,
        "total_pages": 57,
        "total_records": 564
    }
}