{
    "verses": [
        {
            "id": 641,
            "verse_number": 148,
            "verse_key": "4:148",
            "hizb_number": 11,
            "rub_el_hizb_number": 41,
            "ruku_number": 82,
            "manzil_number": 1,
            "sajdah_number": null,
            "text_uthmani": "۞ لَّا يُحِبُّ ٱللَّهُ ٱلْجَهْرَ بِٱلسُّوٓءِ مِنَ ٱلْقَوْلِ إِلَّا مَن ظُلِمَ ۚ وَكَانَ ٱللَّهُ سَمِيعًا عَلِيمًا",
            "page_number": 102,
            "juz_number": 6,
            "translations": [
                {
                    "id": 99712,
                    "resource_id": 20,
                    "text": "Allāh does not like the public mention of evil except by one who has been wronged. And ever is Allāh Hearing and Knowing."
                },
                {
                    "id": 217574,
                    "resource_id": 39,
                    "text": "Allah tidak suka kepada perkataan-perkataan buruk yang dikatakan dengan berterus-terang (untuk mendedahkan kejahatan orang); kecuali oleh orang yang dianiayakan. Dan (ingatlah) Allah sentiasa Mendengar, lagi Maha Mengetahui."
                },
                {
                    "id": 1091618,
                    "resource_id": 161,
                    "text": "খারাপ কথার প্রচার প্রপাগান্ডা আল্লাহ পছন্দ করেন না, তবে যার প্রতি অন্যায় করা হয়েছে (তার কথা আলাদা), আল্লাহ সর্বশ্রোতা, সর্বজ্ঞ।"
                }
            ]
        },
        {
            "id": 642,
            "verse_number": 149,
            "verse_key": "4:149",
            "hizb_number": 11,
            "rub_el_hizb_number": 41,
            "ruku_number": 82,
            "manzil_number": 1,
            "sajdah_number": null,
            "text_uthmani": "إِن تُبْدُوا۟ خَيْرًا أَوْ تُخْفُوهُ أَوْ تَعْفُوا۟ عَن سُوٓءٍ فَإِنَّ ٱللَّهَ كَانَ عَفُوًّا قَدِيرًا",
            "page_number": 102,
            "juz_number": 6,
            "translations": [
                {
                    "id": 99714,
                    "resource_id": 20,
                    "text": "If [instead] you show [some] good or conceal it or pardon an offense - indeed, Allāh is ever Pardoning and Competent.<sup foot_note=196155>1</sup>"
                },
                {
                    "id": 217576,
                    "resource_id": 39,
                    "text": "Jika kamu melahirkan sesuatu kebaikan, atau menyembunyikannya, atau kamu memaafkan kesalahan (yang dilakukan terhadap kamu), maka sesungguhnya Allah adalah Maha Pemaaf lagi Maha Kuasa."
                },
                {
                    "id": 1091619,
                    "resource_id": 161,
                    "text": "তোমরা যদি ভাল কাজ প্রকাশ্যে কর কিংবা তা গোপনে কর কিংবা মন্দকে ক্ষমা কর তবে আল্লাহও দোষত্রুটি মোচনকারী, ক্ষমতার অধিকারী।"
                }
            ]
        },
        {
            "id": 643,
            "verse_number": 150,
            "verse_key": "4:150",
            "hizb_number": 11,
            "rub_el_hizb_number": 41,
            "ruku_number": 82,
            "manzil_number": 1,
            "sajdah_number": null,
            "text_uthmani": "إِنَّ ٱلَّذِينَ يَكْفُرُونَ بِٱللَّهِ وَرُسُلِهِۦ وَيُرِيدُونَ أَن يُفَرِّقُوا۟ بَيْنَ ٱللَّهِ وَرُسُلِهِۦ وَيَقُولُونَ نُؤْمِنُ بِبَعْضٍ وَنَكْفُرُ بِبَعْضٍ وَيُرِيدُونَ أَن يَتَّخِذُوا۟ بَيْنَ ذَٰلِكَ سَبِيلًا",
            "page_number": 102,
            "juz_number": 6,
            "translations": [
                {
                    "id": 99718,
                    "resource_id": 20,
                    "text": "Indeed, those who disbelieve in Allāh and His messengers and wish to discriminate between Allāh and His messengers and say, \"We believe in some and disbelieve in others,\" and wish to adopt a way in between -"
                },
                {
                    "id": 217563,
                    "resource_id": 39,
                    "text": "Sesungguhnya orang-orang yang kufur ingkar kepada Allah dan Rasul-rasulNya, dan (orang-orang yang) hendak membeza-bezakan iman mereka di antara Allah dan Rasul-rasulNya, dan (orang-orang yang) berkata: \"Kami beriman kepada setengah Rasul-rasul itu dan kufur ingkar kepada setengahnya yang lain\", serta bertujuan hendak mengambil jalan lain antara iman dan kufur itu:"
                },
                {
                    "id": 1091620,
                    "resource_id": 161,
                    "text": "যারা আল্লাহ ও তাঁর রসূলদেরকে অস্বীকার করে আর আল্লাহ ও রসূলদের মাঝে পার্থক্য সৃষ্টি করতে চায় আর বলে (রসূলদের) কতককে আমরা মানি আর কতককে মানি না, আর তারা তার (কুফর ও ঈমানের) মাঝ দিয়ে একটা রাস্তা বের করতে চায় ।"
                }
            ]
        },
        {
            "id": 644,
            "verse_number": 151,
            "verse_key": "4:151",
            "hizb_number": 11,
            "rub_el_hizb_number": 41,
            "ruku_number": 82,
            "manzil_number": 1,
            "sajdah_number": null,
            "text_uthmani": "أُو۟لَـٰٓئِكَ هُمُ ٱلْكَـٰفِرُونَ حَقًّا ۚ وَأَعْتَدْنَا لِلْكَـٰفِرِينَ عَذَابًا مُّهِينًا",
            "page_number": 102,
            "juz_number": 6,
            "translations": [
                {
                    "id": 99720,
                    "resource_id": 20,
                    "text": "Those are the disbelievers, truly. And We have prepared for the disbelievers a humiliating punishment."
                },
                {
                    "id": 217579,
                    "resource_id": 39,
                    "text": "Mereka itulah orang-orang yang kafir dengan sebenar-benarnya. Dan Kami telah menyediakan bagi orang-orang kafir itu azab seksa yang menghina."
                },
                {
                    "id": 1091621,
                    "resource_id": 161,
                    "text": "তারাই হল প্রকৃত কাফির আর কাফিরদের জন্য আমি অবমাননাকর শাস্তি প্রস্তুত করে রেখেছি।"
                }
            ]
        },
        {
            "id": 645,
            "verse_number": 152,
            "verse_key": "4:152",
            "hizb_number": 11,
            "rub_el_hizb_number": 41,
            "ruku_number": 82,
            "manzil_number": 1,
            "sajdah_number": null,
            "text_uthmani": "وَٱلَّذِينَ ءَامَنُوا۟ بِٱللَّهِ وَرُسُلِهِۦ وَلَمْ يُفَرِّقُوا۟ بَيْنَ أَحَدٍ مِّنْهُمْ أُو۟لَـٰٓئِكَ سَوْفَ يُؤْتِيهِمْ أُجُورَهُمْ ۗ وَكَانَ ٱللَّهُ غَفُورًا رَّحِيمًا",
            "page_number": 102,
            "juz_number": 6,
            "translations": [
                {
                    "id": 99722,
                    "resource_id": 20,
                    "text": "But they who believe in Allāh and His messengers and do not discriminate between any of them - to those He is going to give their rewards. And ever is Allāh Forgiving and Merciful."
                },
                {
                    "id": 217569,
                    "resource_id": 39,
                    "text": "Dan orang-orang yang beriman kepada Allah dan Rasul-rasulNya dan mereka pula tidak membeza-bezakan (imannya terhadap) seseorang pun di antara Rasul-rasul itu, (maka) mereka yang demikian, Allah akan memberi mereka pahala mereka. Dan (ingatlah) adalah Allah Maha Pengampun, lagi Maha Mengasihani."
                },
                {
                    "id": 1091622,
                    "resource_id": 161,
                    "text": "আর যারা আল্লাহ ও তাঁর রসূলদের প্রতি বিশ্বাস স্থাপন করে আর তাদের কারো মধ্যে কোন পার্থক্য করে না, তিনি অবশ্যই তাদেরকে তাদের পুরস্কার দান করবেন, আল্লাহ বড়ই ক্ষমাশীল, বড়ই দয়ালু।"
                }
            ]
        },
        {
            "id": 646,
            "verse_number": 153,
            "verse_key": "4:153",
            "hizb_number": 11,
            "rub_el_hizb_number": 41,
            "ruku_number": 83,
            "manzil_number": 1,
            "sajdah_number": null,
            "text_uthmani": "يَسْـَٔلُكَ أَهْلُ ٱلْكِتَـٰبِ أَن تُنَزِّلَ عَلَيْهِمْ كِتَـٰبًا مِّنَ ٱلسَّمَآءِ ۚ فَقَدْ سَأَلُوا۟ مُوسَىٰٓ أَكْبَرَ مِن ذَٰلِكَ فَقَالُوٓا۟ أَرِنَا ٱللَّهَ جَهْرَةً فَأَخَذَتْهُمُ ٱلصَّـٰعِقَةُ بِظُلْمِهِمْ ۚ ثُمَّ ٱتَّخَذُوا۟ ٱلْعِجْلَ مِنۢ بَعْدِ مَا جَآءَتْهُمُ ٱلْبَيِّنَـٰتُ فَعَفَوْنَا عَن ذَٰلِكَ ۚ وَءَاتَيْنَا مُوسَىٰ سُلْطَـٰنًا مُّبِينًا",
            "page_number": 102,
            "juz_number": 6,
            "translations": [
                {
                    "id": 99724,
                    "resource_id": 20,
                    "text": "The People of the Scripture ask you to bring down to them a book from the heaven. But they had asked of Moses [even] greater than that and said, \"Show us Allāh outright,\" so the thunderbolt struck them for their wrongdoing. Then they took the calf [for worship] after clear evidences had come to them, and We pardoned that. And We gave Moses a clear authority."
                },
                {
                    "id": 217586,
                    "resource_id": 39,
                    "text": "Ahli Kitab (kaum Yahudi) meminta kepadamu (wahai Muhammad) supaya engkau menurunkan kepada mereka sebuah Kitab dari langit. (Janganlah engkau merasa pelik), kerana sesungguhnya mereka telah meminta kepada Nabi Musa lebih besar dari itu. Mereka berkata: \"(Wahai Musa) perlihatkanlah Allah kepada kami dengan nyata (supaya kami dapat melihatNya dan percaya kepadaNya)\". Lalu mereka disambar oleh petir dengan sebab kezaliman mereka (menderhaka kepada Allah); kemudian mereka pula menyembah (patung) anak lembu sesudah datang kepada mereka keterangan-keterangan (mukjizat), lalu Kami maafkan mereka dari perbuatan yang sedemikian itu (ketika mereka bertaubat). Dan Kami telah memberi kepada Nabi Musa kekuasaan yang nyata (untuk mengalahkan kaum yang kafir itu)."
                },
                {
                    "id": 1091623,
                    "resource_id": 161,
                    "text": "কিতাবধারীগণ তোমাকে আসমান থেকে তাদের সামনে কিতাব নিয়ে আসতে বলে। তারা তো মূসার কাছে এর চেয়েও বড় দাবী পেশ করেছিল। তারা বলেছিল- আমাদেরকে প্রকাশ্যে আল্লাহকে দেখাও। তখন তাদের অন্যায় ও বাড়াবাড়ির কারণে বিদ্যুৎ তাদের উপর আঘাত হেনেছিল। অতঃপর তাদের কাছে স্পষ্ট প্রমাণ আসার পরেও তারা গো-বৎসকে (উপাস্য) গ্রহণ করেছিল, তাও আমি ক্ষমা করে দিয়েছিলাম, আর মূসাকে সুস্পষ্ট কর্তৃত্ব দান করেছিলাম।"
                }
            ]
        },
        {
            "id": 647,
            "verse_number": 154,
            "verse_key": "4:154",
            "hizb_number": 11,
            "rub_el_hizb_number": 41,
            "ruku_number": 83,
            "manzil_number": 1,
            "sajdah_number": null,
            "text_uthmani": "وَرَفَعْنَا فَوْقَهُمُ ٱلطُّورَ بِمِيثَـٰقِهِمْ وَقُلْنَا لَهُمُ ٱدْخُلُوا۟ ٱلْبَابَ سُجَّدًا وَقُلْنَا لَهُمْ لَا تَعْدُوا۟ فِى ٱلسَّبْتِ وَأَخَذْنَا مِنْهُم مِّيثَـٰقًا غَلِيظًا",
            "page_number": 102,
            "juz_number": 6,
            "translations": [
                {
                    "id": 99726,
                    "resource_id": 20,
                    "text": "And We raised over them the mount for [refusal of] their covenant; and We said to them, \"Enter the gate bowing humbly\"; and We said to them, \"Do not transgress on the sabbath\"; and We took from them a solemn covenant."
                },
                {
                    "id": 217609,
                    "resource_id": 39,
                    "text": "Dan Kami telah mengangkat \"Gunung Tursina\" ke atas mereka disebabkan (mereka ingkar akan) perjanjian setia mereka (mematuhi hukum-hukum Taurat), dan Kami perintahkan mereka: \"Masuklah kamu melalui pintu (negeri) itu dengan merendah diri\" dan Kami juga perintahkan mereka: \"Janganlah kamu melanggar perintah larangan yang ditentukan pada hari Sabtu\", dan Kami telah mengambil daripada mereka perjanjian setia yang teguh (yang mewajibkan mereka mengerjakan suruhan Allah dan meninggalkan laranganNya)."
                },
                {
                    "id": 1091624,
                    "resource_id": 161,
                    "text": "তাদের নিকট হতে অঙ্গীকার গ্রহণের জন্য আমি তূর পাহাড়কে তাদের ঊর্ধ্বে তুলে ধরেছিলাম, আর তাদেরকে বলেছিলাম- অবনত মস্তকে (নগর) দ্বারে প্রবেশ কর আর তাদেরকে বলেছিলাম শনিবারের আইন ভঙ্গ করো না, আর তাদের নিকট থেকে নিয়েছিলাম পাকা প্রতিশ্রুতি।"
                }
            ]
        },
        {
            "id": 648,
            "verse_number": 155,
            "verse_key": "4:155",
            "hizb_number": 11,
            "rub_el_hizb_number": 41,
            "ruku_number": 83,
            "manzil_number": 1,
            "sajdah_number": null,
            "text_uthmani": "فَبِمَا نَقْضِهِم مِّيثَـٰقَهُمْ وَكُفْرِهِم بِـَٔايَـٰتِ ٱللَّهِ وَقَتْلِهِمُ ٱلْأَنۢبِيَآءَ بِغَيْرِ حَقٍّ وَقَوْلِهِمْ قُلُوبُنَا غُلْفٌۢ ۚ بَلْ طَبَعَ ٱللَّهُ عَلَيْهَا بِكُفْرِهِمْ فَلَا يُؤْمِنُونَ إِلَّا قَلِيلًا",
            "page_number": 103,
            "juz_number": 6,
            "translations": [
                {
                    "id": 99728,
                    "resource_id": 20,
                    "text": "And [We cursed them]<sup foot_note=196157>1</sup> for their breaking of the covenant and their disbelief in the signs of Allāh and their killing of the prophets without right and their saying, \"Our hearts are wrapped\" [i.e., sealed against reception]. Rather, Allāh has sealed them because of their disbelief, so they believe not, except for a few.<sup foot_note=196156>2</sup>"
                },
                {
                    "id": 217663,
                    "resource_id": 39,
                    "text": "Maka (Kami laknatkan mereka) dengan sebab mereka mencabuli perjanjian setia mereka, dan mereka kufur ingkar akan ayat-ayat keterangan Allah, dan mereka pula membunuh Nabi-nabi dengan tiada sesuatu alasan yang benar, dan mereka juga mengatakan: \"Hati kami tertutup (tidak dapat menerima ajaran Islam yang dibawa oleh Nabi Muhammad)\". (Sebenarnya hati mereka tidak tertutup), bahkan Allah telah memeteraikan hati mereka disebabkan kekufuran mereka. Oleh itu mereka tidak beriman kecuali sedikit sahaja (di antaranya)."
                },
                {
                    "id": 1091625,
                    "resource_id": 161,
                    "text": "(তাদের প্রতি আল্লাহর অসন্তোষ নেমে এসেছে) তাদের ওয়া‘দা ভঙ্গের কারণে, আর আল্লাহর নিদর্শনসমূহকে অস্বীকার করার কারণে, অন্যায়ভাবে নাবীগণকে তাদের হত্যা করার কারণে, আর ‘আমাদের হৃদয়গুলো আচ্ছাদিত’ তাদের এ কথা বলার কারণে- বরং তাদের অস্বীকৃতির কারণে আল্লাহ তাদের হৃদয়গুলোতে মোহর মেরে দিয়েছেন। যে কারণে তাদের অল্পসংখ্যক ছাড়া ঈমান আনে না।"
                }
            ]
        },
        {
            "id": 649,
            "verse_number": 156,
            "verse_key": "4:156",
            "hizb_number": 11,
            "rub_el_hizb_number": 41,
            "ruku_number": 83,
            "manzil_number": 1,
            "sajdah_number": null,
            "text_uthmani": "وَبِكُفْرِهِمْ وَقَوْلِهِمْ عَلَىٰ مَرْيَمَ بُهْتَـٰنًا عَظِيمًا",
            "page_number": 103,
            "juz_number": 6,
            "translations": [
                {
                    "id": 99729,
                    "resource_id": 20,
                    "text": "And [We cursed them] for their disbelief and their saying against Mary a great slander<sup foot_note=196158>1</sup>"
                },
                {
                    "id": 217583,
                    "resource_id": 39,
                    "text": "Demikian juga (Kami laknatkan mereka) dangan sebab kekufuran mereka dan tuduhan mereka terhadap Maryam (dengan tuduhan yang amat dustanya."
                },
                {
                    "id": 1091626,
                    "resource_id": 161,
                    "text": "(তাদের প্রতি আল্লাহর অসন্তোষ নেমে এসেছে) তাদের কুফরীর জন্য আর মারইয়ামের প্রতি তাদের গুরুতর অপবাদপূর্ণ কথা উচ্চারণের জন্য।"
                }
            ]
        },
        {
            "id": 650,
            "verse_number": 157,
            "verse_key": "4:157",
            "hizb_number": 11,
            "rub_el_hizb_number": 41,
            "ruku_number": 83,
            "manzil_number": 1,
            "sajdah_number": null,
            "text_uthmani": "وَقَوْلِهِمْ إِنَّا قَتَلْنَا ٱلْمَسِيحَ عِيسَى ٱبْنَ مَرْيَمَ رَسُولَ ٱللَّهِ وَمَا قَتَلُوهُ وَمَا صَلَبُوهُ وَلَـٰكِن شُبِّهَ لَهُمْ ۚ وَإِنَّ ٱلَّذِينَ ٱخْتَلَفُوا۟ فِيهِ لَفِى شَكٍّ مِّنْهُ ۚ مَا لَهُم بِهِۦ مِنْ عِلْمٍ إِلَّا ٱتِّبَاعَ ٱلظَّنِّ ۚ وَمَا قَتَلُوهُ يَقِينًۢا",
            "page_number": 103,
            "juz_number": 6,
            "translations": [
                {
                    "id": 99730,
                    "resource_id": 20,
                    "text": "And [for] their saying, \"Indeed, we have killed the Messiah, Jesus the son of Mary, the messenger of Allāh.\" And they did not kill him, nor did they crucify him; but [another] was made to resemble him to them. And indeed, those who differ over it are in doubt about it. They have no knowledge of it except the following of assumption. And they did not kill him, for certain.<sup foot_note=196159>1</sup>"
                },
                {
                    "id": 217584,
                    "resource_id": 39,
                    "text": "Dan juga (disebabkan) dakwaan mereka dengan mengatakan: \"Sesungguhnya kami telah membunuh Al-Masih Isa Ibni Maryam, Rasul Allah\". Padahal mereka tidak membunuhnya dan tidak memalangnya (di kayu palang - salib), tetapi diserupakan bagi mereka (orang yang mereka bunuh itu seperti Nabi Isa). Dan Sesungguhnya orang-orang yang telah berselisih faham, mengenai Nabi Isa, sebenarnya mereka berada dalam keadaan syak (ragu-ragu) tentang menentukan (pembunuhannya). Tiada sesuatu pengetahuan pun bagi mereka mengenainya selain daripada mengikut sangkaan semata-mata; dan mereka tidak membunuhnya dengan yakin."
                },
                {
                    "id": 1091627,
                    "resource_id": 161,
                    "text": "আর ‘আমরা আল্লাহর রসূল মাসীহ ঈসা ইবনু মারইয়ামকে হত্যা করেছি’ তাদের এ উক্তির জন্য। কিন্তু তারা না তাকে হত্যা করেছে, না তাকে ক্রুশবিদ্ধ করেছে, কেবলমাত্র তাদের জন্য (এক লোককে) তার সদৃশ করা হয়েছিল, আর যারা এ বিষয়ে মতভেদ করেছিল তারাও এ সম্পর্কে সন্দেহে পতিত হয়েছিল। শুধু অমূলক ধারণার অনুসরণ ছাড়া এ ব্যাপারে তাদের কোন জ্ঞানই ছিল না। এটা নিশ্চিত সত্য যে, তারা তাকে হত্যা করেনি।"
                }
            ]
        }
    ],
    "pagination": {
        "per_page": 10,
        "current_page": 1,
        "next_page": 2,
        "total_pages": 11,
        "total_records": 110
    }
}