{
    "verses": [
        {
            "id": 751,
            "verse_number": 82,
            "verse_key": "5:82",
            "hizb_number": 13,
            "rub_el_hizb_number": 49,
            "ruku_number": 96,
            "manzil_number": 2,
            "sajdah_number": null,
            "text_uthmani": "۞ لَتَجِدَنَّ أَشَدَّ ٱلنَّاسِ عَدَٰوَةً لِّلَّذِينَ ءَامَنُوا۟ ٱلْيَهُودَ وَٱلَّذِينَ أَشْرَكُوا۟ ۖ وَلَتَجِدَنَّ أَقْرَبَهُم مَّوَدَّةً لِّلَّذِينَ ءَامَنُوا۟ ٱلَّذِينَ قَالُوٓا۟ إِنَّا نَصَـٰرَىٰ ۚ ذَٰلِكَ بِأَنَّ مِنْهُمْ قِسِّيسِينَ وَرُهْبَانًا وَأَنَّهُمْ لَا يَسْتَكْبِرُونَ",
            "page_number": 121,
            "juz_number": 7,
            "translations": [
                {
                    "id": 100776,
                    "resource_id": 20,
                    "text": "You will surely find the most intense of the people in animosity toward the believers [to be] the Jews and those who associate others with Allāh; and you will find the nearest of them in affection to the believers those who say, \"We are Christians.\" That is because among them are priests and monks and because they are not arrogant."
                },
                {
                    "id": 218628,
                    "resource_id": 39,
                    "text": "Demi sesungguhnya engkau (wahai Muhammad) akan dapati manusia yang keras sekali permusuhannya kepada orang-orang yang beriman ialah orang-orang Yahudi dan orang-orang musyrik. Dan demi sesungguhnya engkau akan dapati orang-orang yang dekat sekali kasih mesranya kepada orang-orang yang beriman ialah orang-orang yang berkata: \"Bahawa kami ini ialah orang-orang Nasrani\" yang demikian itu, disebabkan ada di antara mereka pendita-pendita dan ahli-ahli ibadat, dan kerana mereka pula tidak berlaku sombong."
                },
                {
                    "id": 1091728,
                    "resource_id": 161,
                    "text": "যারা ঈমান এনেছে তাদের প্রতি মানুষের মধ্যে ইয়াহূদ ও মুশরিকদেরকে তুমি অবশ্যই সবচেয়ে বেশি শত্রুতাপরায়ণ দেখতে পাবে, আর যারা বলে ‘‘আমরা নাসারা’’ তাদেরকে তুমি যারা ঈমান এনেছে তাদের জন্য বন্ধুত্বে নিকটতর দেখতে পাবে, কেননা তাদের মধ্যে ‘ইবাদাতকারী ‘আলিম ও সংসার বিরাগী আছে আর তারা অহংকারও করে না।"
                }
            ]
        },
        {
            "id": 752,
            "verse_number": 83,
            "verse_key": "5:83",
            "hizb_number": 13,
            "rub_el_hizb_number": 49,
            "ruku_number": 96,
            "manzil_number": 2,
            "sajdah_number": null,
            "text_uthmani": "وَإِذَا سَمِعُوا۟ مَآ أُنزِلَ إِلَى ٱلرَّسُولِ تَرَىٰٓ أَعْيُنَهُمْ تَفِيضُ مِنَ ٱلدَّمْعِ مِمَّا عَرَفُوا۟ مِنَ ٱلْحَقِّ ۖ يَقُولُونَ رَبَّنَآ ءَامَنَّا فَٱكْتُبْنَا مَعَ ٱلشَّـٰهِدِينَ",
            "page_number": 122,
            "juz_number": 7,
            "translations": [
                {
                    "id": 100782,
                    "resource_id": 20,
                    "text": "And when they hear what has been revealed to the Messenger, you see their eyes overflowing with tears because of what they have recognized of the truth. They say, \"Our Lord, we have believed, so register us among the witnesses."
                },
                {
                    "id": 218634,
                    "resource_id": 39,
                    "text": "Dan apabila mereka mendengar Al-Quran yang diturunkan kepada Rasulullah (Muhammad, s.a.w), engkau melihat mata mereka mencucurkan air mata disebabkan apa yang mereka ketahui (melalui Kitab mereka) dari kebenaran (Al-Quran), sambil mereka berkata: \"Wahai Tuhan kami, kami beriman (kepada Nabi Muhammad dan Kitab Suci Al-Quran), oleh itu tetapkanlah kami bersama-sama orang-orang yang menjadi saksi (yang mengakui kebenaran Nabi Muhammad s.a.w)."
                },
                {
                    "id": 1091729,
                    "resource_id": 161,
                    "text": "রসূলের প্রতি যা অবতীর্ণ হয় তারা যখন তা শুনে, তুমি দেখবে, সত্যকে চিনতে পারার কারণে তখন তাদের চক্ষু অশ্রুসিক্ত হয়ে উঠে। তারা বলে, হে আমাদের প্রতিপালক! আমরা ঈমান এনেছি, কাজেই তুমি আমাদেরকে সাক্ষীদাতাদের তালিকাভূক্ত কর।"
                }
            ]
        },
        {
            "id": 753,
            "verse_number": 84,
            "verse_key": "5:84",
            "hizb_number": 13,
            "rub_el_hizb_number": 49,
            "ruku_number": 96,
            "manzil_number": 2,
            "sajdah_number": null,
            "text_uthmani": "وَمَا لَنَا لَا نُؤْمِنُ بِٱللَّهِ وَمَا جَآءَنَا مِنَ ٱلْحَقِّ وَنَطْمَعُ أَن يُدْخِلَنَا رَبُّنَا مَعَ ٱلْقَوْمِ ٱلصَّـٰلِحِينَ",
            "page_number": 122,
            "juz_number": 7,
            "translations": [
                {
                    "id": 100784,
                    "resource_id": 20,
                    "text": "And why should we not believe in Allāh and what has come to us of the truth? And we aspire that our Lord will admit us [to Paradise] with the righteous people.\""
                },
                {
                    "id": 218636,
                    "resource_id": 39,
                    "text": "\"Dan tidak ada sebab bagi kami tidak beriman kepada Allah dan kepada kebenaran (Al-Quran) yang sampai kepada kami, padahal kami ingin (dengan sepenuh-penuh harapan), supaya Tuhan kami memasukkan kami (ke dalam Syurga) bersama-sama orang-orang yang soleh\""
                },
                {
                    "id": 1091730,
                    "resource_id": 161,
                    "text": "আমাদের কী হয়েছে যে, আমরা আল্লাহ্তে এবং যে সত্যবিধান আমাদের নিকট এসেছে তাতে ঈমান আনব না, আর আমরা প্রত্যাশা করি যে, আমাদের প্রতিপালক আমাদেরকে সৎকর্মশীলদের অন্তর্ভুক্ত করবেন।"
                }
            ]
        },
        {
            "id": 754,
            "verse_number": 85,
            "verse_key": "5:85",
            "hizb_number": 13,
            "rub_el_hizb_number": 49,
            "ruku_number": 96,
            "manzil_number": 2,
            "sajdah_number": null,
            "text_uthmani": "فَأَثَـٰبَهُمُ ٱللَّهُ بِمَا قَالُوا۟ جَنَّـٰتٍ تَجْرِى مِن تَحْتِهَا ٱلْأَنْهَـٰرُ خَـٰلِدِينَ فِيهَا ۚ وَذَٰلِكَ جَزَآءُ ٱلْمُحْسِنِينَ",
            "page_number": 122,
            "juz_number": 7,
            "translations": [
                {
                    "id": 100786,
                    "resource_id": 20,
                    "text": "So Allāh rewarded them for what they said<sup foot_note=196203>1</sup> with gardens [in Paradise] beneath which rivers flow, wherein they abide eternally. And that is the reward of doers of good."
                },
                {
                    "id": 218638,
                    "resource_id": 39,
                    "text": "Lalu Allah memberikan pahala kepada mereka disebabkan (pengakuan iman yang ikhlas) yang telah mereka ucapkan, (iaitu mereka dibalas dengan) Syurga yang mengalir di bawahnya beberapa sungai; mereka pula tetap kekal di dalamnya. Dan yang demikian itu, adalah balasan orang-orang yang berusaha berbuat kebaikan."
                },
                {
                    "id": 1091731,
                    "resource_id": 161,
                    "text": "তাদের এ কথার কারণে আল্লাহ তাদেরকে জান্নাত দান করবেন, যার তলদেশে ঝর্ণাধারা প্রবাহিত, তাতে তারা চিরকাল থাকবে, আর এটাই হল সৎকর্মশীলদের পুরস্কার।"
                }
            ]
        },
        {
            "id": 755,
            "verse_number": 86,
            "verse_key": "5:86",
            "hizb_number": 13,
            "rub_el_hizb_number": 49,
            "ruku_number": 96,
            "manzil_number": 2,
            "sajdah_number": null,
            "text_uthmani": "وَٱلَّذِينَ كَفَرُوا۟ وَكَذَّبُوا۟ بِـَٔايَـٰتِنَآ أُو۟لَـٰٓئِكَ أَصْحَـٰبُ ٱلْجَحِيمِ",
            "page_number": 122,
            "juz_number": 7,
            "translations": [
                {
                    "id": 100788,
                    "resource_id": 20,
                    "text": "But those who disbelieved and denied Our signs - they are the companions of Hellfire."
                },
                {
                    "id": 218640,
                    "resource_id": 39,
                    "text": "Dan (sebaliknya) orang-orang yang kafir serta mendustakan ayat-ayat keterangan Kami, mereka itulah ahli neraka."
                },
                {
                    "id": 1091732,
                    "resource_id": 161,
                    "text": "আর যারা আমার আয়াতগুলোকে প্রত্যাখ্যান করবে ও মিথ্যা জানবে, তারা হবে জাহান্নামের অধিবাসী।"
                }
            ]
        },
        {
            "id": 756,
            "verse_number": 87,
            "verse_key": "5:87",
            "hizb_number": 13,
            "rub_el_hizb_number": 49,
            "ruku_number": 97,
            "manzil_number": 2,
            "sajdah_number": null,
            "text_uthmani": "يَـٰٓأَيُّهَا ٱلَّذِينَ ءَامَنُوا۟ لَا تُحَرِّمُوا۟ طَيِّبَـٰتِ مَآ أَحَلَّ ٱللَّهُ لَكُمْ وَلَا تَعْتَدُوٓا۟ ۚ إِنَّ ٱللَّهَ لَا يُحِبُّ ٱلْمُعْتَدِينَ",
            "page_number": 122,
            "juz_number": 7,
            "translations": [
                {
                    "id": 100790,
                    "resource_id": 20,
                    "text": "O you who have believed, do not prohibit the good things which Allāh has made lawful to you and do not transgress. Indeed, Allāh does not like transgressors."
                },
                {
                    "id": 218642,
                    "resource_id": 39,
                    "text": "Wahai orang-orang yang beriman! Janganlah kamu haramkan benda-benda yang baik-baik yang telah dihalalkan oleh Allah bagi kamu, dan janganlah kamu melampaui batas (pada apa yang telah ditetapkan halalnya itu); kerana sesungguhnya Allah tidak suka kepada orang-orang yang melampaui batas."
                },
                {
                    "id": 1091733,
                    "resource_id": 161,
                    "text": "ওহে ঈমানদারগণ! পবিত্র বস্তুরাজি যা আল্লাহ তোমাদের জন্য হালাল করে দিয়েছেন সেগুলোকে হারাম করে নিও না আর সীমালঙ্ঘন করো না, অবশ্যই আল্লাহ সীমালঙ্ঘনকারীদের ভালবাসেন না।"
                }
            ]
        },
        {
            "id": 757,
            "verse_number": 88,
            "verse_key": "5:88",
            "hizb_number": 13,
            "rub_el_hizb_number": 49,
            "ruku_number": 97,
            "manzil_number": 2,
            "sajdah_number": null,
            "text_uthmani": "وَكُلُوا۟ مِمَّا رَزَقَكُمُ ٱللَّهُ حَلَـٰلًا طَيِّبًا ۚ وَٱتَّقُوا۟ ٱللَّهَ ٱلَّذِىٓ أَنتُم بِهِۦ مُؤْمِنُونَ",
            "page_number": 122,
            "juz_number": 7,
            "translations": [
                {
                    "id": 100792,
                    "resource_id": 20,
                    "text": "And eat of what Allāh has provided for you [which is] lawful and good. And fear Allāh, in whom you are believers."
                },
                {
                    "id": 218644,
                    "resource_id": 39,
                    "text": "Dan makanlah dari rezeki yang telah diberikan Allah kepada kamu, iaitu yang halal lagi baik, dan bertaqwalah kepada Allah yang kepadaNya sahaja kamu beriman."
                },
                {
                    "id": 1091734,
                    "resource_id": 161,
                    "text": "যে সমস্ত হালাল ও পবিত্র জীবিকা আল্লাহ তোমাদেরকে দিয়েছেন সেগুলো ভক্ষণ কর, যে আল্লাহর প্রতি তোমরা ঈমান এনেছ তাঁকে ভয় কর।"
                }
            ]
        },
        {
            "id": 758,
            "verse_number": 89,
            "verse_key": "5:89",
            "hizb_number": 13,
            "rub_el_hizb_number": 49,
            "ruku_number": 97,
            "manzil_number": 2,
            "sajdah_number": null,
            "text_uthmani": "لَا يُؤَاخِذُكُمُ ٱللَّهُ بِٱللَّغْوِ فِىٓ أَيْمَـٰنِكُمْ وَلَـٰكِن يُؤَاخِذُكُم بِمَا عَقَّدتُّمُ ٱلْأَيْمَـٰنَ ۖ فَكَفَّـٰرَتُهُۥٓ إِطْعَامُ عَشَرَةِ مَسَـٰكِينَ مِنْ أَوْسَطِ مَا تُطْعِمُونَ أَهْلِيكُمْ أَوْ كِسْوَتُهُمْ أَوْ تَحْرِيرُ رَقَبَةٍ ۖ فَمَن لَّمْ يَجِدْ فَصِيَامُ ثَلَـٰثَةِ أَيَّامٍ ۚ ذَٰلِكَ كَفَّـٰرَةُ أَيْمَـٰنِكُمْ إِذَا حَلَفْتُمْ ۚ وَٱحْفَظُوٓا۟ أَيْمَـٰنَكُمْ ۚ كَذَٰلِكَ يُبَيِّنُ ٱللَّهُ لَكُمْ ءَايَـٰتِهِۦ لَعَلَّكُمْ تَشْكُرُونَ",
            "page_number": 122,
            "juz_number": 7,
            "translations": [
                {
                    "id": 100794,
                    "resource_id": 20,
                    "text": "Allāh will not impose blame upon you for what is meaningless<sup foot_note=196206>1</sup> in your oaths, but He will impose blame upon you for [breaking] what you intended of oaths. So its expiation<sup foot_note=196205>2</sup> is the feeding of ten needy people from the average of that which you feed your [own] families or clothing them or the freeing of a slave. But whoever cannot find [or afford it] - then a fast of three days [is required]. That is the expiation for oaths when you have sworn. But guard your oaths.<sup foot_note=196204>3</sup> Thus does Allāh make clear to you His verses [i.e., revealed law] that you may be grateful."
                },
                {
                    "id": 218646,
                    "resource_id": 39,
                    "text": "Kamu tidak dikira salah oleh Allah tentang sumpah-sumpah kamu yang tidak disengajakan (untuk bersumpah), akan tetapi kamu dikira salah olehNya dengan sebab sumpah yang sengaja kamu buat dengan bersungguh-sungguh. Maka bayaran dendanya ialah memberi makan sepuluh orang miskin dari jenis makanan yang sederhana yang kamu (biasa) berikan kepada keluarga kamu, atau memberi pakaian untuk mereka, atau memerdekakan seorang hamba. Kemudian sesiapa yang tidak dapat (menunaikan denda yang tersebut), maka hendaklah ia berpuasa tiga hari. Yang demikian itu ialah denda penebus sumpah kamu apabila kamu bersumpah. Dan jagalah - peliharalah sumpah kamu. Demikianlah Allah menerangkan kepada kamu ayat-ayatNya (hukum-hukum ugamaNya) supaya kamu bersyukur."
                },
                {
                    "id": 1091735,
                    "resource_id": 161,
                    "text": "তোমাদের অর্থহীন শপথের জন্য আল্লাহ তোমাদেরকে পাকড়াও করবেন না, কিন্তু বুঝে সুঝে যে সব শপথ তোমরা কর তার জন্য তোমাদেরকে পাকড়াও করবেন। (এ পাকড়াও থেকে অব্যাহতির) কাফফারা হল দশ জন মিসকিনকে মধ্যম মানের খাদ্যদান যা তোমরা তোমাদের স্ত্রী পরিবারকে খাইয়ে থাক, অথবা তাদেরকে বস্ত্রদান অথবা একজন ক্রীতদাস মুক্তকরণ। আর এগুলো করার যার সামর্থ্য নেই তার জন্য তিন দিন রোযা পালন। এগুলো হল তোমাদের শপথের কাফফারা যখন তোমরা শপথ কর। তোমরা তোমাদের শপথ রক্ষা করবে। আল্লাহ তাঁর আয়াতসমূহ তোমাদের জন্য বিষদভাবে বর্ণনা করেন যাতে তোমরা শোকর আদায় কর।"
                }
            ]
        },
        {
            "id": 759,
            "verse_number": 90,
            "verse_key": "5:90",
            "hizb_number": 13,
            "rub_el_hizb_number": 49,
            "ruku_number": 97,
            "manzil_number": 2,
            "sajdah_number": null,
            "text_uthmani": "يَـٰٓأَيُّهَا ٱلَّذِينَ ءَامَنُوٓا۟ إِنَّمَا ٱلْخَمْرُ وَٱلْمَيْسِرُ وَٱلْأَنصَابُ وَٱلْأَزْلَـٰمُ رِجْسٌ مِّنْ عَمَلِ ٱلشَّيْطَـٰنِ فَٱجْتَنِبُوهُ لَعَلَّكُمْ تُفْلِحُونَ",
            "page_number": 123,
            "juz_number": 7,
            "translations": [
                {
                    "id": 100797,
                    "resource_id": 20,
                    "text": "O you who have believed, indeed, intoxicants, gambling, [sacrificing on] stone alters [to other than Allāh], and divining arrows are but defilement from the work of Satan, so avoid<sup foot_note=196207>1</sup> it that you may be successful."
                },
                {
                    "id": 218649,
                    "resource_id": 39,
                    "text": "Wahai orang-orang yang beriman! Bahawa sesungguhnya arak, dan judi, dan pemujaan berhala, dan mengundi nasib dengan batang-batang anak panah, adalah (semuanya) kotor (keji) dari perbuatan Syaitan. Oleh itu hendaklah kamu menjauhinya supaya kamu berjaya."
                },
                {
                    "id": 1091736,
                    "resource_id": 161,
                    "text": "হে বিশ্বাসীগণ! মদ, জুয়া আর মূর্তী ও ভাগ্য নির্ধারক তীর ঘৃণিত শয়তানী কাজ, তোমরা তা বর্জন কর, যাতে তোমরা সাফল্যমন্ডিত হতে পার।"
                }
            ]
        },
        {
            "id": 760,
            "verse_number": 91,
            "verse_key": "5:91",
            "hizb_number": 13,
            "rub_el_hizb_number": 49,
            "ruku_number": 97,
            "manzil_number": 2,
            "sajdah_number": null,
            "text_uthmani": "إِنَّمَا يُرِيدُ ٱلشَّيْطَـٰنُ أَن يُوقِعَ بَيْنَكُمُ ٱلْعَدَٰوَةَ وَٱلْبَغْضَآءَ فِى ٱلْخَمْرِ وَٱلْمَيْسِرِ وَيَصُدَّكُمْ عَن ذِكْرِ ٱللَّهِ وَعَنِ ٱلصَّلَوٰةِ ۖ فَهَلْ أَنتُم مُّنتَهُونَ",
            "page_number": 123,
            "juz_number": 7,
            "translations": [
                {
                    "id": 100798,
                    "resource_id": 20,
                    "text": "Satan only wants to cause between you animosity and hatred through intoxicants and gambling and to avert you from the remembrance of Allāh and from prayer. So will you not desist?"
                },
                {
                    "id": 218650,
                    "resource_id": 39,
                    "text": "Sesungguhnya Syaitan itu hanyalah bermaksud mahu menimbulkan permusuhan dan kebencian di antara kamu dengan sebab arak dan judi, dan mahu memalingkan kamu daripada mengingati Allah dan daripada mengerjakan sembahyang. Oleh itu, mahukah kamu berhenti (daripada melakukan perkara-perkara yang keji dan kotor itu atau kamu masih berdegil)?"
                },
                {
                    "id": 1091737,
                    "resource_id": 161,
                    "text": "মদ আর জুয়ার মাধ্যমে শয়তান তো চায় তোমাদের মাঝে শত্রুতা আর বিদ্বেষ সৃষ্টি করতে, আল্লাহর স্মরণ আর নামায থেকে তোমাদেরকে বাধা দিতে। কাজেই তোমরা কি এসব থেকে বিরত থাকবে?"
                }
            ]
        }
    ],
    "pagination": {
        "per_page": 10,
        "current_page": 1,
        "next_page": 2,
        "total_pages": 15,
        "total_records": 149
    }
}