{
    "verses": [
        {
            "id": 1365,
            "verse_number": 1,
            "verse_key": "10:1",
            "hizb_number": 21,
            "rub_el_hizb_number": 83,
            "ruku_number": 172,
            "manzil_number": 3,
            "sajdah_number": null,
            "text_uthmani": " الٓر ۚ تِلْكَ ءَايَـٰتُ ٱلْكِتَـٰبِ ٱلْحَكِيمِ",
            "page_number": 208,
            "juz_number": 11,
            "translations": [
                {
                    "id": 96175,
                    "resource_id": 20,
                    "text": "Alif, Lām, Rā.<sup foot_note=196431>1</sup> These are the verses of the wise<sup foot_note=196430>2</sup> Book."
                },
                {
                    "id": 215449,
                    "resource_id": 39,
                    "text": "Alif, Laam Raa' ini ialah ayat-ayat Kitab (Al-Quran) yang mengandungi hikmat-hikmat dan kebenaran yang tetap teguh."
                },
                {
                    "id": 1092342,
                    "resource_id": 161,
                    "text": "আলিফ-লাম-র, এগুলো মহা বিজ্ঞানময় গ্রন্থের আয়াতসমূহ।"
                }
            ]
        },
        {
            "id": 1366,
            "verse_number": 2,
            "verse_key": "10:2",
            "hizb_number": 21,
            "rub_el_hizb_number": 83,
            "ruku_number": 172,
            "manzil_number": 3,
            "sajdah_number": null,
            "text_uthmani": "أَكَانَ لِلنَّاسِ عَجَبًا أَنْ أَوْحَيْنَآ إِلَىٰ رَجُلٍ مِّنْهُمْ أَنْ أَنذِرِ ٱلنَّاسَ وَبَشِّرِ ٱلَّذِينَ ءَامَنُوٓا۟ أَنَّ لَهُمْ قَدَمَ صِدْقٍ عِندَ رَبِّهِمْ ۗ قَالَ ٱلْكَـٰفِرُونَ إِنَّ هَـٰذَا لَسَـٰحِرٌ مُّبِينٌ",
            "page_number": 208,
            "juz_number": 11,
            "translations": [
                {
                    "id": 96208,
                    "resource_id": 20,
                    "text": "Have the people been amazed that We revealed [revelation] to a man from among them, [saying], \"Warn mankind and give good tidings to those who believe that they will have a [firm] precedence of honor<sup foot_note=196432>1</sup> with their Lord\"? [But] the disbelievers say, \"Indeed, this is an obvious magician.\""
                },
                {
                    "id": 217971,
                    "resource_id": 39,
                    "text": "Tidaklah patut adanya pada manusia yang ingkar itu perasaan hairan disebabkan Kami telah wahyukan kepada seorang lelaki dari jenis mereka (Nabi Muhammad, dengan berfirman kepadanya): \"Berilah amaran kepada umat manusia (yang ingkar, dengan balasan azab) dan sampaikanlah berita yang mengembirakan kepada orang-orang yang beriman, bahawa bagi mereka ada persediaan yang sungguh mulia di sisi Tuhan mereka (disebabkan amal-amal soleh yang mereka kerjakan). (Setelah Nabi Muhammad memberi amaran dan menyampaikan berita yang mengembirakan) berkatalah orang-orang kafir (yang merasa hairan) itu: \"Sebenarnya (Al-Quran) ini ialah sihir yang terang nyata.\""
                },
                {
                    "id": 1092343,
                    "resource_id": 161,
                    "text": "মানুষের কাছে কি এটা আশ্চর্যের বিষয় যে, আমি তাদেরই মধ্যেকার একজন লোকের কাছে ওয়াহী পাঠিয়েছি যে, লোকদের সতর্ক করে দাও, আর যারা ঈমান আনে তাদেরকে সুসংবাদ দাও যে, তাদের জন্য তাদের প্রতিপালকের কাছে আছে মহা মর্যাদা, (কিন্তু) কাফিররা বলে, ‘এ ব্যক্তি তো প্রকাশ্য যাদুকর’।"
                }
            ]
        },
        {
            "id": 1367,
            "verse_number": 3,
            "verse_key": "10:3",
            "hizb_number": 21,
            "rub_el_hizb_number": 83,
            "ruku_number": 172,
            "manzil_number": 3,
            "sajdah_number": null,
            "text_uthmani": "إِنَّ رَبَّكُمُ ٱللَّهُ ٱلَّذِى خَلَقَ ٱلسَّمَـٰوَٰتِ وَٱلْأَرْضَ فِى سِتَّةِ أَيَّامٍ ثُمَّ ٱسْتَوَىٰ عَلَى ٱلْعَرْشِ ۖ يُدَبِّرُ ٱلْأَمْرَ ۖ مَا مِن شَفِيعٍ إِلَّا مِنۢ بَعْدِ إِذْنِهِۦ ۚ ذَٰلِكُمُ ٱللَّهُ رَبُّكُمْ فَٱعْبُدُوهُ ۚ أَفَلَا تَذَكَّرُونَ",
            "page_number": 208,
            "juz_number": 11,
            "translations": [
                {
                    "id": 96227,
                    "resource_id": 20,
                    "text": "Indeed, your Lord is Allāh, who created the heavens and the earth in six days and then established Himself above the Throne,<sup foot_note=196433>1</sup> arranging the matter [of His creation]. There is no intercessor except after His permission. That is Allāh, your Lord, so worship Him. Then will you not remember?"
                },
                {
                    "id": 220139,
                    "resource_id": 39,
                    "text": "Sesungguhnya Tuhan kamu ialah Allah yang menjadikan langit dan bumi dalam enam masa kemudian Ia bersemayam di atas Arasy mentadbirkan segala urusan. Tidak ada sesiapa pun yang dapat memberi syafaat melainkan sesudah diizinkanNya. (Yang bersifat demikian) itulah Allah, Tuhan (yang memelihara dan mentadbirkan keadaan) kamu; maka tunduklah dan taatlah kamu kepada perintahNya; patutkah kamu - setelah mengetahui kenyataan yang tersebut tidak mahu mengingatiNya?"
                },
                {
                    "id": 1092344,
                    "resource_id": 161,
                    "text": "নিশ্চয়ই তোমাদের প্রতিপালক হলেন আল্লাহ যিনি আকাশমন্ডলী আর পৃথিবীকে ছয় দিনে সৃষ্টি করেছেন। অতঃপর তিনি আরশে সমুন্নত হয়েছেন। তিনি যাবতীয় বিষয়াদি পরিচালনা করেন। তাঁর অনুমতি প্রাপ্তি ছাড়া সুপারিশ করার কেউ নেই। ইনিই হলেন আল্লাহ, তোমাদের প্রতিপালক। কাজেই তোমরা তাঁরই ‘ইবাদাত কর, তোমরা কি উপদেশ গ্রহণ করবে না?"
                }
            ]
        },
        {
            "id": 1368,
            "verse_number": 4,
            "verse_key": "10:4",
            "hizb_number": 21,
            "rub_el_hizb_number": 83,
            "ruku_number": 172,
            "manzil_number": 3,
            "sajdah_number": null,
            "text_uthmani": "إِلَيْهِ مَرْجِعُكُمْ جَمِيعًا ۖ وَعْدَ ٱللَّهِ حَقًّا ۚ إِنَّهُۥ يَبْدَؤُا۟ ٱلْخَلْقَ ثُمَّ يُعِيدُهُۥ لِيَجْزِىَ ٱلَّذِينَ ءَامَنُوا۟ وَعَمِلُوا۟ ٱلصَّـٰلِحَـٰتِ بِٱلْقِسْطِ ۚ وَٱلَّذِينَ كَفَرُوا۟ لَهُمْ شَرَابٌ مِّنْ حَمِيمٍ وَعَذَابٌ أَلِيمٌۢ بِمَا كَانُوا۟ يَكْفُرُونَ",
            "page_number": 208,
            "juz_number": 11,
            "translations": [
                {
                    "id": 96240,
                    "resource_id": 20,
                    "text": "To Him is your return all together. [It is] the promise of Allāh [which is] truth. Indeed, He begins the [process of] creation and then repeats it that He may reward those who have believed and done righteous deeds, in justice. But those who disbelieved will have a drink of scalding water and a painful punishment for what they used to deny."
                },
                {
                    "id": 220230,
                    "resource_id": 39,
                    "text": "KepadaNyalah kembalinya kamu semua, sebagai janji Allah yang benar. Sesungguhnya Dia lah yang memulakan kejadian sekalian makhluk, kemudian Ia mengembalikannya (hidup semula sesudah matinya), untuk membalas orang-orang yang beriman dan beramal soleh dengan adil; dan orang-orang yang kafir pula, disediakan bagi mereka minuman dari air panas yang menggelegak, dan azab yang tidak terperi sakitnya, disebabkan mereka ingkar dan berlaku kufur."
                },
                {
                    "id": 1092345,
                    "resource_id": 161,
                    "text": "তাঁর কাছেই তোমাদের সকলের প্রত্যাবর্তন। আল্লাহর ওয়া‘দা নিশ্চিত সত্য। তিনি সৃষ্টির সূচনা করেন, পরে তিনিই আবার সৃষ্টি করবেন যাতে তিনি- যারা ঈমান এনেছে ও সৎকর্ম করেছে- তাদেরকে পূর্ণ ইনসাফের সাথে প্রতিদান দিতে পারেন। আর যারা কুফুরী করেছে তাদের জন্য আছে অতি উত্তপ্তপানীয় ও বেদনা দায়ক শাস্তি, যেহেতু তারা সত্য প্রত্যাখ্যান করত।"
                }
            ]
        },
        {
            "id": 1369,
            "verse_number": 5,
            "verse_key": "10:5",
            "hizb_number": 21,
            "rub_el_hizb_number": 83,
            "ruku_number": 172,
            "manzil_number": 3,
            "sajdah_number": null,
            "text_uthmani": "هُوَ ٱلَّذِى جَعَلَ ٱلشَّمْسَ ضِيَآءً وَٱلْقَمَرَ نُورًا وَقَدَّرَهُۥ مَنَازِلَ لِتَعْلَمُوا۟ عَدَدَ ٱلسِّنِينَ وَٱلْحِسَابَ ۚ مَا خَلَقَ ٱللَّهُ ذَٰلِكَ إِلَّا بِٱلْحَقِّ ۚ يُفَصِّلُ ٱلْـَٔايَـٰتِ لِقَوْمٍ يَعْلَمُونَ",
            "page_number": 208,
            "juz_number": 11,
            "translations": [
                {
                    "id": 96260,
                    "resource_id": 20,
                    "text": "It is He who made the sun a shining light and the moon a derived light and determined for it phases - that you may know the number of years and account [of time]. Allāh has not created this except in truth. He details the signs for a people who know."
                },
                {
                    "id": 220242,
                    "resource_id": 39,
                    "text": "Dia lah yang menjadikan matahari bersinar-sinar (terang-benderang) dan bulan bercahaya, dan Dia lah yang menentukan perjalanan tiap-tiap satu itu (berpindah-randah) pada tempat-tempat peredarannya masing-masing) supaya kamu dapat mengetahui bilangan tahun dan kiraan masa. Allah tidak menjadikan semuanya itu melainkan dengan adanya faedah dan gunanya yang sebenar. Allah menjelaskan ayat-ayatNya (tanda-tanda kebesaranNya) satu persatu bagi kaum yang mahu mengetahui (hikmat sesuatu yang dijadikanNya)."
                },
                {
                    "id": 1092346,
                    "resource_id": 161,
                    "text": "তিনি সূর্যকে করেছেন তেজোদীপ্ত, আর চন্দ্রকে করেছেন আলোকময় আর তার (হ্রাস বৃদ্ধির) মানযিলসমূহ সঠিকভাবে নির্ধারণ করেছেন যাতে তোমরা বৎসর গুণে (সময়ের) হিসাব রাখতে পার। আল্লাহ এটা অনর্থক সৃষ্টি করেননি, তিনি নিদর্শনগুলোকে বিশদভাবে বর্ণনা করেন জ্ঞানী সম্প্রদায়ের জন্য।"
                }
            ]
        },
        {
            "id": 1370,
            "verse_number": 6,
            "verse_key": "10:6",
            "hizb_number": 21,
            "rub_el_hizb_number": 83,
            "ruku_number": 172,
            "manzil_number": 3,
            "sajdah_number": null,
            "text_uthmani": "إِنَّ فِى ٱخْتِلَـٰفِ ٱلَّيْلِ وَٱلنَّهَارِ وَمَا خَلَقَ ٱللَّهُ فِى ٱلسَّمَـٰوَٰتِ وَٱلْأَرْضِ لَـَٔايَـٰتٍ لِّقَوْمٍ يَتَّقُونَ",
            "page_number": 208,
            "juz_number": 11,
            "translations": [
                {
                    "id": 96276,
                    "resource_id": 20,
                    "text": "Indeed, in the alternation of the night and the day and [in] what Allāh has created in the heavens and the earth are signs for a people who fear Allāh."
                },
                {
                    "id": 220240,
                    "resource_id": 39,
                    "text": "Sesungguhnya pada pertukaran malam dan siang silih berganti, dan pada segala yang dijadikan oleh Allah di langit dan di bumi, ada tanda-tanda (yang menunjukkan undang-undang dan peraturan Allah) kepada kaum yang mahu bertaqwa."
                },
                {
                    "id": 1092347,
                    "resource_id": 161,
                    "text": "নিশ্চয়ই রাত ও দিনের আবর্তনে, আর আকাশমন্ডলী ও পৃথিবীর মাঝে আল্লাহ যা সৃষ্টি করেছেন তাতে মুত্তাকী সম্প্রদায়ের জন্য অবশ্যই নিদর্শন রয়েছে।"
                }
            ]
        },
        {
            "id": 1371,
            "verse_number": 7,
            "verse_key": "10:7",
            "hizb_number": 21,
            "rub_el_hizb_number": 83,
            "ruku_number": 172,
            "manzil_number": 3,
            "sajdah_number": null,
            "text_uthmani": "إِنَّ ٱلَّذِينَ لَا يَرْجُونَ لِقَآءَنَا وَرَضُوا۟ بِٱلْحَيَوٰةِ ٱلدُّنْيَا وَٱطْمَأَنُّوا۟ بِهَا وَٱلَّذِينَ هُمْ عَنْ ءَايَـٰتِنَا غَـٰفِلُونَ",
            "page_number": 209,
            "juz_number": 11,
            "translations": [
                {
                    "id": 96292,
                    "resource_id": 20,
                    "text": "Indeed, those who do not expect the meeting with Us and are satisfied with the life of this world and feel secure therein and those who are heedless of Our signs -"
                },
                {
                    "id": 220264,
                    "resource_id": 39,
                    "text": "Sesungguhnya orang-orang yang tidak menaruh ingatan akan menemui Kami (pada hari akhirat untuk menerima balasan), dan yang reda (berpuashati) dengan kehidupan dunia semata-mata serta merasa tenang tenteram dengannya, dan orang-orang yang tidak mengindahkan ayat-ayat (keterangan dan tanda-tanda kekuasasaan) Kami, -"
                },
                {
                    "id": 1092348,
                    "resource_id": 161,
                    "text": "যারা আমার সঙ্গে সাক্ষাৎ লাভের আশা রাখে না, এবং দুনিয়ার জীবন নিয়েই সন্তুষ্ট থাকে আর তাতেই নিশ্চিন্ত হয় এবং যারা আমার নিদর্শনগুলো হতে একেবারে উদাসীন,"
                }
            ]
        },
        {
            "id": 1372,
            "verse_number": 8,
            "verse_key": "10:8",
            "hizb_number": 21,
            "rub_el_hizb_number": 83,
            "ruku_number": 172,
            "manzil_number": 3,
            "sajdah_number": null,
            "text_uthmani": "أُو۟لَـٰٓئِكَ مَأْوَىٰهُمُ ٱلنَّارُ بِمَا كَانُوا۟ يَكْسِبُونَ",
            "page_number": 209,
            "juz_number": 11,
            "translations": [
                {
                    "id": 96310,
                    "resource_id": 20,
                    "text": "For those their refuge will be the Fire because of what they used to earn."
                },
                {
                    "id": 220277,
                    "resource_id": 39,
                    "text": "Mereka yang demikian keadaannya (di dunia), tempat kediaman mereka (di akhirat) ialah neraka; disebabkan keingkaran dan kederhakaan yang mereka telah lakukan."
                },
                {
                    "id": 1092349,
                    "resource_id": 161,
                    "text": "তাদের আবাস হল জাহান্নাম তাদের কৃতকর্মের কারণে।"
                }
            ]
        },
        {
            "id": 1373,
            "verse_number": 9,
            "verse_key": "10:9",
            "hizb_number": 21,
            "rub_el_hizb_number": 83,
            "ruku_number": 172,
            "manzil_number": 3,
            "sajdah_number": null,
            "text_uthmani": "إِنَّ ٱلَّذِينَ ءَامَنُوا۟ وَعَمِلُوا۟ ٱلصَّـٰلِحَـٰتِ يَهْدِيهِمْ رَبُّهُم بِإِيمَـٰنِهِمْ ۖ تَجْرِى مِن تَحْتِهِمُ ٱلْأَنْهَـٰرُ فِى جَنَّـٰتِ ٱلنَّعِيمِ",
            "page_number": 209,
            "juz_number": 11,
            "translations": [
                {
                    "id": 96324,
                    "resource_id": 20,
                    "text": "Indeed, those who have believed and done righteous deeds - their Lord will guide them because of their faith. Beneath them rivers will flow in the Gardens of Pleasure."
                },
                {
                    "id": 220291,
                    "resource_id": 39,
                    "text": "Sesungguhnya orang-orang yang beriman dan beramal soleh, Tuhan mereka akan memimpin mereka dengan sebab iman mereka yang sempurna itu. (Mereka masuk ke taman yang) sungai-sungainya mengalir di bawah tempat kediaman mereka di dalam Syurga yang penuh nikmat."
                },
                {
                    "id": 1092350,
                    "resource_id": 161,
                    "text": "যারা ঈমান আনে আর সৎ ‘আমাল করে, তাদের প্রতিপালক তাদের ঈমানের বদৌলতে তাদেরকে সৎপথে পরিচালিত করবেন। নি‘মাতরাজি দ্বারা পরিপূর্ণ জান্নাতে, তাদের পাদদেশে ঝর্ণাধারা প্রবাহিত হবে।"
                }
            ]
        },
        {
            "id": 1374,
            "verse_number": 10,
            "verse_key": "10:10",
            "hizb_number": 21,
            "rub_el_hizb_number": 83,
            "ruku_number": 172,
            "manzil_number": 3,
            "sajdah_number": null,
            "text_uthmani": "دَعْوَىٰهُمْ فِيهَا سُبْحَـٰنَكَ ٱللَّهُمَّ وَتَحِيَّتُهُمْ فِيهَا سَلَـٰمٌ ۚ وَءَاخِرُ دَعْوَىٰهُمْ أَنِ ٱلْحَمْدُ لِلَّهِ رَبِّ ٱلْعَـٰلَمِينَ",
            "page_number": 209,
            "juz_number": 11,
            "translations": [
                {
                    "id": 96176,
                    "resource_id": 20,
                    "text": "Their call therein will be, \"Exalted are You, O Allāh,\" and their greeting therein will be, \"Peace.\" And the last of their call will be, \"Praise to Allāh, Lord of the worlds!\""
                },
                {
                    "id": 215589,
                    "resource_id": 39,
                    "text": "Doa ucapan mereka di dalam Syurga itu ialah Maha Suci Engkau dari segala kekurangan wahai Tuhan! Dan ucapan penghormatan mereka padanya ialah: Selamat sejahtera! Dan akhir doa mereka ialah segala puji dipersembahkan kepada Allah yang memelihara dan mentadbirkan sekalian alam!"
                },
                {
                    "id": 1092351,
                    "resource_id": 161,
                    "text": "তার ভিতরে তাদের দু’আ হবে, ‘‘পবিত্র তুমি হে আল্লাহ’’। আর সেখানে তাদের অভিবাদন হবে ‘‘শান্তি’’, আর তাদের দু‘আর সর্বশেষ কথা হবে ‘‘সমস্ত প্রশংসা জগৎসমূহের প্রতিপালক আল্লাহর জন্য’’।"
                }
            ]
        }
    ],
    "pagination": {
        "per_page": 10,
        "current_page": 1,
        "next_page": 2,
        "total_pages": 11,
        "total_records": 109
    }
}