{
    "verses": [
        {
            "id": 6158,
            "verse_number": 1,
            "verse_key": "101:1",
            "hizb_number": 60,
            "rub_el_hizb_number": 240,
            "ruku_number": 545,
            "manzil_number": 7,
            "sajdah_number": null,
            "text_uthmani": " ٱلْقَارِعَةُ",
            "page_number": 600,
            "juz_number": 30,
            "translations": [
                {
                    "id": 96188,
                    "resource_id": 20,
                    "text": "The Striking Calamity -"
                },
                {
                    "id": 214644,
                    "resource_id": 39,
                    "text": "Hari yang menggemparkan,"
                },
                {
                    "id": 1097135,
                    "resource_id": 161,
                    "text": "মহা বিপদ"
                }
            ]
        },
        {
            "id": 6159,
            "verse_number": 2,
            "verse_key": "101:2",
            "hizb_number": 60,
            "rub_el_hizb_number": 240,
            "ruku_number": 545,
            "manzil_number": 7,
            "sajdah_number": null,
            "text_uthmani": "مَا ٱلْقَارِعَةُ",
            "page_number": 600,
            "juz_number": 30,
            "translations": [
                {
                    "id": 96193,
                    "resource_id": 20,
                    "text": "What is the Striking Calamity?"
                },
                {
                    "id": 220438,
                    "resource_id": 39,
                    "text": "Apa dia hari yang menggemparkan itu?"
                },
                {
                    "id": 1097136,
                    "resource_id": 161,
                    "text": "কী সেই মহা বিপদ?"
                }
            ]
        },
        {
            "id": 6160,
            "verse_number": 3,
            "verse_key": "101:3",
            "hizb_number": 60,
            "rub_el_hizb_number": 240,
            "ruku_number": 545,
            "manzil_number": 7,
            "sajdah_number": null,
            "text_uthmani": "وَمَآ أَدْرَىٰكَ مَا ٱلْقَارِعَةُ",
            "page_number": 600,
            "juz_number": 30,
            "translations": [
                {
                    "id": 96195,
                    "resource_id": 20,
                    "text": "And what can make you know what is the Striking Calamity?"
                },
                {
                    "id": 216623,
                    "resource_id": 39,
                    "text": "Dan apa jalannya engkau dapat mengetahui kedahsyatan hari yang menggemparkan itu? -"
                },
                {
                    "id": 1097137,
                    "resource_id": 161,
                    "text": "মহা বিপদ সম্পর্কে তুমি কী জান?"
                }
            ]
        },
        {
            "id": 6161,
            "verse_number": 4,
            "verse_key": "101:4",
            "hizb_number": 60,
            "rub_el_hizb_number": 240,
            "ruku_number": 545,
            "manzil_number": 7,
            "sajdah_number": null,
            "text_uthmani": "يَوْمَ يَكُونُ ٱلنَّاسُ كَٱلْفَرَاشِ ٱلْمَبْثُوثِ",
            "page_number": 600,
            "juz_number": 30,
            "translations": [
                {
                    "id": 96197,
                    "resource_id": 20,
                    "text": "It is the Day when people will be like moths, dispersed,<sup foot_note=197804>1</sup>"
                },
                {
                    "id": 216765,
                    "resource_id": 39,
                    "text": "(Hari itu ialah: hari kiamat), hari manusia menjadi seperti kelkatu yang terbang berkeliaran,"
                },
                {
                    "id": 1097138,
                    "resource_id": 161,
                    "text": "সে দিন মানুষ হবে বিক্ষিপ্ত পতঙ্গের মত"
                }
            ]
        },
        {
            "id": 6162,
            "verse_number": 5,
            "verse_key": "101:5",
            "hizb_number": 60,
            "rub_el_hizb_number": 240,
            "ruku_number": 545,
            "manzil_number": 7,
            "sajdah_number": null,
            "text_uthmani": "وَتَكُونُ ٱلْجِبَالُ كَٱلْعِهْنِ ٱلْمَنفُوشِ",
            "page_number": 600,
            "juz_number": 30,
            "translations": [
                {
                    "id": 96199,
                    "resource_id": 20,
                    "text": "And the mountains will be like wool, fluffed up.<sup foot_note=197805>1</sup>"
                },
                {
                    "id": 216775,
                    "resource_id": 39,
                    "text": "Dan gunung-ganang menjadi seperti bulu yang dibusar berterbangan."
                },
                {
                    "id": 1097139,
                    "resource_id": 161,
                    "text": "আর পর্বতগুলো হবে ধুনা রঙ্গিন পশমের মত।"
                }
            ]
        },
        {
            "id": 6163,
            "verse_number": 6,
            "verse_key": "101:6",
            "hizb_number": 60,
            "rub_el_hizb_number": 240,
            "ruku_number": 545,
            "manzil_number": 7,
            "sajdah_number": null,
            "text_uthmani": "فَأَمَّا مَن ثَقُلَتْ مَوَٰزِينُهُۥ",
            "page_number": 600,
            "juz_number": 30,
            "translations": [
                {
                    "id": 96201,
                    "resource_id": 20,
                    "text": "Then as for one whose scales are heavy [with good deeds],"
                },
                {
                    "id": 216766,
                    "resource_id": 39,
                    "text": "Setelah berlaku demikian, maka (manusia akan diberikan tempatnya menurut amal masing-masing); adapun orang yang berat timbangan amal baiknya, -"
                },
                {
                    "id": 1097140,
                    "resource_id": 161,
                    "text": "অতঃপর যার (সৎ কর্মের) পাল্লা ভারি হবে।"
                }
            ]
        },
        {
            "id": 6164,
            "verse_number": 7,
            "verse_key": "101:7",
            "hizb_number": 60,
            "rub_el_hizb_number": 240,
            "ruku_number": 545,
            "manzil_number": 7,
            "sajdah_number": null,
            "text_uthmani": "فَهُوَ فِى عِيشَةٍ رَّاضِيَةٍ",
            "page_number": 600,
            "juz_number": 30,
            "translations": [
                {
                    "id": 96203,
                    "resource_id": 20,
                    "text": "He will be in a pleasant life."
                },
                {
                    "id": 220432,
                    "resource_id": 39,
                    "text": "Maka ia berada dalam kehidupan yang senang lenang."
                },
                {
                    "id": 1097141,
                    "resource_id": 161,
                    "text": "সে সুখী জীবন যাপন করবে।"
                }
            ]
        },
        {
            "id": 6165,
            "verse_number": 8,
            "verse_key": "101:8",
            "hizb_number": 60,
            "rub_el_hizb_number": 240,
            "ruku_number": 545,
            "manzil_number": 7,
            "sajdah_number": null,
            "text_uthmani": "وَأَمَّا مَنْ خَفَّتْ مَوَٰزِينُهُۥ",
            "page_number": 600,
            "juz_number": 30,
            "translations": [
                {
                    "id": 96205,
                    "resource_id": 20,
                    "text": "But as for one whose scales are light,"
                },
                {
                    "id": 216338,
                    "resource_id": 39,
                    "text": "Sebaliknya orang yang ringan timbangan amal baiknya, -"
                },
                {
                    "id": 1097142,
                    "resource_id": 161,
                    "text": "আর যার (সৎকর্মের) পাল্লা হালকা হবে,"
                }
            ]
        },
        {
            "id": 6166,
            "verse_number": 9,
            "verse_key": "101:9",
            "hizb_number": 60,
            "rub_el_hizb_number": 240,
            "ruku_number": 545,
            "manzil_number": 7,
            "sajdah_number": null,
            "text_uthmani": "فَأُمُّهُۥ هَاوِيَةٌ",
            "page_number": 600,
            "juz_number": 30,
            "translations": [
                {
                    "id": 96207,
                    "resource_id": 20,
                    "text": "His refuge<sup foot_note=197806>1</sup> will be an abyss.<sup foot_note=197807>2</sup>"
                },
                {
                    "id": 217585,
                    "resource_id": 39,
                    "text": "Maka tempat kembalinya ialah \"Haawiyah\""
                },
                {
                    "id": 1097143,
                    "resource_id": 161,
                    "text": "(জাহান্নামের) অতলস্পর্শী গর্তই হবে তার বাসস্থান।"
                }
            ]
        },
        {
            "id": 6167,
            "verse_number": 10,
            "verse_key": "101:10",
            "hizb_number": 60,
            "rub_el_hizb_number": 240,
            "ruku_number": 545,
            "manzil_number": 7,
            "sajdah_number": null,
            "text_uthmani": "وَمَآ أَدْرَىٰكَ مَا هِيَهْ",
            "page_number": 600,
            "juz_number": 30,
            "translations": [
                {
                    "id": 96189,
                    "resource_id": 20,
                    "text": "And what can make you know what that is?"
                },
                {
                    "id": 215661,
                    "resource_id": 39,
                    "text": "Dan apa jalannya engkau dapat mengetahui, apa dia \"Haawiyah\" itu?"
                },
                {
                    "id": 1097144,
                    "resource_id": 161,
                    "text": "তুমি কি জান তা কী?"
                }
            ]
        }
    ],
    "pagination": {
        "per_page": 10,
        "current_page": 1,
        "next_page": 2,
        "total_pages": 2,
        "total_records": 11
    }
}