{
    "verses": [
        {
            "id": 1474,
            "verse_number": 1,
            "verse_key": "11:1",
            "hizb_number": 22,
            "rub_el_hizb_number": 88,
            "ruku_number": 183,
            "manzil_number": 3,
            "sajdah_number": null,
            "text_uthmani": " الٓر ۚ كِتَـٰبٌ أُحْكِمَتْ ءَايَـٰتُهُۥ ثُمَّ فُصِّلَتْ مِن لَّدُنْ حَكِيمٍ خَبِيرٍ",
            "page_number": 221,
            "juz_number": 11,
            "translations": [
                {
                    "id": 96347,
                    "resource_id": 20,
                    "text": "Alif, Lām, Rā.<sup foot_note=196466>1</sup> [This is] a Book whose verses are perfected and then presented in detail from [one who is] Wise and Aware<sup foot_note=196465>2</sup>"
                },
                {
                    "id": 220295,
                    "resource_id": 39,
                    "text": "Alif, Laam, Raa'. Al-Quran sebuah Kitab yang tersusun ayat-ayatnya dengan tetap teguh, kemudian dijelaskan pula kandungannya satu persatu. (Susunan dan penjelasan itu) adalah dari sisi Allah Yang Maha Bijaksana, lagi Maha Mendalam pengetahuanNya."
                },
                {
                    "id": 1092451,
                    "resource_id": 161,
                    "text": "আলিফ, লাম, রা; এটা এমন একটা গ্রন্থ, এর আয়াতগুলো সুদৃঢ়, অতঃপর সবিস্তারে ব্যাখ্যাকৃত মহাজ্ঞানী, সর্বজ্ঞের নিকট হতে।"
                }
            ]
        },
        {
            "id": 1475,
            "verse_number": 2,
            "verse_key": "11:2",
            "hizb_number": 22,
            "rub_el_hizb_number": 88,
            "ruku_number": 183,
            "manzil_number": 3,
            "sajdah_number": null,
            "text_uthmani": "أَلَّا تَعْبُدُوٓا۟ إِلَّا ٱللَّهَ ۚ إِنَّنِى لَكُم مِّنْهُ نَذِيرٌ وَبَشِيرٌ",
            "page_number": 221,
            "juz_number": 11,
            "translations": [
                {
                    "id": 96388,
                    "resource_id": 20,
                    "text": "[Through a messenger, saying], \"Do not worship except Allāh. Indeed, I am to you from Him a warner and a bringer of good tidings,\""
                },
                {
                    "id": 220270,
                    "resource_id": 39,
                    "text": "(Al-Quran yang demikian sifatnya diturunkan oleh Allah) supaya janganlah kamu menyembah sesuatupun melainkan Allah. (Katakanlah wahai Muhammad): \"Sesungguhnya aku diutus oleh Allah kepada kamu, sebagai pemberi amaran (kepada orang-orang yang (ingkar), dan pembawa berita gembira (kepada orang-orang yang (beriman)."
                },
                {
                    "id": 1092452,
                    "resource_id": 161,
                    "text": "(এটা শিক্ষা দেয়) যে, তোমরা আল্লাহ ছাড়া কারো ‘ইবাদাত করবে না, আমি অবশ্যই তাঁর পক্ষ হতে তোমাদের জন্য ভয় প্রদর্শনকারী ও সুসংবাদদাতা।"
                }
            ]
        },
        {
            "id": 1476,
            "verse_number": 3,
            "verse_key": "11:3",
            "hizb_number": 22,
            "rub_el_hizb_number": 88,
            "ruku_number": 183,
            "manzil_number": 3,
            "sajdah_number": null,
            "text_uthmani": "وَأَنِ ٱسْتَغْفِرُوا۟ رَبَّكُمْ ثُمَّ تُوبُوٓا۟ إِلَيْهِ يُمَتِّعْكُم مَّتَـٰعًا حَسَنًا إِلَىٰٓ أَجَلٍ مُّسَمًّى وَيُؤْتِ كُلَّ ذِى فَضْلٍ فَضْلَهُۥ ۖ وَإِن تَوَلَّوْا۟ فَإِنِّىٓ أَخَافُ عَلَيْكُمْ عَذَابَ يَوْمٍ كَبِيرٍ",
            "page_number": 221,
            "juz_number": 11,
            "translations": [
                {
                    "id": 96403,
                    "resource_id": 20,
                    "text": "And [saying], \"Seek forgiveness of your Lord and repent to Him, [and] He will let you enjoy a good provision for a specified term and give every doer of favor his favor [i.e., reward]. But if you turn away, then indeed, I fear for you the punishment of a great Day."
                },
                {
                    "id": 220355,
                    "resource_id": 39,
                    "text": "Dan hendaklah kamu meminta ampun kepada Tuhan kamu (dari perbuatan syirik), kemudian hendaklah kamu rujuk kembali taat kepadaNya; supaya Ia memberi kamu nikmat kesenangan hidup yang baik (di dunia) hingga ke suatu masa yang tertentu, dan (di akhirat pula) Ia akan memberi kepada tiap-tiap seorang yang mempunyai kelebihan (dalam sebarang amal yang soleh) akan pahala kelebihannya itu; dan jika kamu berpaling (membelakangkan tiga perkara itu), maka sesungguhnya aku bimbang kamu akan beroleh azab hari kiamat yang besar (huru-haranya)."
                },
                {
                    "id": 1092453,
                    "resource_id": 161,
                    "text": "(এটা শিক্ষা দেয়) যে, তোমরা তোমাদের প্রতিপালকের নিকট ক্ষমা চাও, আর অনুশোচনাভরে তাঁর দিকেই ফিরে এসো, তাহলে তিনি একটা নির্দিষ্ট কাল পর্যন্ত তোমাদেরকে উত্তম জীবন সামগ্রী ভোগ করতে দিবেন, আর অনুগ্রহ লাভের যোগ্য প্রত্যেক ব্যক্তিকে তিনি তাঁর অনুগ্রহ দানে ধন্য করবেন। আর যদি তোমরা মুখ ফিরিয়ে নাও তাহলে আমি তোমাদের উপর বড় এক কঠিন দিনের ‘আযাবের আশঙ্কা করছি।"
                }
            ]
        },
        {
            "id": 1477,
            "verse_number": 4,
            "verse_key": "11:4",
            "hizb_number": 22,
            "rub_el_hizb_number": 88,
            "ruku_number": 183,
            "manzil_number": 3,
            "sajdah_number": null,
            "text_uthmani": "إِلَى ٱللَّهِ مَرْجِعُكُمْ ۖ وَهُوَ عَلَىٰ كُلِّ شَىْءٍ قَدِيرٌ",
            "page_number": 221,
            "juz_number": 11,
            "translations": [
                {
                    "id": 96419,
                    "resource_id": 20,
                    "text": "To Allāh is your return, and He is over all things competent.\""
                },
                {
                    "id": 220375,
                    "resource_id": 39,
                    "text": "Kepada Allah jualah kembalinya kamu, dan Ia Maha Kuasa atas tiap-tiap sesuatu\"."
                },
                {
                    "id": 1092454,
                    "resource_id": 161,
                    "text": "তোমাদের প্রত্যাবর্তন আল্লাহর কাছেই, আর তিনি সব কিছুই করতে সক্ষম।"
                }
            ]
        },
        {
            "id": 1478,
            "verse_number": 5,
            "verse_key": "11:5",
            "hizb_number": 22,
            "rub_el_hizb_number": 88,
            "ruku_number": 183,
            "manzil_number": 3,
            "sajdah_number": null,
            "text_uthmani": "أَلَآ إِنَّهُمْ يَثْنُونَ صُدُورَهُمْ لِيَسْتَخْفُوا۟ مِنْهُ ۚ أَلَا حِينَ يَسْتَغْشُونَ ثِيَابَهُمْ يَعْلَمُ مَا يُسِرُّونَ وَمَا يُعْلِنُونَ ۚ إِنَّهُۥ عَلِيمٌۢ بِذَاتِ ٱلصُّدُورِ",
            "page_number": 221,
            "juz_number": 11,
            "translations": [
                {
                    "id": 96436,
                    "resource_id": 20,
                    "text": "Unquestionably, they [i.e., the disbelievers] turn away their breasts to hide themselves from him. Unquestionably, [even] when they cover themselves in their clothing, He [i.e., Allāh] knows what they conceal and what they declare. Indeed, He is Knowing of that within the breasts."
                },
                {
                    "id": 220388,
                    "resource_id": 39,
                    "text": "Ketahuilah! Sesungguhnya mereka yang ingkar itu membongkokkan badan mereka untuk menyembunyikan (perasaan buruk yang ada dalam dada mereka) daripada Allah. Ketahuilah! Semasa mereka berselubung dengan pakaian mereka sekalipun, Allah mengetahui apa yang mereka sembunyikan dan apa yang mereka zahirkan; sesungguhnya Ia Maha Mengetahui akan segala (isi hati) yang ada di dalam dada."
                },
                {
                    "id": 1092455,
                    "resource_id": 161,
                    "text": "লক্ষ্য কর, এরা নিজেদের বুক ঘুরিয়ে নেয় যাতে তারা তাঁর (অর্থাৎ আল্লাহর) থেকে লুকিয়ে থাকতে পারে। সাবধান! এরা যখন কাপড় দিয়ে নিজেরা নিজেদেরকে ঢেকে নেয়, তখন তারা যা গোপন করে আর প্রকাশ করে তিনি তা জানেন। তাদের মনের গভীরে যা আছে সে বিষয়ে তিনি সবচেয়ে বেশি অবহিত।"
                }
            ]
        },
        {
            "id": 1479,
            "verse_number": 6,
            "verse_key": "11:6",
            "hizb_number": 23,
            "rub_el_hizb_number": 89,
            "ruku_number": 183,
            "manzil_number": 3,
            "sajdah_number": null,
            "text_uthmani": "۞ وَمَا مِن دَآبَّةٍ فِى ٱلْأَرْضِ إِلَّا عَلَى ٱللَّهِ رِزْقُهَا وَيَعْلَمُ مُسْتَقَرَّهَا وَمُسْتَوْدَعَهَا ۚ كُلٌّ فِى كِتَـٰبٍ مُّبِينٍ",
            "page_number": 222,
            "juz_number": 12,
            "translations": [
                {
                    "id": 96447,
                    "resource_id": 20,
                    "text": "And there is no creature on earth but that upon Allāh is its provision, and He knows its place of dwelling and place of storage.<sup foot_note=196467>1</sup> All is in a clear register."
                },
                {
                    "id": 220378,
                    "resource_id": 39,
                    "text": "Dan tiadalah sesuatupun dari makhluk-makhluk yang bergerak di bumi melainkan Allah jualah yang menanggung rezekinya dan mengetahui tempat kediamannya dan tempat ia disimpan. Semuanya itu tersurat di dalam Kitab (Lauh mahfuz) yang nyata (kepada malaikat-malaikat yang berkenaan)."
                },
                {
                    "id": 1092456,
                    "resource_id": 161,
                    "text": "যমীনে বিচরণশীল এমন কোন জীব নেই যার জীবিকার দায়িত্ব আল্লাহর উপর নেই, তিনি জানেন তাদের থাকার জায়গা কোথায় আর কোথায় তাদেরকে (মৃত্যুর পর) রাখা হয়, সব কিছুই আছে সুস্পষ্ট লিপিকায়।"
                }
            ]
        },
        {
            "id": 1480,
            "verse_number": 7,
            "verse_key": "11:7",
            "hizb_number": 23,
            "rub_el_hizb_number": 89,
            "ruku_number": 183,
            "manzil_number": 3,
            "sajdah_number": null,
            "text_uthmani": "وَهُوَ ٱلَّذِى خَلَقَ ٱلسَّمَـٰوَٰتِ وَٱلْأَرْضَ فِى سِتَّةِ أَيَّامٍ وَكَانَ عَرْشُهُۥ عَلَى ٱلْمَآءِ لِيَبْلُوَكُمْ أَيُّكُمْ أَحْسَنُ عَمَلًا ۗ وَلَئِن قُلْتَ إِنَّكُم مَّبْعُوثُونَ مِنۢ بَعْدِ ٱلْمَوْتِ لَيَقُولَنَّ ٱلَّذِينَ كَفَرُوٓا۟ إِنْ هَـٰذَآ إِلَّا سِحْرٌ مُّبِينٌ",
            "page_number": 222,
            "juz_number": 12,
            "translations": [
                {
                    "id": 96458,
                    "resource_id": 20,
                    "text": "And it is He who created the heavens and the earth in six days - and His Throne had been upon water - that He might test you as to which of you is best in deed. But if you say, \"Indeed, you are resurrected after death,\" those who disbelieve will surely say, \"This is not but obvious magic.\""
                },
                {
                    "id": 220417,
                    "resource_id": 39,
                    "text": "Dan Dia lah yang menjadikan langit dan bumi dalam masa, sedang \"ArasyNya, berada di atas air (Ia menjadikan semuanya itu untuk menguji kamu: siapakah di antara kamu yang lebih baik amalnya. Dan demi sesungguhnya! Jika engkau (wahai Muhammad) berkata: \"Bahawa kamu akan dibangkitkan hidup kembali sesudah mati\" tentulah orang-orang yang ingkar akan berkata: \"Ini tidak lain, hanyalah seperti sihir yang nyata (tipuannya)\"."
                },
                {
                    "id": 1092457,
                    "resource_id": 161,
                    "text": "আর তিনিই আসমানসমূহ আর যমীনকে ছ’দিনে সৃষ্টি করেছেন। ইতোপূর্বে তাঁর আরশ ছিল পানির উপর। (সৃষ্টি করেছেন) তোমাদেরকে পরীক্ষা করার উদ্দেশে যে, তোমাদের মধ্যে ‘আমালের ক্ষেত্রে কারা শ্রেষ্ঠ। তুমি যদি বল, ‘‘মৃত্যুর পর তোমাদেরকে অবশ্য অবশ্যই আবার উঠানো হবে, তাহলে কাফিররা অবশ্যই বলবে যে, এতো সুস্পষ্ট যাদু।"
                }
            ]
        },
        {
            "id": 1481,
            "verse_number": 8,
            "verse_key": "11:8",
            "hizb_number": 23,
            "rub_el_hizb_number": 89,
            "ruku_number": 183,
            "manzil_number": 3,
            "sajdah_number": null,
            "text_uthmani": "وَلَئِنْ أَخَّرْنَا عَنْهُمُ ٱلْعَذَابَ إِلَىٰٓ أُمَّةٍ مَّعْدُودَةٍ لَّيَقُولُنَّ مَا يَحْبِسُهُۥٓ ۗ أَلَا يَوْمَ يَأْتِيهِمْ لَيْسَ مَصْرُوفًا عَنْهُمْ وَحَاقَ بِهِم مَّا كَانُوا۟ بِهِۦ يَسْتَهْزِءُونَ",
            "page_number": 222,
            "juz_number": 12,
            "translations": [
                {
                    "id": 96471,
                    "resource_id": 20,
                    "text": "And if We hold back from them the punishment for a limited time, they will surely say,<sup foot_note=196468>1</sup> \"What detains it?\" Unquestionably, on the Day it comes to them, it will not be averted from them, and they will be enveloped by what they used to ridicule."
                },
                {
                    "id": 220410,
                    "resource_id": 39,
                    "text": "Dan demi sesungguhnya! Jika kami tangguhkan azab daripada menimpa mereka hingga ke suatu masa yang tertentu, tentulah mereka akan berkata (secara mengejek): \"Apakah yang menghalangnya?\" Ketahuilah! Pada hari datangnya azab itu kepada mereka, tidak akan dapat ditolak daripada menimpa mereka, dan tentulah mereka akan diliputi oleh azab yang mereka telah ejek-ejek itu."
                },
                {
                    "id": 1092458,
                    "resource_id": 161,
                    "text": "আমি যদি নির্দিষ্ট সময়ের জন্য তাদের থেকে শাস্তি বিলম্বিত করি, তাহলে তারা অবশ্য অবশ্যই বলবে যে, ‘কিসে ওটাকে আটকে রাখল? সাবধান! এমন দিন তাদের কাছে আসবে যা তাদের থেকে কেউ ফিরিয়ে দিতে পারবে না, আর যা নিয়ে তারা ঠাট্টা বিদ্রূপ করছিল তাই তাদেরকে ঘিরে ফেলবে।"
                }
            ]
        },
        {
            "id": 1482,
            "verse_number": 9,
            "verse_key": "11:9",
            "hizb_number": 23,
            "rub_el_hizb_number": 89,
            "ruku_number": 184,
            "manzil_number": 3,
            "sajdah_number": null,
            "text_uthmani": "وَلَئِنْ أَذَقْنَا ٱلْإِنسَـٰنَ مِنَّا رَحْمَةً ثُمَّ نَزَعْنَـٰهَا مِنْهُ إِنَّهُۥ لَيَـُٔوسٌ كَفُورٌ",
            "page_number": 222,
            "juz_number": 12,
            "translations": [
                {
                    "id": 96482,
                    "resource_id": 20,
                    "text": "And if We give man a taste of mercy from Us and then We withdraw it from him, indeed, he is despairing and ungrateful."
                },
                {
                    "id": 220344,
                    "resource_id": 39,
                    "text": "Dan demi sesungguhnya! Jika Kami rasakan manusia sesuatu pemberian rahmat dari Kami kemudian Kami tarik balik pemberian itu daripadanya, mendapati dia amat berputus asa, lagi amat tidak bersyukur."
                },
                {
                    "id": 1092459,
                    "resource_id": 161,
                    "text": "আমি যদি মানুষকে আমার পক্ষ থেকে রহমত আস্বাদন করাই অতঃপর তা তার থেকে ছিনিয়ে নেই, তখন সে অবশ্যই হতাশ ও অকৃতজ্ঞ হয়ে পড়ে।"
                }
            ]
        },
        {
            "id": 1483,
            "verse_number": 10,
            "verse_key": "11:10",
            "hizb_number": 23,
            "rub_el_hizb_number": 89,
            "ruku_number": 184,
            "manzil_number": 3,
            "sajdah_number": null,
            "text_uthmani": "وَلَئِنْ أَذَقْنَـٰهُ نَعْمَآءَ بَعْدَ ضَرَّآءَ مَسَّتْهُ لَيَقُولَنَّ ذَهَبَ ٱلسَّيِّـَٔاتُ عَنِّىٓ ۚ إِنَّهُۥ لَفَرِحٌ فَخُورٌ",
            "page_number": 222,
            "juz_number": 12,
            "translations": [
                {
                    "id": 96348,
                    "resource_id": 20,
                    "text": "But if We give him a taste of favor after hardship has touched him, he will surely say, \"Bad times have left me.\" Indeed, he is exultant and boastful -"
                },
                {
                    "id": 220287,
                    "resource_id": 39,
                    "text": "Dan demi sesungguhnya! kalau Kami memberinya pula kesenangan sesudah ia menderita kesusahan, tentulah ia akan berkata: \"Telah hilang lenyaplah dariku segala kesusahan yang menimpaku\". Sesungguhnya ia (dengan kesenangannya itu) riang gembira, lagi bermegah-megah (kepada orang ramai)."
                },
                {
                    "id": 1092460,
                    "resource_id": 161,
                    "text": "আর যদি তার উপরে আসা দুঃখ কষ্টের পর তাকে নি‘মাতের স্বাদ আস্বাদন করাই, তখন সে অবশ্য অবশ্যই বলবে, ‘আমার দূরবস্থা কেটে গেছে’। তখন সে আনন্দে উৎফুল্ল হয়, হয়ে পড়ে অহঙ্কারী।"
                }
            ]
        }
    ],
    "pagination": {
        "per_page": 10,
        "current_page": 1,
        "next_page": 2,
        "total_pages": 13,
        "total_records": 123
    }
}