{
    "verses": [
        {
            "id": 1902,
            "verse_number": 1,
            "verse_key": "16:1",
            "hizb_number": 27,
            "rub_el_hizb_number": 107,
            "ruku_number": 224,
            "manzil_number": 3,
            "sajdah_number": null,
            "text_uthmani": " أَتَىٰٓ أَمْرُ ٱللَّهِ فَلَا تَسْتَعْجِلُوهُ ۚ سُبْحَـٰنَهُۥ وَتَعَـٰلَىٰ عَمَّا يُشْرِكُونَ",
            "page_number": 267,
            "juz_number": 14,
            "translations": [
                {
                    "id": 96801,
                    "resource_id": 20,
                    "text": "The command of Allāh is coming,<sup foot_note=196604>1</sup> so be not impatient for it. Exalted is He and high above what they associate with Him."
                },
                {
                    "id": 220776,
                    "resource_id": 39,
                    "text": "Telah hampir datangnya janji yang telah ditetapkan oleh Allah, maka janganlah kamu minta disegerakan. Maha suci Allah dan Maha tinggilah Ia dari perbuatan syirik yang mereka lakukan."
                },
                {
                    "id": 1092879,
                    "resource_id": 161,
                    "text": "আল্লাহর নির্দেশ এসে গেছে, অতএব এর জন্য তাড়াহুড়ো করো না। তিনি মহান পবিত্র, তারা যাকে শরীক সাব্যস্ত করে তাত্থেকে তিনি বহু ঊর্ধ্বে।"
                }
            ]
        },
        {
            "id": 1903,
            "verse_number": 2,
            "verse_key": "16:2",
            "hizb_number": 27,
            "rub_el_hizb_number": 107,
            "ruku_number": 224,
            "manzil_number": 3,
            "sajdah_number": null,
            "text_uthmani": "يُنَزِّلُ ٱلْمَلَـٰٓئِكَةَ بِٱلرُّوحِ مِنْ أَمْرِهِۦ عَلَىٰ مَن يَشَآءُ مِنْ عِبَادِهِۦٓ أَنْ أَنذِرُوٓا۟ أَنَّهُۥ لَآ إِلَـٰهَ إِلَّآ أَنَا۠ فَٱتَّقُونِ",
            "page_number": 267,
            "juz_number": 14,
            "translations": [
                {
                    "id": 96841,
                    "resource_id": 20,
                    "text": "He sends down the angels, with the inspiration [i.e., revelation] of His command, upon whom He wills of His servants, [telling them], \"Warn that there is no deity except Me; so fear Me.\""
                },
                {
                    "id": 220811,
                    "resource_id": 39,
                    "text": "Ia menurunkan malaikat membawa wahyu dengan perintahNya kepada sesiapa yang dikehendakiNya dari hamba-hambaNya (yang layak menjadi Rasul); (lalu Ia berfirman kepada Rasul-rasul): \"Hendaklah kamu menegaskan kepada umat manusia bahawa tiada Tuhan melainkan Aku. Oleh itu, bertaqwalah kamu kepadaku\"."
                },
                {
                    "id": 1092880,
                    "resource_id": 161,
                    "text": "তিনি তাঁর এ রূহকে (ওহীক) যে বান্দাহর উপর চান স্বীয় নির্দেশক্রমে ফেরেশতাদের মাধ্যমে অবতীর্ণ করেন (এই মর্মে যে) তোমরা সতর্ক কর যে, আমি ছাড়া সত্যিকারের কোন ইলাহ নেই, কাজেই আমাকে ভয় কর।"
                }
            ]
        },
        {
            "id": 1904,
            "verse_number": 3,
            "verse_key": "16:3",
            "hizb_number": 27,
            "rub_el_hizb_number": 107,
            "ruku_number": 224,
            "manzil_number": 3,
            "sajdah_number": null,
            "text_uthmani": "خَلَقَ ٱلسَّمَـٰوَٰتِ وَٱلْأَرْضَ بِٱلْحَقِّ ۚ تَعَـٰلَىٰ عَمَّا يُشْرِكُونَ",
            "page_number": 267,
            "juz_number": 14,
            "translations": [
                {
                    "id": 96853,
                    "resource_id": 20,
                    "text": "He created the heavens and earth in truth. High is He above what they associate with Him."
                },
                {
                    "id": 220829,
                    "resource_id": 39,
                    "text": "Ia menciptakan langit dan bumi dengan cara yang sungguh layak dan berhikmat; Maha Tinggilah Ia dari perbuatan syirik yang mereka lakukan."
                },
                {
                    "id": 1092881,
                    "resource_id": 161,
                    "text": "তিনি (বিশেষ উদ্দেশ্য সাধনের নিমিত্তে) প্রকৃতভাবেই আসমানসমূহ যমীন সৃষ্টি করেছেন, তারা যাকে আল্লাহর অংশীদার গণ্য করে তাত্থেকে তিনি বহু ঊর্ধ্বে।"
                }
            ]
        },
        {
            "id": 1905,
            "verse_number": 4,
            "verse_key": "16:4",
            "hizb_number": 27,
            "rub_el_hizb_number": 107,
            "ruku_number": 224,
            "manzil_number": 3,
            "sajdah_number": null,
            "text_uthmani": "خَلَقَ ٱلْإِنسَـٰنَ مِن نُّطْفَةٍ فَإِذَا هُوَ خَصِيمٌ مُّبِينٌ",
            "page_number": 267,
            "juz_number": 14,
            "translations": [
                {
                    "id": 96864,
                    "resource_id": 20,
                    "text": "He created man from a sperm-drop; then at once<sup foot_note=196605>1</sup> he is a clear adversary."
                },
                {
                    "id": 220843,
                    "resource_id": 39,
                    "text": "Ia menciptakan manusia dari air benih, (setelah sempurna kejadiannya), tiba-tiba menjadilah ia seorang pembantah yang terang jelas bantahannya."
                },
                {
                    "id": 1092882,
                    "resource_id": 161,
                    "text": "তিনি শুক্র-কীট থেকে মানুষ সৃষ্টি করেছেন অথচ সে প্রকাশ্য ঝগড়াটে সেজে বসল।"
                }
            ]
        },
        {
            "id": 1906,
            "verse_number": 5,
            "verse_key": "16:5",
            "hizb_number": 27,
            "rub_el_hizb_number": 107,
            "ruku_number": 224,
            "manzil_number": 3,
            "sajdah_number": null,
            "text_uthmani": "وَٱلْأَنْعَـٰمَ خَلَقَهَا ۗ لَكُمْ فِيهَا دِفْءٌ وَمَنَـٰفِعُ وَمِنْهَا تَأْكُلُونَ",
            "page_number": 267,
            "juz_number": 14,
            "translations": [
                {
                    "id": 96875,
                    "resource_id": 20,
                    "text": "And the grazing livestock He has created for you; in them is warmth<sup foot_note=196606>1</sup> and [numerous] benefits, and from them you eat."
                },
                {
                    "id": 219207,
                    "resource_id": 39,
                    "text": "Dan binatang-binatang ternak itu, Ia juga menciptakannya untuk kamu; terdapat padanya benda-benda yang memanaskan tubuh dari sejuk dan beberapa faedah yang lain; dan daripadanya juga kamu makan."
                },
                {
                    "id": 1092883,
                    "resource_id": 161,
                    "text": "তিনি চতুস্পদ জন্তু সৃষ্টি করেছেন এবং তাতে তোমাদের জন্য আছে (শীত) নিবারক আর বহু উপকারিতাও, আর সেগুলো থেকে তোমরা আহার কর।"
                }
            ]
        },
        {
            "id": 1907,
            "verse_number": 6,
            "verse_key": "16:6",
            "hizb_number": 27,
            "rub_el_hizb_number": 107,
            "ruku_number": 224,
            "manzil_number": 3,
            "sajdah_number": null,
            "text_uthmani": "وَلَكُمْ فِيهَا جَمَالٌ حِينَ تُرِيحُونَ وَحِينَ تَسْرَحُونَ",
            "page_number": 267,
            "juz_number": 14,
            "translations": [
                {
                    "id": 96886,
                    "resource_id": 20,
                    "text": "And for you in them is [the enjoyment of] beauty when you bring them in [for the evening] and when you send them out [to pasture]."
                },
                {
                    "id": 220869,
                    "resource_id": 39,
                    "text": "Dan bagi kamu pada binatang-binatang ternak itu, keindahan (yang menarik hati) ketika kamu membawanya balik untuk berihat (pada waktu petang), dan ketika kamu membawanya keluar (pada waktu pagi)."
                },
                {
                    "id": 1092884,
                    "resource_id": 161,
                    "text": "তোমরা গর্বভরে সৌন্দর্য অনুভব কর যখন তোমরা সন্ধ্যাবেলা সেগুলোকে বাড়ীর পানে হাঁকিয়ে আন আর সকাল বেলা বিচরণের জন্য পাঠাও।"
                }
            ]
        },
        {
            "id": 1908,
            "verse_number": 7,
            "verse_key": "16:7",
            "hizb_number": 27,
            "rub_el_hizb_number": 107,
            "ruku_number": 224,
            "manzil_number": 3,
            "sajdah_number": null,
            "text_uthmani": "وَتَحْمِلُ أَثْقَالَكُمْ إِلَىٰ بَلَدٍ لَّمْ تَكُونُوا۟ بَـٰلِغِيهِ إِلَّا بِشِقِّ ٱلْأَنفُسِ ۚ إِنَّ رَبَّكُمْ لَرَءُوفٌ رَّحِيمٌ",
            "page_number": 268,
            "juz_number": 14,
            "translations": [
                {
                    "id": 96898,
                    "resource_id": 20,
                    "text": "And they carry your loads to a land you could not have reached except with difficulty to yourselves. Indeed, your Lord is Kind and Merciful."
                },
                {
                    "id": 218010,
                    "resource_id": 39,
                    "text": "Dan binatang-binatang itu pula membawa barang-barang kamu ke mana-mana negeri yang kamu tidak dapat sampai kepadanya melainkan dengan menanggung susah payah. Sesungguhnya Tuhan kamu Amat melimpah belas kasihan dan rahmatNya."
                },
                {
                    "id": 1092885,
                    "resource_id": 161,
                    "text": "আর এগুলো তোমাদের ভার বোঝা বহন ক’রে এমন স্থান পর্যন্ত নিয়ে যায়, প্রাণান্তকর ক্লেশ ছাড়া যেখানে তোমরা পৌঁছতে পারতে না, তোমাদের প্রতিপালক অবশ্যই বড়ই দয়ার্দ্র, বড়ই দয়ালু।"
                }
            ]
        },
        {
            "id": 1909,
            "verse_number": 8,
            "verse_key": "16:8",
            "hizb_number": 27,
            "rub_el_hizb_number": 107,
            "ruku_number": 224,
            "manzil_number": 3,
            "sajdah_number": null,
            "text_uthmani": "وَٱلْخَيْلَ وَٱلْبِغَالَ وَٱلْحَمِيرَ لِتَرْكَبُوهَا وَزِينَةً ۚ وَيَخْلُقُ مَا لَا تَعْلَمُونَ",
            "page_number": 268,
            "juz_number": 14,
            "translations": [
                {
                    "id": 96909,
                    "resource_id": 20,
                    "text": "And [He created] the horses, mules and donkeys for you to ride and [as] adornment. And He creates that which you do not know."
                },
                {
                    "id": 214649,
                    "resource_id": 39,
                    "text": "Dan (Allah menjadikan) kuda dan baghal serta keldai untuk kamu menunggangnya, dan untuk menjadi perhiasan; dan Ia menjadikan apa yang kamu tidak mengetahuinya."
                },
                {
                    "id": 1092886,
                    "resource_id": 161,
                    "text": "তিনি ঘোড়া, খচ্চর ও গর্দভ সৃষ্টি করেছেন যাতে তোমরা ওগুলোতে আরোহণ করতে পার আর শোভা-সৌন্দর্যের জন্যও; তিনি পয়দা করেন অনেক কিছু যা তোমাদের জানা নেই।"
                }
            ]
        },
        {
            "id": 1910,
            "verse_number": 9,
            "verse_key": "16:9",
            "hizb_number": 27,
            "rub_el_hizb_number": 107,
            "ruku_number": 224,
            "manzil_number": 3,
            "sajdah_number": null,
            "text_uthmani": "وَعَلَى ٱللَّهِ قَصْدُ ٱلسَّبِيلِ وَمِنْهَا جَآئِرٌ ۚ وَلَوْ شَآءَ لَهَدَىٰكُمْ أَجْمَعِينَ",
            "page_number": 268,
            "juz_number": 14,
            "translations": [
                {
                    "id": 96920,
                    "resource_id": 20,
                    "text": "And upon Allāh<sup foot_note=196607>1</sup> is the direction of the [right] way, and among them [i.e., the various paths] are those deviating. And if He willed, He could have guided you all."
                },
                {
                    "id": 220898,
                    "resource_id": 39,
                    "text": "Dan kepada Allah jualah tertentunya urusan memberi panduan yang menerangkan jalan yang lurus; dan di antara jalan-jalan yang dituju ada yang terpesong dari kebenaran; dan jika Ia kehendaki, tentulah Ia memberi petunjuk kepada kamu semua (yang menyampaikan ke jalan yang lurus itu)."
                },
                {
                    "id": 1092887,
                    "resource_id": 161,
                    "text": "আল্লাহরই দায়িত্বে রয়েছে সরল পথপ্রদর্শন। পথগুলোর মধ্যে বাঁকা পথও আছে। তিনি যদি ইচ্ছে করতেন তাহলে অবশ্যই তোমাদের সকলকেই সঠিক পথ প্রদর্শন করতেন।"
                }
            ]
        },
        {
            "id": 1911,
            "verse_number": 10,
            "verse_key": "16:10",
            "hizb_number": 27,
            "rub_el_hizb_number": 107,
            "ruku_number": 225,
            "manzil_number": 3,
            "sajdah_number": null,
            "text_uthmani": "هُوَ ٱلَّذِىٓ أَنزَلَ مِنَ ٱلسَّمَآءِ مَآءً ۖ لَّكُم مِّنْهُ شَرَابٌ وَمِنْهُ شَجَرٌ فِيهِ تُسِيمُونَ",
            "page_number": 268,
            "juz_number": 14,
            "translations": [
                {
                    "id": 96802,
                    "resource_id": 20,
                    "text": "It is He who sends down rain from the sky; from it is drink and from it is foliage in which you pasture [animals]."
                },
                {
                    "id": 220775,
                    "resource_id": 39,
                    "text": "Dia lah yang menurunkan hujan dari langit; sebahagian daripadanya untuk minuman kamu dan sebahagian lagi menyebabkan tumbuhnya pokok-pokok (tumbuh-tumbuhan) untuk kamu melepaskan binatang-binatang ternak: makan padanya."
                },
                {
                    "id": 1092888,
                    "resource_id": 161,
                    "text": "তিনি আকাশ থেকে পানি বর্ষণ করেন যাতে আছে তোমাদের জন্য পানীয় আর তাতে জন্মে বৃক্ষ লতা যা তোমাদের পশুগুলোকে খাওয়াও।"
                }
            ]
        }
    ],
    "pagination": {
        "per_page": 10,
        "current_page": 1,
        "next_page": 2,
        "total_pages": 13,
        "total_records": 128
    }
}