{
    "verses": [
        {
            "id": 2141,
            "verse_number": 1,
            "verse_key": "18:1",
            "hizb_number": 30,
            "rub_el_hizb_number": 117,
            "ruku_number": 252,
            "manzil_number": 4,
            "sajdah_number": null,
            "text_uthmani": " ٱلْحَمْدُ لِلَّهِ ٱلَّذِىٓ أَنزَلَ عَلَىٰ عَبْدِهِ ٱلْكِتَـٰبَ وَلَمْ يَجْعَل لَّهُۥ عِوَجَا ۜ",
            "page_number": 293,
            "juz_number": 15,
            "translations": [
                {
                    "id": 97045,
                    "resource_id": 20,
                    "text": "[All] praise is [due] to Allāh, who has sent down upon His Servant [Muḥammad (ﷺ)] the Book and has not made therein any deviance.<sup foot_note=196691>1</sup>"
                },
                {
                    "id": 214847,
                    "resource_id": 39,
                    "text": "Segala puji terentu bagi Allah yang telah menurunkan kepada hambaNya (Muhammad), Kitab suci Al-Quran, dan tidak menjadikan padanya sesuatu yang bengkok (terpesong):"
                },
                {
                    "id": 1093118,
                    "resource_id": 161,
                    "text": "সকল প্রশংসা আল্লাহর জন্য যিনি তাঁর বান্দাদের প্রতি কিতাব নাযিল করেছেন, আর তাতে কোন বক্রতার অবকাশ রাখেননি।"
                }
            ]
        },
        {
            "id": 2142,
            "verse_number": 2,
            "verse_key": "18:2",
            "hizb_number": 30,
            "rub_el_hizb_number": 117,
            "ruku_number": 252,
            "manzil_number": 4,
            "sajdah_number": null,
            "text_uthmani": "قَيِّمًا لِّيُنذِرَ بَأْسًا شَدِيدًا مِّن لَّدُنْهُ وَيُبَشِّرَ ٱلْمُؤْمِنِينَ ٱلَّذِينَ يَعْمَلُونَ ٱلصَّـٰلِحَـٰتِ أَنَّ لَهُمْ أَجْرًا حَسَنًا",
            "page_number": 293,
            "juz_number": 15,
            "translations": [
                {
                    "id": 97067,
                    "resource_id": 20,
                    "text": "[He has made it] straight, to warn of severe punishment from Him and to give good tidings to the believers who do righteous deeds that they will have a good reward [i.e., Paradise]."
                },
                {
                    "id": 214854,
                    "resource_id": 39,
                    "text": "(Bahkan keadaannya) tetap benar lagi menjadi pengawas turunnya Al-Quran untuk memberi amaran (kepada orang-orang yang ingkar) dengan azab yang seberat-beratnya dari sisi Allah, dan memberi berita gembira kepada orang-orang yang beriman yang mengerjakan amal-amal soleh, bahawa mereka akan beroleh balasan yang baik."
                },
                {
                    "id": 1093119,
                    "resource_id": 161,
                    "text": "(তিনি সেটাকে করেছেন) সত্য, স্পষ্ট ও অকাট্য তাঁর কঠিন শাস্তি সম্পর্কে সতর্ক করার জন্য। আর যারা সৎকাজ করে সেই মু’মিনদেরকে সুসংবাদ দেয়ার জন্য যে, তাদের জন্য আছে উত্তম প্রতিফল।"
                }
            ]
        },
        {
            "id": 2143,
            "verse_number": 3,
            "verse_key": "18:3",
            "hizb_number": 30,
            "rub_el_hizb_number": 117,
            "ruku_number": 252,
            "manzil_number": 4,
            "sajdah_number": null,
            "text_uthmani": "مَّـٰكِثِينَ فِيهِ أَبَدًا",
            "page_number": 293,
            "juz_number": 15,
            "translations": [
                {
                    "id": 97080,
                    "resource_id": 20,
                    "text": "In which they will remain forever"
                },
                {
                    "id": 215268,
                    "resource_id": 39,
                    "text": "Mereka tinggal tetap dalam (balasan yang baik) itu selama-lamanya."
                },
                {
                    "id": 1093120,
                    "resource_id": 161,
                    "text": "তাতে তারা চিরকাল থাকবে।"
                }
            ]
        },
        {
            "id": 2144,
            "verse_number": 4,
            "verse_key": "18:4",
            "hizb_number": 30,
            "rub_el_hizb_number": 117,
            "ruku_number": 252,
            "manzil_number": 4,
            "sajdah_number": null,
            "text_uthmani": "وَيُنذِرَ ٱلَّذِينَ قَالُوا۟ ٱتَّخَذَ ٱللَّهُ وَلَدًا",
            "page_number": 293,
            "juz_number": 15,
            "translations": [
                {
                    "id": 97091,
                    "resource_id": 20,
                    "text": "And to warn those who say, \"Allāh has taken a son\"."
                },
                {
                    "id": 214898,
                    "resource_id": 39,
                    "text": "Dan juga Al-Quran itu memberi amaran kepada orang-orang yang berkata:\" Allah mempunyai anak\"."
                },
                {
                    "id": 1093121,
                    "resource_id": 161,
                    "text": "আর তাদেরকে সতর্ক করার জন্য যারা বলে, ‘আল্লাহ পুত্র গ্রহণ করেছেন।’"
                }
            ]
        },
        {
            "id": 2145,
            "verse_number": 5,
            "verse_key": "18:5",
            "hizb_number": 30,
            "rub_el_hizb_number": 117,
            "ruku_number": 252,
            "manzil_number": 4,
            "sajdah_number": null,
            "text_uthmani": "مَّا لَهُم بِهِۦ مِنْ عِلْمٍ وَلَا لِـَٔابَآئِهِمْ ۚ كَبُرَتْ كَلِمَةً تَخْرُجُ مِنْ أَفْوَٰهِهِمْ ۚ إِن يَقُولُونَ إِلَّا كَذِبًا",
            "page_number": 294,
            "juz_number": 15,
            "translations": [
                {
                    "id": 97102,
                    "resource_id": 20,
                    "text": "They have no knowledge of it,<sup foot_note=196692>1</sup> nor had their fathers. Grave is the word that comes out of their mouths; they speak not except a lie."
                },
                {
                    "id": 214914,
                    "resource_id": 39,
                    "text": "(Sebenarnya) mereka tiada mempunyai sebarang pengetahuan mengenainya, dan tiada juga bagi datuk nenek mereka; besar sungguh perkataan syirik yang keluar dari mulut mereka; mereka hanya mengatakan perkara yang dusta."
                },
                {
                    "id": 1093122,
                    "resource_id": 161,
                    "text": "এ সম্পর্কে তাদের কোন জ্ঞান নেই, আর তাদের পিতৃ-পুরুষদেরও ছিল না। তাদের মুখ থেকে বের হয় বড়ই সাংঘাতিক কথা। তারা যা বলে তা মিথ্যে ছাড়া কিছুই নয়।"
                }
            ]
        },
        {
            "id": 2146,
            "verse_number": 6,
            "verse_key": "18:6",
            "hizb_number": 30,
            "rub_el_hizb_number": 117,
            "ruku_number": 252,
            "manzil_number": 4,
            "sajdah_number": null,
            "text_uthmani": "فَلَعَلَّكَ بَـٰخِعٌ نَّفْسَكَ عَلَىٰٓ ءَاثَـٰرِهِمْ إِن لَّمْ يُؤْمِنُوا۟ بِهَـٰذَا ٱلْحَدِيثِ أَسَفًا",
            "page_number": 294,
            "juz_number": 15,
            "translations": [
                {
                    "id": 97113,
                    "resource_id": 20,
                    "text": "Then perhaps you would kill yourself through grief over them, [O Muḥammad], if they do not believe in this message, [and] out of sorrow."
                },
                {
                    "id": 214938,
                    "resource_id": 39,
                    "text": "Maka jangan-jangan pula engkau (wahai Muhammad), membinasakan dirimu disebabkan menanggung dukacita terhadap kesan-kesan perbuatan buruk mereka, jika mereka enggan beriman kepada keterangan Al-Quran ini."
                },
                {
                    "id": 1093123,
                    "resource_id": 161,
                    "text": "তারা এ বাণীতে (কুরআনে) বিশ্বাস না করার কারণে মনে হচ্ছে (হে নাবী!) তুমি তার দুঃখে তোমার নিজের জান বিনাশ করে দেবে।"
                }
            ]
        },
        {
            "id": 2147,
            "verse_number": 7,
            "verse_key": "18:7",
            "hizb_number": 30,
            "rub_el_hizb_number": 117,
            "ruku_number": 252,
            "manzil_number": 4,
            "sajdah_number": null,
            "text_uthmani": "إِنَّا جَعَلْنَا مَا عَلَى ٱلْأَرْضِ زِينَةً لَّهَا لِنَبْلُوَهُمْ أَيُّهُمْ أَحْسَنُ عَمَلًا",
            "page_number": 294,
            "juz_number": 15,
            "translations": [
                {
                    "id": 97123,
                    "resource_id": 20,
                    "text": "Indeed, We have made that which is on the earth adornment for it that We may test them [as to] which of them is best in deed."
                },
                {
                    "id": 214960,
                    "resource_id": 39,
                    "text": "Sesungguhnya Kami telah jadikan apa yang ada di muka bumi sebagai perhiasan baginya, kerana kami hendak menguji mereka, siapakah di antaranya yang lebih baik amalnya."
                },
                {
                    "id": 1093124,
                    "resource_id": 161,
                    "text": "যমীনের উপর যা কিছু আছে আমি সেগুলোকে তার শোভা-সৌন্দর্য করেছি যাতে আমি মানুষকে পরীক্ষা করতে পারি যে, ‘আমালের ক্ষেত্রে কারা উত্তম।"
                }
            ]
        },
        {
            "id": 2148,
            "verse_number": 8,
            "verse_key": "18:8",
            "hizb_number": 30,
            "rub_el_hizb_number": 117,
            "ruku_number": 252,
            "manzil_number": 4,
            "sajdah_number": null,
            "text_uthmani": "وَإِنَّا لَجَـٰعِلُونَ مَا عَلَيْهَا صَعِيدًا جُرُزًا",
            "page_number": 294,
            "juz_number": 15,
            "translations": [
                {
                    "id": 97134,
                    "resource_id": 20,
                    "text": "And indeed, We will make that which is upon it [into] a barren ground."
                },
                {
                    "id": 215163,
                    "resource_id": 39,
                    "text": "Dan sesungguhnya Kami akan jadikan apa yang ada di bumi itu (punah-ranah) sebagai tanah yang tandus."
                },
                {
                    "id": 1093125,
                    "resource_id": 161,
                    "text": "আমি অবশ্যই তার উপর যা আছে তা বৃক্ষলতাহীন শুকনো ধূলা মাটিতে পরিণত করব।"
                }
            ]
        },
        {
            "id": 2149,
            "verse_number": 9,
            "verse_key": "18:9",
            "hizb_number": 30,
            "rub_el_hizb_number": 117,
            "ruku_number": 252,
            "manzil_number": 4,
            "sajdah_number": null,
            "text_uthmani": "أَمْ حَسِبْتَ أَنَّ أَصْحَـٰبَ ٱلْكَهْفِ وَٱلرَّقِيمِ كَانُوا۟ مِنْ ءَايَـٰتِنَا عَجَبًا",
            "page_number": 294,
            "juz_number": 15,
            "translations": [
                {
                    "id": 97145,
                    "resource_id": 20,
                    "text": "Or have you thought that the companions of the cave and the inscription were, among Our signs, a wonder?<sup foot_note=196693>1</sup>"
                },
                {
                    "id": 215004,
                    "resource_id": 39,
                    "text": "Adakah engkau menyangka (wahai Muhammad), bahawa kisah \"Ashaabul Kahfi\" dan \"Ar-Raqiim\" itu sahaja yang menakjubkan di antara tanda-tanda yang membuktikan kekuasaan Kami?"
                },
                {
                    "id": 1093126,
                    "resource_id": 161,
                    "text": "তুমি কি মনে কর যে, গুহা ও রকীমের অধিবাসীরা ছিল আমার নিদর্শনগুলোর মধ্যে বিস্ময়কর?"
                }
            ]
        },
        {
            "id": 2150,
            "verse_number": 10,
            "verse_key": "18:10",
            "hizb_number": 30,
            "rub_el_hizb_number": 117,
            "ruku_number": 252,
            "manzil_number": 4,
            "sajdah_number": null,
            "text_uthmani": "إِذْ أَوَى ٱلْفِتْيَةُ إِلَى ٱلْكَهْفِ فَقَالُوا۟ رَبَّنَآ ءَاتِنَا مِن لَّدُنكَ رَحْمَةً وَهَيِّئْ لَنَا مِنْ أَمْرِنَا رَشَدًا",
            "page_number": 294,
            "juz_number": 15,
            "translations": [
                {
                    "id": 97046,
                    "resource_id": 20,
                    "text": "[Mention] when the youths retreated to the cave and said, \"Our Lord, grant us from Yourself mercy and prepare for us from our affair right guidance.\""
                },
                {
                    "id": 214803,
                    "resource_id": 39,
                    "text": "(Ingatkanlah peristiwa) ketika serombongan orang-orang muda pergi ke gua, lalu mereka berdoa: \"Wahai Tuhan kami! Kurniakanlah kami rahmat dari sisiMu, dan berilah kemudahan-kemudahan serta pimpinan kepada kami untuk keselamatan ugama kami\"."
                },
                {
                    "id": 1093127,
                    "resource_id": 161,
                    "text": "যুবকরা যখন গুহায় আশ্রয় গ্রহণ করল তখন তারা বলল, ‘হে আমাদের প্রতিপালক! তুমি তোমার নিকট হতে আমাদেরকে রহমত দান কর আর আমাদের ব্যাপারটি সুষ্ঠুভাবে সম্পাদন কর।’"
                }
            ]
        }
    ],
    "pagination": {
        "per_page": 10,
        "current_page": 1,
        "next_page": 2,
        "total_pages": 11,
        "total_records": 110
    }
}