{
    "verses": [
        {
            "id": 2484,
            "verse_number": 1,
            "verse_key": "21:1",
            "hizb_number": 33,
            "rub_el_hizb_number": 129,
            "ruku_number": 278,
            "manzil_number": 4,
            "sajdah_number": null,
            "text_uthmani": " ٱقْتَرَبَ لِلنَّاسِ حِسَابُهُمْ وَهُمْ فِى غَفْلَةٍ مُّعْرِضُونَ",
            "page_number": 322,
            "juz_number": 17,
            "translations": [
                {
                    "id": 97400,
                    "resource_id": 20,
                    "text": "[The time of] their account has approached for the people, while they are in heedlessness turning away."
                },
                {
                    "id": 215276,
                    "resource_id": 39,
                    "text": "Telah hampir datangnya kepada manusia hari perhitungan amalnya sedang mereka dalam kelalaian, tidak hiraukan persediaan baginya."
                },
                {
                    "id": 1093461,
                    "resource_id": 161,
                    "text": "মানুষের হিসাব গ্রহণের কাল ক্রমশঃ ঘনিয়ে আসছে কিন্তু তারা গাফলতিতে মুখ ফিরিয়ে রেখেছে।"
                }
            ]
        },
        {
            "id": 2485,
            "verse_number": 2,
            "verse_key": "21:2",
            "hizb_number": 33,
            "rub_el_hizb_number": 129,
            "ruku_number": 278,
            "manzil_number": 4,
            "sajdah_number": null,
            "text_uthmani": "مَا يَأْتِيهِم مِّن ذِكْرٍ مِّن رَّبِّهِم مُّحْدَثٍ إِلَّا ٱسْتَمَعُوهُ وَهُمْ يَلْعَبُونَ",
            "page_number": 322,
            "juz_number": 17,
            "translations": [
                {
                    "id": 97435,
                    "resource_id": 20,
                    "text": "No mention [i.e., revelation] comes to them anew from their Lord except that they listen to it while they are at play"
                },
                {
                    "id": 215309,
                    "resource_id": 39,
                    "text": "Tidak datang kepada mereka itu sebarang peringatan yang diturunkan dari Tuhan mereka lepas satu: satu, melainkan mereka memasang telinga mendengarnya sambil mereka mempermain-mainkannya -"
                },
                {
                    "id": 1093462,
                    "resource_id": 161,
                    "text": "তাদের কাছে তাদের প্রতিপালকের পক্ষ হতে যখনই কোন নতুন উপদেশ আসে, তখন তারা তা হাসি-তামাশার বস্তু মনে করেই শোনে।"
                }
            ]
        },
        {
            "id": 2486,
            "verse_number": 3,
            "verse_key": "21:3",
            "hizb_number": 33,
            "rub_el_hizb_number": 129,
            "ruku_number": 278,
            "manzil_number": 4,
            "sajdah_number": null,
            "text_uthmani": "لَاهِيَةً قُلُوبُهُمْ ۗ وَأَسَرُّوا۟ ٱلنَّجْوَى ٱلَّذِينَ ظَلَمُوا۟ هَلْ هَـٰذَآ إِلَّا بَشَرٌ مِّثْلُكُمْ ۖ أَفَتَأْتُونَ ٱلسِّحْرَ وَأَنتُمْ تُبْصِرُونَ",
            "page_number": 322,
            "juz_number": 17,
            "translations": [
                {
                    "id": 97458,
                    "resource_id": 20,
                    "text": "With their hearts distracted. And those who do wrong conceal their private conversation, [saying], \"Is this [Prophet] except a human being like you? So would you approach magic while you are aware [of it]?\""
                },
                {
                    "id": 215333,
                    "resource_id": 39,
                    "text": "Dengan keadaan hati mereka leka daripada memahami dan mengamalkan maksudnya. Dan orang-orang yang zalim itu, berbisik-bisik sesama sendiri dengan berkata: \"Bukankah (Muhammad) ini hanyalah seorang manusia biasa seperti kamu? Maka patutkah kamu turut hadir mendengar sihir yang dibawanya itu sedang kamu nampak dan mengetahui karutnya?\""
                },
                {
                    "id": 1093463,
                    "resource_id": 161,
                    "text": "তাদের অন্তর থাকে খেলায় মগ্ন। যালিমরা গোপনে পরামর্শ করে- এটা তোমাদেরই মত মানুষ ছাড়া কি অন্য কিছু? তোমরা কি দেখে-শুনে যাদুর কবলে পড়বে?"
                }
            ]
        },
        {
            "id": 2487,
            "verse_number": 4,
            "verse_key": "21:4",
            "hizb_number": 33,
            "rub_el_hizb_number": 129,
            "ruku_number": 278,
            "manzil_number": 4,
            "sajdah_number": null,
            "text_uthmani": "قَالَ رَبِّى يَعْلَمُ ٱلْقَوْلَ فِى ٱلسَّمَآءِ وَٱلْأَرْضِ ۖ وَهُوَ ٱلسَّمِيعُ ٱلْعَلِيمُ",
            "page_number": 322,
            "juz_number": 17,
            "translations": [
                {
                    "id": 97480,
                    "resource_id": 20,
                    "text": "He [the Prophet (ﷺ)] said, \"My Lord knows whatever is said throughout the heaven and earth, and He is the Hearing, the Knowing.\""
                },
                {
                    "id": 215355,
                    "resource_id": 39,
                    "text": "(Bagi menjawab mereka, Nabi Muhammad) berkata: \"Tuhanku mengetahui tiap-tiap perkataan (yang dilahirkan atau disembunyikan oleh makhluk-makhluk) di langit dan di bumi; dan Dia lah jua yang Maha Mendengar, lagi Maha Mengetahui\"."
                },
                {
                    "id": 1093464,
                    "resource_id": 161,
                    "text": "বল, ‘আমার প্রতিপালক আসমান ও যমীনে (উচ্চারিত প্রতিটি) কথাই জানেন, আর তিনি সব কিছু শোনেন, সব কিছু জানেন।’"
                }
            ]
        },
        {
            "id": 2488,
            "verse_number": 5,
            "verse_key": "21:5",
            "hizb_number": 33,
            "rub_el_hizb_number": 129,
            "ruku_number": 278,
            "manzil_number": 4,
            "sajdah_number": null,
            "text_uthmani": "بَلْ قَالُوٓا۟ أَضْغَـٰثُ أَحْلَـٰمٍۭ بَلِ ٱفْتَرَىٰهُ بَلْ هُوَ شَاعِرٌ فَلْيَأْتِنَا بِـَٔايَةٍ كَمَآ أُرْسِلَ ٱلْأَوَّلُونَ",
            "page_number": 322,
            "juz_number": 17,
            "translations": [
                {
                    "id": 97503,
                    "resource_id": 20,
                    "text": "But they say, \"[The revelation is but] a mixture of false dreams; rather, he has invented it; rather, he is a poet. So let him bring us a sign just as the previous [messengers] were sent [with miracles].\""
                },
                {
                    "id": 215376,
                    "resource_id": 39,
                    "text": "(Mereka bukan sahaja menyifatkan Al-Quran itu sihir) bahkan mereka menuduh dengan berkata: \"Al-Quran itu perkara karut yang dimimpikan oleh Muhammad, bahkan perkara yang diada-adakan olehnya, bahkan Muhammad sendiri seorang penyair. (Kalaulah ia sebenarnya seorang Rasul) maka hendaklah ia membawa kepada kita satu mukjizat sebagaimana mukjizat-mukjizat yang dibawa oleh Rasul-rasul yang telah diutus dahulu\"."
                },
                {
                    "id": 1093465,
                    "resource_id": 161,
                    "text": "তারা এও বলে, ‘এসব অলীক স্বপ্ন, না হয় সে মিথ্যে উদ্ভাবন করেছে, না হয় সে একজন কবি। কাজেই সে আমাদের কাছে এমন নিদর্শন নিয়ে আসুক যেমন পূর্ববর্তী (নবী)-গণের কাছে পাঠানো হয়েছিল।"
                }
            ]
        },
        {
            "id": 2489,
            "verse_number": 6,
            "verse_key": "21:6",
            "hizb_number": 33,
            "rub_el_hizb_number": 129,
            "ruku_number": 278,
            "manzil_number": 4,
            "sajdah_number": null,
            "text_uthmani": "مَآ ءَامَنَتْ قَبْلَهُم مِّن قَرْيَةٍ أَهْلَكْنَـٰهَآ ۖ أَفَهُمْ يُؤْمِنُونَ",
            "page_number": 322,
            "juz_number": 17,
            "translations": [
                {
                    "id": 97525,
                    "resource_id": 20,
                    "text": "Not a [single] city which We destroyed believed before them,<sup foot_note=196781>1</sup> so will they believe?"
                },
                {
                    "id": 215396,
                    "resource_id": 39,
                    "text": "Tidak ada penduduk sesebuah negeri pun yang Kami binasakan sebelum mereka, yang telah beriman kepada mukjizat yang diberi kepadanya; maka benarkah mereka yang meminta mukjizat itu mahu beriman?"
                },
                {
                    "id": 1093466,
                    "resource_id": 161,
                    "text": "তাদের পূর্বে আমি যে সমস্ত জনপদ ধ্বংস করেছি তাদের একটিও ঈমান আনেনি, তাহলে এরা কি ঈমান আনবে?"
                }
            ]
        },
        {
            "id": 2490,
            "verse_number": 7,
            "verse_key": "21:7",
            "hizb_number": 33,
            "rub_el_hizb_number": 129,
            "ruku_number": 278,
            "manzil_number": 4,
            "sajdah_number": null,
            "text_uthmani": "وَمَآ أَرْسَلْنَا قَبْلَكَ إِلَّا رِجَالًا نُّوحِىٓ إِلَيْهِمْ ۖ فَسْـَٔلُوٓا۟ أَهْلَ ٱلذِّكْرِ إِن كُنتُمْ لَا تَعْلَمُونَ",
            "page_number": 322,
            "juz_number": 17,
            "translations": [
                {
                    "id": 97548,
                    "resource_id": 20,
                    "text": "And We sent not before you, [O Muḥammad], except men to whom We revealed [the message], so ask the people of the message [i.e., former scriptures] if you do not know."
                },
                {
                    "id": 215419,
                    "resource_id": 39,
                    "text": "Dan Kami tidak mengutus Rasul-rasul sebelummu (wahai Muhammad) melainkan orang-orang lelaki yang Kami wahyukan kepada mereka (bukan malaikat); maka bertanyalah kamu kepada AhluzZikri\" jika kamu tidak mengetahui."
                },
                {
                    "id": 1093467,
                    "resource_id": 161,
                    "text": "তোমার পূর্বে যে সব রসূল পাঠিয়েছিলাম যাদের প্রতি আমি ওয়াহী করতাম তারা মানুষই ছিল, তোমরা যদি না জান তবে (অবতীর্ণ) কিতাবের জ্ঞান যাদের আছে তাদেরকে জিজ্ঞেস কর।"
                }
            ]
        },
        {
            "id": 2491,
            "verse_number": 8,
            "verse_key": "21:8",
            "hizb_number": 33,
            "rub_el_hizb_number": 129,
            "ruku_number": 278,
            "manzil_number": 4,
            "sajdah_number": null,
            "text_uthmani": "وَمَا جَعَلْنَـٰهُمْ جَسَدًا لَّا يَأْكُلُونَ ٱلطَّعَامَ وَمَا كَانُوا۟ خَـٰلِدِينَ",
            "page_number": 322,
            "juz_number": 17,
            "translations": [
                {
                    "id": 97570,
                    "resource_id": 20,
                    "text": "And We did not make them [i.e., the prophets] forms not eating food,<sup foot_note=196782>1</sup> nor were they immortal [on earth]."
                },
                {
                    "id": 215440,
                    "resource_id": 39,
                    "text": "Dan Kami tidak menjadikan Rasul-rasul itu bertubuh badan yang tidak makan minum, dan mereka pula tidak akan kekal hidup selama-lamanya (di dunia)."
                },
                {
                    "id": 1093468,
                    "resource_id": 161,
                    "text": "তাদেরকে এমন দেহবিশিষ্ট করিনি যে তারা খাদ্য খেত না আর তারা ছিল না চিরস্থায়ী।"
                }
            ]
        },
        {
            "id": 2492,
            "verse_number": 9,
            "verse_key": "21:9",
            "hizb_number": 33,
            "rub_el_hizb_number": 129,
            "ruku_number": 278,
            "manzil_number": 4,
            "sajdah_number": null,
            "text_uthmani": "ثُمَّ صَدَقْنَـٰهُمُ ٱلْوَعْدَ فَأَنجَيْنَـٰهُمْ وَمَن نَّشَآءُ وَأَهْلَكْنَا ٱلْمُسْرِفِينَ",
            "page_number": 322,
            "juz_number": 17,
            "translations": [
                {
                    "id": 97593,
                    "resource_id": 20,
                    "text": "Then<sup foot_note=196783>1</sup> We fulfilled for them the promise, and We saved them and whom We willed and destroyed the transgressors."
                },
                {
                    "id": 215481,
                    "resource_id": 39,
                    "text": "Kemudian Kami tepati janji Kami kepada mereka, lalu Kami selamatkan mereka dan sesiapa yang Kami kehendaki, dan (sebaliknya) Kami binasakan orang-orang yang melampaui batas."
                },
                {
                    "id": 1093469,
                    "resource_id": 161,
                    "text": "অতঃপর আমি তাদেরকে দেয়া আমার ওয়া‘দা সত্যে পরিণত করলাম। ফলতঃ আমি তাদেরকে এবং আরো যাদেরকে চাইলাম রক্ষা করলাম আর সীমালঙ্ঘনকারীদেরকে ধ্বংস করে দিলাম।"
                }
            ]
        },
        {
            "id": 2493,
            "verse_number": 10,
            "verse_key": "21:10",
            "hizb_number": 33,
            "rub_el_hizb_number": 129,
            "ruku_number": 278,
            "manzil_number": 4,
            "sajdah_number": null,
            "text_uthmani": "لَقَدْ أَنزَلْنَآ إِلَيْكُمْ كِتَـٰبًا فِيهِ ذِكْرُكُمْ ۖ أَفَلَا تَعْقِلُونَ",
            "page_number": 322,
            "juz_number": 17,
            "translations": [
                {
                    "id": 97402,
                    "resource_id": 20,
                    "text": "We have certainly sent down to you a Book [i.e., the Qur’ān] in which is your mention.<sup foot_note=196784>1</sup> Then will you not reason?"
                },
                {
                    "id": 215277,
                    "resource_id": 39,
                    "text": "Sesungguhnya Kami telah menurunkan kepada kamu sebuah Kitab (Al-Quran) yang mengandungi perkara yang menimbulkan sebutan baik dan kelebihan untuk kamu, maka mengapa kamu tidak memahaminya (dan bersyukur akan nikmat yang besar itu)?"
                },
                {
                    "id": 1093470,
                    "resource_id": 161,
                    "text": "আমি তোমাদের প্রতি নাযিল করেছি এক কিতাব যাতে তোমাদের জন্য আছে উপদেশ, তোমরা কি তবুও বুঝবে না?"
                }
            ]
        }
    ],
    "pagination": {
        "per_page": 10,
        "current_page": 1,
        "next_page": 2,
        "total_pages": 12,
        "total_records": 112
    }
}