{
    "verses": [
        {
            "id": 2856,
            "verse_number": 1,
            "verse_key": "25:1",
            "hizb_number": 36,
            "rub_el_hizb_number": 144,
            "ruku_number": 310,
            "manzil_number": 4,
            "sajdah_number": null,
            "text_uthmani": " تَبَارَكَ ٱلَّذِى نَزَّلَ ٱلْفُرْقَانَ عَلَىٰ عَبْدِهِۦ لِيَكُونَ لِلْعَـٰلَمِينَ نَذِيرًا",
            "page_number": 359,
            "juz_number": 18,
            "translations": [
                {
                    "id": 98000,
                    "resource_id": 20,
                    "text": "Blessed is He who sent down the Criterion upon His Servant that he may be to the worlds a warner -"
                },
                {
                    "id": 215853,
                    "resource_id": 39,
                    "text": "Maha berkat Tuhan yang menurunkan Al-Furqaan kepada hambaNya (Muhammad), untuk menjadi peringatan dan amaran bagi seluruh penduduk alam."
                },
                {
                    "id": 1093833,
                    "resource_id": 161,
                    "text": "মহা কল্যাণময় তিনি যিনি তাঁর বান্দাহর উপর সত্য-মিথ্যার পার্থক্যকারী (কিতাব) নাযিল করেছেন যাতে সে বিশ্বজগতের জন্য সতর্ককারী হতে পারে।"
                }
            ]
        },
        {
            "id": 2857,
            "verse_number": 2,
            "verse_key": "25:2",
            "hizb_number": 36,
            "rub_el_hizb_number": 144,
            "ruku_number": 310,
            "manzil_number": 4,
            "sajdah_number": null,
            "text_uthmani": "ٱلَّذِى لَهُۥ مُلْكُ ٱلسَّمَـٰوَٰتِ وَٱلْأَرْضِ وَلَمْ يَتَّخِذْ وَلَدًا وَلَمْ يَكُن لَّهُۥ شَرِيكٌ فِى ٱلْمُلْكِ وَخَلَقَ كُلَّ شَىْءٍ فَقَدَّرَهُۥ تَقْدِيرًا",
            "page_number": 359,
            "juz_number": 18,
            "translations": [
                {
                    "id": 98012,
                    "resource_id": 20,
                    "text": "He to whom belongs the dominion of the heavens and the earth and who has not taken a son and has not had a partner in dominion and has created each thing and determined it with [precise] determination."
                },
                {
                    "id": 215866,
                    "resource_id": 39,
                    "text": "Tuhan yang menguasai pemerintahan langit dan bumi, dan yang tidak mempunyai anak, serta tidak mempunyai sebarang sekutu dalam pemerintahanNya; dan Dia lah yang menciptakan tiap-tiap sesuatu lalu menentukan keadaan makhluk-makhluk itu dengan ketentuan takdir yang sempurna."
                },
                {
                    "id": 1093834,
                    "resource_id": 161,
                    "text": "যিনি যমীন ও আসমানের রাজত্বের মালিক, তিনি কোন সন্তান গ্রহণ করেননি, রাজত্বে তাঁর কোন অংশীদার নেই, তিনি সমস্ত কিছু সৃষ্টি করেছেন, আর সেগুলোকে যথাযথ করেছেন পরিমিত অনুপাতে।"
                }
            ]
        },
        {
            "id": 2858,
            "verse_number": 3,
            "verse_key": "25:3",
            "hizb_number": 36,
            "rub_el_hizb_number": 144,
            "ruku_number": 310,
            "manzil_number": 4,
            "sajdah_number": null,
            "text_uthmani": "وَٱتَّخَذُوا۟ مِن دُونِهِۦٓ ءَالِهَةً لَّا يَخْلُقُونَ شَيْـًٔا وَهُمْ يُخْلَقُونَ وَلَا يَمْلِكُونَ لِأَنفُسِهِمْ ضَرًّا وَلَا نَفْعًا وَلَا يَمْلِكُونَ مَوْتًا وَلَا حَيَوٰةً وَلَا نُشُورًا",
            "page_number": 360,
            "juz_number": 18,
            "translations": [
                {
                    "id": 98024,
                    "resource_id": 20,
                    "text": "But they have taken besides Him gods which create nothing, while they are created, and possess not for themselves any harm or benefit and possess not [power to cause] death or life or resurrection."
                },
                {
                    "id": 215876,
                    "resource_id": 39,
                    "text": "Dan mereka (yang kafir) mengambil benda-benda yang lain dari Allah sebagai tuhan-tuhan, yang tidak dapat mencipta sesuatupun, bahkan benda-benda itu diciptakan (oleh penyembah-penyembahnya dari bahan-bahan di bumi); dan benda-benda itu pula tidak berkuasa mendatangkan sesuatu bahaya atau sesuatu faedah untuk dirinya sendiri; dan tidak berkuasa mematikan atau menghidupkan, atau pun membangkitkan hidup semula makhluk-makhluk yang telah mati."
                },
                {
                    "id": 1093835,
                    "resource_id": 161,
                    "text": "আর তারা তাঁকে বাদ দিয়ে ইলাহরূপে গ্রহণ করেছে অন্য কিছুকে যারা কিছুই সৃষ্টি করে না, বরং তারা নিজেরাই সৃষ্টি হয়েছে। তারা ক্ষমতা রাখে না নিজেদের ক্ষতি বা উপকার করার আর ক্ষমতা রাখে না মৃত্যু, জীবন ও পুনরুত্থানের উপর।"
                }
            ]
        },
        {
            "id": 2859,
            "verse_number": 4,
            "verse_key": "25:4",
            "hizb_number": 36,
            "rub_el_hizb_number": 144,
            "ruku_number": 310,
            "manzil_number": 4,
            "sajdah_number": null,
            "text_uthmani": "وَقَالَ ٱلَّذِينَ كَفَرُوٓا۟ إِنْ هَـٰذَآ إِلَّآ إِفْكٌ ٱفْتَرَىٰهُ وَأَعَانَهُۥ عَلَيْهِ قَوْمٌ ءَاخَرُونَ ۖ فَقَدْ جَآءُو ظُلْمًا وَزُورًا",
            "page_number": 360,
            "juz_number": 18,
            "translations": [
                {
                    "id": 98036,
                    "resource_id": 20,
                    "text": "And those who disbelieve say, \"This [Qur’ān] is not except a falsehood he invented, and another people assisted him in it.\" But they have committed an injustice and a lie."
                },
                {
                    "id": 215891,
                    "resource_id": 39,
                    "text": "Dan orang-orang yang kafir itu berkata: \"(Al-Quran) ini hanyalah satu perkara dusta yang direka-reka oleh Muhammad, dan ia dibantu membuatnya oleh kaum yang lain\". Maka (dengan kata-kata itu) sesungguhnya mereka telah mendatangkan satu tuduhan yang zalim dan dusta."
                },
                {
                    "id": 1093836,
                    "resource_id": 161,
                    "text": "কাফিররা বলে- ‘এটা মিথ্যে ছাড়া আর কিছুই নয়, সে তা (অর্থাৎ কুরআন) উদ্ভাবণ করেছে এবং ভিন্ন জাতির লোক এ ব্যাপারে তাকে সাহায্য করেছে।’ আসলে তারা অন্যায় ও মিথ্যের আশ্রয় নিয়েছে।"
                }
            ]
        },
        {
            "id": 2860,
            "verse_number": 5,
            "verse_key": "25:5",
            "hizb_number": 36,
            "rub_el_hizb_number": 144,
            "ruku_number": 310,
            "manzil_number": 4,
            "sajdah_number": null,
            "text_uthmani": "وَقَالُوٓا۟ أَسَـٰطِيرُ ٱلْأَوَّلِينَ ٱكْتَتَبَهَا فَهِىَ تُمْلَىٰ عَلَيْهِ بُكْرَةً وَأَصِيلًا",
            "page_number": 360,
            "juz_number": 18,
            "translations": [
                {
                    "id": 98048,
                    "resource_id": 20,
                    "text": "And they say, \"Legends of the former peoples which he has written down, and they are dictated to him morning and afternoon.\""
                },
                {
                    "id": 215902,
                    "resource_id": 39,
                    "text": "Dan mereka berkata lagi: \"Al-Quran itu adalah cerita-cerita dongeng orang-orang dahulu kala, yang diminta oleh Muhammad supaya dituliskan, kemudian perkara yang ditulis itu dibacakan kepadanya pagi dan petang (untuk dihafaznya)\"."
                },
                {
                    "id": 1093837,
                    "resource_id": 161,
                    "text": "তারা বলে- ‘এগুলো পূর্ব যুগের কাহিনী যা সে [অর্থাৎ মুহাম্মাদ (সা.)] লিখিয়ে নিয়েছে আর এগুলোই তার কাছে সকাল-সন্ধ্যা শোনানো হয়।’"
                }
            ]
        },
        {
            "id": 2861,
            "verse_number": 6,
            "verse_key": "25:6",
            "hizb_number": 36,
            "rub_el_hizb_number": 144,
            "ruku_number": 310,
            "manzil_number": 4,
            "sajdah_number": null,
            "text_uthmani": "قُلْ أَنزَلَهُ ٱلَّذِى يَعْلَمُ ٱلسِّرَّ فِى ٱلسَّمَـٰوَٰتِ وَٱلْأَرْضِ ۚ إِنَّهُۥ كَانَ غَفُورًا رَّحِيمًا",
            "page_number": 360,
            "juz_number": 18,
            "translations": [
                {
                    "id": 98060,
                    "resource_id": 20,
                    "text": "Say, [O Muḥammad], \"It has been revealed by He who knows [every] secret within the heavens and the earth. Indeed, He is ever Forgiving and Merciful.\""
                },
                {
                    "id": 215913,
                    "resource_id": 39,
                    "text": "Katakanlah (Wahai Muhammad): \"Al-Quran itu diturunkan oleh Allah yang mengetahui segala rahsia di langit dan di bumi; sesungguhnya adalah Ia Maha Pengampun, lagi Maha Mengasihani."
                },
                {
                    "id": 1093838,
                    "resource_id": 161,
                    "text": "বল : ‘তা তিনিই নাযিল করেছেন যিনি আসমান-যমীনের যাবতীয় গোপন বিষয় অবগত আছেন। তিনি বড়ই ক্ষমাশীল, অতি দয়ালু।"
                }
            ]
        },
        {
            "id": 2862,
            "verse_number": 7,
            "verse_key": "25:7",
            "hizb_number": 36,
            "rub_el_hizb_number": 144,
            "ruku_number": 310,
            "manzil_number": 4,
            "sajdah_number": null,
            "text_uthmani": "وَقَالُوا۟ مَالِ هَـٰذَا ٱلرَّسُولِ يَأْكُلُ ٱلطَّعَامَ وَيَمْشِى فِى ٱلْأَسْوَاقِ ۙ لَوْلَآ أُنزِلَ إِلَيْهِ مَلَكٌ فَيَكُونَ مَعَهُۥ نَذِيرًا",
            "page_number": 360,
            "juz_number": 18,
            "translations": [
                {
                    "id": 98072,
                    "resource_id": 20,
                    "text": "And they say, \"What is this messenger that eats food and walks in the markets? Why was there not sent down to him an angel so he would be with him a warner?"
                },
                {
                    "id": 215927,
                    "resource_id": 39,
                    "text": "Dan mereka pula berkata: \"Mengapa Rasul ini makan minum dan berjalan di pasar-pasar (seperti manusia yang lain)? Sepatutnya diturunkan malaikat kepadanya, supaya malaikat itu turut memberi peringatan dan amaran bersama-sama dengannya (sebagai saksi yang membenarkannya)."
                },
                {
                    "id": 1093839,
                    "resource_id": 161,
                    "text": "তারা বলে- ‘এ কেমন রসূল যে খাবার খায়, আর হাট-বাজারে চলাফেরা করে? তার কাছে ফেরেশতা অবতীর্ণ হয় না কেন যে তার সঙ্গে থাকত সতর্ককারী হয়ে?"
                }
            ]
        },
        {
            "id": 2863,
            "verse_number": 8,
            "verse_key": "25:8",
            "hizb_number": 36,
            "rub_el_hizb_number": 144,
            "ruku_number": 310,
            "manzil_number": 4,
            "sajdah_number": null,
            "text_uthmani": "أَوْ يُلْقَىٰٓ إِلَيْهِ كَنزٌ أَوْ تَكُونُ لَهُۥ جَنَّةٌ يَأْكُلُ مِنْهَا ۚ وَقَالَ ٱلظَّـٰلِمُونَ إِن تَتَّبِعُونَ إِلَّا رَجُلًا مَّسْحُورًا",
            "page_number": 360,
            "juz_number": 18,
            "translations": [
                {
                    "id": 98082,
                    "resource_id": 20,
                    "text": "Or [why is not] a treasure presented to him [from heaven], or does he [not] have a garden from which he eats?\" And the wrongdoers say, \"You follow not but a man affected by magic.\""
                },
                {
                    "id": 215937,
                    "resource_id": 39,
                    "text": "\"Atau diberikan perbendaharaan harta benda kepadanya, atau ia mempunyai sebuah kebun untuk ia makan hasilnya\". Dan orang-orang yang zalim itu berkata pula (kepada orang-orang yang beriman): \"Sebenarnya kamu hanyalah menurut seorang yang tidak siuman\"."
                },
                {
                    "id": 1093840,
                    "resource_id": 161,
                    "text": "কিংবা তাকে ধন-ভান্ডার দেয়া হয় না কেন, অথবা তার জন্য একটা বাগান হয় না কেন যাত্থেকে সে আহার করত?’ যালিমরা বলে- ‘তোমরা তো এক যাদুগ্রস্ত লোকেরই অনুসরণ করছ।’"
                }
            ]
        },
        {
            "id": 2864,
            "verse_number": 9,
            "verse_key": "25:9",
            "hizb_number": 36,
            "rub_el_hizb_number": 144,
            "ruku_number": 310,
            "manzil_number": 4,
            "sajdah_number": null,
            "text_uthmani": "ٱنظُرْ كَيْفَ ضَرَبُوا۟ لَكَ ٱلْأَمْثَـٰلَ فَضَلُّوا۟ فَلَا يَسْتَطِيعُونَ سَبِيلًا",
            "page_number": 360,
            "juz_number": 18,
            "translations": [
                {
                    "id": 98084,
                    "resource_id": 20,
                    "text": "Look how they strike for you comparisons;<sup foot_note=196914>1</sup> but they have strayed, so they cannot [find] a way."
                },
                {
                    "id": 215939,
                    "resource_id": 39,
                    "text": "Lihatlah (Wahai Muhammad) bagaimana mereka membuat untukmu berbagai misal perbandingan (yang bukan-bukan), dengan sebab itu sesatlah mereka, sehingga mereka tidak mendapat jalan petunjuk."
                },
                {
                    "id": 1093841,
                    "resource_id": 161,
                    "text": "দেখ, তারা তোমার ব্যাপারে কেমন সব উপমা পেশ করছে! যার ফলে তারা পথভ্রষ্ট হয়ে গেছে, অতএব তারা কোন ক্রমেই পথ পাবে না।"
                }
            ]
        },
        {
            "id": 2865,
            "verse_number": 10,
            "verse_key": "25:10",
            "hizb_number": 36,
            "rub_el_hizb_number": 144,
            "ruku_number": 311,
            "manzil_number": 4,
            "sajdah_number": null,
            "text_uthmani": "تَبَارَكَ ٱلَّذِىٓ إِن شَآءَ جَعَلَ لَكَ خَيْرًا مِّن ذَٰلِكَ جَنَّـٰتٍ تَجْرِى مِن تَحْتِهَا ٱلْأَنْهَـٰرُ وَيَجْعَل لَّكَ قُصُورًۢا",
            "page_number": 360,
            "juz_number": 18,
            "translations": [
                {
                    "id": 98001,
                    "resource_id": 20,
                    "text": "Blessed is He who, if He willed, could have made for you [something] better than that - gardens beneath which rivers flow - and could make for you palaces."
                },
                {
                    "id": 215854,
                    "resource_id": 39,
                    "text": "Maha Berkat Tuhan yang jika Ia kehendaki tentulah Ia akan mengadakan untukmu (di dunia ini) sesuatu yang lebih baik dari apa yang mereka katakan itu, iaitu syurga-syurga yang mengalir di bawahnya beberapa sungai, serta mengadakan untukmu istana-istana (yang tersergam indah)."
                },
                {
                    "id": 1093842,
                    "resource_id": 161,
                    "text": "মহা কল্যাণময় তিনি যিনি ইচ্ছে করলে তোমাকে ওগুলোর চেয়েও উৎকৃষ্ট জিনিস দিতে পারেন- বাগ-বাগিচা, যার নিচ দিয়ে বয়ে চলেছে নির্ঝরিণী, দিতে পারেন তিনি তোমাকে প্রাসাদরাজি।"
                }
            ]
        }
    ],
    "pagination": {
        "per_page": 10,
        "current_page": 1,
        "next_page": 2,
        "total_pages": 8,
        "total_records": 77
    }
}