{
    "verses": [
        {
            "id": 3253,
            "verse_number": 1,
            "verse_key": "28:1",
            "hizb_number": 39,
            "rub_el_hizb_number": 154,
            "ruku_number": 334,
            "manzil_number": 5,
            "sajdah_number": null,
            "text_uthmani": " طسٓمٓ",
            "page_number": 385,
            "juz_number": 20,
            "translations": [
                {
                    "id": 98423,
                    "resource_id": 20,
                    "text": "Ṭā, Seen, Meem.<sup foot_note=196995>1</sup>"
                },
                {
                    "id": 214979,
                    "resource_id": 39,
                    "text": "Taa, Siin, Miim."
                },
                {
                    "id": 1094230,
                    "resource_id": 161,
                    "text": "তা-সীন-মীম,"
                }
            ]
        },
        {
            "id": 3254,
            "verse_number": 2,
            "verse_key": "28:2",
            "hizb_number": 39,
            "rub_el_hizb_number": 154,
            "ruku_number": 334,
            "manzil_number": 5,
            "sajdah_number": null,
            "text_uthmani": "تِلْكَ ءَايَـٰتُ ٱلْكِتَـٰبِ ٱلْمُبِينِ",
            "page_number": 385,
            "juz_number": 20,
            "translations": [
                {
                    "id": 98435,
                    "resource_id": 20,
                    "text": "These are verses of the clear Book."
                },
                {
                    "id": 216301,
                    "resource_id": 39,
                    "text": "Inilah ayat-ayat Kitab - Al-Quran - yang memberi penjelasan."
                },
                {
                    "id": 1094231,
                    "resource_id": 161,
                    "text": "এগুলো সুস্পষ্ট কিতাবের আয়াত।"
                }
            ]
        },
        {
            "id": 3255,
            "verse_number": 3,
            "verse_key": "28:3",
            "hizb_number": 39,
            "rub_el_hizb_number": 154,
            "ruku_number": 334,
            "manzil_number": 5,
            "sajdah_number": null,
            "text_uthmani": "نَتْلُوا۟ عَلَيْكَ مِن نَّبَإِ مُوسَىٰ وَفِرْعَوْنَ بِٱلْحَقِّ لِقَوْمٍ يُؤْمِنُونَ",
            "page_number": 385,
            "juz_number": 20,
            "translations": [
                {
                    "id": 98447,
                    "resource_id": 20,
                    "text": "We recite to you from the news of Moses and Pharaoh in truth for a people who believe."
                },
                {
                    "id": 216279,
                    "resource_id": 39,
                    "text": "Kami bacakan kepadamu (wahai Muhammad) sebahagian dari kisah Nabi Musa dan Firaun dengan keterangan yang benar bagi orang-orang yang beriman."
                },
                {
                    "id": 1094232,
                    "resource_id": 161,
                    "text": "আমি মূসা ও ফিরআউনের কাহিনী হতে কিছু তোমার কাছে সত্যিকারভাবে বিবৃত করছি বিশ্বাসী সম্প্রদায়ের উদ্দেশ্যে।"
                }
            ]
        },
        {
            "id": 3256,
            "verse_number": 4,
            "verse_key": "28:4",
            "hizb_number": 39,
            "rub_el_hizb_number": 154,
            "ruku_number": 334,
            "manzil_number": 5,
            "sajdah_number": null,
            "text_uthmani": "إِنَّ فِرْعَوْنَ عَلَا فِى ٱلْأَرْضِ وَجَعَلَ أَهْلَهَا شِيَعًا يَسْتَضْعِفُ طَآئِفَةً مِّنْهُمْ يُذَبِّحُ أَبْنَآءَهُمْ وَيَسْتَحْىِۦ نِسَآءَهُمْ ۚ إِنَّهُۥ كَانَ مِنَ ٱلْمُفْسِدِينَ",
            "page_number": 385,
            "juz_number": 20,
            "translations": [
                {
                    "id": 98459,
                    "resource_id": 20,
                    "text": "Indeed, Pharaoh exalted himself in the land and made its people into factions, oppressing a sector among them, slaughtering their [newborn] sons and keeping their females alive. Indeed, he was of the corrupters."
                },
                {
                    "id": 216313,
                    "resource_id": 39,
                    "text": "Sesungguhnya Firaun telah berlaku zalim di bumi (Mesir) dengan melampaui batas, serta ia menjadikan penduduknya berpuak-puak. Ia menindas sepuak di antaranya dengan membunuh anak-anak lelaki mereka dan membiarkan hidup anak-anak perempuan mereka. Sesungguhnya adalah ia dari golongan yang membuat kerosakan."
                },
                {
                    "id": 1094233,
                    "resource_id": 161,
                    "text": "বস্তুতঃ ফেরাউন দেশে উদ্ধত হয়ে গিয়েছিল আর সেখানকার অধিবাসীদেরকে বিভিন্ন শ্রেণীতে বিভক্ত করে তাদের একটি শ্রেণীকে দুর্বল করে রেখেছিল, তাদের পুত্রদেরকে সে হত্যা করত আর তাদের নারীদেরকে জীবিত রাখত; সে ছিল ফাসাদ সৃষ্টিকারী।"
                }
            ]
        },
        {
            "id": 3257,
            "verse_number": 5,
            "verse_key": "28:5",
            "hizb_number": 39,
            "rub_el_hizb_number": 154,
            "ruku_number": 334,
            "manzil_number": 5,
            "sajdah_number": null,
            "text_uthmani": "وَنُرِيدُ أَن نَّمُنَّ عَلَى ٱلَّذِينَ ٱسْتُضْعِفُوا۟ فِى ٱلْأَرْضِ وَنَجْعَلَهُمْ أَئِمَّةً وَنَجْعَلَهُمُ ٱلْوَٰرِثِينَ",
            "page_number": 385,
            "juz_number": 20,
            "translations": [
                {
                    "id": 98474,
                    "resource_id": 20,
                    "text": "And We wanted to confer favor upon those who were oppressed in the land and make them leaders and make them inheritors"
                },
                {
                    "id": 216337,
                    "resource_id": 39,
                    "text": "Dan Kami hendak berihsan dengan memberikan pertolongan kepada kaum yang tertindas di negeri itu, dan hendak menjadikan mereka pemimpin-pemimpin, serta hendak menjadikan mereka orang-orang yang mewarisi (apa yang dimiliki oleh Firaun dan kaumnya)."
                },
                {
                    "id": 1094234,
                    "resource_id": 161,
                    "text": "দেশে যাদেরকে দুর্বল করে রাখা হয়েছিল আমি তাদের প্রতি অনুগ্রহ করার ইচ্ছে করলাম, আর তাদেরকে নেতা ও উত্তরাধিকারী করার (ইচ্ছে করলাম)।"
                }
            ]
        },
        {
            "id": 3258,
            "verse_number": 6,
            "verse_key": "28:6",
            "hizb_number": 39,
            "rub_el_hizb_number": 154,
            "ruku_number": 334,
            "manzil_number": 5,
            "sajdah_number": null,
            "text_uthmani": "وَنُمَكِّنَ لَهُمْ فِى ٱلْأَرْضِ وَنُرِىَ فِرْعَوْنَ وَهَـٰمَـٰنَ وَجُنُودَهُمَا مِنْهُم مَّا كَانُوا۟ يَحْذَرُونَ",
            "page_number": 386,
            "juz_number": 20,
            "translations": [
                {
                    "id": 98486,
                    "resource_id": 20,
                    "text": "And establish them in the land and show Pharaoh and [his minister] Hāmān and their soldiers through them<sup foot_note=196996>1</sup> that which they had feared."
                },
                {
                    "id": 216350,
                    "resource_id": 39,
                    "text": "Dan Kami hendak memberi mereka kedudukan yang kukuh di negeri itu, serta hendak memperlihatkan kepada Firaun dan Haman bersama-sama tentera mereka apa yang mereka bimbangkan dari golongan yang bertindas itu."
                },
                {
                    "id": 1094235,
                    "resource_id": 161,
                    "text": "আর (ইচ্ছে করলাম) তাদেরকে দেশে প্রতিষ্ঠিত করতে, আর ফেরাউন, হামান ও তাদের সৈন্য বাহিনীকে দেখিয়ে দিতে যা তারা তাদের (অর্থাৎ মূসার সম্প্রদায়ের) থেকে আশঙ্কা করত।"
                }
            ]
        },
        {
            "id": 3259,
            "verse_number": 7,
            "verse_key": "28:7",
            "hizb_number": 39,
            "rub_el_hizb_number": 154,
            "ruku_number": 334,
            "manzil_number": 5,
            "sajdah_number": null,
            "text_uthmani": "وَأَوْحَيْنَآ إِلَىٰٓ أُمِّ مُوسَىٰٓ أَنْ أَرْضِعِيهِ ۖ فَإِذَا خِفْتِ عَلَيْهِ فَأَلْقِيهِ فِى ٱلْيَمِّ وَلَا تَخَافِى وَلَا تَحْزَنِىٓ ۖ إِنَّا رَآدُّوهُ إِلَيْكِ وَجَاعِلُوهُ مِنَ ٱلْمُرْسَلِينَ",
            "page_number": 386,
            "juz_number": 20,
            "translations": [
                {
                    "id": 98498,
                    "resource_id": 20,
                    "text": "And We inspired to the mother of Moses, \"Suckle him; but when you fear for him, cast him into the river and do not fear and do not grieve. Indeed, We will return him to you and will make him [one] of the messengers.\""
                },
                {
                    "id": 216365,
                    "resource_id": 39,
                    "text": "Dan Kami ilhamkan kepada ibu Musa:\" Susukanlah dia; dalam pada itu, jika engkau takutkan sesuatu bahaya mengenainya (dari angkara Firaun), maka (letakkanlah dia di dalam peti dan) lepaskanlah dia ke laut; dan janganlah engkau merasa bimbang dan jangan pula berdukacita; sesungguhnya Kami akan mengembalikannya kepadamu, dan Kami akan melantiknya menjadi salah seorang dari Rasul-rasul Kami."
                },
                {
                    "id": 1094236,
                    "resource_id": 161,
                    "text": "আমি মূসার মায়ের প্রতি ওয়াহী করলাম যে, তাকে স্তন্য পান করাতে থাক। যখন তুমি তার সম্পর্কে আশঙ্কা করবে, তখন তুমি তাকে দরিয়ায় নিক্ষেপ করবে, আর তুমি ভয় করবে না, দুঃখও করবে না, আমি তাকে অবশ্যই তোমার কাছে ফিরিয়ে দেব আর তাকে রসূলদের একজন করব।"
                }
            ]
        },
        {
            "id": 3260,
            "verse_number": 8,
            "verse_key": "28:8",
            "hizb_number": 39,
            "rub_el_hizb_number": 154,
            "ruku_number": 334,
            "manzil_number": 5,
            "sajdah_number": null,
            "text_uthmani": "فَٱلْتَقَطَهُۥٓ ءَالُ فِرْعَوْنَ لِيَكُونَ لَهُمْ عَدُوًّا وَحَزَنًا ۗ إِنَّ فِرْعَوْنَ وَهَـٰمَـٰنَ وَجُنُودَهُمَا كَانُوا۟ خَـٰطِـِٔينَ",
            "page_number": 386,
            "juz_number": 20,
            "translations": [
                {
                    "id": 98509,
                    "resource_id": 20,
                    "text": "And the family of Pharaoh picked him up [out of the river] so that he would become to them an enemy and a [cause of] grief. Indeed, Pharaoh and Hāmān and their soldiers were deliberate sinners."
                },
                {
                    "id": 216374,
                    "resource_id": 39,
                    "text": "Setelah itu dia dipungut oleh orang-orang Firaun; kesudahannya dia akan menjadi musuh dan menyebabkan dukacita bagi mereka; sesungguhnya Firaun dan Haman serta orang-orangnya adalah golongan yang bersalah."
                },
                {
                    "id": 1094237,
                    "resource_id": 161,
                    "text": "অতঃপর ফেরাউনের লোকজন তাকে উঠিয়ে নিল যাতে সে তাদের জন্য শত্রু হতে ও দুঃখের কারণ হতে পারে। ফেরাউন, হামান ও তাদের বাহিনীর লোকেরা তো ছিল অপরাধী।"
                }
            ]
        },
        {
            "id": 3261,
            "verse_number": 9,
            "verse_key": "28:9",
            "hizb_number": 39,
            "rub_el_hizb_number": 154,
            "ruku_number": 334,
            "manzil_number": 5,
            "sajdah_number": null,
            "text_uthmani": "وَقَالَتِ ٱمْرَأَتُ فِرْعَوْنَ قُرَّتُ عَيْنٍ لِّى وَلَكَ ۖ لَا تَقْتُلُوهُ عَسَىٰٓ أَن يَنفَعَنَآ أَوْ نَتَّخِذَهُۥ وَلَدًا وَهُمْ لَا يَشْعُرُونَ",
            "page_number": 386,
            "juz_number": 20,
            "translations": [
                {
                    "id": 98520,
                    "resource_id": 20,
                    "text": "And the wife of Pharaoh said, \"[He will be] a comfort of the eye [i.e., pleasure] for me and for you. Do not kill him; perhaps he may benefit us, or we may adopt him as a son.\" And they perceived not.<sup foot_note=196997>1</sup>"
                },
                {
                    "id": 216386,
                    "resource_id": 39,
                    "text": "Dan (ketika melihat kanak-kanak itu) berkatalah isteri Firaun: \"(Semoga ia menjadi) cahaya mata bagiku dan bagimu; janganlah kamu membunuhnya; mudah-mudahan ia berguna kepada kita, atau kita jadikan dia anak\". Padahal mereka tidak menyedari (kesudahannya)."
                },
                {
                    "id": 1094238,
                    "resource_id": 161,
                    "text": "ফেরাঊনের স্ত্রী বলল- ‘এ শিশু আমার ও তোমার চক্ষু শীতলকারী, তাকে হত্যা কর না, সে আমাদের উপকারে লাগতে পারে অথবা তাকে আমরা পুত্র হিসেবেও গ্রহণ করতে পারি আর তারা কিছুই বুঝতে পারল না (তাদের এ কাজের পরিণাম কী)।"
                }
            ]
        },
        {
            "id": 3262,
            "verse_number": 10,
            "verse_key": "28:10",
            "hizb_number": 39,
            "rub_el_hizb_number": 154,
            "ruku_number": 334,
            "manzil_number": 5,
            "sajdah_number": null,
            "text_uthmani": "وَأَصْبَحَ فُؤَادُ أُمِّ مُوسَىٰ فَـٰرِغًا ۖ إِن كَادَتْ لَتُبْدِى بِهِۦ لَوْلَآ أَن رَّبَطْنَا عَلَىٰ قَلْبِهَا لِتَكُونَ مِنَ ٱلْمُؤْمِنِينَ",
            "page_number": 386,
            "juz_number": 20,
            "translations": [
                {
                    "id": 98424,
                    "resource_id": 20,
                    "text": "And the heart of Moses' mother became empty [of all else]. She was about to disclose [the matter concerning] him had We not bound fast her heart that she would be of the believers."
                },
                {
                    "id": 216280,
                    "resource_id": 39,
                    "text": "Dan (sepeninggalannya) menjadilah hati ibu Musa kosong; sesungguhnya ia nyaris-nyaris menyatakan perihal anaknya itu dengan berterus-terang jika tidaklah Kami kuatkan hatinya (dengan perasaan sabar dan tenang tenteram), supaya tetaplah ia dari orang-orang yang percaya (akan janji Allah)."
                },
                {
                    "id": 1094239,
                    "resource_id": 161,
                    "text": "মূসার মায়ের অন্তর বিচলিত হয়ে উঠল। সে তো তার পরিচয় প্রকাশ করেই ফেলত যদি না আমি তার চিত্তকে দৃঢ় করতাম যাতে সে আস্থাশীল হয়।"
                }
            ]
        }
    ],
    "pagination": {
        "per_page": 10,
        "current_page": 1,
        "next_page": 2,
        "total_pages": 9,
        "total_records": 88
    }
}