{
    "verses": [
        {
            "id": 3341,
            "verse_number": 1,
            "verse_key": "29:1",
            "hizb_number": 40,
            "rub_el_hizb_number": 159,
            "ruku_number": 343,
            "manzil_number": 5,
            "sajdah_number": null,
            "text_uthmani": " الٓمٓ",
            "page_number": 396,
            "juz_number": 20,
            "translations": [
                {
                    "id": 98524,
                    "resource_id": 20,
                    "text": "Alif, Lām, Meem.<sup foot_note=197025>1</sup>"
                },
                {
                    "id": 214981,
                    "resource_id": 39,
                    "text": "Alif, Laam, Miim."
                },
                {
                    "id": 1094318,
                    "resource_id": 161,
                    "text": "আলিফ-লাম-মীম"
                }
            ]
        },
        {
            "id": 3342,
            "verse_number": 2,
            "verse_key": "29:2",
            "hizb_number": 40,
            "rub_el_hizb_number": 159,
            "ruku_number": 343,
            "manzil_number": 5,
            "sajdah_number": null,
            "text_uthmani": "أَحَسِبَ ٱلنَّاسُ أَن يُتْرَكُوٓا۟ أَن يَقُولُوٓا۟ ءَامَنَّا وَهُمْ لَا يُفْتَنُونَ",
            "page_number": 396,
            "juz_number": 20,
            "translations": [
                {
                    "id": 98536,
                    "resource_id": 20,
                    "text": "Do the people think that they will be left to say, \"We believe\" and they will not be tried?"
                },
                {
                    "id": 216401,
                    "resource_id": 39,
                    "text": "Patutkah manusia menyangka bahawa mereka akan dibiarkan dengan hanya berkata: \"Kami beriman\", sedang mereka tidak diuji (dengan sesuatu cubaan)?"
                },
                {
                    "id": 1094319,
                    "resource_id": 161,
                    "text": "লোকেরা কি মনে করে যে ‘আমরা ঈমান এনেছি’ বললেই তাদেরকে অব্যাহতি দিয়ে দেয়া হবে, আর তাদেরকে পরীক্ষা করা হবে না?"
                }
            ]
        },
        {
            "id": 3343,
            "verse_number": 3,
            "verse_key": "29:3",
            "hizb_number": 40,
            "rub_el_hizb_number": 159,
            "ruku_number": 343,
            "manzil_number": 5,
            "sajdah_number": null,
            "text_uthmani": "وَلَقَدْ فَتَنَّا ٱلَّذِينَ مِن قَبْلِهِمْ ۖ فَلَيَعْلَمَنَّ ٱللَّهُ ٱلَّذِينَ صَدَقُوا۟ وَلَيَعْلَمَنَّ ٱلْكَـٰذِبِينَ",
            "page_number": 396,
            "juz_number": 20,
            "translations": [
                {
                    "id": 98549,
                    "resource_id": 20,
                    "text": "But We have certainly tried those before them, and Allāh will surely make evident those who are truthful, and He will surely make evident the liars."
                },
                {
                    "id": 216413,
                    "resource_id": 39,
                    "text": "Dan demi sesungguhnya! Kami telah menguji orang-orang yang terdahulu daripada mereka, maka (dengan ujian yang demikian), nyata apa yang diketahui Allah tentang orang-orang yang sebenar-benarnya beriman, dan nyata pula apa yang diketahuiNya tentang orang-orang yang berdusta."
                },
                {
                    "id": 1094320,
                    "resource_id": 161,
                    "text": "তাদের পূর্বে যারা ছিল আমি তাদেরকে পরীক্ষা করেছিলাম; অতঃপর আল্লাহ অবশ্য অবশ্যই জেনে নেবেন কারা সত্যবাদী আর কারা মিথ্যেবাদী।"
                }
            ]
        },
        {
            "id": 3344,
            "verse_number": 4,
            "verse_key": "29:4",
            "hizb_number": 40,
            "rub_el_hizb_number": 159,
            "ruku_number": 343,
            "manzil_number": 5,
            "sajdah_number": null,
            "text_uthmani": "أَمْ حَسِبَ ٱلَّذِينَ يَعْمَلُونَ ٱلسَّيِّـَٔاتِ أَن يَسْبِقُونَا ۚ سَآءَ مَا يَحْكُمُونَ",
            "page_number": 396,
            "juz_number": 20,
            "translations": [
                {
                    "id": 98561,
                    "resource_id": 20,
                    "text": "Or do those who do evil deeds think they can outrun [i.e., escape] Us? Evil is what they judge."
                },
                {
                    "id": 216425,
                    "resource_id": 39,
                    "text": "Bahkan patutkah orang-orang yang melakukan kejahatan menyangka bahawa mereka akan terlepas dari azab Kami? Amatlah buruk apa yang mereka hukumkan itu."
                },
                {
                    "id": 1094321,
                    "resource_id": 161,
                    "text": "যারা মন্দ কাজ করে তারা কি ভেবে নিয়েছে যে, তারা আমার আগে বেড়ে যাবে? তাদের ফয়সালা বড়ই খারাপ!"
                }
            ]
        },
        {
            "id": 3345,
            "verse_number": 5,
            "verse_key": "29:5",
            "hizb_number": 40,
            "rub_el_hizb_number": 159,
            "ruku_number": 343,
            "manzil_number": 5,
            "sajdah_number": null,
            "text_uthmani": "مَن كَانَ يَرْجُوا۟ لِقَآءَ ٱللَّهِ فَإِنَّ أَجَلَ ٱللَّهِ لَـَٔاتٍ ۚ وَهُوَ ٱلسَّمِيعُ ٱلْعَلِيمُ",
            "page_number": 396,
            "juz_number": 20,
            "translations": [
                {
                    "id": 98573,
                    "resource_id": 20,
                    "text": "Whoever should hope for the meeting with Allāh - indeed, the term [decreed by] Allāh is coming. And He is the Hearing, the Knowing."
                },
                {
                    "id": 216437,
                    "resource_id": 39,
                    "text": "Sesiapa yang percaya akan pertemuannya dengan Allah (untuk menerima balasan), maka sesungguhnya masa yang telah ditetapkan oleh Allah itu akan tiba (dengan tidak syak lagi); dan Allah jualah Yang Maha Mendengar, lagi Maha Mengetahui."
                },
                {
                    "id": 1094322,
                    "resource_id": 161,
                    "text": "যে ব্যক্তি আল্লাহর সাক্ষাতের আকাঙ্ক্ষা করে (সে জেনে রাখুক যে) আল্লাহর নির্ধারিত কাল অবশ্যই আসবে, তিনি সব কিছু শোনেন, সব কিছু জানেন।"
                }
            ]
        },
        {
            "id": 3346,
            "verse_number": 6,
            "verse_key": "29:6",
            "hizb_number": 40,
            "rub_el_hizb_number": 159,
            "ruku_number": 343,
            "manzil_number": 5,
            "sajdah_number": null,
            "text_uthmani": "وَمَن جَـٰهَدَ فَإِنَّمَا يُجَـٰهِدُ لِنَفْسِهِۦٓ ۚ إِنَّ ٱللَّهَ لَغَنِىٌّ عَنِ ٱلْعَـٰلَمِينَ",
            "page_number": 396,
            "juz_number": 20,
            "translations": [
                {
                    "id": 98584,
                    "resource_id": 20,
                    "text": "And whoever strives only strives for [the benefit of] himself. Indeed, Allāh is Free from need of the worlds."
                },
                {
                    "id": 216534,
                    "resource_id": 39,
                    "text": "Dan sesiapa yang berjuang (menegakkan Islam) maka sesungguhnya dia hanyalah berjuang untuk kebaikan dirinya sendiri; sesungguhnya Allah Maha Kaya (tidak berhajatkan sesuatupun) daripada sekalian makhluk."
                },
                {
                    "id": 1094323,
                    "resource_id": 161,
                    "text": "যে লোক (আল্লাহর পথে) সর্বাত্মক প্রচেষ্টা চালায়, সে তার নিজের কল্যাণেই প্রচেষ্টা চালায়, আল্লাহ সৃষ্টিজগত থেকে অবশ্যই বে-পরওয়া।"
                }
            ]
        },
        {
            "id": 3347,
            "verse_number": 7,
            "verse_key": "29:7",
            "hizb_number": 40,
            "rub_el_hizb_number": 159,
            "ruku_number": 343,
            "manzil_number": 5,
            "sajdah_number": null,
            "text_uthmani": "وَٱلَّذِينَ ءَامَنُوا۟ وَعَمِلُوا۟ ٱلصَّـٰلِحَـٰتِ لَنُكَفِّرَنَّ عَنْهُمْ سَيِّـَٔاتِهِمْ وَلَنَجْزِيَنَّهُمْ أَحْسَنَ ٱلَّذِى كَانُوا۟ يَعْمَلُونَ",
            "page_number": 397,
            "juz_number": 20,
            "translations": [
                {
                    "id": 98596,
                    "resource_id": 20,
                    "text": "And those who believe and do righteous deeds - We will surely remove from them their misdeeds and will surely reward them according to the best of what they used to do."
                },
                {
                    "id": 216450,
                    "resource_id": 39,
                    "text": "Dan orang-orang yang beriman serta beramal soleh sesungguhnya Kami akan hapuskan dari mereka kesalahan-kesalahan mereka, dan Kami akan membalas apa yang mereka telah kerjakan - dengan sebaik-baik balasan."
                },
                {
                    "id": 1094324,
                    "resource_id": 161,
                    "text": "আর যারা ঈমান আনে আর সৎ কাজ করে, আমি অবশ্য অবশ্যই তাদের মন্দ কাজগুলোকে মুছে দেব, আর তাদেরকে অবশ্য অবশ্যই প্রতিদান দেব তাদের উৎকৃষ্ট কাজগুলোর অনুপাতে যা তারা করত।"
                }
            ]
        },
        {
            "id": 3348,
            "verse_number": 8,
            "verse_key": "29:8",
            "hizb_number": 40,
            "rub_el_hizb_number": 159,
            "ruku_number": 343,
            "manzil_number": 5,
            "sajdah_number": null,
            "text_uthmani": "وَوَصَّيْنَا ٱلْإِنسَـٰنَ بِوَٰلِدَيْهِ حُسْنًا ۖ وَإِن جَـٰهَدَاكَ لِتُشْرِكَ بِى مَا لَيْسَ لَكَ بِهِۦ عِلْمٌ فَلَا تُطِعْهُمَآ ۚ إِلَىَّ مَرْجِعُكُمْ فَأُنَبِّئُكُم بِمَا كُنتُمْ تَعْمَلُونَ",
            "page_number": 397,
            "juz_number": 20,
            "translations": [
                {
                    "id": 98598,
                    "resource_id": 20,
                    "text": "And We have enjoined upon man goodness to parents. But if they endeavor to make you associate with Me that of which you have no knowledge,<sup foot_note=197026>1</sup> do not obey them. To Me is your return, and I will inform you about what you used to do."
                },
                {
                    "id": 216452,
                    "resource_id": 39,
                    "text": "Dan Kami wajibkan manusia berbuat baik kepada kedua ibu bapanya; dan jika mereka berdua mendesakmu supaya engkau mempersekutukan Daku (dalam ibadatmu) dengan sesuatu yang engkau tidak mempunyai pengetahuan mengenainya, maka janganlah engkau taat kepada mereka. Kepada Akulah tempat kembali kamu semuanya, kemudian Aku akan menerangkan kepada kamu segala yang kamu telah kerjakan."
                },
                {
                    "id": 1094325,
                    "resource_id": 161,
                    "text": "পিতা-মাতার প্রতি সদ্ব্যবহার করার জন্য আমি মানুষের প্রতি ফরমান জারি করেছি। তারা যদি তোমার উপর বলপ্রয়োগ করে আমার সঙ্গে শরীক করার জন্য এমন কিছুকে যে সম্পর্কে তোমার কোন জ্ঞান নেই, তাহলে তুমি তাদেরকে মান্য কর না। আমার কাছেই তোমাদের প্রত্যাবর্তন, অতঃপর আমি তোমাদেরকে জানিয়ে দেব যা তোমরা করছিলে।"
                }
            ]
        },
        {
            "id": 3349,
            "verse_number": 9,
            "verse_key": "29:9",
            "hizb_number": 40,
            "rub_el_hizb_number": 159,
            "ruku_number": 343,
            "manzil_number": 5,
            "sajdah_number": null,
            "text_uthmani": "وَٱلَّذِينَ ءَامَنُوا۟ وَعَمِلُوا۟ ٱلصَّـٰلِحَـٰتِ لَنُدْخِلَنَّهُمْ فِى ٱلصَّـٰلِحِينَ",
            "page_number": 397,
            "juz_number": 20,
            "translations": [
                {
                    "id": 98600,
                    "resource_id": 20,
                    "text": "And those who believe and do righteous deeds - We will surely admit them among the righteous [into Paradise]."
                },
                {
                    "id": 216536,
                    "resource_id": 39,
                    "text": "Dan orang-orang yang beriman serta beramal soleh, sudah tentu Kami akan masukkan mereka dalam kumpulan orang-orang yang soleh (dengan mendapat sebaik-baik balasan)."
                },
                {
                    "id": 1094326,
                    "resource_id": 161,
                    "text": "যারা ঈমান আনে ও সৎকাজ করে আমি অবশ্য অবশ্যই তাদেরকে সৎকর্মশীলদের অন্তর্ভুক্ত করব।"
                }
            ]
        },
        {
            "id": 3350,
            "verse_number": 10,
            "verse_key": "29:10",
            "hizb_number": 40,
            "rub_el_hizb_number": 159,
            "ruku_number": 343,
            "manzil_number": 5,
            "sajdah_number": null,
            "text_uthmani": "وَمِنَ ٱلنَّاسِ مَن يَقُولُ ءَامَنَّا بِٱللَّهِ فَإِذَآ أُوذِىَ فِى ٱللَّهِ جَعَلَ فِتْنَةَ ٱلنَّاسِ كَعَذَابِ ٱللَّهِ وَلَئِن جَآءَ نَصْرٌ مِّن رَّبِّكَ لَيَقُولُنَّ إِنَّا كُنَّا مَعَكُمْ ۚ أَوَلَيْسَ ٱللَّهُ بِأَعْلَمَ بِمَا فِى صُدُورِ ٱلْعَـٰلَمِينَ",
            "page_number": 397,
            "juz_number": 20,
            "translations": [
                {
                    "id": 98525,
                    "resource_id": 20,
                    "text": "And of the people are some who say, \"We believe in Allāh,\" but when one [of them] is harmed for [the cause of] Allāh, he considers the trial [i.e., harm] of the people as [if it were] the punishment of Allāh. But if victory comes from your Lord, they say, \"Indeed, We were with you.\" Is not Allāh most knowing of what is within the breasts of the worlds [i.e., all creatures]?"
                },
                {
                    "id": 216390,
                    "resource_id": 39,
                    "text": "Dan ada sebahagian dari manusia yang berkata: \"Kami beriman kepada Allah\"; kemudian apabila ia diganggu dan disakiti pada jalan Allah, ia jadikan gangguan manusia itu seperti azab seksa Allah (lalu ia taatkan manusia). Dan jika datang pertolongan dari Tuhanmu memberi kemenangan kepadamu, mereka sudah tentu akan berkata: \"Kami adalah sentiasa bersama-sama kamu\". (Mengapa mereka berdusta?) Bukankah Allah lebih mengetahui akan apa yang terpendam dalam hati sekalian makhluk?"
                },
                {
                    "id": 1094327,
                    "resource_id": 161,
                    "text": "মানুষের মধ্যে কতক আছে যারা বলে ‘আমরা আল্লাহর প্রতি ঈমান এনেছি।’ অতঃপর তাদেরকে যখন আল্লাহর পথে কষ্ট দেয়া হয়, তখন তারা মানুষের উৎপীড়নকে আল্লাহর ‘আযাবের মত মনে করে। আর যদি (তোমার কাছে) তোমার প্রতিপালকের পক্ষ থেকে সাহায্য আসে তখন তারা অবশ্য অবশ্যই বলে যে, ‘আমরা তো (সব সময়) তোমাদের সাথেই ছিলাম। সকল সৃষ্টির অন্তরে কী আছে সে সম্পর্কে আল্লাহ কি সর্বাধিক অবগত নন?"
                }
            ]
        }
    ],
    "pagination": {
        "per_page": 10,
        "current_page": 1,
        "next_page": 2,
        "total_pages": 7,
        "total_records": 69
    }
}