{
    "verses": [
        {
            "id": 3410,
            "verse_number": 1,
            "verse_key": "30:1",
            "hizb_number": 41,
            "rub_el_hizb_number": 162,
            "ruku_number": 350,
            "manzil_number": 5,
            "sajdah_number": null,
            "text_uthmani": " الٓمٓ",
            "page_number": 404,
            "juz_number": 21,
            "translations": [
                {
                    "id": 98601,
                    "resource_id": 20,
                    "text": "Alif, Lām, Meem.<sup foot_note=197038>1</sup>"
                },
                {
                    "id": 214630,
                    "resource_id": 39,
                    "text": "Alif, Laam, Miim."
                },
                {
                    "id": 1094387,
                    "resource_id": 161,
                    "text": "আলিম-লাম-মীম।"
                }
            ]
        },
        {
            "id": 3411,
            "verse_number": 2,
            "verse_key": "30:2",
            "hizb_number": 41,
            "rub_el_hizb_number": 162,
            "ruku_number": 350,
            "manzil_number": 5,
            "sajdah_number": null,
            "text_uthmani": "غُلِبَتِ ٱلرُّومُ",
            "page_number": 404,
            "juz_number": 21,
            "translations": [
                {
                    "id": 98612,
                    "resource_id": 20,
                    "text": "The Byzantines have been defeated<sup foot_note=197039>1</sup>"
                },
                {
                    "id": 216473,
                    "resource_id": 39,
                    "text": "Orang-orang Rom telah dikalahkan -"
                },
                {
                    "id": 1094388,
                    "resource_id": 161,
                    "text": "রোমানরা পরাজিত হয়েছে।"
                }
            ]
        },
        {
            "id": 3412,
            "verse_number": 3,
            "verse_key": "30:3",
            "hizb_number": 41,
            "rub_el_hizb_number": 162,
            "ruku_number": 350,
            "manzil_number": 5,
            "sajdah_number": null,
            "text_uthmani": "فِىٓ أَدْنَى ٱلْأَرْضِ وَهُم مِّنۢ بَعْدِ غَلَبِهِمْ سَيَغْلِبُونَ",
            "page_number": 404,
            "juz_number": 21,
            "translations": [
                {
                    "id": 98623,
                    "resource_id": 20,
                    "text": "In the nearest land.<sup foot_note=197040>1</sup> But they, after their defeat, will overcome"
                },
                {
                    "id": 214771,
                    "resource_id": 39,
                    "text": "Di negeri yang dekat sekali; dan mereka sesudah kekalahannya itu akan mengalahkan lawannya -"
                },
                {
                    "id": 1094389,
                    "resource_id": 161,
                    "text": "নিকটস্থ ভূমিতে, কিন্তু তারা তাদের পরাজয়ের পর শীঘ্রই জয়লাভ করবে।"
                }
            ]
        },
        {
            "id": 3413,
            "verse_number": 4,
            "verse_key": "30:4",
            "hizb_number": 41,
            "rub_el_hizb_number": 162,
            "ruku_number": 350,
            "manzil_number": 5,
            "sajdah_number": null,
            "text_uthmani": "فِى بِضْعِ سِنِينَ ۗ لِلَّهِ ٱلْأَمْرُ مِن قَبْلُ وَمِنۢ بَعْدُ ۚ وَيَوْمَئِذٍ يَفْرَحُ ٱلْمُؤْمِنُونَ",
            "page_number": 404,
            "juz_number": 21,
            "translations": [
                {
                    "id": 98635,
                    "resource_id": 20,
                    "text": "Within three to nine years. To Allāh belongs the command [i.e., decree] before and after. And that day the believers will rejoice"
                },
                {
                    "id": 216486,
                    "resource_id": 39,
                    "text": "Dalam masa tidak sampai sepuluh tahun. Kepada pentadbiran Allah jualah terpulang segala urusan, sebelum berlakunya dan sesudah berlakunya; dan pada ketika berlakunya (kemenangan Rom) itu, orang-orang yang beriman akan bergembira -"
                },
                {
                    "id": 1094390,
                    "resource_id": 161,
                    "text": "কয়েক (তিন থেকে নয়) বছরের মধ্যেই; (কোন্ কাজ হবে) আগে ও (কোন্ কাজ হবে) পরে সে ফয়সালা আল্লাহরই। সেদিন মু’মিনরা আনন্দ করবে।"
                }
            ]
        },
        {
            "id": 3414,
            "verse_number": 5,
            "verse_key": "30:5",
            "hizb_number": 41,
            "rub_el_hizb_number": 162,
            "ruku_number": 350,
            "manzil_number": 5,
            "sajdah_number": null,
            "text_uthmani": "بِنَصْرِ ٱللَّهِ ۚ يَنصُرُ مَن يَشَآءُ ۖ وَهُوَ ٱلْعَزِيزُ ٱلرَّحِيمُ",
            "page_number": 404,
            "juz_number": 21,
            "translations": [
                {
                    "id": 98646,
                    "resource_id": 20,
                    "text": "In the victory of Allāh.<sup foot_note=197041>1</sup> He gives victory to whom He wills, and He is the Exalted in Might, the Merciful."
                },
                {
                    "id": 216496,
                    "resource_id": 39,
                    "text": "Dengan kemenangan yang diberi Allah. Ia memberi kemenangan kepada sesiapa yang dikehendakiNya, dan Dia lah jua yang Maha Kuasa, lagi Maha Mengasihani."
                },
                {
                    "id": 1094391,
                    "resource_id": 161,
                    "text": "(সে বিজয় অর্জিত হবে) আল্লাহর সাহায্যে। যাকে ইচ্ছে তিনি সাহায্য করেন, তিনি মহাপরাক্রমশালী, বড়ই দয়ালু।"
                }
            ]
        },
        {
            "id": 3415,
            "verse_number": 6,
            "verse_key": "30:6",
            "hizb_number": 41,
            "rub_el_hizb_number": 162,
            "ruku_number": 350,
            "manzil_number": 5,
            "sajdah_number": null,
            "text_uthmani": "وَعْدَ ٱللَّهِ ۖ لَا يُخْلِفُ ٱللَّهُ وَعْدَهُۥ وَلَـٰكِنَّ أَكْثَرَ ٱلنَّاسِ لَا يَعْلَمُونَ",
            "page_number": 405,
            "juz_number": 21,
            "translations": [
                {
                    "id": 98657,
                    "resource_id": 20,
                    "text": "[It is] the promise of Allāh. Allāh does not fail in His promise, but most of the people do not know."
                },
                {
                    "id": 216507,
                    "resource_id": 39,
                    "text": "Demikian dijanjikan Allah. Allah tidak pernah mengubah janjiNya, akan tetapi kebanyakan manusia tidak mengetahui (hakikat yang sebenarnya)."
                },
                {
                    "id": 1094392,
                    "resource_id": 161,
                    "text": "এটা আল্লাহর ও‘য়াদা, আল্লাহ তাঁর ও‘য়াদার ব্যতিক্রম করেন না, কিন্তু অধিকাংশ লোকই জানে না।"
                }
            ]
        },
        {
            "id": 3416,
            "verse_number": 7,
            "verse_key": "30:7",
            "hizb_number": 41,
            "rub_el_hizb_number": 162,
            "ruku_number": 350,
            "manzil_number": 5,
            "sajdah_number": null,
            "text_uthmani": "يَعْلَمُونَ ظَـٰهِرًا مِّنَ ٱلْحَيَوٰةِ ٱلدُّنْيَا وَهُمْ عَنِ ٱلْـَٔاخِرَةِ هُمْ غَـٰفِلُونَ",
            "page_number": 405,
            "juz_number": 21,
            "translations": [
                {
                    "id": 98659,
                    "resource_id": 20,
                    "text": "They know what is apparent of the worldly life, but they, of the Hereafter, are unaware."
                },
                {
                    "id": 216508,
                    "resource_id": 39,
                    "text": "Mereka hanya mengetahui perkara yang zahir nyata dari kehidupan dunia sahaja, dan mereka tidak pernah ingat hendak mengambil tahu tentang hari akhirat."
                },
                {
                    "id": 1094393,
                    "resource_id": 161,
                    "text": "তারা পার্থিব জীবনের বাহ্যিক দিক জানে, আর তারা পরকালের খবর রাখে না।"
                }
            ]
        },
        {
            "id": 3417,
            "verse_number": 8,
            "verse_key": "30:8",
            "hizb_number": 41,
            "rub_el_hizb_number": 162,
            "ruku_number": 350,
            "manzil_number": 5,
            "sajdah_number": null,
            "text_uthmani": "أَوَلَمْ يَتَفَكَّرُوا۟ فِىٓ أَنفُسِهِم ۗ مَّا خَلَقَ ٱللَّهُ ٱلسَّمَـٰوَٰتِ وَٱلْأَرْضَ وَمَا بَيْنَهُمَآ إِلَّا بِٱلْحَقِّ وَأَجَلٍ مُّسَمًّى ۗ وَإِنَّ كَثِيرًا مِّنَ ٱلنَّاسِ بِلِقَآئِ رَبِّهِمْ لَكَـٰفِرُونَ",
            "page_number": 405,
            "juz_number": 21,
            "translations": [
                {
                    "id": 98660,
                    "resource_id": 20,
                    "text": "Do they not contemplate within themselves?<sup foot_note=197042>1</sup> Allāh has not created the heavens and the earth and what is between them except in truth and for a specified term. And indeed, many of the people, in the meeting with their Lord, are disbelievers."
                },
                {
                    "id": 216509,
                    "resource_id": 39,
                    "text": "Patutkah mereka merasa cukup dengan mengetahui yang demikian sahaja, dan tidak memikirkan dalam hati mereka, (supaya mereka dapat mengetahui), bahawa Allah tidak menciptakan langit dan bumi serta segala yang ada di antara keduanya itu melainkan dengan ada gunanya yang sebenar, dan dengan ada masa penghujungnya yang tertentu, (juga untuk kembali menemui Penciptanya)? Dan sebenarnya banyak di antara manusia, orang-orang yang sungguh ingkar akan pertemuan dengan Tuhannya."
                },
                {
                    "id": 1094394,
                    "resource_id": 161,
                    "text": "তারা কি তাদের মনে ভেবে দেখে না যে, আল্লাহ আকাশমন্ডলী, পৃথিবী ও এ দু’এর মধ্যবর্তী সবকিছু সৃষ্টি করেছেন যথাযথভাবে ও নির্দিষ্ট কালের জন্য, কিন্তু অনেক মানুষ তাদের প্রতিপালকের সাক্ষাতে নিশ্চিতই অবিশ্বাসী।"
                }
            ]
        },
        {
            "id": 3418,
            "verse_number": 9,
            "verse_key": "30:9",
            "hizb_number": 41,
            "rub_el_hizb_number": 162,
            "ruku_number": 350,
            "manzil_number": 5,
            "sajdah_number": null,
            "text_uthmani": "أَوَلَمْ يَسِيرُوا۟ فِى ٱلْأَرْضِ فَيَنظُرُوا۟ كَيْفَ كَانَ عَـٰقِبَةُ ٱلَّذِينَ مِن قَبْلِهِمْ ۚ كَانُوٓا۟ أَشَدَّ مِنْهُمْ قُوَّةً وَأَثَارُوا۟ ٱلْأَرْضَ وَعَمَرُوهَآ أَكْثَرَ مِمَّا عَمَرُوهَا وَجَآءَتْهُمْ رُسُلُهُم بِٱلْبَيِّنَـٰتِ ۖ فَمَا كَانَ ٱللَّهُ لِيَظْلِمَهُمْ وَلَـٰكِن كَانُوٓا۟ أَنفُسَهُمْ يَظْلِمُونَ",
            "page_number": 405,
            "juz_number": 21,
            "translations": [
                {
                    "id": 98661,
                    "resource_id": 20,
                    "text": "Have they not traveled through the earth and observed how was the end of those before them? They were greater than them in power, and they plowed [or excavated] the earth and built it up more than they [i.e., the Makkans] have built it up, and their messengers came to them with clear evidences. And Allāh would not ever have wronged them, but they were wronging themselves."
                },
                {
                    "id": 216511,
                    "resource_id": 39,
                    "text": "Tidakkah mereka telah berjalan dan mengembara di muka bumi, serta memerhatikan bagaimana kesudahan orang-orang yang terdahulu dari mereka? Orang-orang itu lebih kuat daripada mereka sendiri, dan orang-orang itu telah meneroka bumi serta memakmurkannya lebih daripada kemakmuran yang dilakukan oleh mereka, dan orang-orang itu juga telah didatangi oleh Rasul-rasulnya dengan membawa keterangan-keterangan yang jelas nyata (lalu mereka mendustakannya dan kesudahannya mereka dibinasakan). Dengan yang demikian, maka Allah tidak sekali-kali menganiaya mereka, tetapi merekalah yang menganiaya diri sendiri."
                },
                {
                    "id": 1094395,
                    "resource_id": 161,
                    "text": "তারা কি পৃথিবীতে ভ্রমণ করে না? তাহলে তারা দেখত যে, তাদের পূর্ববর্তীদের পরিণাম কী হয়েছিল। তারা শক্তিতে ছিল এদের চেয়ে অধিক প্রবল। তারা যমীন চাষ করত আর তা আবাদ করত এদের আবাদ করার চেয়ে বেশি। তাদের কাছে তাদের রসূলগণ স্পষ্ট প্রমাণ নিয়ে এসেছিল। অতঃপর আল্লাহ তাদের উপর যুলম করেননি, তারা নিজেরাই নিজেদের উপর যুলম করেছিল।"
                }
            ]
        },
        {
            "id": 3419,
            "verse_number": 10,
            "verse_key": "30:10",
            "hizb_number": 41,
            "rub_el_hizb_number": 162,
            "ruku_number": 350,
            "manzil_number": 5,
            "sajdah_number": null,
            "text_uthmani": "ثُمَّ كَانَ عَـٰقِبَةَ ٱلَّذِينَ أَسَـٰٓـُٔوا۟ ٱلسُّوٓأَىٰٓ أَن كَذَّبُوا۟ بِـَٔايَـٰتِ ٱللَّهِ وَكَانُوا۟ بِهَا يَسْتَهْزِءُونَ",
            "page_number": 405,
            "juz_number": 21,
            "translations": [
                {
                    "id": 98602,
                    "resource_id": 20,
                    "text": "Then the end of those who did evil was the worst [consequence] because they denied the signs of Allāh and used to ridicule them."
                },
                {
                    "id": 216621,
                    "resource_id": 39,
                    "text": "Sesudah dibinasakan di dunia maka akibat orang-orang yang melakukan kejahatan itu ialah seburuk-buruk azab (di akhirat kelak), disebabkan mereka mendustakan ayat-ayat keterangan Allah dan sentiasa mempersendakannya."
                },
                {
                    "id": 1094396,
                    "resource_id": 161,
                    "text": "অতঃপর যারা মন্দ কাজ করত, তাদের পরিণাম হয়েছিল মন্দ; কারণ তারা আল্লাহর নিদর্শনাবলীকে অস্বীকার করেছিল আর সেগুলো নিয়ে ঠাট্টা-বিদ্রূপ করত।"
                }
            ]
        }
    ],
    "pagination": {
        "per_page": 10,
        "current_page": 1,
        "next_page": 2,
        "total_pages": 6,
        "total_records": 60
    }
}