{
    "verses": [
        {
            "id": 3661,
            "verse_number": 1,
            "verse_key": "35:1",
            "hizb_number": 44,
            "rub_el_hizb_number": 174,
            "ruku_number": 378,
            "manzil_number": 5,
            "sajdah_number": null,
            "text_uthmani": " ٱلْحَمْدُ لِلَّهِ فَاطِرِ ٱلسَّمَـٰوَٰتِ وَٱلْأَرْضِ جَاعِلِ ٱلْمَلَـٰٓئِكَةِ رُسُلًا أُو۟لِىٓ أَجْنِحَةٍ مَّثْنَىٰ وَثُلَـٰثَ وَرُبَـٰعَ ۚ يَزِيدُ فِى ٱلْخَلْقِ مَا يَشَآءُ ۚ إِنَّ ٱللَّهَ عَلَىٰ كُلِّ شَىْءٍ قَدِيرٌ",
            "page_number": 434,
            "juz_number": 22,
            "translations": [
                {
                    "id": 99009,
                    "resource_id": 20,
                    "text": "[All] praise is [due] to Allāh, Creator of the heavens and the earth, [who] made the angels messengers having wings, two or three or four. He increases in creation what He wills. Indeed, Allāh is over all things competent."
                },
                {
                    "id": 216873,
                    "resource_id": 39,
                    "text": "Segala puji tertentu bagi Allah yang menciptakan langit dan bumi, yang menjadikan malaikat utusan-utusan yang bersayap: dua, tiga dan empat; Ia menambah pada bentuk kejadian makhluk yang diciptakanNya apa jua yang dikehendakiNya. Sesungguhnya Allah Maha Kuasa atas tiap-tiap sesuatu."
                },
                {
                    "id": 1094638,
                    "resource_id": 161,
                    "text": "যাবতীয় প্রশংসা আকাশমন্ডলী ও পৃথিবীর সৃষ্টিকর্তা আল্লাহর জন্য। তিনি দূত মনোনীত করেন ফেরেশতামন্ডলীকে, যারা দুই দুই বা তিন তিন বা চার চার ডানা বিশিষ্ট। তিনি সৃষ্টিতে যা ইচ্ছে বৃদ্ধি করেন। আল্লাহ সকল বিষয়ের উপর সর্বশক্তিমান।"
                }
            ]
        },
        {
            "id": 3662,
            "verse_number": 2,
            "verse_key": "35:2",
            "hizb_number": 44,
            "rub_el_hizb_number": 174,
            "ruku_number": 378,
            "manzil_number": 5,
            "sajdah_number": null,
            "text_uthmani": "مَّا يَفْتَحِ ٱللَّهُ لِلنَّاسِ مِن رَّحْمَةٍ فَلَا مُمْسِكَ لَهَا ۖ وَمَا يُمْسِكْ فَلَا مُرْسِلَ لَهُۥ مِنۢ بَعْدِهِۦ ۚ وَهُوَ ٱلْعَزِيزُ ٱلْحَكِيمُ",
            "page_number": 434,
            "juz_number": 22,
            "translations": [
                {
                    "id": 99021,
                    "resource_id": 20,
                    "text": "Whatever Allāh grants to people of mercy - none can withhold it; and whatever He withholds - none can release it thereafter. And He is the Exalted in Might, the Wise."
                },
                {
                    "id": 216910,
                    "resource_id": 39,
                    "text": "Apa jua jenis rahmat yang dibukakan oleh Allah kepada manusia, maka tidak ada sesuatupun yang dapat menahannya; dan apa jua yang ditahan oleh Allah maka tidak ada sesuatupun yang dapat melepaskannya sesudah itu. Dan (ingatlah) Dia lah sahaja yang Maha Kuasa, lagi Maha Bijaksana."
                },
                {
                    "id": 1094639,
                    "resource_id": 161,
                    "text": "আল্লাহ মানুষের জন্য তাঁর অনুগ্রহ থেকে যা খুলে দেন তা নিবারণ করার কেউ নেই। আর তিনি যা বারিত করেন অতঃপর কেউ তা প্রেরণ করতে পারে না। তিনি মহাপরাক্রমশালী, মহাপ্রজ্ঞাময়।"
                }
            ]
        },
        {
            "id": 3663,
            "verse_number": 3,
            "verse_key": "35:3",
            "hizb_number": 44,
            "rub_el_hizb_number": 174,
            "ruku_number": 378,
            "manzil_number": 5,
            "sajdah_number": null,
            "text_uthmani": "يَـٰٓأَيُّهَا ٱلنَّاسُ ٱذْكُرُوا۟ نِعْمَتَ ٱللَّهِ عَلَيْكُمْ ۚ هَلْ مِنْ خَـٰلِقٍ غَيْرُ ٱللَّهِ يَرْزُقُكُم مِّنَ ٱلسَّمَآءِ وَٱلْأَرْضِ ۚ لَآ إِلَـٰهَ إِلَّا هُوَ ۖ فَأَنَّىٰ تُؤْفَكُونَ",
            "page_number": 434,
            "juz_number": 22,
            "translations": [
                {
                    "id": 99031,
                    "resource_id": 20,
                    "text": "O mankind, remember the favor of Allāh upon you. Is there any creator other than Allāh who provides for you from the heaven and earth? There is no deity except Him, so how are you deluded?"
                },
                {
                    "id": 216887,
                    "resource_id": 39,
                    "text": "Wahai umat manusia, kenangkanlah nikmat Allah yang telah dikurniakanNya kepada kamu; tidak ada sama sekali yang menciptakan sesuatu selain daripada Allah; Ia memberi rezeki kepada kamu dari langit dan bumi. Tiada Tuhan melainkan Dia, maka mengapa kamu rela dipalingkan (dari menyembahnya)?"
                },
                {
                    "id": 1094640,
                    "resource_id": 161,
                    "text": "হে মানুষ! তোমরা তোমাদের প্রতি আল্লাহর অনুগ্রহের কথা স্মরণ কর। তিনি ছাড়া কোন সৃষ্টিকর্তা আছে কি যে তোমাদেরকে আকাশ ও যমীন থেকে রিযক দান করে? তিনি ছাড়া সত্যিকারের কোন ইলাহ নেই, তাহলে কীভাবে তোমরা বিপথগামী হচ্ছ?"
                }
            ]
        },
        {
            "id": 3664,
            "verse_number": 4,
            "verse_key": "35:4",
            "hizb_number": 44,
            "rub_el_hizb_number": 174,
            "ruku_number": 378,
            "manzil_number": 5,
            "sajdah_number": null,
            "text_uthmani": "وَإِن يُكَذِّبُوكَ فَقَدْ كُذِّبَتْ رُسُلٌ مِّن قَبْلِكَ ۚ وَإِلَى ٱللَّهِ تُرْجَعُ ٱلْأُمُورُ",
            "page_number": 435,
            "juz_number": 22,
            "translations": [
                {
                    "id": 99043,
                    "resource_id": 20,
                    "text": "And if they deny you, [O Muḥammad] - already were messengers denied before you. And to Allāh are returned [all] matters."
                },
                {
                    "id": 216902,
                    "resource_id": 39,
                    "text": "Dan jika mereka mendustakanmu (wahai Muhammad), maka sesungguhnya Rasul-rasul yang terdahulu sebelummu telah juga didustakan (oleh kaumnya masing-masing). Dan (Ingatlah), kepada Allah jualah dikembalikan segala urusan."
                },
                {
                    "id": 1094641,
                    "resource_id": 161,
                    "text": "তারা যদি তোমাকে মিথ্যে বলে অস্বীকার করে, তাহলে (তাদের এ আচরণ তো কোন নতুন বিষয় নয়) তোমার পূর্বেও রসূলদেরকে মিথ্যে বলে অস্বীকার করা হয়েছে। (যে যা-ই কিছু করুক না কেন) সমস্ত কার্যকলাপ (হিসাব নিকাশের জন্য) আল্লাহর কাছে ফিরে যাবে।"
                }
            ]
        },
        {
            "id": 3665,
            "verse_number": 5,
            "verse_key": "35:5",
            "hizb_number": 44,
            "rub_el_hizb_number": 174,
            "ruku_number": 378,
            "manzil_number": 5,
            "sajdah_number": null,
            "text_uthmani": "يَـٰٓأَيُّهَا ٱلنَّاسُ إِنَّ وَعْدَ ٱللَّهِ حَقٌّ ۖ فَلَا تَغُرَّنَّكُمُ ٱلْحَيَوٰةُ ٱلدُّنْيَا ۖ وَلَا يَغُرَّنَّكُم بِٱللَّهِ ٱلْغَرُورُ",
            "page_number": 435,
            "juz_number": 22,
            "translations": [
                {
                    "id": 99051,
                    "resource_id": 20,
                    "text": "O mankind, indeed the promise of Allāh is truth, so let not the worldly life delude you and be not deceived about Allāh by the Deceiver [i.e., Satan]."
                },
                {
                    "id": 216851,
                    "resource_id": 39,
                    "text": "Wahai umat manusia, sesungguhnya janji Allah (membalas amal kamu) adalah benar; maka janganlah kamu diperdayakan oleh kemewahan hidup di dunia, dan janganlah Syaitan yang menjadi sebesar-besar penipu itu berpeluang menyebabkan kamu terpedaya dengan (kemurahan) Allah (lalu kamu lalai dan menderhaka)."
                },
                {
                    "id": 1094642,
                    "resource_id": 161,
                    "text": "হে মানুষ! আল্লাহর ওয়া‘দা সত্য, কাজেই পার্থিব জীবন কিছুতেই যেন তোমাদেরকে প্রতারিত না করে; আর সেই প্রধান প্রতারক (শয়ত্বান) যেন কিছুতেই তোমাদেরকে আল্লাহ সম্পর্কে প্রতারিত না করে।"
                }
            ]
        },
        {
            "id": 3666,
            "verse_number": 6,
            "verse_key": "35:6",
            "hizb_number": 44,
            "rub_el_hizb_number": 174,
            "ruku_number": 378,
            "manzil_number": 5,
            "sajdah_number": null,
            "text_uthmani": "إِنَّ ٱلشَّيْطَـٰنَ لَكُمْ عَدُوٌّ فَٱتَّخِذُوهُ عَدُوًّا ۚ إِنَّمَا يَدْعُوا۟ حِزْبَهُۥ لِيَكُونُوا۟ مِنْ أَصْحَـٰبِ ٱلسَّعِيرِ",
            "page_number": 435,
            "juz_number": 22,
            "translations": [
                {
                    "id": 99053,
                    "resource_id": 20,
                    "text": "Indeed, Satan is an enemy to you; so take him as an enemy. He only invites his party to be among the companions of the Blaze."
                },
                {
                    "id": 216874,
                    "resource_id": 39,
                    "text": "Sesungguhnya Syaitan adalah musuh bagi kamu, maka jadikanlah dia musuh (yang mesti dijauhi tipu dayanya); sebenarnya dia hanyalah mengajak golongannya supaya menjadi dari penduduk neraka."
                },
                {
                    "id": 1094643,
                    "resource_id": 161,
                    "text": "শয়ত্বান তোমাদের শত্রু, কাজেই তাকে শত্রু হিসেবে গ্রহণ কর। সে কেবল তার দলবলকে ডাকে, যাতে তারা জ্বলন্ত অগ্নির সঙ্গী হয়।"
                }
            ]
        },
        {
            "id": 3667,
            "verse_number": 7,
            "verse_key": "35:7",
            "hizb_number": 44,
            "rub_el_hizb_number": 174,
            "ruku_number": 378,
            "manzil_number": 5,
            "sajdah_number": null,
            "text_uthmani": "ٱلَّذِينَ كَفَرُوا۟ لَهُمْ عَذَابٌ شَدِيدٌ ۖ وَٱلَّذِينَ ءَامَنُوا۟ وَعَمِلُوا۟ ٱلصَّـٰلِحَـٰتِ لَهُم مَّغْفِرَةٌ وَأَجْرٌ كَبِيرٌ",
            "page_number": 435,
            "juz_number": 22,
            "translations": [
                {
                    "id": 99055,
                    "resource_id": 20,
                    "text": "Those who disbelieve will have a severe punishment, and those who believe and do righteous deeds will have forgiveness and great reward."
                },
                {
                    "id": 216921,
                    "resource_id": 39,
                    "text": "Orang-orang yang kafir, bagi mereka azab yang berat; dan orang-orang yang beriman serta beramal soleh, bagi mereka keampunan dan pahala yang besar."
                },
                {
                    "id": 1094644,
                    "resource_id": 161,
                    "text": "যারা কুফুরী করে তাদের জন্য রয়েছে কঠিন শাস্তি। আর যারা ঈমান আনে আর সৎকাজ করে তাদের জন্য রয়েছে ক্ষমা ও মহা প্রতিফল।"
                }
            ]
        },
        {
            "id": 3668,
            "verse_number": 8,
            "verse_key": "35:8",
            "hizb_number": 44,
            "rub_el_hizb_number": 174,
            "ruku_number": 379,
            "manzil_number": 5,
            "sajdah_number": null,
            "text_uthmani": "أَفَمَن زُيِّنَ لَهُۥ سُوٓءُ عَمَلِهِۦ فَرَءَاهُ حَسَنًا ۖ فَإِنَّ ٱللَّهَ يُضِلُّ مَن يَشَآءُ وَيَهْدِى مَن يَشَآءُ ۖ فَلَا تَذْهَبْ نَفْسُكَ عَلَيْهِمْ حَسَرَٰتٍ ۚ إِنَّ ٱللَّهَ عَلِيمٌۢ بِمَا يَصْنَعُونَ",
            "page_number": 435,
            "juz_number": 22,
            "translations": [
                {
                    "id": 99060,
                    "resource_id": 20,
                    "text": "Then is one to whom the evil of his deed has been made attractive so he considers it good [like one rightly guided]? For indeed, Allāh sends astray whom He wills and guides whom He wills. So do not let yourself perish over them in regret. Indeed, Allāh is Knowing of what they do."
                },
                {
                    "id": 216923,
                    "resource_id": 39,
                    "text": "Maka (fikirkanlah) adakah orang yang diperelokkan kepadanya amal buruknya (oleh Syaitan) lalu ia memandangnya dan mempercayainya baik, (bolehkah disifatkan sebagai orang yang menjalankan peraturan yang ditetapkan Allah untuk memberi hidayah kepadanya, atau sebaliknya) ? Kerana sesungguhnya Allah menyesatkan sesiapa yang dikehendakiNya, dan Ia juga memberi hidayah petunjuk kepada sesiapa yang dikehendakiNya. Oleh itu, janganlah engkau membinasakan dirimu (wahai Muhammad) kerana menanggung dukacita terhadap kesesatan mereka. Sesungguhnya Allah Maha Mengetahui akan apa yang mereka kerjakan."
                },
                {
                    "id": 1094645,
                    "resource_id": 161,
                    "text": "যাকে তার মন্দ কর্ম শোভনীয় ক’রে দেখানো হয়, অতঃপর সে সেটাকে উত্তম মনে করে (সে কি তার সমান, যে সৎ পথে পরিচালিত?) আল্লাহ যাকে ইচ্ছে বিপথগামী করেন, আর যাকে ইচ্ছে সঠিক পথে পরিচালিত করেন। কাজেই তাদের জন্য আক্ষেপ ক’রে, তুমি তোমার জীবনকে ধ্বংস হতে দিও না। তারা যা করে আল্লাহ তা খুব ভালভাবেই জানেন।"
                }
            ]
        },
        {
            "id": 3669,
            "verse_number": 9,
            "verse_key": "35:9",
            "hizb_number": 44,
            "rub_el_hizb_number": 174,
            "ruku_number": 379,
            "manzil_number": 5,
            "sajdah_number": null,
            "text_uthmani": "وَٱللَّهُ ٱلَّذِىٓ أَرْسَلَ ٱلرِّيَـٰحَ فَتُثِيرُ سَحَابًا فَسُقْنَـٰهُ إِلَىٰ بَلَدٍ مَّيِّتٍ فَأَحْيَيْنَا بِهِ ٱلْأَرْضَ بَعْدَ مَوْتِهَا ۚ كَذَٰلِكَ ٱلنُّشُورُ",
            "page_number": 435,
            "juz_number": 22,
            "translations": [
                {
                    "id": 99062,
                    "resource_id": 20,
                    "text": "And it is Allāh who sends the winds, and they stir the clouds, and We drive them to a dead land and give life thereby to the earth after its lifelessness. Thus is the resurrection."
                },
                {
                    "id": 216925,
                    "resource_id": 39,
                    "text": "Dan Allah jualah yang menghantarkan angin, lalu angin itu menggerakkan awan, kemudian Kami halakan awan itu ke negeri yang mati (yang kering kontang); lalu Kami hidupkan bumi sesudah matinya dengan (hujan dari awan) itu. Sedemikian itu pula kebangkitan manusia (hidup semula sesudah mati)."
                },
                {
                    "id": 1094646,
                    "resource_id": 161,
                    "text": "আল্লাহ, যিনি বায়ু প্রেরণ করেন, অতঃপর তা মেঘ সঞ্চার করে, অতঃপর আমি তা নির্জীব ভূখন্ডের দিকে পরিচালিত করি। অতঃপর আমি তা দিয়ে মৃত্তিকাকে তার মৃত্যুর পর আবার সঞ্জীবিত করি। এভাবেই (ঘটবে) পুনরুত্থান।"
                }
            ]
        },
        {
            "id": 3670,
            "verse_number": 10,
            "verse_key": "35:10",
            "hizb_number": 44,
            "rub_el_hizb_number": 174,
            "ruku_number": 379,
            "manzil_number": 5,
            "sajdah_number": null,
            "text_uthmani": "مَن كَانَ يُرِيدُ ٱلْعِزَّةَ فَلِلَّهِ ٱلْعِزَّةُ جَمِيعًا ۚ إِلَيْهِ يَصْعَدُ ٱلْكَلِمُ ٱلطَّيِّبُ وَٱلْعَمَلُ ٱلصَّـٰلِحُ يَرْفَعُهُۥ ۚ وَٱلَّذِينَ يَمْكُرُونَ ٱلسَّيِّـَٔاتِ لَهُمْ عَذَابٌ شَدِيدٌ ۖ وَمَكْرُ أُو۟لَـٰٓئِكَ هُوَ يَبُورُ",
            "page_number": 435,
            "juz_number": 22,
            "translations": [
                {
                    "id": 99010,
                    "resource_id": 20,
                    "text": "Whoever desires honor [through power] - then to Allāh belongs all honor.<sup foot_note=197141>1</sup> To Him ascends good speech, and righteous work raises it.<sup foot_note=197140>2</sup> But they who plot evil deeds will have a severe punishment, and the plotting of those - it will perish."
                },
                {
                    "id": 216877,
                    "resource_id": 39,
                    "text": "Sesiapa yang mahukan kemuliaan (maka hendaklah ia berusaha mencarinya dengan jalan mematuhi perintah Allah), kerana bagi Allah jualah segala kemuliaan. Kepada Allah lah naiknya segala perkataan yang baik (yang menegaskan iman dan tauhid, untuk dimasukkan ke dalam kira-kira balasan), dan amal yang soleh pula di angkatnya naik (sebagai amal yang makbul - yang memberi kemuliaan kepada yang melakukannya). Dan sebaliknya: orang-orang yang merancangkan kejahatan (untuk mendapat kemuliaan), adalah bagi mereka azab seksa yang berat; dan rancangan jahat mereka (kalau berkesan) akan rosak binasa."
                },
                {
                    "id": 1094647,
                    "resource_id": 161,
                    "text": "কেউ সম্মান-সুখ্যাতি চাইলে (আল্লাহকে উপেক্ষা করে তা লাভ করা যাবে না), সে জেনে নিক যাবতীয় সম্মান-সুখ্যাতির অধিকারী হলেন আল্লাহ। তাঁরই দিকে উত্থিত হয় পবিত্র কথাগুলো আর সৎকাজ সেগুলোকে উচ্চে তুলে ধরে। যারা মন্দ কাজের চক্রান্ত করে তাদের জন্য আছে কঠিন শাস্তি। তাদের চক্রান্ত নিষ্ফল হবে।"
                }
            ]
        }
    ],
    "pagination": {
        "per_page": 10,
        "current_page": 1,
        "next_page": 2,
        "total_pages": 5,
        "total_records": 45
    }
}