{
    "verses": [
        {
            "id": 3789,
            "verse_number": 1,
            "verse_key": "37:1",
            "hizb_number": 45,
            "rub_el_hizb_number": 178,
            "ruku_number": 388,
            "manzil_number": 6,
            "sajdah_number": null,
            "text_uthmani": " وَٱلصَّـٰٓفَّـٰتِ صَفًّا",
            "page_number": 446,
            "juz_number": 23,
            "translations": [
                {
                    "id": 99155,
                    "resource_id": 20,
                    "text": "By those [angels] lined up in rows"
                },
                {
                    "id": 214794,
                    "resource_id": 39,
                    "text": "Demi (hamba-hambaKu) yang berbaris dengan berderet-deret -"
                },
                {
                    "id": 1094766,
                    "resource_id": 161,
                    "text": "শপথ তাদের যারা সারিবদ্ধভাবে দাঁড়ানো,"
                }
            ]
        },
        {
            "id": 3790,
            "verse_number": 2,
            "verse_key": "37:2",
            "hizb_number": 45,
            "rub_el_hizb_number": 178,
            "ruku_number": 388,
            "manzil_number": 6,
            "sajdah_number": null,
            "text_uthmani": "فَٱلزَّٰجِرَٰتِ زَجْرًا",
            "page_number": 446,
            "juz_number": 23,
            "translations": [
                {
                    "id": 99252,
                    "resource_id": 20,
                    "text": "And those who drive [the clouds]"
                },
                {
                    "id": 217104,
                    "resource_id": 39,
                    "text": "(Hamba-hambaKu) yang melarang (dari kejahatan) dengan sesungguh-sungguhnya -"
                },
                {
                    "id": 1094767,
                    "resource_id": 161,
                    "text": "অতঃপর যারা ধমক দিয়ে তিরস্কার করে তাদের শপথ,"
                }
            ]
        },
        {
            "id": 3791,
            "verse_number": 3,
            "verse_key": "37:3",
            "hizb_number": 45,
            "rub_el_hizb_number": 178,
            "ruku_number": 388,
            "manzil_number": 6,
            "sajdah_number": null,
            "text_uthmani": "فَٱلتَّـٰلِيَـٰتِ ذِكْرًا",
            "page_number": 446,
            "juz_number": 23,
            "translations": [
                {
                    "id": 99263,
                    "resource_id": 20,
                    "text": "And those who recite the message,<sup foot_note=197179>1</sup>"
                },
                {
                    "id": 217124,
                    "resource_id": 39,
                    "text": "(Hamba-hambaKu) yang membaca kandungan Kitab Suci;"
                },
                {
                    "id": 1094768,
                    "resource_id": 161,
                    "text": "আর যারা (আল্লাহর) যিকর আবৃত্তিতে লিপ্ত,"
                }
            ]
        },
        {
            "id": 3792,
            "verse_number": 4,
            "verse_key": "37:4",
            "hizb_number": 45,
            "rub_el_hizb_number": 178,
            "ruku_number": 388,
            "manzil_number": 6,
            "sajdah_number": null,
            "text_uthmani": "إِنَّ إِلَـٰهَكُمْ لَوَٰحِدٌ",
            "page_number": 446,
            "juz_number": 23,
            "translations": [
                {
                    "id": 99275,
                    "resource_id": 20,
                    "text": "Indeed, your God is One,"
                },
                {
                    "id": 217121,
                    "resource_id": 39,
                    "text": "(Sumpah demi sumpah) sesungguhnya Tuhan kamu hanyalah Satu -"
                },
                {
                    "id": 1094769,
                    "resource_id": 161,
                    "text": "তোমাদের প্রকৃত ইলাহ অবশ্য একজন।"
                }
            ]
        },
        {
            "id": 3793,
            "verse_number": 5,
            "verse_key": "37:5",
            "hizb_number": 45,
            "rub_el_hizb_number": 178,
            "ruku_number": 388,
            "manzil_number": 6,
            "sajdah_number": null,
            "text_uthmani": "رَّبُّ ٱلسَّمَـٰوَٰتِ وَٱلْأَرْضِ وَمَا بَيْنَهُمَا وَرَبُّ ٱلْمَشَـٰرِقِ",
            "page_number": 446,
            "juz_number": 23,
            "translations": [
                {
                    "id": 99287,
                    "resource_id": 20,
                    "text": "Lord of the heavens and the earth and that between them and Lord of the sunrises.<sup foot_note=197180>1</sup>"
                },
                {
                    "id": 217126,
                    "resource_id": 39,
                    "text": "Tuhan (yang mencipta serta mentadbirkan) langit dan bumi dan segala yang ada di antara keduanya, dan Tuhan (yang mengatur) tempat-tempat terbit matahari."
                },
                {
                    "id": 1094770,
                    "resource_id": 161,
                    "text": "যিনি আসমান, যমীন আর এ দু’য়ের মাঝে যা আছে এবং সকল উদয় স্থলের মালিক।"
                }
            ]
        },
        {
            "id": 3794,
            "verse_number": 6,
            "verse_key": "37:6",
            "hizb_number": 45,
            "rub_el_hizb_number": 178,
            "ruku_number": 388,
            "manzil_number": 6,
            "sajdah_number": null,
            "text_uthmani": "إِنَّا زَيَّنَّا ٱلسَّمَآءَ ٱلدُّنْيَا بِزِينَةٍ ٱلْكَوَاكِبِ",
            "page_number": 446,
            "juz_number": 23,
            "translations": [
                {
                    "id": 99299,
                    "resource_id": 20,
                    "text": "Indeed, We have adorned the nearest heaven with an adornment of stars"
                },
                {
                    "id": 217136,
                    "resource_id": 39,
                    "text": "Sesungguhnya Kami telah menghiasi langit yang dekat (pada penglihatan penduduk bumi) dengan hiasan bintang-bintang."
                },
                {
                    "id": 1094771,
                    "resource_id": 161,
                    "text": "আমি নিকটবর্তী আসমানকে তারকারাজির সৌন্দর্য দ্বারা সুশোভিত করেছি,"
                }
            ]
        },
        {
            "id": 3795,
            "verse_number": 7,
            "verse_key": "37:7",
            "hizb_number": 45,
            "rub_el_hizb_number": 178,
            "ruku_number": 388,
            "manzil_number": 6,
            "sajdah_number": null,
            "text_uthmani": "وَحِفْظًا مِّن كُلِّ شَيْطَـٰنٍ مَّارِدٍ",
            "page_number": 446,
            "juz_number": 23,
            "translations": [
                {
                    "id": 99311,
                    "resource_id": 20,
                    "text": "And as protection against every rebellious devil"
                },
                {
                    "id": 217150,
                    "resource_id": 39,
                    "text": "Dan (Kami pelihara urusan langit itu) dengan serapi-rapi kawalan dari (masuk campur) tiap-tiap Syaitan yang derhaka;"
                },
                {
                    "id": 1094772,
                    "resource_id": 161,
                    "text": "আর (এটা করেছি) প্রত্যেক বিদ্রোহী শয়ত্বান থেকে সুরক্ষার ব্যবস্থা হিসেবে।"
                }
            ]
        },
        {
            "id": 3796,
            "verse_number": 8,
            "verse_key": "37:8",
            "hizb_number": 45,
            "rub_el_hizb_number": 178,
            "ruku_number": 388,
            "manzil_number": 6,
            "sajdah_number": null,
            "text_uthmani": "لَّا يَسَّمَّعُونَ إِلَى ٱلْمَلَإِ ٱلْأَعْلَىٰ وَيُقْذَفُونَ مِن كُلِّ جَانِبٍ",
            "page_number": 446,
            "juz_number": 23,
            "translations": [
                {
                    "id": 99321,
                    "resource_id": 20,
                    "text": "[So] they may not listen to the exalted assembly [of angels] and are pelted from every side,<sup foot_note=197181>1</sup>"
                },
                {
                    "id": 217165,
                    "resource_id": 39,
                    "text": "(Dengan itu) mereka tidak dapat memasang telinga mendengar (percakapan malaikat) penduduk langit, dan mereka pula direjam (dengan api) dari segala arah dan penjuru,"
                },
                {
                    "id": 1094773,
                    "resource_id": 161,
                    "text": "যার ফলে তারা উচ্চতর জগতের কিছু শুনতে পারে না, চতুর্দিক থেকে তাদের প্রতি নিক্ষেপ করা হয় (উল্কাপিন্ড)"
                }
            ]
        },
        {
            "id": 3797,
            "verse_number": 9,
            "verse_key": "37:9",
            "hizb_number": 45,
            "rub_el_hizb_number": 178,
            "ruku_number": 388,
            "manzil_number": 6,
            "sajdah_number": null,
            "text_uthmani": "دُحُورًا ۖ وَلَهُمْ عَذَابٌ وَاصِبٌ",
            "page_number": 446,
            "juz_number": 23,
            "translations": [
                {
                    "id": 99332,
                    "resource_id": 20,
                    "text": "Repelled; and for them is a constant punishment,"
                },
                {
                    "id": 217180,
                    "resource_id": 39,
                    "text": "Untuk mengusir mereka; dan mereka pula beroleh azab seksa yang tidak putus-putus."
                },
                {
                    "id": 1094774,
                    "resource_id": 161,
                    "text": "(তাদেরকে) তাড়ানোর জন্য। তাদের জন্য আছে বিরামহীন শাস্তি।"
                }
            ]
        },
        {
            "id": 3798,
            "verse_number": 10,
            "verse_key": "37:10",
            "hizb_number": 45,
            "rub_el_hizb_number": 178,
            "ruku_number": 388,
            "manzil_number": 6,
            "sajdah_number": null,
            "text_uthmani": "إِلَّا مَنْ خَطِفَ ٱلْخَطْفَةَ فَأَتْبَعَهُۥ شِهَابٌ ثَاقِبٌ",
            "page_number": 446,
            "juz_number": 23,
            "translations": [
                {
                    "id": 99156,
                    "resource_id": 20,
                    "text": "Except one who snatches [some words] by theft, but they are pursued by a burning flame, piercing [in brightness]."
                },
                {
                    "id": 217012,
                    "resource_id": 39,
                    "text": "Kecuali sesiapa di antara Syaitan-syaitan itu yang curi mendengar mana-mana percakapan (malaikat), maka ia diburu dan diikuti (dengan rejaman) api yang menjulang lagi menembusi."
                },
                {
                    "id": 1094775,
                    "resource_id": 161,
                    "text": "তবে কেউ ছোঁ মেরে কিছু শুনে ফেললে জ্বলন্ত উল্কাপিন্ড তার পিছু নেয়।"
                }
            ]
        }
    ],
    "pagination": {
        "per_page": 10,
        "current_page": 1,
        "next_page": 2,
        "total_pages": 19,
        "total_records": 182
    }
}