{
    "verses": [
        {
            "id": 4059,
            "verse_number": 1,
            "verse_key": "39:1",
            "hizb_number": 46,
            "rub_el_hizb_number": 183,
            "ruku_number": 398,
            "manzil_number": 6,
            "sajdah_number": null,
            "text_uthmani": " تَنزِيلُ ٱلْكِتَـٰبِ مِنَ ٱللَّهِ ٱلْعَزِيزِ ٱلْحَكِيمِ",
            "page_number": 458,
            "juz_number": 23,
            "translations": [
                {
                    "id": 99441,
                    "resource_id": 20,
                    "text": "The revelation of the Book [i.e., the Qur’ān] is from Allāh, the Exalted in Might, the Wise."
                },
                {
                    "id": 217286,
                    "resource_id": 39,
                    "text": "Turunnya Kitab Al-Quran ini dari Allah, Yang Maha Kuasa, lagi Maha Bijaksana."
                },
                {
                    "id": 1095036,
                    "resource_id": 161,
                    "text": "এ কিতাব নাযিল হয়েছে মহাপরাক্রমশালী মহাবিজ্ঞানী আল্লাহর নিকট হতে।"
                }
            ]
        },
        {
            "id": 4060,
            "verse_number": 2,
            "verse_key": "39:2",
            "hizb_number": 46,
            "rub_el_hizb_number": 183,
            "ruku_number": 398,
            "manzil_number": 6,
            "sajdah_number": null,
            "text_uthmani": "إِنَّآ أَنزَلْنَآ إِلَيْكَ ٱلْكِتَـٰبَ بِٱلْحَقِّ فَٱعْبُدِ ٱللَّهَ مُخْلِصًا لَّهُ ٱلدِّينَ",
            "page_number": 458,
            "juz_number": 23,
            "translations": [
                {
                    "id": 99453,
                    "resource_id": 20,
                    "text": "Indeed, We have sent down to you the Book, [O Muḥammad], in truth. So worship Allāh, [being] sincere to Him in religion."
                },
                {
                    "id": 217298,
                    "resource_id": 39,
                    "text": "Sesungguhnya Kami menurunkan Al-Quran ini kepadamu (wahai Muhammad) dengan membawa kebenaran; oleh itu hendaklah engkau menyembah Allah dengan mengikhlaskan segala ibadat dan bawaanmu kepadaNya."
                },
                {
                    "id": 1095037,
                    "resource_id": 161,
                    "text": "আমি তোমার প্রতি এ কিতাব অবতীর্ণ করেছি সত্যতা সহকারে, (এতে নেই কোন প্রকার মিথ্যে) কাজেই আল্লাহর ‘ইবাদাত কর দ্বীনকে (অর্থাৎ আনুগত্য, হুকুম পালন, দাসত্ব ও গোলামীকে) একমাত্র তাঁরই জন্য নির্দিষ্ট করে।"
                }
            ]
        },
        {
            "id": 4061,
            "verse_number": 3,
            "verse_key": "39:3",
            "hizb_number": 46,
            "rub_el_hizb_number": 183,
            "ruku_number": 398,
            "manzil_number": 6,
            "sajdah_number": null,
            "text_uthmani": "أَلَا لِلَّهِ ٱلدِّينُ ٱلْخَالِصُ ۚ وَٱلَّذِينَ ٱتَّخَذُوا۟ مِن دُونِهِۦٓ أَوْلِيَآءَ مَا نَعْبُدُهُمْ إِلَّا لِيُقَرِّبُونَآ إِلَى ٱللَّهِ زُلْفَىٰٓ إِنَّ ٱللَّهَ يَحْكُمُ بَيْنَهُمْ فِى مَا هُمْ فِيهِ يَخْتَلِفُونَ ۗ إِنَّ ٱللَّهَ لَا يَهْدِى مَنْ هُوَ كَـٰذِبٌ كَفَّارٌ",
            "page_number": 458,
            "juz_number": 23,
            "translations": [
                {
                    "id": 99465,
                    "resource_id": 20,
                    "text": "Unquestionably, for Allāh is the pure religion.<sup foot_note=197230>1</sup> And those who take protectors besides Him [say], \"We only worship them that they may bring us nearer to Allāh in position.\" Indeed, Allāh will judge between them concerning that over which they differ. Indeed, Allāh does not guide he who is a liar and [confirmed] disbeliever."
                },
                {
                    "id": 217309,
                    "resource_id": 39,
                    "text": "Ingatlah! (Hak yang wajib dipersembahkan) kepada Allah ialah segala ibadat dan bawaan yang suci bersih (dari segala rupa syirik). Dan orang-orang musyrik yang mengambil selain dari Allah untuk menjadi pelindung dan penolong (sambil berkata): \"Kami tidak menyembah atau memujanya melainkan supaya mereka mendampingkan kami kepada Allah sehampir-hampirnya\", - sesungguhnya Allah akan menghukum di antara mereka (dengan orang-orang yang tidak melakukan syirik) tentang apa yang mereka berselisihan padanya. Sesungguhnya Allah tidak memberi hidayah petunjuk kepada orang-orang yang tetap berdusta (mengatakan yang bukan-bukan), lagi sentiasa kufur (dengan melakukan syirik)."
                },
                {
                    "id": 1095038,
                    "resource_id": 161,
                    "text": "জেনে রেখ, খালেস দ্বীন কেবল আল্লাহরই জন্য। যারা তাঁকে বাদ দিয়ে অন্যদেরকে অভিভাবক বানিয়ে নিয়েছে তারা বলে- আমরা তাদের ‘ইবাদাত একমাত্র এ উদ্দেশ্যেই করি যে, তারা আমাদেরকে আল্লাহর নৈকট্যে পৌঁছে দেবে। (সত্য পথ থেকে সরে গিয়ে মিথ্যে পথ ও মতের জন্ম দিয়ে) তারা যে মতভেদ করছে, আল্লাহ তার চূড়ান্ত ফয়সালা করে দেবেন। যে মিথ্যেবাদী ও কাফির আল্লাহ তাকে সঠিক পথ দেখান না।"
                }
            ]
        },
        {
            "id": 4062,
            "verse_number": 4,
            "verse_key": "39:4",
            "hizb_number": 46,
            "rub_el_hizb_number": 183,
            "ruku_number": 398,
            "manzil_number": 6,
            "sajdah_number": null,
            "text_uthmani": "لَّوْ أَرَادَ ٱللَّهُ أَن يَتَّخِذَ وَلَدًا لَّٱصْطَفَىٰ مِمَّا يَخْلُقُ مَا يَشَآءُ ۚ سُبْحَـٰنَهُۥ ۖ هُوَ ٱللَّهُ ٱلْوَٰحِدُ ٱلْقَهَّارُ",
            "page_number": 458,
            "juz_number": 23,
            "translations": [
                {
                    "id": 99479,
                    "resource_id": 20,
                    "text": "If Allāh had intended to take a son, He could have chosen from what He creates whatever He willed. Exalted is He; He is Allāh, the One, the Prevailing.<sup foot_note=197231>1</sup>"
                },
                {
                    "id": 217321,
                    "resource_id": 39,
                    "text": "Kalaulah Allah hendak mempunyai anak, tentulah Ia memilih mana-mana yang dikehendakiNya dari makhluk-makhluk yang diciptakanNya; Maha Sucilah Ia (dari menghendaki yang demikian). Dia lah Allah, Yang Maha Esa, lagi Yang Mengatasi kekuasaanNya segala-galanya."
                },
                {
                    "id": 1095039,
                    "resource_id": 161,
                    "text": "আল্লাহ সন্তান গ্রহণ করার ইচ্ছে করলে তিনি তার সৃষ্টিকুল থেকে নিজ পছন্দ মত বেছে নিতেন। এসব থেকে তিনি পবিত্র। অপ্রতিরোধ্য ক্ষমতার অধিকারী তিনি এক ও একক আল্লাহ।"
                }
            ]
        },
        {
            "id": 4063,
            "verse_number": 5,
            "verse_key": "39:5",
            "hizb_number": 46,
            "rub_el_hizb_number": 183,
            "ruku_number": 398,
            "manzil_number": 6,
            "sajdah_number": null,
            "text_uthmani": "خَلَقَ ٱلسَّمَـٰوَٰتِ وَٱلْأَرْضَ بِٱلْحَقِّ ۖ يُكَوِّرُ ٱلَّيْلَ عَلَى ٱلنَّهَارِ وَيُكَوِّرُ ٱلنَّهَارَ عَلَى ٱلَّيْلِ ۖ وَسَخَّرَ ٱلشَّمْسَ وَٱلْقَمَرَ ۖ كُلٌّ يَجْرِى لِأَجَلٍ مُّسَمًّى ۗ أَلَا هُوَ ٱلْعَزِيزُ ٱلْغَفَّـٰرُ",
            "page_number": 458,
            "juz_number": 23,
            "translations": [
                {
                    "id": 99491,
                    "resource_id": 20,
                    "text": "He created the heavens and earth in truth. He wraps the night over the day and wraps the day over the night and has subjected the sun and the moon, each running [its course] for a specified term. Unquestionably, He is the Exalted in Might, the Perpetual Forgiver.<sup foot_note=197232>1</sup>"
                },
                {
                    "id": 217335,
                    "resource_id": 39,
                    "text": "Ia menciptakan langit dan bumi dengan ada faedah dan gunanya yang sebenar; Ia pula menjadikan malam melingkari siang (dengan gelapnya), dan menjadikan siang melingkari malam (dengan cahayanya); dan Ia menjadikan matahari dan bulan beredar menurut perintahnya, - tiap-tiap satu dari keduanya, beredar untuk suatu masa yang telah ditetapkan. Ingatlah! Dia lah Yang Maha Kuasa, lagi Yang sentiasa Mengampuni."
                },
                {
                    "id": 1095040,
                    "resource_id": 161,
                    "text": "তিনি আকাশ ও পৃথিবী সৃষ্টি করেছেন যথাযথভাবে। রাত দিনকে ঢেকে নেয়, আর দিন ঢেকে নেয় রাতকে। তিনিই নিয়ন্ত্রণ করেন সুরুজ আর চাঁদকে, প্রত্যেকেই চলছে নির্দিষ্ট সময় অনুসারে। জেনে রেখ, তিনি মহাপরাক্রমশালী, পরম ক্ষমাশীল (মহাশক্তিধর হওয়া সত্ত্বেও বার বার ক্ষমা করেন)।"
                }
            ]
        },
        {
            "id": 4064,
            "verse_number": 6,
            "verse_key": "39:6",
            "hizb_number": 46,
            "rub_el_hizb_number": 183,
            "ruku_number": 398,
            "manzil_number": 6,
            "sajdah_number": null,
            "text_uthmani": "خَلَقَكُم مِّن نَّفْسٍ وَٰحِدَةٍ ثُمَّ جَعَلَ مِنْهَا زَوْجَهَا وَأَنزَلَ لَكُم مِّنَ ٱلْأَنْعَـٰمِ ثَمَـٰنِيَةَ أَزْوَٰجٍ ۚ يَخْلُقُكُمْ فِى بُطُونِ أُمَّهَـٰتِكُمْ خَلْقًا مِّنۢ بَعْدِ خَلْقٍ فِى ظُلُمَـٰتٍ ثَلَـٰثٍ ۚ ذَٰلِكُمُ ٱللَّهُ رَبُّكُمْ لَهُ ٱلْمُلْكُ ۖ لَآ إِلَـٰهَ إِلَّا هُوَ ۖ فَأَنَّىٰ تُصْرَفُونَ",
            "page_number": 459,
            "juz_number": 23,
            "translations": [
                {
                    "id": 99503,
                    "resource_id": 20,
                    "text": "He created you from one soul. Then He made from it its mate, and He produced for you from the grazing livestock eight mates.<sup foot_note=197234>1</sup> He creates you in the wombs of your mothers, creation after creation, within three darknesses.<sup foot_note=197233>2</sup> That is Allāh, your Lord; to Him belongs dominion. There is no deity except Him, so how are you averted?"
                },
                {
                    "id": 217347,
                    "resource_id": 39,
                    "text": "Ia menciptakan kamu dari diri yang satu (Adam), kemudian Ia menjadikan daripadanya - isterinya (Hawa); dan Ia mengadakan untuk kamu binatang-binatang ternak delapan ekor: (empat) pasangan (jantan dan betina). Ia menciptakan kamu dalam kandungan ibu kamu (berperingkat-peringkat) dari satu kejadian ke satu kejadian. Dalam tiga suasana yang gelap-gelita. Yang demikian (kekuasaanNya) ialah Allah Tuhan kamu; bagiNyalah kekuasaan yang mutlak; tiada Tuhan melainkan Dia; oleh itu bagaimana kamu dapat dipesongkan (dari mematuhi perintahNya)?"
                },
                {
                    "id": 1095041,
                    "resource_id": 161,
                    "text": "তিনি তোমাদেরকে একই ব্যক্তি থেকে সৃষ্টি করেছেন। অতঃপর তার থেকে তিনি তার জুড়ি সৃষ্টি করেছেন। তিনি তোমাদের জন্য বানিয়েছেন আট গৃহপালিত পশু (চার) জোড়ায় জোড়ায়। তিনি তোমাদেরকে সৃষ্টি করেছেন তোমাদের মায়েদের গর্ভে, এক এক পর্যায়ে এক এক আকৃতি দিয়ে, তিন তিনটি অন্ধকার আবরণের মধ্যে। এই হল তোমাদের প্রতিপালক, সর্বময় কর্তৃত্ব তাঁরই, তিনি ছাড়া সত্যিকারের কোন ইলাহ নেই, কাজেই (ভুয়ো ক্ষমতার অধিকারী, দাম্ভিক ও স্বার্থান্বেষী মহল কর্তৃক) তোমাদেরকে কোন্ দিকে ফিরিয়ে নেয়া হচ্ছে?"
                }
            ]
        },
        {
            "id": 4065,
            "verse_number": 7,
            "verse_key": "39:7",
            "hizb_number": 46,
            "rub_el_hizb_number": 183,
            "ruku_number": 398,
            "manzil_number": 6,
            "sajdah_number": null,
            "text_uthmani": "إِن تَكْفُرُوا۟ فَإِنَّ ٱللَّهَ غَنِىٌّ عَنكُمْ ۖ وَلَا يَرْضَىٰ لِعِبَادِهِ ٱلْكُفْرَ ۖ وَإِن تَشْكُرُوا۟ يَرْضَهُ لَكُمْ ۗ وَلَا تَزِرُ وَازِرَةٌ وِزْرَ أُخْرَىٰ ۗ ثُمَّ إِلَىٰ رَبِّكُم مَّرْجِعُكُمْ فَيُنَبِّئُكُم بِمَا كُنتُمْ تَعْمَلُونَ ۚ إِنَّهُۥ عَلِيمٌۢ بِذَاتِ ٱلصُّدُورِ",
            "page_number": 459,
            "juz_number": 23,
            "translations": [
                {
                    "id": 99515,
                    "resource_id": 20,
                    "text": "If you disbelieve - indeed, Allāh is Free from need of you. And He does not approve for His servants disbelief. And if you are grateful, He approves [i.e., likes] it for you; and no bearer of burdens will bear the burden of another. Then to your Lord is your return, and He will inform you about what you used to do. Indeed, He is Knowing of that within the breasts."
                },
                {
                    "id": 217362,
                    "resource_id": 39,
                    "text": "Kalaulah kamu kufur ingkar (tidak bersyukur) akan nikmat-nikmatNya itu, maka ketahuilah bahawa sesungguhnya Allah tidak berhajatkan (iman dan kesyukuran) kamu (untuk kesempurnaanNya); dan Ia tidak redakan hamba-hambaNya berkeadaan kufur; dan jika kamu bersyukur, Ia meredainya menjadi sifat dan amalan kamu. Dan (ingatlah) seseorang yang memikul tidak akan memikul dosa perbuatan orang lain (bahkan dosa usahanya sahaja). Kemudian kepada Tuhan kamulah tempat kembalinya kamu, maka Ia akan memberitahu kepada kamu tentang apa yang kamu telah kerjakan. Sesungguhnya Ia Maha Mengetahui akan segala (isi hati) yang terkandung di dalam dada."
                },
                {
                    "id": 1095042,
                    "resource_id": 161,
                    "text": "তোমরা যদি কুফুরী কর তবে (জেনে রেখ), আল্লাহ তোমাদের মুখাপেক্ষী নন। তিনি তাঁর বান্দাহদের জন্য কুফুরী আচরণ পছন্দ করেন না, তোমরা যদি কৃতজ্ঞ হও, তবে তোমাদের জন্য তা তিনি পছন্দ করেন। একের (পাপের) বোঝা অন্যে বহন করবে না। শেষমেষ তোমাদেরকে তোমাদের পালনকর্তার কাছেই ফিরে যেতে হবে, তখন তিনি তোমাদেরকে জানিয়ে দেবেন তোমরা যা করছিলে। তিনি তো অন্তরের খবর পর্যন্ত জানেন।"
                }
            ]
        },
        {
            "id": 4066,
            "verse_number": 8,
            "verse_key": "39:8",
            "hizb_number": 46,
            "rub_el_hizb_number": 184,
            "ruku_number": 398,
            "manzil_number": 6,
            "sajdah_number": null,
            "text_uthmani": "۞ وَإِذَا مَسَّ ٱلْإِنسَـٰنَ ضُرٌّ دَعَا رَبَّهُۥ مُنِيبًا إِلَيْهِ ثُمَّ إِذَا خَوَّلَهُۥ نِعْمَةً مِّنْهُ نَسِىَ مَا كَانَ يَدْعُوٓا۟ إِلَيْهِ مِن قَبْلُ وَجَعَلَ لِلَّهِ أَندَادًا لِّيُضِلَّ عَن سَبِيلِهِۦ ۚ قُلْ تَمَتَّعْ بِكُفْرِكَ قَلِيلًا ۖ إِنَّكَ مِنْ أَصْحَـٰبِ ٱلنَّارِ",
            "page_number": 459,
            "juz_number": 23,
            "translations": [
                {
                    "id": 99523,
                    "resource_id": 20,
                    "text": "And when adversity touches man, he calls upon his Lord, turning to Him [alone]; then when He bestows on him a favor from Himself, he forgets Him whom he called upon before,<sup foot_note=197235>1</sup> and he attributes to Allāh equals to mislead [people] from His way. Say, \"Enjoy your disbelief for a little; indeed, you are of the companions of the Fire.\""
                },
                {
                    "id": 217381,
                    "resource_id": 39,
                    "text": "Dan apabila manusia disentuh oleh sesuatu bahaya, ia segera berdoa kepada Tuhannya dengan keadaan rujuk kembali bertaubat kepadaNya; kemudian apabila Allah memberikannya sesuatu nikmat (sebagai kurnia) daripadaNya, lupalah ia akan segala bahaya yang menyebabkannya merayu kepada Allah sebelum itu dan ia pula menjadikan sekutu-sekutu bagi Allah, untuk menyesatkan dirinya (dan orang lain) dari jalan Allah. Katakanlah (kepadanya): \"Bersenang-senanglah engkau dengan kekufuranmu itu bagi sementara, sesungguhnya engkau dari penduduk neraka."
                },
                {
                    "id": 1095043,
                    "resource_id": 161,
                    "text": "দুঃখ-মুসিবত যখন মানুষকে স্পর্শ করে তখন সে তার প্রতিপালককে ডাকতে থাকে তাঁর প্রতি বড়ই একনিষ্ঠ হয়ে। অতঃপর তিনি যখন নিজ পক্ষ থেকে অনুগ্রহ দিয়ে তাকে ধন্য করেন, তখন পূর্বে সে যেজন্য তাঁকে ডেকেছিল তা ভুলে যায় এবং অন্যদেরকে আল্লাহর সমকক্ষ দাঁড় করায় তাঁর পথ থেকে পথভ্রষ্ট করার জন্য। বলে দাও, কুফুরীর জীবন কিছুকাল ভোগ করে নাও, (অতঃপর) তুমি তো হবে জাহান্নামের অধিবাসী। (এ ব্যক্তি ভাল, না ঐ ব্যক্তি)"
                }
            ]
        },
        {
            "id": 4067,
            "verse_number": 9,
            "verse_key": "39:9",
            "hizb_number": 46,
            "rub_el_hizb_number": 184,
            "ruku_number": 398,
            "manzil_number": 6,
            "sajdah_number": null,
            "text_uthmani": "أَمَّنْ هُوَ قَـٰنِتٌ ءَانَآءَ ٱلَّيْلِ سَاجِدًا وَقَآئِمًا يَحْذَرُ ٱلْـَٔاخِرَةَ وَيَرْجُوا۟ رَحْمَةَ رَبِّهِۦ ۗ قُلْ هَلْ يَسْتَوِى ٱلَّذِينَ يَعْلَمُونَ وَٱلَّذِينَ لَا يَعْلَمُونَ ۗ إِنَّمَا يَتَذَكَّرُ أُو۟لُوا۟ ٱلْأَلْبَـٰبِ",
            "page_number": 459,
            "juz_number": 23,
            "translations": [
                {
                    "id": 99525,
                    "resource_id": 20,
                    "text": "Is one who is devoutly obedient during periods of the night, prostrating and standing [in prayer], fearing the Hereafter and hoping for the mercy of his Lord, [like one who does not]? Say, \"Are those who know equal to those who do not know?\" Only they will remember [who are] people of understanding."
                },
                {
                    "id": 217446,
                    "resource_id": 39,
                    "text": "\"(Engkaukah yang lebih baik) atau orang yang taat mengerjakan ibadat pada waktu malam dengan sujud dan berdiri sambil takutkan (azab) hari akhirat serta mengharapkan rahmat Tuhannya? \"Katakanlah lagi (kepadanya): \"Adakah sama orang-orang yang mengetahui dengan orang-orang yang tidak mengetahui?\" Sesungguhnya orang-orang yang dapat mengambil pelajaran dan peringatan hanyalah orang-orang yang berakal sempurna."
                },
                {
                    "id": 1095044,
                    "resource_id": 161,
                    "text": "যে রাত্রির বিভিন্ন প্রহরে সেজদা ও দন্ডায়মান অবস্থায় বিনয় ও শ্রদ্ধা-ভক্তি প্রকাশ করে, আখিরাতকে ভয় করে, আর তার প্রতিপালকের অনুগ্রহ প্রত্যাশা করে? বল- যারা জানে আর যারা জানে না, তারা কি সমান? বিবেক-বুদ্ধিসম্পন্ন লোকেরাই কেবল উপদেশ গ্রহণ করে থাকে।"
                }
            ]
        },
        {
            "id": 4068,
            "verse_number": 10,
            "verse_key": "39:10",
            "hizb_number": 46,
            "rub_el_hizb_number": 184,
            "ruku_number": 399,
            "manzil_number": 6,
            "sajdah_number": null,
            "text_uthmani": "قُلْ يَـٰعِبَادِ ٱلَّذِينَ ءَامَنُوا۟ ٱتَّقُوا۟ رَبَّكُمْ ۚ لِلَّذِينَ أَحْسَنُوا۟ فِى هَـٰذِهِ ٱلدُّنْيَا حَسَنَةٌ ۗ وَأَرْضُ ٱللَّهِ وَٰسِعَةٌ ۗ إِنَّمَا يُوَفَّى ٱلصَّـٰبِرُونَ أَجْرَهُم بِغَيْرِ حِسَابٍ",
            "page_number": 459,
            "juz_number": 23,
            "translations": [
                {
                    "id": 99442,
                    "resource_id": 20,
                    "text": "Say,<sup foot_note=197236>1</sup> \"O My servants who have believed, fear your Lord. For those who do good in this world is good, and the earth of Allāh is spacious. Indeed, the patient will be given their reward without account [i.e., limit].\""
                },
                {
                    "id": 217285,
                    "resource_id": 39,
                    "text": "Katakanlah (wahai Muhammad, akan firmanKu ini, kepada orang-orang yang berakal sempurna itu): \"Wahai hamba-hambaKu yang beriman! Bertaqwalah kepada Tuhan kamu. (Ingatlah) orang-orang yang berbuat baik di dunia ini akan beroleh kebaikan (yang sebenar di akhirat). dan (ingatlah) bumi Allah ini luas (untuk berhijrah sekiranya kamu ditindas). Sesungguhnya orang-orang yang bersabarlah sahaja yang akan disempurnakan pahala mereka dengan tidak terkira\"."
                },
                {
                    "id": 1095045,
                    "resource_id": 161,
                    "text": "বল, হে ঈমানদারগণ! তোমরা তোমাদের প্রতিপালককে ভয় কর। এ দুনিয়ায় যারা ভাল কাজ করবে, তাদের জন্য আছে কল্যাণ। আল্লাহর যমীন প্রশস্ত (এক এলাকায় ‘ইবাদাত-বন্দেগী করা কঠিন হলে অন্যত্র চলে যাও)। আমি ধৈর্যশীলদেরকে তাদের পুরস্কার অপরিমিতভাবে দিয়ে থাকি।"
                }
            ]
        }
    ],
    "pagination": {
        "per_page": 10,
        "current_page": 1,
        "next_page": 2,
        "total_pages": 8,
        "total_records": 75
    }
}