{
    "verses": [
        {
            "id": 494,
            "verse_number": 1,
            "verse_key": "4:1",
            "hizb_number": 8,
            "rub_el_hizb_number": 31,
            "ruku_number": 62,
            "manzil_number": 1,
            "sajdah_number": null,
            "text_uthmani": " يَـٰٓأَيُّهَا ٱلنَّاسُ ٱتَّقُوا۟ رَبَّكُمُ ٱلَّذِى خَلَقَكُم مِّن نَّفْسٍ وَٰحِدَةٍ وَخَلَقَ مِنْهَا زَوْجَهَا وَبَثَّ مِنْهُمَا رِجَالًا كَثِيرًا وَنِسَآءً ۚ وَٱتَّقُوا۟ ٱللَّهَ ٱلَّذِى تَسَآءَلُونَ بِهِۦ وَٱلْأَرْحَامَ ۚ إِنَّ ٱللَّهَ كَانَ عَلَيْكُمْ رَقِيبًا",
            "page_number": 77,
            "juz_number": 4,
            "translations": [
                {
                    "id": 99615,
                    "resource_id": 20,
                    "text": "O mankind, fear your Lord, who created you from one soul and created from it its mate and dispersed from both of them many men and women. And fear Allāh, through whom<sup foot_note=196086>1</sup> you ask one another,<sup foot_note=196085>2</sup> and the wombs.<sup foot_note=196084>3</sup> Indeed Allāh is ever,<sup foot_note=196083>4</sup> over you, an Observer.<sup foot_note=196082>5</sup>"
                },
                {
                    "id": 217466,
                    "resource_id": 39,
                    "text": "Wahai sekalian manusia! Bertaqwalah kepada Tuhan kamu yang telah menjadikan kamu (bermula) dari diri yang satu (Adam), dan yang menjadikan daripada (Adam) itu pasangannya (isterinya - Hawa), dan juga yang membiakkan dari keduanya - zuriat keturunan - lelaki dan perempuan yang ramai. Dan bertaqwalah kepada Allah yang kamu selalu meminta dengan menyebut-yebut namaNya, serta peliharalah hubungan (silaturrahim) kaum kerabat; kerana sesungguhnya Allah sentiasa memerhati (mengawas) kamu."
                },
                {
                    "id": 1091471,
                    "resource_id": 161,
                    "text": "হে মনুষ্য সমাজ! তোমরা তোমাদের প্রতিপালককে ভয় কর, যিনি তোমাদেরকে একটি মাত্র ব্যক্তি হতে পয়দা করেছেন এবং তা হতে তার জোড়া সৃষ্টি করেছেন, অতঃপর সেই দু’জন হতে বহু নর-নারী ছড়িয়ে দিয়েছেন এবং তোমরা আল্লাহকে ভয় কর, যাঁর নামে তোমরা পরস্পর পরস্পরের নিকট (হাক্ব) চেয়ে থাক এবং সতর্ক থাক জ্ঞাতি-বন্ধন সম্পর্কে, নিশ্চয়ই আল্লাহ তোমাদের উপর তীক্ষ্ণ দৃষ্টি রাখেন।"
                }
            ]
        },
        {
            "id": 495,
            "verse_number": 2,
            "verse_key": "4:2",
            "hizb_number": 8,
            "rub_el_hizb_number": 31,
            "ruku_number": 62,
            "manzil_number": 1,
            "sajdah_number": null,
            "text_uthmani": "وَءَاتُوا۟ ٱلْيَتَـٰمَىٰٓ أَمْوَٰلَهُمْ ۖ وَلَا تَتَبَدَّلُوا۟ ٱلْخَبِيثَ بِٱلطَّيِّبِ ۖ وَلَا تَأْكُلُوٓا۟ أَمْوَٰلَهُمْ إِلَىٰٓ أَمْوَٰلِكُمْ ۚ إِنَّهُۥ كَانَ حُوبًا كَبِيرًا",
            "page_number": 77,
            "juz_number": 4,
            "translations": [
                {
                    "id": 99757,
                    "resource_id": 20,
                    "text": "And give to the orphans their properties and do not substitute the defective [of your own] for the good [of theirs]. And do not consume their properties into your own. Indeed, that is ever a great sin."
                },
                {
                    "id": 217614,
                    "resource_id": 39,
                    "text": "Dan berikanlah kepada anak-anak yatim (yang telah baligh) itu harta mereka, dan janganlah kamu tukar-gantikan yang baik dengan yang buruk; dan janganlah kamu makan harta mereka (dengan menghimpunkannya) dengan harta kamu; kerana sesungguhnya (yang demikian) itu adalah dosa yang besar."
                },
                {
                    "id": 1091472,
                    "resource_id": 161,
                    "text": "এবং ইয়াতীমদেরকে তাদের ধন-সম্পদ প্রদান কর এবং ভালোর সাথে মন্দের বদল করো না এবং তাদের মাল নিজেদের মালের সঙ্গে মিশিয়ে গ্রাস করো না, নিশ্চয় এটা মহাপাপ।"
                }
            ]
        },
        {
            "id": 496,
            "verse_number": 3,
            "verse_key": "4:3",
            "hizb_number": 8,
            "rub_el_hizb_number": 31,
            "ruku_number": 62,
            "manzil_number": 1,
            "sajdah_number": null,
            "text_uthmani": "وَإِنْ خِفْتُمْ أَلَّا تُقْسِطُوا۟ فِى ٱلْيَتَـٰمَىٰ فَٱنكِحُوا۟ مَا طَابَ لَكُم مِّنَ ٱلنِّسَآءِ مَثْنَىٰ وَثُلَـٰثَ وَرُبَـٰعَ ۖ فَإِنْ خِفْتُمْ أَلَّا تَعْدِلُوا۟ فَوَٰحِدَةً أَوْ مَا مَلَكَتْ أَيْمَـٰنُكُمْ ۚ ذَٰلِكَ أَدْنَىٰٓ أَلَّا تَعُولُوا۟",
            "page_number": 77,
            "juz_number": 4,
            "translations": [
                {
                    "id": 99821,
                    "resource_id": 20,
                    "text": "And if you fear that you will not deal justly with the orphan girls, then marry those that please you of [other] women, two or three or four. But if you fear that you will not be just, then [marry only] one or those your right hands possess [i.e., slaves]. That is more suitable that you may not incline [to injustice]."
                },
                {
                    "id": 217669,
                    "resource_id": 39,
                    "text": "Dan jika kamu takut tidak berlaku adil terhadap perempuan-perempuan yatim (apabila kamu berkahwin dengan mereka), maka berkahwinlah dengan sesiapa yang kamu berkenan dari perempuan-perempuan (lain): dua, tiga atau empat. Kemudian jika kamu bimbang tidak akan berlaku adil (di antara isteri-isteri kamu) maka (berkahwinlah dengan) seorang sahaja, atau (pakailah) hamba-hamba perempuan yang kamu miliki. Yang demikian itu adalah lebih dekat (untuk mencegah) supaya kamu tidak melakukan kezaliman."
                },
                {
                    "id": 1091473,
                    "resource_id": 161,
                    "text": "যদি তোমরা আশঙ্কা কর যে, (নারী) ইয়াতীমদের প্রতি সুবিচার করতে পারবে না, তবে নারীদের মধ্য হতে নিজেদের পছন্দমত দুই-দুই, তিন-তিন ও চার-চার জনকে বিবাহ কর, কিন্তু যদি তোমরা আশঙ্কা কর যে, তোমরা সুবিচার করতে পারবে না, তাহলে একজনকে কিংবা তোমাদের অধীনস্থ দাসীকে; এটাই হবে অবিচার না করার কাছাকাছি।"
                }
            ]
        },
        {
            "id": 497,
            "verse_number": 4,
            "verse_key": "4:4",
            "hizb_number": 8,
            "rub_el_hizb_number": 31,
            "ruku_number": 62,
            "manzil_number": 1,
            "sajdah_number": null,
            "text_uthmani": "وَءَاتُوا۟ ٱلنِّسَآءَ صَدُقَـٰتِهِنَّ نِحْلَةً ۚ فَإِن طِبْنَ لَكُمْ عَن شَىْءٍ مِّنْهُ نَفْسًا فَكُلُوهُ هَنِيٓـًٔا مَّرِيٓـًٔا",
            "page_number": 77,
            "juz_number": 4,
            "translations": [
                {
                    "id": 99922,
                    "resource_id": 20,
                    "text": "And give the women [upon marriage] their [bridal] gifts<sup foot_note=196088>1</sup> graciously. But if they give up willingly to you anything of it, then take it in satisfaction and ease.<sup foot_note=196087>2</sup>"
                },
                {
                    "id": 217759,
                    "resource_id": 39,
                    "text": "Dan berikanlah kepada perempuan-perempuan itu maskahwin-maskahwin mereka sebagai pemberian yang wajib. Kemudian jika mereka dengan suka hatinya memberikan kepada kamu sebahagian dari maskahwinnya maka makanlah (gunakanlah) pemberian (yang halal) itu sebagai nikmat yang lazat, lagi baik kesudahannya."
                },
                {
                    "id": 1091474,
                    "resource_id": 161,
                    "text": "নারীদেরকে তাদের মোহর স্বতঃস্ফূর্ত হয়ে দেবে, অতঃপর তারা যদি সন্তোষের সঙ্গে তাথেকে তোমাদের জন্য কিছু ছেড়ে দেয়, তবে তা তৃপ্তির সঙ্গে ভোগ কর।"
                }
            ]
        },
        {
            "id": 498,
            "verse_number": 5,
            "verse_key": "4:5",
            "hizb_number": 8,
            "rub_el_hizb_number": 31,
            "ruku_number": 62,
            "manzil_number": 1,
            "sajdah_number": null,
            "text_uthmani": "وَلَا تُؤْتُوا۟ ٱلسُّفَهَآءَ أَمْوَٰلَكُمُ ٱلَّتِى جَعَلَ ٱللَّهُ لَكُمْ قِيَـٰمًا وَٱرْزُقُوهُمْ فِيهَا وَٱكْسُوهُمْ وَقُولُوا۟ لَهُمْ قَوْلًا مَّعْرُوفًا",
            "page_number": 77,
            "juz_number": 4,
            "translations": [
                {
                    "id": 99985,
                    "resource_id": 20,
                    "text": "And do not give the weak-minded your property,<sup foot_note=196089>1</sup> which Allāh has made a means of sustenance for you, but provide for them with it and clothe them and speak to them words of appropriate kindness."
                },
                {
                    "id": 217823,
                    "resource_id": 39,
                    "text": "Dan janganlah kamu berikan (serahkan) kepada orang-orang yang belum sempurna akalnya akan harta (mereka yang ada dalam jagaan) kamu, (harta) yang Allah telah menjadikannya untuk kamu semua sebagai asas pembangunan kehidupan kamu; dan berilah mereka belanja dan pakaian dari pendapatan hartanya (yang kamu niagakan), dan juga berkatalah kepada mereka dengan kata-kata yang baik."
                },
                {
                    "id": 1091475,
                    "resource_id": 161,
                    "text": "এবং তোমরা অল্প-বুদ্ধিসম্পন্নদেরকে নিজেদের মাল প্রদান করো না, যা আল্লাহ তোমাদের জীবনে প্রতিষ্ঠিত থাকার উপকরণ করেছেন এবং সে মাল হতে তাদের অন্ন-বস্ত্রের ব্যবস্থা করবে এবং তাদের সঙ্গে দয়ার্দ্র ন্যায়ানুগ কথা বলবে।"
                }
            ]
        },
        {
            "id": 499,
            "verse_number": 6,
            "verse_key": "4:6",
            "hizb_number": 8,
            "rub_el_hizb_number": 31,
            "ruku_number": 62,
            "manzil_number": 1,
            "sajdah_number": null,
            "text_uthmani": "وَٱبْتَلُوا۟ ٱلْيَتَـٰمَىٰ حَتَّىٰٓ إِذَا بَلَغُوا۟ ٱلنِّكَاحَ فَإِنْ ءَانَسْتُم مِّنْهُمْ رُشْدًا فَٱدْفَعُوٓا۟ إِلَيْهِمْ أَمْوَٰلَهُمْ ۖ وَلَا تَأْكُلُوهَآ إِسْرَافًا وَبِدَارًا أَن يَكْبَرُوا۟ ۚ وَمَن كَانَ غَنِيًّا فَلْيَسْتَعْفِفْ ۖ وَمَن كَانَ فَقِيرًا فَلْيَأْكُلْ بِٱلْمَعْرُوفِ ۚ فَإِذَا دَفَعْتُمْ إِلَيْهِمْ أَمْوَٰلَهُمْ فَأَشْهِدُوا۟ عَلَيْهِمْ ۚ وَكَفَىٰ بِٱللَّهِ حَسِيبًا",
            "page_number": 77,
            "juz_number": 4,
            "translations": [
                {
                    "id": 100037,
                    "resource_id": 20,
                    "text": "And test the orphans [in their abilities] until they reach marriageable age. Then if you perceive in them sound judgement, release their property to them. And do not consume it excessively and quickly, [anticipating] that they will grow up. And whoever, [when acting as guardian], is self-sufficient should refrain [from taking a fee]; and whoever is poor - let him take according to what is acceptable. Then when you release their property to them, bring witnesses upon them. And sufficient is Allāh as Accountant."
                },
                {
                    "id": 217873,
                    "resource_id": 39,
                    "text": "Dan ujilah anak-anak yatim itu (sebelum baligh) sehingga mereka cukup umur (dewasa). Kemudian jika kamu nampak dari keadaan mereka (tanda-tanda yang menunjukkan bahawa mereka) telah cerdik dan berkebolehan menjaga hartanya, maka serahkanlah kepada mereka hartanya; dan janganlah kamu makan harta anak-anak yatim itu secara yang melampaui batas dan secara terburu-buru (merebut peluang) sebelum mereka dewasa. Dan sesiapa (di antara penjaga harta anak-anak yatim itu) yang kaya maka hendaklah ia menahan diri (dari memakannya); dan sesiapa yang miskin maka bolehlah ia memakannya dengan cara yang sepatutnya. Kemudian apabila kamu menyerahkan kepada mereka hartanya, maka hendaklah kamu adakan saksi-saksi (yang menyaksikan penerimaan) mereka. Dan cukuplah Allah sebagai Pengawas (akan segala yang kamu lakukan)."
                },
                {
                    "id": 1091476,
                    "resource_id": 161,
                    "text": "ইয়াতীমদেরকে পরখ কর যে পর্যন্ত না তারা বিবাহযোগ্য হয়, যদি তাদের মধ্যে বিচারবোধ লক্ষ্য কর, তবে তাদেরকে তাদের মাল ফিরিয়ে দেবে। তাদের বয়ঃপ্রাপ্তির ভয়ে অপব্যয় করে এবং তাড়াতাড়ি করে তাদের মাল খেয়ে ফেলো না। আর যে অভাবমুক্ত, সে যেন নিবৃত্ত থাকে এবং যে অভাবগ্রস্ত সে ন্যায়সঙ্গতভাবে ভোগ করবে এবং যখন তাদের মাল তাদেরকে সমর্পণ করবে, তাদের সামনে সাক্ষী রাখবে; হিসাব গ্রহণে আল্লাহই যথেষ্ট।"
                }
            ]
        },
        {
            "id": 500,
            "verse_number": 7,
            "verse_key": "4:7",
            "hizb_number": 8,
            "rub_el_hizb_number": 31,
            "ruku_number": 62,
            "manzil_number": 1,
            "sajdah_number": null,
            "text_uthmani": "لِّلرِّجَالِ نَصِيبٌ مِّمَّا تَرَكَ ٱلْوَٰلِدَانِ وَٱلْأَقْرَبُونَ وَلِلنِّسَآءِ نَصِيبٌ مِّمَّا تَرَكَ ٱلْوَٰلِدَانِ وَٱلْأَقْرَبُونَ مِمَّا قَلَّ مِنْهُ أَوْ كَثُرَ ۚ نَصِيبًا مَّفْرُوضًا",
            "page_number": 78,
            "juz_number": 4,
            "translations": [
                {
                    "id": 100082,
                    "resource_id": 20,
                    "text": "For men is a share of what the parents and close relatives leave, and for women is a share of what the parents and close relatives leave, be it little or much - an obligatory share."
                },
                {
                    "id": 214844,
                    "resource_id": 39,
                    "text": "Orang-orang lelaki ada bahagian pusaka dari peninggalan ibu bapa dan kerabat, dan orang-orang perempuan pula ada bahagian pusaka dari peninggalan ibu bapa dan kerabat, sama ada sedikit atau banyak dari harta yang ditinggalkan itu; iaitu bahagian yang telah diwajibkan (dan ditentukan oleh Allah)."
                },
                {
                    "id": 1091477,
                    "resource_id": 161,
                    "text": "মাতা-পিতা এবং আত্মীয়দের রেখে যাওয়া সম্পত্তিতে পুরুষদের অংশ রয়েছে; আর মাতা-পিতা এবং আত্মীয়দের রেখে যাওয়া সম্পত্তিতে নারীদেরও অংশ আছে, তা অল্পই হোক আর বেশিই হোক, এক নির্ধারিত অংশ।"
                }
            ]
        },
        {
            "id": 501,
            "verse_number": 8,
            "verse_key": "4:8",
            "hizb_number": 8,
            "rub_el_hizb_number": 31,
            "ruku_number": 62,
            "manzil_number": 1,
            "sajdah_number": null,
            "text_uthmani": "وَإِذَا حَضَرَ ٱلْقِسْمَةَ أُو۟لُوا۟ ٱلْقُرْبَىٰ وَٱلْيَتَـٰمَىٰ وَٱلْمَسَـٰكِينُ فَٱرْزُقُوهُم مِّنْهُ وَقُولُوا۟ لَهُمْ قَوْلًا مَّعْرُوفًا",
            "page_number": 78,
            "juz_number": 4,
            "translations": [
                {
                    "id": 100131,
                    "resource_id": 20,
                    "text": "And when [other] relatives and orphans and the needy are present at the [time of] division, then provide for them [something] out of it [i.e., the estate] and speak to them words of appropriate kindness."
                },
                {
                    "id": 217985,
                    "resource_id": 39,
                    "text": "Dan apabila kerabat (yang tidak berhak mendapat pusaka), dan anak-anak yatim serta orang-orang miskin hadir ketika pembahagian (harta pusaka) itu, maka berikanlah kepada mereka sedikit daripadanya, dan berkatalah kepada mereka dengan kata-kata yang baik."
                },
                {
                    "id": 1091478,
                    "resource_id": 161,
                    "text": "(সম্পত্তি) বণ্টনকালে স্বজন, ইয়াতীম এবং মিসকীন উপস্থিত থাকলে তাদেরকেও তাত্থেকে কিছু দিয়ে দেবে, তাদের সঙ্গে দয়ার্দ্র ন্যায়ানুগ কথা বলবে।"
                }
            ]
        },
        {
            "id": 502,
            "verse_number": 9,
            "verse_key": "4:9",
            "hizb_number": 8,
            "rub_el_hizb_number": 31,
            "ruku_number": 62,
            "manzil_number": 1,
            "sajdah_number": null,
            "text_uthmani": "وَلْيَخْشَ ٱلَّذِينَ لَوْ تَرَكُوا۟ مِنْ خَلْفِهِمْ ذُرِّيَّةً ضِعَـٰفًا خَافُوا۟ عَلَيْهِمْ فَلْيَتَّقُوا۟ ٱللَّهَ وَلْيَقُولُوا۟ قَوْلًا سَدِيدًا",
            "page_number": 78,
            "juz_number": 4,
            "translations": [
                {
                    "id": 100175,
                    "resource_id": 20,
                    "text": "And let those [executors and guardians] fear [injustice] as if they [themselves] had left weak offspring behind and feared for them. So let them fear Allāh and speak words of appropriate justice."
                },
                {
                    "id": 218029,
                    "resource_id": 39,
                    "text": "Dan hendaklah takut (kepada Allah daripada melakukan aniaya kepada anak-anak yatim oleh) orang-orang (yang menjadi penjaganya), yang jika ditakdirkan mereka pula meninggalkan anak-anak yang daif (yatim) di belakang mereka, (tentulah) mereka akan merasa bimbang terhadap (masa depan dan keselamatan) anak-anak mereka; oleh itu hendaklah mereka bertaqwa kepada Allah, dan hendaklah mereka mengatakan perkataan yang betul (menepati kebenaran)."
                },
                {
                    "id": 1091479,
                    "resource_id": 161,
                    "text": "তারা যেন ভয় করে যে, অসহায় সন্তান পেছনে ছেড়ে গেলে তারাও তাদের জন্য চিন্তিত হত, সুতরাং তারা যেন আল্লাহকে ভয় করে এবং সঙ্গত কথা বলে।"
                }
            ]
        },
        {
            "id": 503,
            "verse_number": 10,
            "verse_key": "4:10",
            "hizb_number": 8,
            "rub_el_hizb_number": 31,
            "ruku_number": 62,
            "manzil_number": 1,
            "sajdah_number": null,
            "text_uthmani": "إِنَّ ٱلَّذِينَ يَأْكُلُونَ أَمْوَٰلَ ٱلْيَتَـٰمَىٰ ظُلْمًا إِنَّمَا يَأْكُلُونَ فِى بُطُونِهِمْ نَارًا ۖ وَسَيَصْلَوْنَ سَعِيرًا",
            "page_number": 78,
            "juz_number": 4,
            "translations": [
                {
                    "id": 99616,
                    "resource_id": 20,
                    "text": "Indeed, those who devour the property of orphans unjustly are only consuming into their bellies fire. And they will be burned in a Blaze [i.e., Hellfire]."
                },
                {
                    "id": 217469,
                    "resource_id": 39,
                    "text": "Sesungguhnya orang-orang yang memakan harta anak-anak yatim secara zalim, sebenarnya mereka itu hanyalah menelan api ke dalam perut mereka; dan mereka pula akan masuk ke dalam api neraka yang menyala-nyala."
                },
                {
                    "id": 1091480,
                    "resource_id": 161,
                    "text": "যারা ইয়াতীমদের মাল অন্যায়ভাবে গ্রাস করে, তারা তো নিজেদের পেটে কেবল অগ্নিই ভক্ষণ করে, তারা শীঘ্রই জ্বলন্ত আগুনে জ্বলবে।"
                }
            ]
        }
    ],
    "pagination": {
        "per_page": 10,
        "current_page": 1,
        "next_page": 2,
        "total_pages": 18,
        "total_records": 176
    }
}