{
    "verses": [
        {
            "id": 4474,
            "verse_number": 1,
            "verse_key": "45:1",
            "hizb_number": 50,
            "rub_el_hizb_number": 199,
            "ruku_number": 436,
            "manzil_number": 6,
            "sajdah_number": null,
            "text_uthmani": " حمٓ",
            "page_number": 499,
            "juz_number": 25,
            "translations": [
                {
                    "id": 99988,
                    "resource_id": 20,
                    "text": "Ḥā, Meem.<sup foot_note=197353>1</sup>"
                },
                {
                    "id": 214999,
                    "resource_id": 39,
                    "text": "Haa, Miim."
                },
                {
                    "id": 1095451,
                    "resource_id": 161,
                    "text": "হা-মীম।"
                }
            ]
        },
        {
            "id": 4475,
            "verse_number": 2,
            "verse_key": "45:2",
            "hizb_number": 50,
            "rub_el_hizb_number": 199,
            "ruku_number": 436,
            "manzil_number": 6,
            "sajdah_number": null,
            "text_uthmani": "تَنزِيلُ ٱلْكِتَـٰبِ مِنَ ٱللَّهِ ٱلْعَزِيزِ ٱلْحَكِيمِ",
            "page_number": 499,
            "juz_number": 25,
            "translations": [
                {
                    "id": 100002,
                    "resource_id": 20,
                    "text": "The revelation of the Book is from Allāh, the Exalted in Might, the Wise."
                },
                {
                    "id": 217841,
                    "resource_id": 39,
                    "text": "Turunnya Al-Quran ini, dari Allah Yang Maha Kuasa, lagi Maha Bijaksana."
                },
                {
                    "id": 1095452,
                    "resource_id": 161,
                    "text": "এ কিতাব অবতীর্ণ হয়েছে মহা পরাক্রমশালী প্রজ্ঞাময় আল্লাহর নিকট হতে।"
                }
            ]
        },
        {
            "id": 4476,
            "verse_number": 3,
            "verse_key": "45:3",
            "hizb_number": 50,
            "rub_el_hizb_number": 199,
            "ruku_number": 436,
            "manzil_number": 6,
            "sajdah_number": null,
            "text_uthmani": "إِنَّ فِى ٱلسَّمَـٰوَٰتِ وَٱلْأَرْضِ لَـَٔايَـٰتٍ لِّلْمُؤْمِنِينَ",
            "page_number": 499,
            "juz_number": 25,
            "translations": [
                {
                    "id": 100014,
                    "resource_id": 20,
                    "text": "Indeed, within the heavens and earth are signs for the believers."
                },
                {
                    "id": 217849,
                    "resource_id": 39,
                    "text": "Sesungguhnya pada langit dan bumi terdapat tanda-tanda (yang membuktikan kekuasaan Allah) bagi orang-orang yang beriman."
                },
                {
                    "id": 1095453,
                    "resource_id": 161,
                    "text": "আকাশে এবং যমীনে মু’মিনদের (শিক্ষার) জন্য অবশ্যই নিদর্শন আছে।"
                }
            ]
        },
        {
            "id": 4477,
            "verse_number": 4,
            "verse_key": "45:4",
            "hizb_number": 50,
            "rub_el_hizb_number": 199,
            "ruku_number": 436,
            "manzil_number": 6,
            "sajdah_number": null,
            "text_uthmani": "وَفِى خَلْقِكُمْ وَمَا يَبُثُّ مِن دَآبَّةٍ ءَايَـٰتٌ لِّقَوْمٍ يُوقِنُونَ",
            "page_number": 499,
            "juz_number": 25,
            "translations": [
                {
                    "id": 100024,
                    "resource_id": 20,
                    "text": "And in the creation of yourselves and what He disperses of moving creatures are signs for people who are certain [in faith]."
                },
                {
                    "id": 217859,
                    "resource_id": 39,
                    "text": "Dan pada kejadian diri kamu sendiri, serta (pada kejadian) segala binatang yang dibiakkanNya, terdapat juga tanda-tanda (yang membuktikan kekuasaan Allah) bagi orang-orang yang meyakininya."
                },
                {
                    "id": 1095454,
                    "resource_id": 161,
                    "text": "তোমাদের সৃষ্টিতে, আর প্রাণীকুল ছড়িয়ে দেয়ার মাঝে নিদর্শন আছে নিশ্চিত বিশ্বাসীদের জন্য।"
                }
            ]
        },
        {
            "id": 4478,
            "verse_number": 5,
            "verse_key": "45:5",
            "hizb_number": 50,
            "rub_el_hizb_number": 199,
            "ruku_number": 436,
            "manzil_number": 6,
            "sajdah_number": null,
            "text_uthmani": "وَٱخْتِلَـٰفِ ٱلَّيْلِ وَٱلنَّهَارِ وَمَآ أَنزَلَ ٱللَّهُ مِنَ ٱلسَّمَآءِ مِن رِّزْقٍ فَأَحْيَا بِهِ ٱلْأَرْضَ بَعْدَ مَوْتِهَا وَتَصْرِيفِ ٱلرِّيَـٰحِ ءَايَـٰتٌ لِّقَوْمٍ يَعْقِلُونَ",
            "page_number": 499,
            "juz_number": 25,
            "translations": [
                {
                    "id": 100026,
                    "resource_id": 20,
                    "text": "And [in] the alternation of night and day and [in] what Allāh sends down from the sky of provision [i.e., rain] and gives life thereby to the earth after its lifelessness and [in His] directing of the winds are signs for a people who reason."
                },
                {
                    "id": 217861,
                    "resource_id": 39,
                    "text": "Dan (pada) pertukaran malam dan siang silih berganti, dan juga (pada) rezeki yang diturunkan oleh Allah dari langit, lalu Ia hidupkan dengannya tumbuh-tumbuhan di bumi sesudah matinya, serta (pada) peredaran angin, (semuanya itu mengandungi) tanda-tanda (yang membuktikan keesaan Allah, kekuasaanNya, kebijaksanaanNya, serta keluasan rahmatNya) bagi kaum yang mahu menggunakan akal fikiran."
                },
                {
                    "id": 1095455,
                    "resource_id": 161,
                    "text": "রাত ও দিনের আবর্তনে, আর আল্লাহ আকাশ থেকে যে বৃষ্টি বর্ষণ করেন তা দিয়ে যমীনকে তার মৃত্যুর পর আবার জীবিত করেন আর বায়ুর পরিবর্তনে জ্ঞানী সম্প্রদায়ের জন্য নিদর্শন রয়েছে।"
                }
            ]
        },
        {
            "id": 4479,
            "verse_number": 6,
            "verse_key": "45:6",
            "hizb_number": 50,
            "rub_el_hizb_number": 199,
            "ruku_number": 436,
            "manzil_number": 6,
            "sajdah_number": null,
            "text_uthmani": "تِلْكَ ءَايَـٰتُ ٱللَّهِ نَتْلُوهَا عَلَيْكَ بِٱلْحَقِّ ۖ فَبِأَىِّ حَدِيثٍۭ بَعْدَ ٱللَّهِ وَءَايَـٰتِهِۦ يُؤْمِنُونَ",
            "page_number": 499,
            "juz_number": 25,
            "translations": [
                {
                    "id": 100028,
                    "resource_id": 20,
                    "text": "These are the verses of Allāh which We recite to you in truth. Then in what statement after Allāh and His verses will they believe?"
                },
                {
                    "id": 217863,
                    "resource_id": 39,
                    "text": "Itulah ayat-ayat penerangan Allah yang kami bacakan kepadamu (wahai Muhammad) kerana menegakkan kebenaran; maka dengan perkataan yang manakah lagi mereka hendak beriman, sesudah penerangan Allah dan tanda-tanda kekuasaanNya (mereka tidak mahu memahami dan menelitinya)?"
                },
                {
                    "id": 1095456,
                    "resource_id": 161,
                    "text": "এগুলো হল আল্লাহর আয়াত যা সত্যতা সহকারে তোমার কাছে তিলাওয়াত করা হচ্ছে। কাজেই তারা আল্লাহ এবং তাঁর আয়াতের (উপর বিশ্বাস না করলে এর) পর আর কোন্ কথায় বিশ্বাস করবে?"
                }
            ]
        },
        {
            "id": 4480,
            "verse_number": 7,
            "verse_key": "45:7",
            "hizb_number": 50,
            "rub_el_hizb_number": 199,
            "ruku_number": 436,
            "manzil_number": 6,
            "sajdah_number": null,
            "text_uthmani": "وَيْلٌ لِّكُلِّ أَفَّاكٍ أَثِيمٍ",
            "page_number": 499,
            "juz_number": 25,
            "translations": [
                {
                    "id": 100030,
                    "resource_id": 20,
                    "text": "Woe to every sinful liar"
                },
                {
                    "id": 217874,
                    "resource_id": 39,
                    "text": "Kecelakaanlah bagi tiap-tiap pendusta yang berdosa, -"
                },
                {
                    "id": 1095457,
                    "resource_id": 161,
                    "text": "ধ্বংস প্রত্যেক মিথ্যাবাদী পাপাচারীর জন্য"
                }
            ]
        },
        {
            "id": 4481,
            "verse_number": 8,
            "verse_key": "45:8",
            "hizb_number": 50,
            "rub_el_hizb_number": 199,
            "ruku_number": 436,
            "manzil_number": 6,
            "sajdah_number": null,
            "text_uthmani": "يَسْمَعُ ءَايَـٰتِ ٱللَّهِ تُتْلَىٰ عَلَيْهِ ثُمَّ يُصِرُّ مُسْتَكْبِرًا كَأَن لَّمْ يَسْمَعْهَا ۖ فَبَشِّرْهُ بِعَذَابٍ أَلِيمٍ",
            "page_number": 499,
            "juz_number": 25,
            "translations": [
                {
                    "id": 100032,
                    "resource_id": 20,
                    "text": "Who hears the verses of Allāh recited to him, then persists arrogantly as if he had not heard them. So give him tidings of a painful punishment."
                },
                {
                    "id": 217866,
                    "resource_id": 39,
                    "text": "Yang mendengar ayat-ayat penerangan Allah sentiasa dibacakan kepadanya, kemudian dia terus berlagak sombong (enggan menerimanya), seolah-olah ia tidak mendengarnya; oleh itu gembirakanlah dia dengan azab seksa yang tidak terperi sakitnya."
                },
                {
                    "id": 1095458,
                    "resource_id": 161,
                    "text": "যে আল্লাহর আয়াত শোনে যা তার সামনে পাঠ করা হয়, অতঃপর অহমিকার সাথে (কুফুরীর উপর) থাকে যেন সে তা শোনেইনি; কাজেই তাকে ভয়াবহ শাস্তির সংবাদ দাও।"
                }
            ]
        },
        {
            "id": 4482,
            "verse_number": 9,
            "verse_key": "45:9",
            "hizb_number": 50,
            "rub_el_hizb_number": 199,
            "ruku_number": 436,
            "manzil_number": 6,
            "sajdah_number": null,
            "text_uthmani": "وَإِذَا عَلِمَ مِنْ ءَايَـٰتِنَا شَيْـًٔا ٱتَّخَذَهَا هُزُوًا ۚ أُو۟لَـٰٓئِكَ لَهُمْ عَذَابٌ مُّهِينٌ",
            "page_number": 499,
            "juz_number": 25,
            "translations": [
                {
                    "id": 100036,
                    "resource_id": 20,
                    "text": "And when he knows anything of Our verses, he takes them in ridicule. Those will have a humiliating punishment."
                },
                {
                    "id": 217868,
                    "resource_id": 39,
                    "text": "Dan apabila sampai ke pengetahuannya sesuatu dari ayat-ayat penerangan Kami, ia menjadikannya ejek-ejekan; mereka yang demikian keadaannya, akan beroleh azab yang menghina."
                },
                {
                    "id": 1095459,
                    "resource_id": 161,
                    "text": "আমার আয়াতগুলোর কোন কথা যখন সে অবগত হয় তখন তাকে ঠাট্টা বিদ্রূপের বিষয় বানিয়ে নেয়, তাদের জন্য আছে অপমানজনক শাস্তি।"
                }
            ]
        },
        {
            "id": 4483,
            "verse_number": 10,
            "verse_key": "45:10",
            "hizb_number": 50,
            "rub_el_hizb_number": 199,
            "ruku_number": 436,
            "manzil_number": 6,
            "sajdah_number": null,
            "text_uthmani": "مِّن وَرَآئِهِمْ جَهَنَّمُ ۖ وَلَا يُغْنِى عَنْهُم مَّا كَسَبُوا۟ شَيْـًٔا وَلَا مَا ٱتَّخَذُوا۟ مِن دُونِ ٱللَّهِ أَوْلِيَآءَ ۖ وَلَهُمْ عَذَابٌ عَظِيمٌ",
            "page_number": 499,
            "juz_number": 25,
            "translations": [
                {
                    "id": 99989,
                    "resource_id": 20,
                    "text": "Before them<sup foot_note=197354>1</sup> is Hell, and what they had earned will not avail them at all nor what they had taken besides Allāh as allies. And they will have a great punishment."
                },
                {
                    "id": 217827,
                    "resource_id": 39,
                    "text": "Di hadapan mereka (di akhirat kelak) ada neraka Jahannam (yang disediakan untuk mereka), dan apa jua yang mereka usahakan, tidak dapat menyelematkan mereka sedikit pun; demikian juga yang mereka sembah atau puja selain Allah, tidak dapat memberikan sebarang perlindungan; dan (kesudahannya) mereka akan beroleh azab seksa yang besar."
                },
                {
                    "id": 1095460,
                    "resource_id": 161,
                    "text": "তাদের আড়ালে আছে জাহান্নাম, তাদের কৃতকর্ম তাদের কোন কাজে আসবে না। আর আল্লাহর পরিবর্তে তারা যেগুলোকে অভিভাবক হিসেবে গ্রহণ করেছে সেগুলোও (কাজে আসবে) না। তাদের জন্য আছে মহা শাস্তি।"
                }
            ]
        }
    ],
    "pagination": {
        "per_page": 10,
        "current_page": 1,
        "next_page": 2,
        "total_pages": 4,
        "total_records": 37
    }
}