{
    "verses": [
        {
            "id": 670,
            "verse_number": 1,
            "verse_key": "5:1",
            "hizb_number": 11,
            "rub_el_hizb_number": 43,
            "ruku_number": 86,
            "manzil_number": 2,
            "sajdah_number": null,
            "text_uthmani": " يَـٰٓأَيُّهَا ٱلَّذِينَ ءَامَنُوٓا۟ أَوْفُوا۟ بِٱلْعُقُودِ ۚ أُحِلَّتْ لَكُم بَهِيمَةُ ٱلْأَنْعَـٰمِ إِلَّا مَا يُتْلَىٰ عَلَيْكُمْ غَيْرَ مُحِلِّى ٱلصَّيْدِ وَأَنتُمْ حُرُمٌ ۗ إِنَّ ٱللَّهَ يَحْكُمُ مَا يُرِيدُ",
            "page_number": 106,
            "juz_number": 6,
            "translations": [
                {
                    "id": 100248,
                    "resource_id": 20,
                    "text": "O you who have believed, fulfill [all] contracts.<sup foot_note=196165>1</sup> Lawful for you are the animals of grazing livestock except for that which is recited to you [in this Qur’ān] - hunting not being permitted while you are in the state of iḥrām.<sup foot_note=196164>2</sup> Indeed, Allāh ordains what He intends."
                },
                {
                    "id": 218084,
                    "resource_id": 39,
                    "text": "Wahai orang-orang yang beriman, penuhi serta sempurnakanlah perjanjian-perjanjian. Dihalalkan bagi kamu (memakan) binatang-binatang ternak (dan sebagainya), kecuali apa yang akan dibacakan (tentang haramnya) kepada kamu. (Halalnya binatang-binatang ternak dan sebagainya itu) tidak pula bererti kamu boleh menghalalkan perburuan ketika kamu dalam keadaan berihram. Sesungguhnya Allah menetapkan hukum apa yang Ia kehendaki."
                },
                {
                    "id": 1091647,
                    "resource_id": 161,
                    "text": "ওহে মু’মিনগণ! তোমরা অঙ্গীকারসমূহ পূর্ণ কর। তোমাদের জন্য গৃহপালিত চতুস্পদ জন্তু হালাল করা হল- সেগুলো ছাড়া যেগুলোর বিবরণ তোমাদেরকে দেয়া হচ্ছে, আর ইহরাম অবস্থায় শিকার করা অবৈধ। আল্লাহ যা চান হুকুম দেন।"
                }
            ]
        },
        {
            "id": 671,
            "verse_number": 2,
            "verse_key": "5:2",
            "hizb_number": 11,
            "rub_el_hizb_number": 43,
            "ruku_number": 86,
            "manzil_number": 2,
            "sajdah_number": null,
            "text_uthmani": "يَـٰٓأَيُّهَا ٱلَّذِينَ ءَامَنُوا۟ لَا تُحِلُّوا۟ شَعَـٰٓئِرَ ٱللَّهِ وَلَا ٱلشَّهْرَ ٱلْحَرَامَ وَلَا ٱلْهَدْىَ وَلَا ٱلْقَلَـٰٓئِدَ وَلَآ ءَآمِّينَ ٱلْبَيْتَ ٱلْحَرَامَ يَبْتَغُونَ فَضْلًا مِّن رَّبِّهِمْ وَرِضْوَٰنًا ۚ وَإِذَا حَلَلْتُمْ فَٱصْطَادُوا۟ ۚ وَلَا يَجْرِمَنَّكُمْ شَنَـَٔانُ قَوْمٍ أَن صَدُّوكُمْ عَنِ ٱلْمَسْجِدِ ٱلْحَرَامِ أَن تَعْتَدُوا۟ ۘ وَتَعَاوَنُوا۟ عَلَى ٱلْبِرِّ وَٱلتَّقْوَىٰ ۖ وَلَا تَعَاوَنُوا۟ عَلَى ٱلْإِثْمِ وَٱلْعُدْوَٰنِ ۚ وَٱتَّقُوا۟ ٱللَّهَ ۖ إِنَّ ٱللَّهَ شَدِيدُ ٱلْعِقَابِ",
            "page_number": 106,
            "juz_number": 6,
            "translations": [
                {
                    "id": 100341,
                    "resource_id": 20,
                    "text": "O you who have believed, do not violate the rites of Allāh or [the sanctity of] the sacred month or [neglect the marking of] the sacrificial animals and garlanding [them] or [violate the safety of] those coming to the Sacred House seeking bounty from their Lord and [His] approval. But when you come out of iḥrām, then [you may] hunt. And do not let the hatred of a people for having obstructed you from al-Masjid al-Ḥarām lead you to transgress. And cooperate in righteousness and piety, but do not cooperate in sin and aggression. And fear Allāh; indeed, Allāh is severe in penalty."
                },
                {
                    "id": 218167,
                    "resource_id": 39,
                    "text": "Wahai orang-orang yang beriman, janganlah kamu ingat halal membuat sesuka hati mengenai syiar-syiar ugama Allah, dan mengenai bulan-bulan yang dihormati, dan mengenai binatang-binatang yang dihadiahkan (ke Makkah untuk korban), dan mengenai kalong-kalong binatang hadiah itu, dan mengenai orang-orang yang menuju ke Baitullah Al-Haraam, yang bertujuan mencari limpah kurnia dari Tuhan mereka (dengan jalan perniagaan) dan mencari keredaanNya (dengan mengerjakan ibadat Haji di Tanah Suci); dan apabila kamu telah selesai dari ihram maka bolehlah kamu berburu. Dan jangan sekali-kali kebencian kamu kepada suatu kaum kerana mereka pernah menghalangi kamu dari masjid Al-Haraam itu - mendorong kamu menceroboh. Dan hendaklah kamu bertolong-tolongan untuk membuat kebajikan dan bertaqwa, dan janganlah kamu bertolong-tolongan pada melakukan dosa (maksiat) dan pencerobohan. Dan bertaqwalah kepada Allah, kerana sesungguhnya Allah Maha Berat azab seksaNya (bagi sesiapa yang melanggar perintahNya)."
                },
                {
                    "id": 1091648,
                    "resource_id": 161,
                    "text": "ওহে মু’মিনগণ! আল্লাহর নিদর্শনাবলীর, হারাম মাসের, কা‘বায় প্রেরিত কুরবানীর পশুর এবং গলদেশে মাল্য পরিহিত পশুর অসম্মান করো না, যারা নিজ প্রতিপালকের অনুগ্রহ ও সন্তুষ্টি লাভের উদ্দেশে পবিত্র গৃহের আশ্রয়ে চলেছে তাদেরও (অবমাননা) করো না। তোমরা যখন ইহরামমুক্ত হবে তখন শিকার করতে পার। তোমাদেরকে যারা মসজিদে হারাম থেকে বাধা প্রদান করেছিল, তাদের প্রতি শত্রুতা তোমাদেরকে যেন অবশ্যই সীমালঙ্ঘনে প্ররোচিত না করে। সৎকাজ ও তাক্বওয়ার ব্যাপারে তোমরা পরস্পরকে সহযোগিতা কর, পাপ ও সীমালঙ্ঘনের কাজে পরস্পরকে সহযোগিতা করো না। আল্লাহকে ভয় কর, আল্লাহ শাস্তি দানে অত্যন্ত কঠোর।"
                }
            ]
        },
        {
            "id": 672,
            "verse_number": 3,
            "verse_key": "5:3",
            "hizb_number": 11,
            "rub_el_hizb_number": 43,
            "ruku_number": 86,
            "manzil_number": 2,
            "sajdah_number": null,
            "text_uthmani": "حُرِّمَتْ عَلَيْكُمُ ٱلْمَيْتَةُ وَٱلدَّمُ وَلَحْمُ ٱلْخِنزِيرِ وَمَآ أُهِلَّ لِغَيْرِ ٱللَّهِ بِهِۦ وَٱلْمُنْخَنِقَةُ وَٱلْمَوْقُوذَةُ وَٱلْمُتَرَدِّيَةُ وَٱلنَّطِيحَةُ وَمَآ أَكَلَ ٱلسَّبُعُ إِلَّا مَا ذَكَّيْتُمْ وَمَا ذُبِحَ عَلَى ٱلنُّصُبِ وَأَن تَسْتَقْسِمُوا۟ بِٱلْأَزْلَـٰمِ ۚ ذَٰلِكُمْ فِسْقٌ ۗ ٱلْيَوْمَ يَئِسَ ٱلَّذِينَ كَفَرُوا۟ مِن دِينِكُمْ فَلَا تَخْشَوْهُمْ وَٱخْشَوْنِ ۚ ٱلْيَوْمَ أَكْمَلْتُ لَكُمْ دِينَكُمْ وَأَتْمَمْتُ عَلَيْكُمْ نِعْمَتِى وَرَضِيتُ لَكُمُ ٱلْإِسْلَـٰمَ دِينًا ۚ فَمَنِ ٱضْطُرَّ فِى مَخْمَصَةٍ غَيْرَ مُتَجَانِفٍ لِّإِثْمٍ ۙ فَإِنَّ ٱللَّهَ غَفُورٌ رَّحِيمٌ",
            "page_number": 107,
            "juz_number": 6,
            "translations": [
                {
                    "id": 100397,
                    "resource_id": 20,
                    "text": "Prohibited to you are dead animals,<sup foot_note=196167>1</sup> blood, the flesh of swine, and that which has been dedicated to other than Allāh, and [those animals] killed by strangling or by a violent blow or by a head-long fall or by the goring of horns, and those from which a wild animal has eaten, except what you [are able to] slaughter [before its death], and those which are sacrificed on stone altars,<sup foot_note=196166>2</sup> and [prohibited is] that you seek decision through divining arrows. That is grave disobedience. This day those who disbelieve have despaired of [defeating] your religion; so fear them not, but fear Me. This day I have perfected for you your religion and completed My favor upon you and have approved for you Islām as religion. But whoever is forced by severe hunger with no inclination to sin - then indeed, Allāh is Forgiving and Merciful."
                },
                {
                    "id": 218228,
                    "resource_id": 39,
                    "text": "Diharamkan kepada kamu (memakan) bangkai (binatang yang tidak disembelih), dan darah (yang keluar mengalir), dan daging babi (termasuk semuanya), dan binatang-binatang yang disembelih kerana yang lain dari Allah, dan yang mati tercekik, dan yang mati dipukul, dan yang mati jatuh dari tempat yang tinggi, dan yang mati ditanduk, dan yang mati dimakan binatang buas, kecuali yang sempat kamu sembelih (sebelum habis nyawanya), dan yang disembelih atas nama berhala; dan (diharamkan juga) kamu merenung nasib dengan undi batang-batang anak panah. Yang demikian itu adalah perbuatan fasik. Pada hari ini, orang-orang kafir telah putus asa (daripada memesongkan kamu) dari ugama kamu (setelah mereka melihat perkembangan Islam dan umatnya). Sebab itu janganlah kamu takut dan gentar kepada mereka, sebaliknya hendaklah kamu takut dan gentar kepadaKu. Pada hari ini, Aku telah sempurnakan bagi kamu ugama kamu, dan Aku telah cukupkan nikmatKu kepada kamu, dan Aku telah redakan Islam itu menjadi ugama untuk kamu. Maka sesiapa yang terpaksa kerana kelaparan (memakan benda-benda yang diharamkan) sedang ia tidak cenderung hendak melakukan dosa (maka bolehlah ia memakannya), kerana sesungguhnya Allah maha Pengampun, lagi Maha Mengasihani."
                },
                {
                    "id": 1091649,
                    "resource_id": 161,
                    "text": "তোমাদের জন্য হারাম করা হয়েছে মৃতজন্তু, (প্রবাহিত) রক্ত, শূকরের মাংস, আল্লাহ ছাড়া অন্যের নামে যবহকৃত পশু, আর শ্বাসরুদ্ধ হয়ে মৃত জন্তু, আঘাতে মৃত জন্তু, উপর থেকে পতনের ফলে মৃত, সংঘর্ষে মৃত আর হিংস্র জন্তুতে খাওয়া পশু- তবে জীবিত পেয়ে যা তোমরা যবহ করতে পেরেছ তা বাদে, আর যা কোন আস্তানায় (বা বেদীতে) যবহ করা হয়েছে, আর জুয়ার তীর দ্বারা ভাগ্য নির্ণয় করা (এগুলো তোমাদের জন্য হারাম করা হয়েছে)। এসবগুলো পাপ কাজ। আজ কাফিরগণ তোমাদের দ্বীনের বিরোধিতা করার ব্যাপারে পুরোপুরি নিরাশ হয়ে গেছে, কাজেই তাদেরকে ভয় করো না, কেবল আমাকেই ভয় কর। আজ আমি তোমাদের জন্য তোমাদের দ্বীনকে পূর্ণাঙ্গ করে দিলাম, তোমাদের প্রতি আমার নিআমাত পূর্ণ করে দিলাম এবং ইসলামকে তোমাদের দ্বীন হিসেবে কবূল করে নিলাম। তবে কেউ পাপ করার প্রবণতা ব্যতীত ক্ষুধার জ্বালায় (নিষিদ্ধ বস্তু খেতে) বাধ্য হলে আল্লাহ বড়ই ক্ষমাশীল, পরম দয়ালু।"
                }
            ]
        },
        {
            "id": 673,
            "verse_number": 4,
            "verse_key": "5:4",
            "hizb_number": 11,
            "rub_el_hizb_number": 43,
            "ruku_number": 86,
            "manzil_number": 2,
            "sajdah_number": null,
            "text_uthmani": "يَسْـَٔلُونَكَ مَاذَآ أُحِلَّ لَهُمْ ۖ قُلْ أُحِلَّ لَكُمُ ٱلطَّيِّبَـٰتُ ۙ وَمَا عَلَّمْتُم مِّنَ ٱلْجَوَارِحِ مُكَلِّبِينَ تُعَلِّمُونَهُنَّ مِمَّا عَلَّمَكُمُ ٱللَّهُ ۖ فَكُلُوا۟ مِمَّآ أَمْسَكْنَ عَلَيْكُمْ وَٱذْكُرُوا۟ ٱسْمَ ٱللَّهِ عَلَيْهِ ۖ وَٱتَّقُوا۟ ٱللَّهَ ۚ إِنَّ ٱللَّهَ سَرِيعُ ٱلْحِسَابِ",
            "page_number": 107,
            "juz_number": 6,
            "translations": [
                {
                    "id": 100462,
                    "resource_id": 20,
                    "text": "They ask you, [O Muḥammad], what has been made lawful for them. Say, \"Lawful for you are [all] good foods and [game caught by] what you have trained of hunting animals<sup foot_note=196168>1</sup> which you train as Allāh has taught you. So eat of what they catch for you, and mention the name of Allāh upon it, and fear Allāh.\" Indeed, Allāh is swift in account."
                },
                {
                    "id": 218313,
                    "resource_id": 39,
                    "text": "Mereka bertanya kepadamu (wahai Muhammad): \"Apakah (makanan) yang dihalalkan bagi mereka?\" Bagi menjawabnya katakanlah: \"Dihalalkan bagi kamu (memakan) yang lazat-lazat serta baik, dan (buruan yang ditangkap oleh) binatang-binatang pemburu yang telah kamu ajar (untuk berburu) mengikut cara pelatih-pelatih binatang pemburu. Kamu mengajar serta melatihnya (adab peraturan berburu) sebagaimana yang telah diajarkan Allah kepada kamu. Oleh itu makanlah dari apa yang mereka tangkap untuk kamu dan sebutlah nama Allah atasnya (ketika kamu melepaskannya berburu); dan bertaqwalah kepada Allah (dengan memelihara diri dari memakan yang diharamkan Allah); Sesungguhnya Allah Maha Cepat hitungan hisabNya\""
                },
                {
                    "id": 1091650,
                    "resource_id": 161,
                    "text": "লোকেরা তোমাকে জিজ্ঞেস করছে তাদের জন্য কী কী হালাল করা হয়েছে। বল, যাবতীয় ভাল ও পবিত্র বস্তু তোমাদের জন্য হালাল করা হয়েছে, আর শিকারী পশু-পক্ষী- যাদেরকে তোমরা শিক্ষা দিয়েছ যেভাবে আল্লাহ তোমাদেরকে শিক্ষা দিয়েছেন- সুতরাং তারা যা তোমাদের জন্য ধরে রাখে তা তোমরা ভক্ষণ করবে আর তাতে আল্লাহর নাম উচ্চারণ করবে, আর আল্লাহকে ভয় করবে, আল্লাহ হিসাব গ্রহণে ত্বরিৎগতি।"
                }
            ]
        },
        {
            "id": 674,
            "verse_number": 5,
            "verse_key": "5:5",
            "hizb_number": 11,
            "rub_el_hizb_number": 43,
            "ruku_number": 86,
            "manzil_number": 2,
            "sajdah_number": null,
            "text_uthmani": "ٱلْيَوْمَ أُحِلَّ لَكُمُ ٱلطَّيِّبَـٰتُ ۖ وَطَعَامُ ٱلَّذِينَ أُوتُوا۟ ٱلْكِتَـٰبَ حِلٌّ لَّكُمْ وَطَعَامُكُمْ حِلٌّ لَّهُمْ ۖ وَٱلْمُحْصَنَـٰتُ مِنَ ٱلْمُؤْمِنَـٰتِ وَٱلْمُحْصَنَـٰتُ مِنَ ٱلَّذِينَ أُوتُوا۟ ٱلْكِتَـٰبَ مِن قَبْلِكُمْ إِذَآ ءَاتَيْتُمُوهُنَّ أُجُورَهُنَّ مُحْصِنِينَ غَيْرَ مُسَـٰفِحِينَ وَلَا مُتَّخِذِىٓ أَخْدَانٍ ۗ وَمَن يَكْفُرْ بِٱلْإِيمَـٰنِ فَقَدْ حَبِطَ عَمَلُهُۥ وَهُوَ فِى ٱلْـَٔاخِرَةِ مِنَ ٱلْخَـٰسِرِينَ",
            "page_number": 107,
            "juz_number": 6,
            "translations": [
                {
                    "id": 100528,
                    "resource_id": 20,
                    "text": "This day [all] good foods have been made lawful, and the food of those who were given the Scripture is lawful for you and your food is lawful for them. And [lawful in marriage are] chaste women from among the believers and chaste women from among those who were given the Scripture before you, when you have given them their due compensation,<sup foot_note=196169>1</sup> desiring chastity, not unlawful sexual intercourse or taking [secret] lovers. And whoever denies the faith - his work has become worthless, and he, in the Hereafter, will be among the losers."
                },
                {
                    "id": 218375,
                    "resource_id": 39,
                    "text": "Pada masa ini dihalalkan bagi kamu (memakan makanan) yang lazat-lazat serta baik-baik. Dan makanan (sembelihan) orang-orang yang diberikan Kitab itu adalah halal bagi kamu, dan makanan (sembelihan) kamu adalah halal bagi mereka (tidak salah kamu memberi makan kepada mereka). Dan (dihalalkan kamu berkahwin) dengan perempuan-perempuan yang menjaga kehormatannya - di antara perempuan-perempuan yang beriman, dan juga perempuan-perempuan yang menjaga kehormatannya dari kalangan orang-orang yang diberikan Kitab dahulu daripada kamu apabila kamu beri mereka maskahwinnya, sedang kamu (dengan cara yang demikian), bernikah bukan berzina, dan bukan pula kamu mengambil mereka menjadi perempuan-perempuan simpanan. Dan sesiapa yang ingkar (akan syariat Islam) sesudah ia beriman, maka sesungguhnya gugurlah amalnya (yang baik) dan adalah ia pada hari akhirat kelak dari orang-orang yang rugi."
                },
                {
                    "id": 1091651,
                    "resource_id": 161,
                    "text": "আজ তোমাদের জন্য যাবতীয় ভাল ও পবিত্র বস্তু হালাল করা হল আর যাদেরকে কিতাব দেয়া হয়েছে তাদের খাদ্য তোমাদের জন্য হালাল, আর তোমাদের খাদ্য তাদের জন্য হালাল, সচ্চরিত্রা মু’মিন নারী এবং তোমাদের পূর্বে যাদেরকে কিতাব দেয়া হয়েছে তাদের সচ্চরিত্রা নারী তোমাদের জন্য হালাল করা হল যখন তোমরা তাদেরকে মোহরানা প্রদান কর, বিবাহের দূর্গে স্থান দানের উদ্দেশ্যে, ব্যভিচারী হিসেবে নয় এবং গোপন সঙ্গী গ্রহণকারী হিসেবে নয়। কেউ ঈমান অমান্য করলে, তার কার্যাদি নিষ্ফল হবে। আর সে আখেরাতে ক্ষতিগ্রস্তদের অন্তর্ভুক্ত হবে।"
                }
            ]
        },
        {
            "id": 675,
            "verse_number": 6,
            "verse_key": "5:6",
            "hizb_number": 11,
            "rub_el_hizb_number": 43,
            "ruku_number": 87,
            "manzil_number": 2,
            "sajdah_number": null,
            "text_uthmani": "يَـٰٓأَيُّهَا ٱلَّذِينَ ءَامَنُوٓا۟ إِذَا قُمْتُمْ إِلَى ٱلصَّلَوٰةِ فَٱغْسِلُوا۟ وُجُوهَكُمْ وَأَيْدِيَكُمْ إِلَى ٱلْمَرَافِقِ وَٱمْسَحُوا۟ بِرُءُوسِكُمْ وَأَرْجُلَكُمْ إِلَى ٱلْكَعْبَيْنِ ۚ وَإِن كُنتُمْ جُنُبًا فَٱطَّهَّرُوا۟ ۚ وَإِن كُنتُم مَّرْضَىٰٓ أَوْ عَلَىٰ سَفَرٍ أَوْ جَآءَ أَحَدٌ مِّنكُم مِّنَ ٱلْغَآئِطِ أَوْ لَـٰمَسْتُمُ ٱلنِّسَآءَ فَلَمْ تَجِدُوا۟ مَآءً فَتَيَمَّمُوا۟ صَعِيدًا طَيِّبًا فَٱمْسَحُوا۟ بِوُجُوهِكُمْ وَأَيْدِيكُم مِّنْهُ ۚ مَا يُرِيدُ ٱللَّهُ لِيَجْعَلَ عَلَيْكُم مِّنْ حَرَجٍ وَلَـٰكِن يُرِيدُ لِيُطَهِّرَكُمْ وَلِيُتِمَّ نِعْمَتَهُۥ عَلَيْكُمْ لَعَلَّكُمْ تَشْكُرُونَ",
            "page_number": 108,
            "juz_number": 6,
            "translations": [
                {
                    "id": 100618,
                    "resource_id": 20,
                    "text": "O you who have believed, when you rise to [perform] prayer, wash your faces and your forearms to the elbows and wipe over your heads and wash your feet to the ankles. And if you are in a state of janābah,<sup foot_note=196171>1</sup> then purify yourselves. But if you are ill or on a journey or one of you comes from the place of relieving himself or you have contacted women<sup foot_note=196170>2</sup> and do not find water, then seek clean earth and wipe over your faces and hands with it. Allāh does not intend to make difficulty for you, but He intends to purify you and complete His favor upon you that you may be grateful."
                },
                {
                    "id": 218457,
                    "resource_id": 39,
                    "text": "Wahai orang-orang yang beriman, apabila kamu hendak mengerjakan sembahyang (padahal kamu berhadas kecil), maka (berwuduklah) iaitu basuhlah muka kamu, dan kedua belah tangan kamu meliputi siku, dan sapulah sebahagian dari kepala kamu, dan basuhlah kedua belah kaki kamu meliputi buku lali; dan jika kamu junub (berhadas besar) maka bersucilah dengan mandi wajib; dan jika kamu sakit (tidak boleh kena air), atau dalam pelayaran, atau salah seorang dari kamu datang dari tempat buang air, atau kamu sentuh perempuan, sedang kamu tidak mendapat air (untuk berwuduk dan mandi), maka hendaklah kamu bertayamum dengan tanah - debu yang bersih, iaitu: sapulah muka kamu dan kedua belah tangan kamu dengan tanah - debu itu. Allah tidak mahu menjadikan kamu menanggung sesuatu kesusahan (kepayahan), tetapi Ia berkehendak membersihkan (mensucikan) kamu dan hendak menyempurnakan nikmatNya kepada kamu, supaya kamu bersyukur."
                },
                {
                    "id": 1091652,
                    "resource_id": 161,
                    "text": "হে মু’মিনগণ! তোমরা যখন সলাতের জন্য উঠবে, তখন তোমাদের মুখমন্ডল এবং কনুই পর্যন্ত হস্তদ্বয় ধৌত করবে। আর তোমাদের মাথা মাসেহ করবে এবং পা গোড়ালি পর্যন্ত ধৌত করবে। তোমরা যদি অপবিত্র অবস্থায় থাক তবে বিধিমত পবিত্রতা অর্জন করবে। আর যদি পীড়িত হও বা সফরে থাক অথবা তোমাদের কেউ যদি মলত্যাগ করে আসে অথবা যদি তোমরা স্ত্রীদের সাথে সহবাস কর আর পানি না পাও তাহলে পবিত্র মাটি দিয়ে তায়াম্মুম করবে তা দিয়ে তোমাদের মুখমন্ডল ও হাত মাসেহ করবে। আল্লাহ তোমাদের উপর সংকীর্ণতা চাপিয়ে দিতে চান না, তিনি তোমাদেরকে পবিত্র করতে চান আর তোমাদের প্রতি তাঁর নি‘আমাত পূর্ণ করতে চান, যাতে তোমরা কৃতজ্ঞতা প্রকাশ কর।"
                }
            ]
        },
        {
            "id": 676,
            "verse_number": 7,
            "verse_key": "5:7",
            "hizb_number": 11,
            "rub_el_hizb_number": 43,
            "ruku_number": 87,
            "manzil_number": 2,
            "sajdah_number": null,
            "text_uthmani": "وَٱذْكُرُوا۟ نِعْمَةَ ٱللَّهِ عَلَيْكُمْ وَمِيثَـٰقَهُ ٱلَّذِى وَاثَقَكُم بِهِۦٓ إِذْ قُلْتُمْ سَمِعْنَا وَأَطَعْنَا ۖ وَٱتَّقُوا۟ ٱللَّهَ ۚ إِنَّ ٱللَّهَ عَلِيمٌۢ بِذَاتِ ٱلصُّدُورِ",
            "page_number": 108,
            "juz_number": 6,
            "translations": [
                {
                    "id": 100720,
                    "resource_id": 20,
                    "text": "And remember the favor of Allāh upon you and His covenant with which He bound you when you said, \"We hear and we obey\"; and fear Allāh. Indeed, Allāh is Knowing of that within the breasts."
                },
                {
                    "id": 218563,
                    "resource_id": 39,
                    "text": "Dan kenanglah nikmat Allah (yang telah dikurniakanNya) kepada kamu serta ingatlah perjanjianNya yang telah diikatNya dengan kamu, ketika kamu berkata: \"Kami dengar dan kami taat (akan perintah-perintah Allah dan RasulNya)\" Dan bertaqwalah kamu kepada Allah, kerana sesungguhnya Allah Maha Mengetahui akan segala (isi hati) yang ada di dalam dada."
                },
                {
                    "id": 1091653,
                    "resource_id": 161,
                    "text": "তোমাদের প্রতি আল্লাহর নিআমতের কথা স্মরণ কর আর তাঁর অঙ্গীকারের কথা যা তিনি তোমাদের নিকট থেকে গ্রহণ করেছিলেন যখন তোমরা বলেছিলে- আমরা শুনলাম ও মেনে নিলাম। আল্লাহকে ভয় কর, অন্তরে যা আছে সে সম্পর্কে আল্লাহ খুব ভালভাবেই অবগত আছেন।"
                }
            ]
        },
        {
            "id": 677,
            "verse_number": 8,
            "verse_key": "5:8",
            "hizb_number": 11,
            "rub_el_hizb_number": 43,
            "ruku_number": 87,
            "manzil_number": 2,
            "sajdah_number": null,
            "text_uthmani": "يَـٰٓأَيُّهَا ٱلَّذِينَ ءَامَنُوا۟ كُونُوا۟ قَوَّٰمِينَ لِلَّهِ شُهَدَآءَ بِٱلْقِسْطِ ۖ وَلَا يَجْرِمَنَّكُمْ شَنَـَٔانُ قَوْمٍ عَلَىٰٓ أَلَّا تَعْدِلُوا۟ ۚ ٱعْدِلُوا۟ هُوَ أَقْرَبُ لِلتَّقْوَىٰ ۖ وَٱتَّقُوا۟ ٱللَّهَ ۚ إِنَّ ٱللَّهَ خَبِيرٌۢ بِمَا تَعْمَلُونَ",
            "page_number": 108,
            "juz_number": 6,
            "translations": [
                {
                    "id": 100762,
                    "resource_id": 20,
                    "text": "O you who have believed, be persistently standing firm for Allāh, witnesses in justice, and do not let the hatred of a people prevent you from being just. Be just; that is nearer to righteousness. And fear Allāh; indeed, Allāh is [fully] Aware of what you do."
                },
                {
                    "id": 218615,
                    "resource_id": 39,
                    "text": "Wahai orang-orang yang beriman, hendaklah kamu semua sentiasa menjadi orang-orang yang menegakkan keadilan kerana Allah, lagi menerangkan kebenaran; dan jangan sekali-kali kebencian kamu terhadap sesuatu kaum itu mendorong kamu kepada tidak melakukan keadilan. Hendaklah kamu berlaku adil (kepada sesiapa jua) kerana sikap adil itu lebih hampir kepada taqwa. Dan bertaqwalah kepada Allah, sesungguhnya Allah Maha Mengetahui dengan mendalam akan apa yang kamu lakukan."
                },
                {
                    "id": 1091654,
                    "resource_id": 161,
                    "text": "হে মু’মিনগণ! তোমরা ন্যায়ের সাক্ষ্যদাতা হিসেবে আল্লাহর পথে দৃঢ়ভাবে দন্ডায়মান থাক, কোন সম্প্রদায়ের প্রতি শত্রুতা তোমাদেরকে যেন এতটা উত্তেজিত না করে যে তোমরা ইনসাফ করা ত্যাগ করবে, সুবিচার কর, এটা তাক্বওয়ার নিকটবর্তী, তোমরা যা কর সে সম্পর্কে আল্লাহ সম্পূর্ণ ওয়াকিফহাল।"
                }
            ]
        },
        {
            "id": 678,
            "verse_number": 9,
            "verse_key": "5:9",
            "hizb_number": 11,
            "rub_el_hizb_number": 43,
            "ruku_number": 87,
            "manzil_number": 2,
            "sajdah_number": null,
            "text_uthmani": "وَعَدَ ٱللَّهُ ٱلَّذِينَ ءَامَنُوا۟ وَعَمِلُوا۟ ٱلصَّـٰلِحَـٰتِ ۙ لَهُم مَّغْفِرَةٌ وَأَجْرٌ عَظِيمٌ",
            "page_number": 108,
            "juz_number": 6,
            "translations": [
                {
                    "id": 100796,
                    "resource_id": 20,
                    "text": "Allāh has promised those who believe and do righteous deeds [that] for them there is forgiveness and great reward."
                },
                {
                    "id": 218648,
                    "resource_id": 39,
                    "text": "Allah menjanjikan kepada orang-orang yang beriman dan beramal soleh, mereka akan beroleh keampunan dan pahala yang besar."
                },
                {
                    "id": 1091655,
                    "resource_id": 161,
                    "text": "যারা ঈমান আনে ও সৎকাজ করে তাদের প্রতি আল্লাহ ওয়া‘দা করেছেন যে, তাদের জন্য রয়েছে ক্ষমা ও মহা পুরস্কার।"
                }
            ]
        },
        {
            "id": 679,
            "verse_number": 10,
            "verse_key": "5:10",
            "hizb_number": 11,
            "rub_el_hizb_number": 43,
            "ruku_number": 87,
            "manzil_number": 2,
            "sajdah_number": null,
            "text_uthmani": "وَٱلَّذِينَ كَفَرُوا۟ وَكَذَّبُوا۟ بِـَٔايَـٰتِنَآ أُو۟لَـٰٓئِكَ أَصْحَـٰبُ ٱلْجَحِيمِ",
            "page_number": 109,
            "juz_number": 6,
            "translations": [
                {
                    "id": 100249,
                    "resource_id": 20,
                    "text": "But those who disbelieve and deny Our signs - those are the companions of Hellfire."
                },
                {
                    "id": 218094,
                    "resource_id": 39,
                    "text": "Dan orang-orang yang kafir serta mendustakan ayat-ayat Kami (Al-Quran), merekalah ahli neraka."
                },
                {
                    "id": 1091656,
                    "resource_id": 161,
                    "text": "যারা কুফরী করে, আর আমার নিদর্শনাবলীকে অস্বীকার করে তারা হল জাহান্নামের অধিবাসী।"
                }
            ]
        }
    ],
    "pagination": {
        "per_page": 10,
        "current_page": 1,
        "next_page": 2,
        "total_pages": 12,
        "total_records": 120
    }
}