{
    "verses": [
        {
            "id": 4631,
            "verse_number": 1,
            "verse_key": "50:1",
            "hizb_number": 52,
            "rub_el_hizb_number": 207,
            "ruku_number": 454,
            "manzil_number": 7,
            "sajdah_number": null,
            "text_uthmani": " قٓ ۚ وَٱلْقُرْءَانِ ٱلْمَجِيدِ",
            "page_number": 518,
            "juz_number": 26,
            "translations": [
                {
                    "id": 100203,
                    "resource_id": 20,
                    "text": "Qāf.<sup foot_note=197405>1</sup> By the honored Qur’ān...<sup foot_note=197404>2</sup>"
                },
                {
                    "id": 218171,
                    "resource_id": 39,
                    "text": "Qaaf. Demi Al-Quran yang melimpah-limpah kemuliaan dan kebaikannya (bahawa sesungguhnya Muhammad adalah Rasul yang diutus memberi peringatan dan amaran)."
                },
                {
                    "id": 1095608,
                    "resource_id": 161,
                    "text": "ক্বাফ, শপথ মাহাত্ম্যপূর্ণ কুরআনের (যে তুমি আল্লাহর রসূল।)"
                }
            ]
        },
        {
            "id": 4632,
            "verse_number": 2,
            "verse_key": "50:2",
            "hizb_number": 52,
            "rub_el_hizb_number": 207,
            "ruku_number": 454,
            "manzil_number": 7,
            "sajdah_number": null,
            "text_uthmani": "بَلْ عَجِبُوٓا۟ أَن جَآءَهُم مُّنذِرٌ مِّنْهُمْ فَقَالَ ٱلْكَـٰفِرُونَ هَـٰذَا شَىْءٌ عَجِيبٌ",
            "page_number": 518,
            "juz_number": 26,
            "translations": [
                {
                    "id": 100214,
                    "resource_id": 20,
                    "text": "But they wonder that there has come to them a warner from among themselves, and the disbelievers say, \"This is an amazing thing."
                },
                {
                    "id": 218052,
                    "resource_id": 39,
                    "text": "(Kaum musyrik Makkah bukan sahaja mengingkari kerasulannya) bahkan mereka merasa hairan kerana datang kepada mereka, dari kalangan mereka sendiri, seorang Rasul pemberi peringatan dan amaran (mengenai perkara hidup semula sesudah mati); lalu orang-orang yang kafir itu berkata: \"Ini adalah satu perkara yang menakjubkan!"
                },
                {
                    "id": 1095609,
                    "resource_id": 161,
                    "text": "বরং এ লোকেরা বিস্মিত হচ্ছে যে, তাদের কাছে তাদেরই মধ্য হতে একজন সর্তককারী এসেছে। যার কারণে কাফিররা বলে- ‘এতো বড়ই আশ্চর্যজনক ব্যাপার!"
                }
            ]
        },
        {
            "id": 4633,
            "verse_number": 3,
            "verse_key": "50:3",
            "hizb_number": 52,
            "rub_el_hizb_number": 207,
            "ruku_number": 454,
            "manzil_number": 7,
            "sajdah_number": null,
            "text_uthmani": "أَءِذَا مِتْنَا وَكُنَّا تُرَابًا ۖ ذَٰلِكَ رَجْعٌۢ بَعِيدٌ",
            "page_number": 518,
            "juz_number": 26,
            "translations": [
                {
                    "id": 100225,
                    "resource_id": 20,
                    "text": "When we have died and have become dust, [we will return to life]? That is a distant [i.e., unlikely] return.\""
                },
                {
                    "id": 218066,
                    "resource_id": 39,
                    "text": "\"Adakah (kita akan kembali hidup) sesudah kita mati dan menjadi tanah? Itu adalah cara kembali yang jauh (dari kemungkinan, kerana jasad yang telah hancur tidak dapat diketahui lagi)\"."
                },
                {
                    "id": 1095610,
                    "resource_id": 161,
                    "text": "আমরা যখন মরে যাব আর মাটি হয়ে যাব (তখন আমাদেরকে আবার আল্লাহর কাছে ফিরে যেতে হবে)? এ ফিরে যাওয়াটা তো বহু দূরের ব্যাপার।"
                }
            ]
        },
        {
            "id": 4634,
            "verse_number": 4,
            "verse_key": "50:4",
            "hizb_number": 52,
            "rub_el_hizb_number": 207,
            "ruku_number": 454,
            "manzil_number": 7,
            "sajdah_number": null,
            "text_uthmani": "قَدْ عَلِمْنَا مَا تَنقُصُ ٱلْأَرْضُ مِنْهُمْ ۖ وَعِندَنَا كِتَـٰبٌ حَفِيظٌۢ",
            "page_number": 518,
            "juz_number": 26,
            "translations": [
                {
                    "id": 100236,
                    "resource_id": 20,
                    "text": "We know what the earth diminishes [i.e., consumes] of them, and with Us is a retaining record."
                },
                {
                    "id": 218073,
                    "resource_id": 39,
                    "text": "(Apa yang mereka katakan itu tidaklah benar, kerana) Kami sedia mengetahui apa yang dimakan oleh bumi sedikit demi sedikit dari (tubuh orang mati) mereka, serta ada di sisi Kami sebuah Kitab yang menyimpan (catitan segala perkara yang berlaku)."
                },
                {
                    "id": 1095611,
                    "resource_id": 161,
                    "text": "আমি জানি মাটি তাদের কতটুকু ক্ষয় করে আর আমার কাছে আছে এক কিতাব যা (সব কিছুর পূর্ণ বিবরণ) সংরক্ষণ করে।"
                }
            ]
        },
        {
            "id": 4635,
            "verse_number": 5,
            "verse_key": "50:5",
            "hizb_number": 52,
            "rub_el_hizb_number": 207,
            "ruku_number": 454,
            "manzil_number": 7,
            "sajdah_number": null,
            "text_uthmani": "بَلْ كَذَّبُوا۟ بِٱلْحَقِّ لَمَّا جَآءَهُمْ فَهُمْ فِىٓ أَمْرٍ مَّرِيجٍ",
            "page_number": 518,
            "juz_number": 26,
            "translations": [
                {
                    "id": 100243,
                    "resource_id": 20,
                    "text": "But they denied the truth when it came to them, so they are in a confused condition."
                },
                {
                    "id": 218081,
                    "resource_id": 39,
                    "text": "(Mereka tidak mahu berfikir betul) bahkan mereka (terburu-buru) mendustakan kebenaran apabila sahaja sampainya kepada mereka; oleh sebab itu, mereka berada dalam keadaan yang serba kacau."
                },
                {
                    "id": 1095612,
                    "resource_id": 161,
                    "text": "তাদের কাছে সত্য আসার পর তারা তা অস্বীকার করেছে, কাজেই এখন তারা সংশয়ের মধ্যে পড়ে আছে।"
                }
            ]
        },
        {
            "id": 4636,
            "verse_number": 6,
            "verse_key": "50:6",
            "hizb_number": 52,
            "rub_el_hizb_number": 207,
            "ruku_number": 454,
            "manzil_number": 7,
            "sajdah_number": null,
            "text_uthmani": "أَفَلَمْ يَنظُرُوٓا۟ إِلَى ٱلسَّمَآءِ فَوْقَهُمْ كَيْفَ بَنَيْنَـٰهَا وَزَيَّنَّـٰهَا وَمَا لَهَا مِن فُرُوجٍ",
            "page_number": 518,
            "juz_number": 26,
            "translations": [
                {
                    "id": 100244,
                    "resource_id": 20,
                    "text": "Have they not looked at the heaven above them - how We structured it and adorned it and [how] it has no rifts?"
                },
                {
                    "id": 218080,
                    "resource_id": 39,
                    "text": "(Kalaulah mereka menyangka Kami tidak berkuasa mengembalikan mereka hidup semula) maka tidakkah mereka memandang ke langit yang ada di sebelah atas mereka (dengan tidak bertiang) bagaimana Kami membinanya (dengan rapi) serta Kami menghiasinya (dengan bintang-bintang), dan dengan keadaan tidak ada padanya retak-renggang? -"
                },
                {
                    "id": 1095613,
                    "resource_id": 161,
                    "text": "তারা কি তাদের উপরে অবস্থিত আকাশের দিকে তাকায় না, কীভাবে আমি তাকে বানিয়েছি, তাকে সুশোভিত করেছি আর তাতে নেই কোন ফাটল?"
                }
            ]
        },
        {
            "id": 4637,
            "verse_number": 7,
            "verse_key": "50:7",
            "hizb_number": 52,
            "rub_el_hizb_number": 207,
            "ruku_number": 454,
            "manzil_number": 7,
            "sajdah_number": null,
            "text_uthmani": "وَٱلْأَرْضَ مَدَدْنَـٰهَا وَأَلْقَيْنَا فِيهَا رَوَٰسِىَ وَأَنۢبَتْنَا فِيهَا مِن كُلِّ زَوْجٍۭ بَهِيجٍ",
            "page_number": 518,
            "juz_number": 26,
            "translations": [
                {
                    "id": 100245,
                    "resource_id": 20,
                    "text": "And the earth - We spread it out and cast therein firmly set mountains and made grow therein [something] of every beautiful kind,"
                },
                {
                    "id": 218085,
                    "resource_id": 39,
                    "text": "Dan juga (keadaan) bumi ini, (bagaimana) Kami bentangkan dia sebagai hamparan, dan Kami letakkan padanya gunung-ganang yang terdiri kukuh, serta Kami tumbuhkan padanya pelbagai jenis tanaman yang indah subur?"
                },
                {
                    "id": 1095614,
                    "resource_id": 161,
                    "text": "আর পৃথিবী- তাকে করেছি বিস্তৃত আর তাতে সংস্থাপিত করেছি পর্বতরাজি আর তাতে উদ্গত করেছি যাবতীয় সুদৃশ্য উদ্ভিদরাজি।"
                }
            ]
        },
        {
            "id": 4638,
            "verse_number": 8,
            "verse_key": "50:8",
            "hizb_number": 52,
            "rub_el_hizb_number": 207,
            "ruku_number": 454,
            "manzil_number": 7,
            "sajdah_number": null,
            "text_uthmani": "تَبْصِرَةً وَذِكْرَىٰ لِكُلِّ عَبْدٍ مُّنِيبٍ",
            "page_number": 518,
            "juz_number": 26,
            "translations": [
                {
                    "id": 100246,
                    "resource_id": 20,
                    "text": "Giving insight and a reminder for every servant who turns [to Allāh]."
                },
                {
                    "id": 218082,
                    "resource_id": 39,
                    "text": "(Kami adakan semuanya itu) untuk menjadi perhatian dan peringatan, (yang menunjukkan jalan kebenaran), kepada tiap-tiap seorang hamba Allah yang mahu kembali kepadaNya (dengan taat dan berbakti)."
                },
                {
                    "id": 1095615,
                    "resource_id": 161,
                    "text": "প্রতিটি (আল্লাহ) অভিমুখী বান্দাহর জন্য চক্ষু উন্মোচনকারী ও উপদেশ হিসেবে।"
                }
            ]
        },
        {
            "id": 4639,
            "verse_number": 9,
            "verse_key": "50:9",
            "hizb_number": 52,
            "rub_el_hizb_number": 207,
            "ruku_number": 454,
            "manzil_number": 7,
            "sajdah_number": null,
            "text_uthmani": "وَنَزَّلْنَا مِنَ ٱلسَّمَآءِ مَآءً مُّبَـٰرَكًا فَأَنۢبَتْنَا بِهِۦ جَنَّـٰتٍ وَحَبَّ ٱلْحَصِيدِ",
            "page_number": 518,
            "juz_number": 26,
            "translations": [
                {
                    "id": 100247,
                    "resource_id": 20,
                    "text": "And We have sent down blessed rain from the sky and made grow thereby gardens and grain from the harvest"
                },
                {
                    "id": 218083,
                    "resource_id": 39,
                    "text": "Dan juga Kami telah menurunkan dari langit air (hujan) yang banyak faedahnya, lalu Kami tumbuhkan dengan air itu pokok-pokok tanaman (buah-buahan) dan biji-bijian yang dituai;"
                },
                {
                    "id": 1095616,
                    "resource_id": 161,
                    "text": "আমি আকাশ থেকে বর্ষণ করি কল্যাণকর বৃষ্টি আর তা দিয়ে সৃষ্টি করি বাগান আর মাড়াইযোগ্য শস্যদানা,"
                }
            ]
        },
        {
            "id": 4640,
            "verse_number": 10,
            "verse_key": "50:10",
            "hizb_number": 52,
            "rub_el_hizb_number": 207,
            "ruku_number": 454,
            "manzil_number": 7,
            "sajdah_number": null,
            "text_uthmani": "وَٱلنَّخْلَ بَاسِقَـٰتٍ لَّهَا طَلْعٌ نَّضِيدٌ",
            "page_number": 518,
            "juz_number": 26,
            "translations": [
                {
                    "id": 100204,
                    "resource_id": 20,
                    "text": "And lofty palm trees having fruit arranged in layers -"
                },
                {
                    "id": 218178,
                    "resource_id": 39,
                    "text": "Serta pohon-pohon kurma yang tinggi menjulang, yang mengeluarkan mayang, berlapis-lapis, lagi lebat putiknya;"
                },
                {
                    "id": 1095617,
                    "resource_id": 161,
                    "text": "আর উঁচু খেজুর গাছ যাতে আছে খেজুর গুচ্ছ স্তরে স্তরে সাজানো।"
                }
            ]
        }
    ],
    "pagination": {
        "per_page": 10,
        "current_page": 1,
        "next_page": 2,
        "total_pages": 5,
        "total_records": 45
    }
}