{
    "verses": [
        {
            "id": 4676,
            "verse_number": 1,
            "verse_key": "51:1",
            "hizb_number": 52,
            "rub_el_hizb_number": 208,
            "ruku_number": 457,
            "manzil_number": 7,
            "sajdah_number": null,
            "text_uthmani": " وَٱلذَّٰرِيَـٰتِ ذَرْوًا",
            "page_number": 520,
            "juz_number": 26,
            "translations": [
                {
                    "id": 100261,
                    "resource_id": 20,
                    "text": "By the [winds] scattering [dust], dispersing [it]"
                },
                {
                    "id": 218101,
                    "resource_id": 39,
                    "text": "Demi angin yang menerbang dan menaburkan (debu, biji-bijian benih, dan lain-lainnya), dengan penerbangan dan penaburan yang sesungguh-sungguhnya, -"
                },
                {
                    "id": 1095653,
                    "resource_id": 161,
                    "text": "শপথ সেই বাতাসের যা ধূলাবালি উড়ায়,"
                }
            ]
        },
        {
            "id": 4677,
            "verse_number": 2,
            "verse_key": "51:2",
            "hizb_number": 52,
            "rub_el_hizb_number": 208,
            "ruku_number": 457,
            "manzil_number": 7,
            "sajdah_number": null,
            "text_uthmani": "فَٱلْحَـٰمِلَـٰتِ وِقْرًا",
            "page_number": 520,
            "juz_number": 26,
            "translations": [
                {
                    "id": 100283,
                    "resource_id": 20,
                    "text": "And the [clouds] carrying a load [of water]"
                },
                {
                    "id": 218227,
                    "resource_id": 39,
                    "text": "Dan awan yang membawa dan mengangkut muatannya (ke tempat yang dikehendaki), -"
                },
                {
                    "id": 1095654,
                    "resource_id": 161,
                    "text": "আর যা উঠিয়ে নেয় আর বহন করে ভারী বোঝা,"
                }
            ]
        },
        {
            "id": 4678,
            "verse_number": 3,
            "verse_key": "51:3",
            "hizb_number": 52,
            "rub_el_hizb_number": 208,
            "ruku_number": 457,
            "manzil_number": 7,
            "sajdah_number": null,
            "text_uthmani": "فَٱلْجَـٰرِيَـٰتِ يُسْرًا",
            "page_number": 520,
            "juz_number": 26,
            "translations": [
                {
                    "id": 100292,
                    "resource_id": 20,
                    "text": "And the ships sailing with ease"
                },
                {
                    "id": 214859,
                    "resource_id": 39,
                    "text": "Dan kapal-kapal yang belayar laju dengan kemudahan yang diberikan kepadanya, -"
                },
                {
                    "id": 1095655,
                    "resource_id": 161,
                    "text": "আর যা ধীর ও শান্ত গতিতে বয়ে চলে"
                }
            ]
        },
        {
            "id": 4679,
            "verse_number": 4,
            "verse_key": "51:4",
            "hizb_number": 52,
            "rub_el_hizb_number": 208,
            "ruku_number": 457,
            "manzil_number": 7,
            "sajdah_number": null,
            "text_uthmani": "فَٱلْمُقَسِّمَـٰتِ أَمْرًا",
            "page_number": 520,
            "juz_number": 26,
            "translations": [
                {
                    "id": 100304,
                    "resource_id": 20,
                    "text": "And the [angels] apportioning [each] matter,"
                },
                {
                    "id": 218145,
                    "resource_id": 39,
                    "text": "Dan malaikat-malaikat yang membahagi-bahagikan segala perkara yang mereka ditugaskan membahagikannya;"
                },
                {
                    "id": 1095656,
                    "resource_id": 161,
                    "text": "আর যারা কর্ম বণ্টন করে,"
                }
            ]
        },
        {
            "id": 4680,
            "verse_number": 5,
            "verse_key": "51:5",
            "hizb_number": 52,
            "rub_el_hizb_number": 208,
            "ruku_number": 457,
            "manzil_number": 7,
            "sajdah_number": null,
            "text_uthmani": "إِنَّمَا تُوعَدُونَ لَصَادِقٌ",
            "page_number": 520,
            "juz_number": 26,
            "translations": [
                {
                    "id": 100316,
                    "resource_id": 20,
                    "text": "Indeed, what you are promised is true."
                },
                {
                    "id": 218149,
                    "resource_id": 39,
                    "text": "(Sumpah demi sumpah) bahawa sesungguhnya segala yang dijanjikan kepada kamu (mengenai hari akhirat) tetap benar;"
                },
                {
                    "id": 1095657,
                    "resource_id": 161,
                    "text": "তোমাদেরকে যার ও‘য়াদা দেয়া হয়েছে তা অবশ্যই সত্য।"
                }
            ]
        },
        {
            "id": 4681,
            "verse_number": 6,
            "verse_key": "51:6",
            "hizb_number": 52,
            "rub_el_hizb_number": 208,
            "ruku_number": 457,
            "manzil_number": 7,
            "sajdah_number": null,
            "text_uthmani": "وَإِنَّ ٱلدِّينَ لَوَٰقِعٌ",
            "page_number": 520,
            "juz_number": 26,
            "translations": [
                {
                    "id": 100328,
                    "resource_id": 20,
                    "text": "And indeed, the recompense is to occur."
                },
                {
                    "id": 218158,
                    "resource_id": 39,
                    "text": "Dan bahawa sesungguhnya balasan amal, tetap berlaku."
                },
                {
                    "id": 1095658,
                    "resource_id": 161,
                    "text": "কর্মফল দিবস অবশ্যই আসবে।"
                }
            ]
        },
        {
            "id": 4682,
            "verse_number": 7,
            "verse_key": "51:7",
            "hizb_number": 52,
            "rub_el_hizb_number": 208,
            "ruku_number": 457,
            "manzil_number": 7,
            "sajdah_number": null,
            "text_uthmani": "وَٱلسَّمَآءِ ذَاتِ ٱلْحُبُكِ",
            "page_number": 521,
            "juz_number": 26,
            "translations": [
                {
                    "id": 100331,
                    "resource_id": 20,
                    "text": "By the heaven containing pathways,<sup foot_note=197414>1</sup>"
                },
                {
                    "id": 218164,
                    "resource_id": 39,
                    "text": "Demi langit yang mempunyai jalan-jalan yang berbagai bentuk keadaannya,"
                },
                {
                    "id": 1095659,
                    "resource_id": 161,
                    "text": "বহু পথ বিশিষ্ট আকাশের শপথ।"
                }
            ]
        },
        {
            "id": 4683,
            "verse_number": 8,
            "verse_key": "51:8",
            "hizb_number": 52,
            "rub_el_hizb_number": 208,
            "ruku_number": 457,
            "manzil_number": 7,
            "sajdah_number": null,
            "text_uthmani": "إِنَّكُمْ لَفِى قَوْلٍ مُّخْتَلِفٍ",
            "page_number": 521,
            "juz_number": 26,
            "translations": [
                {
                    "id": 100333,
                    "resource_id": 20,
                    "text": "Indeed, you are in differing speech.<sup foot_note=197415>1</sup>"
                },
                {
                    "id": 218003,
                    "resource_id": 39,
                    "text": "Sesungguhnya kamu berada dalam keadaan berlainan pendapat (mengenai ugama yang dibawa oleh Nabi Muhammad, s.a.w)."
                },
                {
                    "id": 1095660,
                    "resource_id": 161,
                    "text": "(পরকাল সম্পর্কে) তোমরা অবশ্যই রয়েছ মতভেদের মধ্যে।"
                }
            ]
        },
        {
            "id": 4684,
            "verse_number": 9,
            "verse_key": "51:9",
            "hizb_number": 52,
            "rub_el_hizb_number": 208,
            "ruku_number": 457,
            "manzil_number": 7,
            "sajdah_number": null,
            "text_uthmani": "يُؤْفَكُ عَنْهُ مَنْ أُفِكَ",
            "page_number": 521,
            "juz_number": 26,
            "translations": [
                {
                    "id": 100335,
                    "resource_id": 20,
                    "text": "Deluded away from it [i.e., the Qur’ān] is he who is deluded."
                },
                {
                    "id": 218168,
                    "resource_id": 39,
                    "text": "Dipalingkan daripada (perselisihan) itu orang-orang yang telah dipalingkan Allah (dengan sebab keikhlasannya mencari kebenaran)."
                },
                {
                    "id": 1095661,
                    "resource_id": 161,
                    "text": "যারা সেই (সত্য) মানতে ভুল করে তারাই গুমরাহ।"
                }
            ]
        },
        {
            "id": 4685,
            "verse_number": 10,
            "verse_key": "51:10",
            "hizb_number": 52,
            "rub_el_hizb_number": 208,
            "ruku_number": 457,
            "manzil_number": 7,
            "sajdah_number": null,
            "text_uthmani": "قُتِلَ ٱلْخَرَّٰصُونَ",
            "page_number": 521,
            "juz_number": 26,
            "translations": [
                {
                    "id": 100263,
                    "resource_id": 20,
                    "text": "Destroyed are the misinformers<sup foot_note=197416>1</sup>"
                },
                {
                    "id": 218224,
                    "resource_id": 39,
                    "text": "Binasalah orang-orang yang sentiasa mengeluarkan pendapat dengan cara agak-agak sahaja,"
                },
                {
                    "id": 1095662,
                    "resource_id": 161,
                    "text": "অনুমানকারীরা ধ্বংস হোক,"
                }
            ]
        }
    ],
    "pagination": {
        "per_page": 10,
        "current_page": 1,
        "next_page": 2,
        "total_pages": 6,
        "total_records": 60
    }
}