{
    "verses": [
        {
            "id": 4847,
            "verse_number": 1,
            "verse_key": "54:1",
            "hizb_number": 53,
            "rub_el_hizb_number": 211,
            "ruku_number": 465,
            "manzil_number": 7,
            "sajdah_number": null,
            "text_uthmani": " ٱقْتَرَبَتِ ٱلسَّاعَةُ وَٱنشَقَّ ٱلْقَمَرُ",
            "page_number": 528,
            "juz_number": 27,
            "translations": [
                {
                    "id": 100465,
                    "resource_id": 20,
                    "text": "The Hour has come near, and the moon has split [in two].<sup foot_note=197453>1</sup>"
                },
                {
                    "id": 218322,
                    "resource_id": 39,
                    "text": "Telah hampir saat (kedatangan hari kiamat) dan terbelahlah bulan."
                },
                {
                    "id": 1095824,
                    "resource_id": 161,
                    "text": "ক্বিয়ামত নিকটবর্তী হয়েছে এবং চন্দ্র খন্ডিত হয়েছে,"
                }
            ]
        },
        {
            "id": 4848,
            "verse_number": 2,
            "verse_key": "54:2",
            "hizb_number": 53,
            "rub_el_hizb_number": 211,
            "ruku_number": 465,
            "manzil_number": 7,
            "sajdah_number": null,
            "text_uthmani": "وَإِن يَرَوْا۟ ءَايَةً يُعْرِضُوا۟ وَيَقُولُوا۟ سِحْرٌ مُّسْتَمِرٌّ",
            "page_number": 528,
            "juz_number": 27,
            "translations": [
                {
                    "id": 100477,
                    "resource_id": 20,
                    "text": "And if they see a sign [i.e., miracle], they turn away and say, \"Passing magic.\"<sup foot_note=197454>1</sup>"
                },
                {
                    "id": 218332,
                    "resource_id": 39,
                    "text": "Dan kalau mereka (kaum musyrik Mekah) melihat sesuatu mukjizat, mereka berpaling ingkar sambil berkata: (Ini ialah) sihir yang terus menerus berlaku."
                },
                {
                    "id": 1095825,
                    "resource_id": 161,
                    "text": "কিন্তু তারা যখন কোন নিদর্শন দেখে তখন মুখ ফিরিয়ে নেয় আর বলে- ‘এটা তো সেই আগের থেকে চলে আসা যাদু।’"
                }
            ]
        },
        {
            "id": 4849,
            "verse_number": 3,
            "verse_key": "54:3",
            "hizb_number": 53,
            "rub_el_hizb_number": 211,
            "ruku_number": 465,
            "manzil_number": 7,
            "sajdah_number": null,
            "text_uthmani": "وَكَذَّبُوا۟ وَٱتَّبَعُوٓا۟ أَهْوَآءَهُمْ ۚ وَكُلُّ أَمْرٍ مُّسْتَقِرٌّ",
            "page_number": 528,
            "juz_number": 27,
            "translations": [
                {
                    "id": 100489,
                    "resource_id": 20,
                    "text": "And they denied and followed their inclinations. But for every matter is a [time of] settlement."
                },
                {
                    "id": 218349,
                    "resource_id": 39,
                    "text": "Dan (telah menjadi adat) mereka mendustakan (Nabi Muhammad dan mukjizat-mukjizat yang dibawanya) serta menurut hawa nafsu mereka, sedang tiap-tiap perkara tetap (menurut keadaan yang ditentukan oleh Allah)."
                },
                {
                    "id": 1095826,
                    "resource_id": 161,
                    "text": "তারা সত্যকে অস্বীকার করে, আর নিজেদের কামনা বাসনার অনুসরণ করে। প্রতিটি বিষয়েরই একটা নির্দিষ্ট সময় আছে (সময় আসলেই বর্তমান অবস্থার পরিবর্তন ঘটবে)।"
                }
            ]
        },
        {
            "id": 4850,
            "verse_number": 4,
            "verse_key": "54:4",
            "hizb_number": 53,
            "rub_el_hizb_number": 211,
            "ruku_number": 465,
            "manzil_number": 7,
            "sajdah_number": null,
            "text_uthmani": "وَلَقَدْ جَآءَهُم مِّنَ ٱلْأَنۢبَآءِ مَا فِيهِ مُزْدَجَرٌ",
            "page_number": 528,
            "juz_number": 27,
            "translations": [
                {
                    "id": 100501,
                    "resource_id": 20,
                    "text": "And there has already come to them of information that in which there is deterrence."
                },
                {
                    "id": 218348,
                    "resource_id": 39,
                    "text": "Dan sesungguhnya! Telah sampai kepada mereka (dengan perantaraan Al-Quran), sebahagian dari kisah-kisah dan berita (umat-umat yang telah lalu), yang mengandungi perkara-perkara yang cukup untuk mencegah mereka (dari perbuatan kufur itu)."
                },
                {
                    "id": 1095827,
                    "resource_id": 161,
                    "text": "এই লোকেদের কাছে তো (অতীতের জাতিগুলোর) সংবাদ এসেছে যাতে আছে সাবধান বাণী।"
                }
            ]
        },
        {
            "id": 4851,
            "verse_number": 5,
            "verse_key": "54:5",
            "hizb_number": 53,
            "rub_el_hizb_number": 211,
            "ruku_number": 465,
            "manzil_number": 7,
            "sajdah_number": null,
            "text_uthmani": "حِكْمَةٌۢ بَـٰلِغَةٌ ۖ فَمَا تُغْنِ ٱلنُّذُرُ",
            "page_number": 528,
            "juz_number": 27,
            "translations": [
                {
                    "id": 100513,
                    "resource_id": 20,
                    "text": "Extensive wisdom - but warning does not avail [them]."
                },
                {
                    "id": 218358,
                    "resource_id": 39,
                    "text": "(Yang demikian ialah) pengajaran yang cukup sempurna; dalam pada itu, segala peringatan dan amaran tidak akan mendatangkan faedah (kepada mereka yang ingkar)."
                },
                {
                    "id": 1095828,
                    "resource_id": 161,
                    "text": "তা (হল) সুদূর প্রসারী জ্ঞান, কিন্তু সেই সতর্কবাণী কোন কাজে আসেনি।"
                }
            ]
        },
        {
            "id": 4852,
            "verse_number": 6,
            "verse_key": "54:6",
            "hizb_number": 53,
            "rub_el_hizb_number": 211,
            "ruku_number": 465,
            "manzil_number": 7,
            "sajdah_number": null,
            "text_uthmani": "فَتَوَلَّ عَنْهُمْ ۘ يَوْمَ يَدْعُ ٱلدَّاعِ إِلَىٰ شَىْءٍ نُّكُرٍ",
            "page_number": 528,
            "juz_number": 27,
            "translations": [
                {
                    "id": 100521,
                    "resource_id": 20,
                    "text": "So leave them, [O Muḥammad]. The Day the Caller<sup foot_note=197455>1</sup> calls to something forbidding,"
                },
                {
                    "id": 218366,
                    "resource_id": 39,
                    "text": "Oleh itu, berpalinglah dari mereka (wahai Muhammad dan janganlah dihiraukan). (Ingatlah) masa (malaikat) penyeru menyeru (mereka pada hari kiamat) kepada perkara yang tidak diingini (oleh orang yang bersalah);"
                },
                {
                    "id": 1095829,
                    "resource_id": 161,
                    "text": "কাজেই (হে নবী) তুমি তাদের থেকে মুখ ফিরিয়ে নাও (আর অপেক্ষা কর সে দিনের) যেদিন এক আহবানকারী (তাদেরকে) আহবান করবে এক ভয়াবহ বিষয়ের দিকে।"
                }
            ]
        },
        {
            "id": 4853,
            "verse_number": 7,
            "verse_key": "54:7",
            "hizb_number": 53,
            "rub_el_hizb_number": 211,
            "ruku_number": 465,
            "manzil_number": 7,
            "sajdah_number": null,
            "text_uthmani": "خُشَّعًا أَبْصَـٰرُهُمْ يَخْرُجُونَ مِنَ ٱلْأَجْدَاثِ كَأَنَّهُمْ جَرَادٌ مُّنتَشِرٌ",
            "page_number": 529,
            "juz_number": 27,
            "translations": [
                {
                    "id": 100523,
                    "resource_id": 20,
                    "text": "Their eyes humbled, they will emerge from the graves as if they were locusts spreading,"
                },
                {
                    "id": 218367,
                    "resource_id": 39,
                    "text": "(Pada saat itu) masing-masing dengan keadaan menundukkan pandangannya kerana ketakutan keluar dari kubur seperti belalang yang terbang bertebaran."
                },
                {
                    "id": 1095830,
                    "resource_id": 161,
                    "text": "ভীত-শংকিত চোখে তারা তাদের কবর থেকে বের হয়ে আসবে- যেন তারা বিক্ষিপ্ত পঙ্গপাল।"
                }
            ]
        },
        {
            "id": 4854,
            "verse_number": 8,
            "verse_key": "54:8",
            "hizb_number": 53,
            "rub_el_hizb_number": 211,
            "ruku_number": 465,
            "manzil_number": 7,
            "sajdah_number": null,
            "text_uthmani": "مُّهْطِعِينَ إِلَى ٱلدَّاعِ ۖ يَقُولُ ٱلْكَـٰفِرُونَ هَـٰذَا يَوْمٌ عَسِرٌ",
            "page_number": 529,
            "juz_number": 27,
            "translations": [
                {
                    "id": 100525,
                    "resource_id": 20,
                    "text": "Racing ahead toward the Caller. The disbelievers will say, \"This is a difficult Day.\""
                },
                {
                    "id": 218374,
                    "resource_id": 39,
                    "text": "Masing-masing dengan cepatnya menuju kepada penyeru itu. (Pada saat yang demikian), orang-orang yang kafir berkata: Hari ini ialah hari yang amat sukar!"
                },
                {
                    "id": 1095831,
                    "resource_id": 161,
                    "text": "ভীত-সন্ত্রস্ত হয়ে তারা আহবানকারীর দিকে ছুটে আসবে। কাফিররা বলবে- ‘‘কঠিন এ দিন’’।"
                }
            ]
        },
        {
            "id": 4855,
            "verse_number": 9,
            "verse_key": "54:9",
            "hizb_number": 53,
            "rub_el_hizb_number": 212,
            "ruku_number": 465,
            "manzil_number": 7,
            "sajdah_number": null,
            "text_uthmani": "۞ كَذَّبَتْ قَبْلَهُمْ قَوْمُ نُوحٍ فَكَذَّبُوا۟ عَبْدَنَا وَقَالُوا۟ مَجْنُونٌ وَٱزْدُجِرَ",
            "page_number": 529,
            "juz_number": 27,
            "translations": [
                {
                    "id": 100527,
                    "resource_id": 20,
                    "text": "The people of Noah denied before them, and they denied Our servant and said, \"A madman,\" and he was repelled."
                },
                {
                    "id": 218309,
                    "resource_id": 39,
                    "text": "Sebelum mereka, kaum Nabi Nuh juga telah mendustakan (Rasulnya); iaitu mereka mendustakan hamba Kami (Nabi Nuh) serta mereka menuduhnya dengan berkata: Dia seorang gila dan dia telah diancam (dan dihalang daripada menjalankan dakwah agama)."
                },
                {
                    "id": 1095832,
                    "resource_id": 161,
                    "text": "তাদের আগে নূহের জাতিও সত্য প্রত্যাখ্যান করেছিল। তারা আমার বান্দাহকে অস্বীকার করেছিল আর বলেছিল- ‘‘একটা পাগল’’; আর তাকে ভয় দেখানো হয়েছিল।"
                }
            ]
        },
        {
            "id": 4856,
            "verse_number": 10,
            "verse_key": "54:10",
            "hizb_number": 53,
            "rub_el_hizb_number": 212,
            "ruku_number": 465,
            "manzil_number": 7,
            "sajdah_number": null,
            "text_uthmani": "فَدَعَا رَبَّهُۥٓ أَنِّى مَغْلُوبٌ فَٱنتَصِرْ",
            "page_number": 529,
            "juz_number": 27,
            "translations": [
                {
                    "id": 100466,
                    "resource_id": 20,
                    "text": "So he invoked his Lord, \"Indeed, I am overpowered, so help.\""
                },
                {
                    "id": 218323,
                    "resource_id": 39,
                    "text": "Lalu dia berdoa merayu kepada Tuhannya dengan berkata: Sesungguhnya aku ini dikalahkan (oleh kaumku yang ingkar), oleh itu menangkanlah daku (terhadap mereka)!"
                },
                {
                    "id": 1095833,
                    "resource_id": 161,
                    "text": "তখন সে তার প্রতিপালককে ডেকেছিল- ‘‘আমি পরাস্ত হয়েছি, কাজেই তুমি এর প্রতিবিধান কর।’’"
                }
            ]
        }
    ],
    "pagination": {
        "per_page": 10,
        "current_page": 1,
        "next_page": 2,
        "total_pages": 6,
        "total_records": 55
    }
}