{
    "verses": [
        {
            "id": 5151,
            "verse_number": 1,
            "verse_key": "60:1",
            "hizb_number": 55,
            "rub_el_hizb_number": 219,
            "ruku_number": 484,
            "manzil_number": 7,
            "sajdah_number": null,
            "text_uthmani": " يَـٰٓأَيُّهَا ٱلَّذِينَ ءَامَنُوا۟ لَا تَتَّخِذُوا۟ عَدُوِّى وَعَدُوَّكُمْ أَوْلِيَآءَ تُلْقُونَ إِلَيْهِم بِٱلْمَوَدَّةِ وَقَدْ كَفَرُوا۟ بِمَا جَآءَكُم مِّنَ ٱلْحَقِّ يُخْرِجُونَ ٱلرَّسُولَ وَإِيَّاكُمْ ۙ أَن تُؤْمِنُوا۟ بِٱللَّهِ رَبِّكُمْ إِن كُنتُمْ خَرَجْتُمْ جِهَـٰدًا فِى سَبِيلِى وَٱبْتِغَآءَ مَرْضَاتِى ۚ تُسِرُّونَ إِلَيْهِم بِٱلْمَوَدَّةِ وَأَنَا۠ أَعْلَمُ بِمَآ أَخْفَيْتُمْ وَمَآ أَعْلَنتُمْ ۚ وَمَن يَفْعَلْهُ مِنكُمْ فَقَدْ ضَلَّ سَوَآءَ ٱلسَّبِيلِ",
            "page_number": 549,
            "juz_number": 28,
            "translations": [
                {
                    "id": 100831,
                    "resource_id": 20,
                    "text": "O you who have believed, do not take My enemies and your enemies as allies,<sup foot_note=197542>1</sup> extending to them affection while they have disbelieved in what came to you of the truth, having driven out the Prophet and yourselves [only] because you believe in Allāh, your Lord. If you have come out for jihād [i.e., fighting or striving] in My cause and seeking means to My approval, [take them not as friends]. You confide to them affection [i.e., instruction], but I am most knowing of what you have concealed and what you have declared. And whoever does it among you has certainly strayed from the soundness of the way."
                },
                {
                    "id": 218684,
                    "resource_id": 39,
                    "text": "Wahai orang-orang yang beriman! Janganlah kamu mengambil musuhKu dan musuh kamu menjadi teman rapat, dengan cara kamu sampaikan kepada mereka (berita-berita rahsia orang-orang mukmin) dengan sebab hubungan baik dan kasih mesra yang ada di antara kamu dengan mereka, sedang mereka telah kufur ingkar terhadap kebenaran (Islam) yang sampai kepada kamu; mereka pula telah mengeluarkan Rasulullah (s.a.w) dan juga mengeluarkan kamu (dari Tanah Suci Makkah) disebabkan kamu beriman kepada Allah Tuhan kamu. (Janganlah kamu berbuat demikian) jika betul kamu keluar untuk berjihad pada jalanKu dan untuk mencari keredaanKu. (Tidak ada sebarang faedahnya) kamu mengadakan hubungan kasih mesra dengan mereka secara rahsia, sedang Aku amat mengetahui akan apa yang kamu rahsiakan dan apa yang kamu zahirkan. Dan (ingatlah), sesiapa di antara kamu yang melakukan perkara yang demikian, maka sesungguhnya telah sesatlah ia dari jalan yang betul."
                },
                {
                    "id": 1096128,
                    "resource_id": 161,
                    "text": "হে ঈমানদারগণ! তোমরা আমার ও তোমাদের শত্রুদেরকে বন্ধুরূপে গ্রহণ করো না, তোমরা তাদের কাছে বন্ধুত্বের খবর পাঠাও, অথচ যে সত্য তোমাদের কাছে এসেছে তারা তা প্রত্যাখ্যান করেছে। তারা রসূলকে আর তোমাদেরকে শুধু এ কারণে বের করে দিয়েছে যে, তোমরা তোমাদের প্রতিপালক আল্লাহয় বিশ্বাস কর। তোমরা যদি আমার সন্তুষ্টি কামনায় আমার পথে জিহাদে বের হয়ে থাক, তাহলে তোমরা কেন গোপনে তাদের সাথে বন্ধুত্ব করছ? তোমরা যা গোপন কর আর তোমরা যা প্রকাশ কর, তা আমি খুব ভাল করেই জানি। তোমাদের মধ্যে যে তা করে সে সরল পথ থেকে ভ্রষ্ট হয়ে গেছে।"
                }
            ]
        },
        {
            "id": 5152,
            "verse_number": 2,
            "verse_key": "60:2",
            "hizb_number": 55,
            "rub_el_hizb_number": 219,
            "ruku_number": 484,
            "manzil_number": 7,
            "sajdah_number": null,
            "text_uthmani": "إِن يَثْقَفُوكُمْ يَكُونُوا۟ لَكُمْ أَعْدَآءً وَيَبْسُطُوٓا۟ إِلَيْكُمْ أَيْدِيَهُمْ وَأَلْسِنَتَهُم بِٱلسُّوٓءِ وَوَدُّوا۟ لَوْ تَكْفُرُونَ",
            "page_number": 549,
            "juz_number": 28,
            "translations": [
                {
                    "id": 100837,
                    "resource_id": 20,
                    "text": "If they gain dominance over you, they would be [i.e., behave] to you as enemies and extend against you their hands and their tongues with evil, and they wish you would disbelieve."
                },
                {
                    "id": 218690,
                    "resource_id": 39,
                    "text": "Jika mereka dapat menguasai kamu, nescaya mereka menjadi musuh yang membahayakan kamu, dan mereka akan membebaskan tangan mereka dan lidah mereka terhadap kamu dengan kejahatan, serta mereka suka kalaulah kamu juga menjadi kafir (seperti mereka)."
                },
                {
                    "id": 1096129,
                    "resource_id": 161,
                    "text": "তারা তোমাদেরকে জব্দ করতে পারলেই শত্রুর আচরণ করবে, আর তোমাদের অনিষ্ট করার জন্য তারা তাদের হাত ও মুখের ভাষা সম্প্রসারিত করবে আর তারা চাইবে যে, তোমরাও যেন কুফুরী কর।"
                }
            ]
        },
        {
            "id": 5153,
            "verse_number": 3,
            "verse_key": "60:3",
            "hizb_number": 55,
            "rub_el_hizb_number": 219,
            "ruku_number": 484,
            "manzil_number": 7,
            "sajdah_number": null,
            "text_uthmani": "لَن تَنفَعَكُمْ أَرْحَامُكُمْ وَلَآ أَوْلَـٰدُكُمْ ۚ يَوْمَ ٱلْقِيَـٰمَةِ يَفْصِلُ بَيْنَكُمْ ۚ وَٱللَّهُ بِمَا تَعْمَلُونَ بَصِيرٌ",
            "page_number": 549,
            "juz_number": 28,
            "translations": [
                {
                    "id": 100838,
                    "resource_id": 20,
                    "text": "Never will your relatives or your children benefit you; the Day of Resurrection He will judge between you. And Allāh, of what you do, is Seeing."
                },
                {
                    "id": 218691,
                    "resource_id": 39,
                    "text": "Kaum kerabat kamu dan anak-anak kamu (yang tidak menurut kamu beriman) tidak sekali-kali akan mendatangkan sebarang faedah kepada kamu pada hari kiamat; Allah akan memisahkan di antara kamu semua (pada hari itu). Dan (ingatlah), Allah Maha Melihat segala yang kamu kerjakan."
                },
                {
                    "id": 1096130,
                    "resource_id": 161,
                    "text": "ক্বিয়ামতের দিন তোমাদের আত্মীয়-স্বজন ও সন্তানাদি তোমাদের কোনই উপকারে আসবে না। (নিজ নিজ ‘আমালের ভিত্তিতে) আল্লাহ তোমাদের মধ্যে ফয়সালা করে দিবেন; তোমরা যা কর আল্লাহ তা দেখেন।"
                }
            ]
        },
        {
            "id": 5154,
            "verse_number": 4,
            "verse_key": "60:4",
            "hizb_number": 55,
            "rub_el_hizb_number": 219,
            "ruku_number": 484,
            "manzil_number": 7,
            "sajdah_number": null,
            "text_uthmani": "قَدْ كَانَتْ لَكُمْ أُسْوَةٌ حَسَنَةٌ فِىٓ إِبْرَٰهِيمَ وَٱلَّذِينَ مَعَهُۥٓ إِذْ قَالُوا۟ لِقَوْمِهِمْ إِنَّا بُرَءَٰٓؤُا۟ مِنكُمْ وَمِمَّا تَعْبُدُونَ مِن دُونِ ٱللَّهِ كَفَرْنَا بِكُمْ وَبَدَا بَيْنَنَا وَبَيْنَكُمُ ٱلْعَدَٰوَةُ وَٱلْبَغْضَآءُ أَبَدًا حَتَّىٰ تُؤْمِنُوا۟ بِٱللَّهِ وَحْدَهُۥٓ إِلَّا قَوْلَ إِبْرَٰهِيمَ لِأَبِيهِ لَأَسْتَغْفِرَنَّ لَكَ وَمَآ أَمْلِكُ لَكَ مِنَ ٱللَّهِ مِن شَىْءٍ ۖ رَّبَّنَا عَلَيْكَ تَوَكَّلْنَا وَإِلَيْكَ أَنَبْنَا وَإِلَيْكَ ٱلْمَصِيرُ",
            "page_number": 549,
            "juz_number": 28,
            "translations": [
                {
                    "id": 100839,
                    "resource_id": 20,
                    "text": "There has already been for you an excellent pattern<sup foot_note=197543>1</sup> in Abraham and those with him, when they said to their people, \"Indeed, we are disassociated from you and from whatever you worship other than Allāh. We have denied you, and there has appeared between us and you animosity and hatred forever until you believe in Allāh alone\" - except for the saying of Abraham to his father, \"I will surely ask forgiveness for you, but I have not [power to do] for you anything against Allāh. Our Lord, upon You we have relied, and to You we have returned, and to You is the destination."
                },
                {
                    "id": 218692,
                    "resource_id": 39,
                    "text": "Sesungguhnya adalah bagi kamu pada bawaan Nabi Ibrahim (a.s) dan pengikut-pengikutnya - contoh ikutan yang baik, semasa mereka berkata kepada kaumnya (yang kufur ingkar): \"Sesungguhnya kami berlepas diri daripada kamu dan daripada apa yang kamu sembah yang lain dari Allah; kami kufur ingkarkan (segala penyembahan) kamu dan (dengan ini) nyatalah perasaan permusuhan dan kebencian di antara kami dengan kamu selama-lamanya, sehingga kamu menyembah Allah semata-mata\", tetapi janganlah dicontohi perkataan Nabi Ibrahim kepada bapanya (katanya): \"Aku akan memohon kepada Tuhanku mengampun dosamu, dan aku tidak berkuasa menahan (azab seksa) dari Allah sedikit juapun daripada menimpamu\". (Berdoalah wahai orang-orang yang beriman sebagaimana Nabi Ibrahim dan pengikut-pengikutnya berdoa ketika mereka memusuhi kaumnya yang kafir, dengan berkata): \"Wahai Tuhan kami! Kepada Engkaulah sahaja kami berserah diri, dan kepada Engkaulah kami rujuk bertaubat, serta kepada Engkaulah jua tempat kembali!"
                },
                {
                    "id": 1096131,
                    "resource_id": 161,
                    "text": "ইবরাহীম ও তার সঙ্গী-সাথীদের মধ্যে তোমাদের জন্য আছে উত্তম আদর্শ। যখন তারা তাদের সম্প্রদায়কে বলেছিল- ‘তোমাদের সঙ্গে আর আল্লাহকে বাদ দিয়ে তোমরা যাদের ‘ইবাদাত কর তাদের সঙ্গে আমাদের কোন সম্পর্ক নেই। আমরা তোমাদেরকে প্রত্যাখ্যান করছি। আমাদের আর তোমাদের মাঝে চিরকালের জন্য শত্রুতা ও বিদ্বেষ শুরু হয়ে গেছে যতক্ষণ তোমরা এক আল্লাহর প্রতি ঈমান না আনবে। তবে ইবরাহীম যে তার পিতাকে বলেছিল- ‘আমি অবশ্য অবশ্যই তোমার জন্য ক্ষমা প্রার্থনা করব আর আমি তোমার জন্য আল্লাহর কাছ থেকে কোন কিছু করারই অধিকার রাখি না’’- এটা একটা ব্যতিক্রম। (আর ইবরাহীম ও তার সঙ্গী সাথীরা প্রার্থনা করেছিল) ‘হে আমাদের প্রতিপালক! আমরা তোমারই উপর নির্ভর করছি, তোমারই অভিমুখী হচ্ছি, আর (সব কিছুর) প্রত্যাবর্তন তো তোমারই পানে।"
                }
            ]
        },
        {
            "id": 5155,
            "verse_number": 5,
            "verse_key": "60:5",
            "hizb_number": 55,
            "rub_el_hizb_number": 219,
            "ruku_number": 484,
            "manzil_number": 7,
            "sajdah_number": null,
            "text_uthmani": "رَبَّنَا لَا تَجْعَلْنَا فِتْنَةً لِّلَّذِينَ كَفَرُوا۟ وَٱغْفِرْ لَنَا رَبَّنَآ ۖ إِنَّكَ أَنتَ ٱلْعَزِيزُ ٱلْحَكِيمُ",
            "page_number": 549,
            "juz_number": 28,
            "translations": [
                {
                    "id": 100840,
                    "resource_id": 20,
                    "text": "Our Lord, make us not [objects of] torment for the disbelievers and forgive us, our Lord. Indeed, it is You who is the Exalted in Might, the Wise.\""
                },
                {
                    "id": 218694,
                    "resource_id": 39,
                    "text": "\"Wahai Tuhan kami! Janganlah Engkau jadikan pendirian dan keyakinan kami terpesong kerana penindasan orang-orang kafir, dan ampunkanlah dosa kami wahai Tuhan kami; sesungguhnya Engkaulah sahaja Yang Maha Kuasa, lagi Maha Bijaksana\"."
                },
                {
                    "id": 1096132,
                    "resource_id": 161,
                    "text": "হে আমাদের প্রতিপালক! আমাদেরকে কাফিরদের উৎপীড়নের পাত্র করো না, হে আমাদের প্রতিপালক! তুমি আমাদেরকে ক্ষমা কর, তুমি মহা পরাক্রান্ত, মহা বিজ্ঞানী।"
                }
            ]
        },
        {
            "id": 5156,
            "verse_number": 6,
            "verse_key": "60:6",
            "hizb_number": 55,
            "rub_el_hizb_number": 219,
            "ruku_number": 484,
            "manzil_number": 7,
            "sajdah_number": null,
            "text_uthmani": "لَقَدْ كَانَ لَكُمْ فِيهِمْ أُسْوَةٌ حَسَنَةٌ لِّمَن كَانَ يَرْجُوا۟ ٱللَّهَ وَٱلْيَوْمَ ٱلْـَٔاخِرَ ۚ وَمَن يَتَوَلَّ فَإِنَّ ٱللَّهَ هُوَ ٱلْغَنِىُّ ٱلْحَمِيدُ",
            "page_number": 550,
            "juz_number": 28,
            "translations": [
                {
                    "id": 100841,
                    "resource_id": 20,
                    "text": "There has certainly been for you in them an excellent pattern for anyone whose hope is in Allāh and the Last Day. And whoever turns away - then indeed, Allāh is the Free of need, the Praiseworthy."
                },
                {
                    "id": 218695,
                    "resource_id": 39,
                    "text": "Demi sesungguhnya! Adalah bagi kamu pada bawaan Nabi Ibrahim dan pengikut-pengikutnya itu contoh ikutan yang baik, iaitu bagi orang yang sentiasa mengharapkan keredaan Allah dan (balasan baik) hari akhirat. Dan sesiapa yang berpaling daripada mencontohi mereka, (maka padahnya akan menimpa dirinya sendiri), kerana sesungguhnya Allah Dia lah Yang Maha Kaya, lagi Maha Terpuji."
                },
                {
                    "id": 1096133,
                    "resource_id": 161,
                    "text": "তোমরা যারা আল্লাহ (’র রহমত) ও শেষ দিবসের (সাফল্যের) প্রত্যাশী তাদের জন্য উত্তম আদর্শ রয়েছে তাদের [অর্থাৎ ইবরাহীম (আঃ) তাঁর অনুসারীদের] মধ্যে। আর কেউ মুখ ফিরিয়ে নিলে (সে জেনে রাখুক) আল্লাহ অমুখাপেক্ষী, প্রশংসিত।"
                }
            ]
        },
        {
            "id": 5157,
            "verse_number": 7,
            "verse_key": "60:7",
            "hizb_number": 55,
            "rub_el_hizb_number": 220,
            "ruku_number": 485,
            "manzil_number": 7,
            "sajdah_number": null,
            "text_uthmani": "۞ عَسَى ٱللَّهُ أَن يَجْعَلَ بَيْنَكُمْ وَبَيْنَ ٱلَّذِينَ عَادَيْتُم مِّنْهُم مَّوَدَّةً ۚ وَٱللَّهُ قَدِيرٌ ۚ وَٱللَّهُ غَفُورٌ رَّحِيمٌ",
            "page_number": 550,
            "juz_number": 28,
            "translations": [
                {
                    "id": 100842,
                    "resource_id": 20,
                    "text": "Perhaps Allāh will put, between you and those to whom you have been enemies among them, affection. And Allāh is competent,<sup foot_note=197544>1</sup> and Allāh is Forgiving and Merciful."
                },
                {
                    "id": 218696,
                    "resource_id": 39,
                    "text": "Semoga Allah akan mengadakan perasaan kasih sayang antara kamu dengan orang-orang yang kamu musuhi dari kerabat kamu itu (dengan jalan menjadikan mereka insaf dan memeluk Islam). Dan (ingatlah), Allah Maha Kuasa (atas tiap-tiap sesuatu), dan Allah Maha pengampun, lagi Maha Mengasihani."
                },
                {
                    "id": 1096134,
                    "resource_id": 161,
                    "text": "সম্ভবত আল্লাহ তোমাদের মধ্যে আর তাদের মধ্যেকার যাদেরকে তোমরা শত্রু বানিয়ে নিয়েছ তাদের মধ্যে বন্ধুত্ব সৃষ্টি করে দিবেন (তাদের মুসলিম হয়ে যাওয়ার মাধ্যমে)। আল্লাহ বড়ই শক্তিমান, আল্লাহ অতি ক্ষমাশীল, অতীব দয়ালু।"
                }
            ]
        },
        {
            "id": 5158,
            "verse_number": 8,
            "verse_key": "60:8",
            "hizb_number": 55,
            "rub_el_hizb_number": 220,
            "ruku_number": 485,
            "manzil_number": 7,
            "sajdah_number": null,
            "text_uthmani": "لَّا يَنْهَىٰكُمُ ٱللَّهُ عَنِ ٱلَّذِينَ لَمْ يُقَـٰتِلُوكُمْ فِى ٱلدِّينِ وَلَمْ يُخْرِجُوكُم مِّن دِيَـٰرِكُمْ أَن تَبَرُّوهُمْ وَتُقْسِطُوٓا۟ إِلَيْهِمْ ۚ إِنَّ ٱللَّهَ يُحِبُّ ٱلْمُقْسِطِينَ",
            "page_number": 550,
            "juz_number": 28,
            "translations": [
                {
                    "id": 100843,
                    "resource_id": 20,
                    "text": "Allāh does not forbid you from those who do not fight you because of religion and do not expel you from your homes - from being righteous toward them and acting justly toward them. Indeed, Allāh loves those who act justly."
                },
                {
                    "id": 218697,
                    "resource_id": 39,
                    "text": "Allah tidak melarang kamu daripada berbuat baik dan berlaku adil kepada orang-orang yang tidak memerangi kamu kerana ugama (kamu), dan tidak mengeluarkan kamu dari kampung halaman kamu; sesungguhnya Allah mengasihi orang-orang yang berlaku adil."
                },
                {
                    "id": 1096135,
                    "resource_id": 161,
                    "text": "দীনের ব্যাপারে যারা তোমাদের সাথে যুদ্ধ করেনি, আর তোমাদেরকে তোমাদের ঘর-বাড়ী থেকে বের ক’রে দেয়নি তাদের সঙ্গে সদয় ব্যবহার করতে আর ন্যায়নিষ্ঠ আচরণ করতে আল্লাহ নিষেধ করেন নি। আল্লাহ ন্যায়পরায়ণদেরকে ভালবাসেন।"
                }
            ]
        },
        {
            "id": 5159,
            "verse_number": 9,
            "verse_key": "60:9",
            "hizb_number": 55,
            "rub_el_hizb_number": 220,
            "ruku_number": 485,
            "manzil_number": 7,
            "sajdah_number": null,
            "text_uthmani": "إِنَّمَا يَنْهَىٰكُمُ ٱللَّهُ عَنِ ٱلَّذِينَ قَـٰتَلُوكُمْ فِى ٱلدِّينِ وَأَخْرَجُوكُم مِّن دِيَـٰرِكُمْ وَظَـٰهَرُوا۟ عَلَىٰٓ إِخْرَاجِكُمْ أَن تَوَلَّوْهُمْ ۚ وَمَن يَتَوَلَّهُمْ فَأُو۟لَـٰٓئِكَ هُمُ ٱلظَّـٰلِمُونَ",
            "page_number": 550,
            "juz_number": 28,
            "translations": [
                {
                    "id": 100844,
                    "resource_id": 20,
                    "text": "Allāh only forbids you from those who fight you because of religion and expel you from your homes and aid in your expulsion - [forbids] that you make allies<sup foot_note=197545>1</sup> of them. And whoever makes allies of them, then it is those who are the wrongdoers."
                },
                {
                    "id": 218698,
                    "resource_id": 39,
                    "text": "Sesungguhnya Allah hanyalah melarang kamu daripada menjadikan teman rapat orang-orang yang memerangi kamu kerana ugama (kamu), dan mengeluarkan kamu dari kampung halaman kamu, serta membantu (orang lain) untuk mengusir kamu. Dan (ingatlah), sesiapa yang menjadikan mereka teman rapat, maka mereka itulah orang-orang yang zalim."
                },
                {
                    "id": 1096136,
                    "resource_id": 161,
                    "text": "আল্লাহ তোমাদেরকে কেবল তাদের সঙ্গে বন্ধুত্ব করতে নিষেধ করেছেন যারা তোমাদের সঙ্গে দীনের ব্যাপারে যুদ্ধ করেছে, তোমাদেরকে তোমাদের ঘর-বাড়ী থেকে বের করে দিয়েছে আর তোমাদেরকে বের করে দেয়ার ব্যাপারে সাহায্য করেছে। যারা তাদের সঙ্গে বন্ধুত্ব করে তারাই যালিম।"
                }
            ]
        },
        {
            "id": 5160,
            "verse_number": 10,
            "verse_key": "60:10",
            "hizb_number": 55,
            "rub_el_hizb_number": 220,
            "ruku_number": 485,
            "manzil_number": 7,
            "sajdah_number": null,
            "text_uthmani": "يَـٰٓأَيُّهَا ٱلَّذِينَ ءَامَنُوٓا۟ إِذَا جَآءَكُمُ ٱلْمُؤْمِنَـٰتُ مُهَـٰجِرَٰتٍ فَٱمْتَحِنُوهُنَّ ۖ ٱللَّهُ أَعْلَمُ بِإِيمَـٰنِهِنَّ ۖ فَإِنْ عَلِمْتُمُوهُنَّ مُؤْمِنَـٰتٍ فَلَا تَرْجِعُوهُنَّ إِلَى ٱلْكُفَّارِ ۖ لَا هُنَّ حِلٌّ لَّهُمْ وَلَا هُمْ يَحِلُّونَ لَهُنَّ ۖ وَءَاتُوهُم مَّآ أَنفَقُوا۟ ۚ وَلَا جُنَاحَ عَلَيْكُمْ أَن تَنكِحُوهُنَّ إِذَآ ءَاتَيْتُمُوهُنَّ أُجُورَهُنَّ ۚ وَلَا تُمْسِكُوا۟ بِعِصَمِ ٱلْكَوَافِرِ وَسْـَٔلُوا۟ مَآ أَنفَقْتُمْ وَلْيَسْـَٔلُوا۟ مَآ أَنفَقُوا۟ ۚ ذَٰلِكُمْ حُكْمُ ٱللَّهِ ۖ يَحْكُمُ بَيْنَكُمْ ۚ وَٱللَّهُ عَلِيمٌ حَكِيمٌ",
            "page_number": 550,
            "juz_number": 28,
            "translations": [
                {
                    "id": 100832,
                    "resource_id": 20,
                    "text": "O you who have believed, when the believing women come to you as emigrants, examine [i.e., test] them. Allāh is most knowing as to their faith. And if you know them to be believers, then do not return them to the disbelievers; they are not lawful [wives] for them, nor are they lawful [husbands] for them. But give them [i.e., the disbelievers] what they have spent.<sup foot_note=197547>1</sup> And there is no blame upon you if you marry them when you have given them their due compensation [i.e., mahr]. And hold not to marriage bonds with disbelieving women, but ask for what you have spent and let them [i.e., the disbelievers] ask for what they have spent.<sup foot_note=197546>2</sup> That is the judgement of Allāh; He judges between you. And Allāh is Knowing and Wise."
                },
                {
                    "id": 218685,
                    "resource_id": 39,
                    "text": "Wahai orang-orang yang beriman! Apabila orang-orang perempuan yang mengaku beriman datang berhijrah kepada kamu, maka ujilah (iman) mereka: Allah lebih mengetahui akan iman mereka: dengan yang demikian, sekiranya kamu mengetahui bahawa mereka beriman, maka janganlah kamu mengembalikan mereka kepada orang-orang yang kafir. Mereka tidak halal bagi orang-orang kafir itu (sebagai isteri), dan orang-orang kafir itu pula tidak halal bagi mereka (sebagai suami). Dan berilah kepada suami-suami (yang kafir) itu apa yang mereka telah belanjakan. Dan tidaklah menjadi salah kamu berkahwin dengan mereka (perempuan-perempuan yang berhijrah itu) apabila kamu memberi kepada mereka maskahwinnya. Dan janganlah kamu (wahai orang-orang Islam) tetap berpegang kepada akad perkahwinan kamu dengan perempuan-perempuan yang (kekal dalam keadaan) kafir, dan mintalah balik maskahwin yang kamu telah berikan, dan biarkanlah mereka (suami-suami yang kafir itu) meminta balik apa yang mereka telah belanjakan. Demikianlah hukum Allah; Ia hukumkan di antara kamu (dengan adil). Dan (ingatlah), Allah Maha Mengetahui, lagi Maha Bijaksana."
                },
                {
                    "id": 1096137,
                    "resource_id": 161,
                    "text": "হে মু’মিনগণ! ঈমানদার নারীরা যখন তোমাদের কাছে হিজরাত করে আসে তখন তাদেরকে পরখ করে দেখ (তারা সত্যিই ঈমান এনেছে কি না)। তাদের ঈমান সম্বন্ধে আল্লাহ খুব ভালভাবেই জানেন। অতঃপর তোমরা যদি জানতে পার যে, তারা মু’মিনা, তাহলে তাদেরকে কাফিরদের কাছে ফেরত পাঠিও না। মু’মিনা নারীরা কাফিরদের জন্য হালাল নয়, আর কাফিররাও মু’মিনা নারীদের জন্য হালাল নয়। কাফির স্বামীরা (মোহর স্বরূপ) যা তাদের জন্য খরচ করেছিল তা কাফিরদেরকে ফেরত দিয়ে দাও। অতঃপর তোমরা তাদেরকে মোহর প্রদান করতঃ বিয়ে করলে তাতে তোমাদের কোন অপরাধ হবে না। তোমরা কাফির নারীদেরকে (বিবাহের) বন্ধনে আটকে রেখ না। তোমরা (তাদের মোহর স্বরূপ) যা ব্যয় করেছ তা ফেরত চেয়ে নাও, আর কাফিররাও ফেরত চেয়ে নিবে যা তারা ব্যয় করেছে (তাদের মু’মিনা স্ত্রীদের মোহর স্বরূপ)। এটা আল্লাহর নির্দেশ। তিনি তোমাদের মাঝে ফয়সালা করে দেন। আল্লাহ সর্ব জ্ঞানের অধিকারী, মহা বিজ্ঞানী।"
                }
            ]
        }
    ],
    "pagination": {
        "per_page": 10,
        "current_page": 1,
        "next_page": 2,
        "total_pages": 2,
        "total_records": 13
    }
}