{
    "verses": [
        {
            "id": 5178,
            "verse_number": 1,
            "verse_key": "62:1",
            "hizb_number": 56,
            "rub_el_hizb_number": 221,
            "ruku_number": 488,
            "manzil_number": 7,
            "sajdah_number": null,
            "text_uthmani": " يُسَبِّحُ لِلَّهِ مَا فِى ٱلسَّمَـٰوَٰتِ وَمَا فِى ٱلْأَرْضِ ٱلْمَلِكِ ٱلْقُدُّوسِ ٱلْعَزِيزِ ٱلْحَكِيمِ",
            "page_number": 553,
            "juz_number": 28,
            "translations": [
                {
                    "id": 100940,
                    "resource_id": 20,
                    "text": "Whatever is in the heavens and whatever is on the earth is exalting Allāh,<sup foot_note=197554>1</sup> the Sovereign, the Pure, the Exalted in Might, the Wise.<sup foot_note=197553>2</sup>"
                },
                {
                    "id": 218792,
                    "resource_id": 39,
                    "text": "Segala yang ada di langit dan yang ada di bumi sentiasa mengucap tasbih kepada Allah Yang Menguasai (sekalian alam), Yang Maha Suci, Yang Maha Kuasa, lagi Maha Bijaksana."
                },
                {
                    "id": 1096155,
                    "resource_id": 161,
                    "text": "যা কিছু আসমানে আছে আর যা কিছু যমীনে আছে সব কিছুই প্রশংসা ও মহিমা ঘোষণা করে আল্লাহর যিনি সর্বময় ক্ষমতার অধিকারী, অতি পবিত্র, মহাপরাক্রান্ত, মহাবিজ্ঞানী।"
                }
            ]
        },
        {
            "id": 5179,
            "verse_number": 2,
            "verse_key": "62:2",
            "hizb_number": 56,
            "rub_el_hizb_number": 221,
            "ruku_number": 488,
            "manzil_number": 7,
            "sajdah_number": null,
            "text_uthmani": "هُوَ ٱلَّذِى بَعَثَ فِى ٱلْأُمِّيِّـۧنَ رَسُولًا مِّنْهُمْ يَتْلُوا۟ عَلَيْهِمْ ءَايَـٰتِهِۦ وَيُزَكِّيهِمْ وَيُعَلِّمُهُمُ ٱلْكِتَـٰبَ وَٱلْحِكْمَةَ وَإِن كَانُوا۟ مِن قَبْلُ لَفِى ضَلَـٰلٍ مُّبِينٍ",
            "page_number": 553,
            "juz_number": 28,
            "translations": [
                {
                    "id": 100944,
                    "resource_id": 20,
                    "text": "It is He who has sent among the unlettered [Arabs] a Messenger from themselves reciting to them His verses and purifying them and teaching them the Book [i.e., the Qur’ān] and wisdom [i.e., the sunnah] - although they were before in clear error -"
                },
                {
                    "id": 218796,
                    "resource_id": 39,
                    "text": "Dia lah yang telah mengutuskan dalam kalangan orang-orang (Arab) yang Ummiyyin, seorang Rasul (Nabi Muhammad s.a.w) dari bangsa mereka sendiri, yang membacakan kepada mereka ayat-ayat Allah (yang membuktikan keesaan Allah dan kekuasaanNya), dan membersihkan mereka (dari iktiqad yang sesat), serta mengajarkan mereka Kitab Allah (Al-Quran) dan Hikmah (pengetahuan yang mendalam mengenai hukum-hukum syarak). Dan sesungguhnya mereka sebelum (kedatangan Nabi Muhammad) itu adalah dalam kesesatan yang nyata."
                },
                {
                    "id": 1096156,
                    "resource_id": 161,
                    "text": "তিনিই নিরক্ষরদের মাঝে পাঠিয়েছেন তাঁর রসূলকে তাদেরই মধ্য হতে, যে তাদের কাছে আল্লাহর আয়াত পাঠ করে, তাদেরকে পবিত্র করে, আর তাদেরকে কিতাব ও হিকমত শিক্ষা দেয় অথচ ইতোপূর্বে তারা ছিল স্পষ্ট গুমরাহীতে নিমজ্জিত।"
                }
            ]
        },
        {
            "id": 5180,
            "verse_number": 3,
            "verse_key": "62:3",
            "hizb_number": 56,
            "rub_el_hizb_number": 221,
            "ruku_number": 488,
            "manzil_number": 7,
            "sajdah_number": null,
            "text_uthmani": "وَءَاخَرِينَ مِنْهُمْ لَمَّا يَلْحَقُوا۟ بِهِمْ ۚ وَهُوَ ٱلْعَزِيزُ ٱلْحَكِيمُ",
            "page_number": 553,
            "juz_number": 28,
            "translations": [
                {
                    "id": 100946,
                    "resource_id": 20,
                    "text": "And [to] others of them who have not yet joined them. And He is the Exalted in Might, the Wise."
                },
                {
                    "id": 218798,
                    "resource_id": 39,
                    "text": "Dan juga (telah mengutuskan Nabi Muhammad kepada) orang-orang yang lain dari mereka, yang masih belum (datang lagi dan tetap akan datang) menghubungi mereka; dan (ingatlah), Allah jualah Yang Maha Kuasa, lagi Maha Bijaksana."
                },
                {
                    "id": 1096157,
                    "resource_id": 161,
                    "text": "আর (এই রসূলকে পাঠানো হয়েছে) তাদের অন্যান্যদের জন্যও যারা এখনও তাদের সাথে মিলিত হয়নি (কিন্তু তারা ভবিষ্যতে আসবে)। আল্লাহ মহাপরাক্রান্ত, মহাবিজ্ঞানী।"
                }
            ]
        },
        {
            "id": 5181,
            "verse_number": 4,
            "verse_key": "62:4",
            "hizb_number": 56,
            "rub_el_hizb_number": 221,
            "ruku_number": 488,
            "manzil_number": 7,
            "sajdah_number": null,
            "text_uthmani": "ذَٰلِكَ فَضْلُ ٱللَّهِ يُؤْتِيهِ مَن يَشَآءُ ۚ وَٱللَّهُ ذُو ٱلْفَضْلِ ٱلْعَظِيمِ",
            "page_number": 553,
            "juz_number": 28,
            "translations": [
                {
                    "id": 100948,
                    "resource_id": 20,
                    "text": "That is the bounty of Allāh, which He gives to whom He wills, and Allāh is the possessor of great bounty."
                },
                {
                    "id": 218773,
                    "resource_id": 39,
                    "text": "(Pengutusan Nabi Muhammad s.a.w, kepada umat manusia seluruhnya) itu (yang menjadi rahmat) adalah limpah kurnia Allah, diberikanNya kepada sesiapa yang dikehendakiNya; dan sememangnya Allah mempunyai limpah kurnia yang besar."
                },
                {
                    "id": 1096158,
                    "resource_id": 161,
                    "text": "ওটা আল্লাহর অনুগ্রহ যা তিনি যাকে ইচ্ছে দান করেন; আল্লাহ মহা অনুগ্রহের অধিকারী।"
                }
            ]
        },
        {
            "id": 5182,
            "verse_number": 5,
            "verse_key": "62:5",
            "hizb_number": 56,
            "rub_el_hizb_number": 221,
            "ruku_number": 488,
            "manzil_number": 7,
            "sajdah_number": null,
            "text_uthmani": "مَثَلُ ٱلَّذِينَ حُمِّلُوا۟ ٱلتَّوْرَىٰةَ ثُمَّ لَمْ يَحْمِلُوهَا كَمَثَلِ ٱلْحِمَارِ يَحْمِلُ أَسْفَارًۢا ۚ بِئْسَ مَثَلُ ٱلْقَوْمِ ٱلَّذِينَ كَذَّبُوا۟ بِـَٔايَـٰتِ ٱللَّهِ ۚ وَٱللَّهُ لَا يَهْدِى ٱلْقَوْمَ ٱلظَّـٰلِمِينَ",
            "page_number": 553,
            "juz_number": 28,
            "translations": [
                {
                    "id": 100950,
                    "resource_id": 20,
                    "text": "The example of those who were entrusted with the Torah and then did not take it on<sup foot_note=197556>1</sup> is like that of a donkey who carries volumes [of books].<sup foot_note=197555>2</sup> Wretched is the example of the people who deny the signs of Allāh. And Allāh does not guide the wrongdoing people."
                },
                {
                    "id": 218800,
                    "resource_id": 39,
                    "text": "(Sifat-sifat Nabi Muhammad itu telahpun diterangkan dalam Kitab Taurat tetapi orang-orang Yahudi tidak juga mempercayainya, maka) bandingan orang-orang (Yahudi) yang ditanggungjawab dan ditugaskan (mengetahui dan melaksanakan hukum) Kitab Taurat, kemudian mereka tidak menyempurnakan tanggungjawab dan tugas itu, samalah seperti keldai yang memikul bendela Kitab-kitab besar (sedang ia tidak mengetahui kandungannya). Buruk sungguh bandingan kaum yang mendustakan ayat-ayat keterangan Allah; dan (ingatlah), Allah tidak memberi hidayah petunjuk kepada kaum yang zalim."
                },
                {
                    "id": 1096159,
                    "resource_id": 161,
                    "text": "যাদের উপর তাওরাতের দায়িত্বভার দেয়া হয়েছিল, অতঃপর তা তারা বহন করেনি (অর্থাৎ তারা তাদের উপর ন্যস্ত দায়িত্ব পালন করেনি) তাদের দৃষ্টান্ত হল গাধার মত, যে বহু কিতাবের বোঝা বহন করে (কিন্তু তা বুঝে না)। যে সম্প্রদায় আল্লাহর আয়াতগুলোকে অস্বীকার করে, তাদের দৃষ্টান্ত কতইনা নিকৃষ্ট! যালিম সম্প্রদায়কে আল্লাহ সঠিক পথে পরিচালিত করেন না।"
                }
            ]
        },
        {
            "id": 5183,
            "verse_number": 6,
            "verse_key": "62:6",
            "hizb_number": 56,
            "rub_el_hizb_number": 221,
            "ruku_number": 488,
            "manzil_number": 7,
            "sajdah_number": null,
            "text_uthmani": "قُلْ يَـٰٓأَيُّهَا ٱلَّذِينَ هَادُوٓا۟ إِن زَعَمْتُمْ أَنَّكُمْ أَوْلِيَآءُ لِلَّهِ مِن دُونِ ٱلنَّاسِ فَتَمَنَّوُا۟ ٱلْمَوْتَ إِن كُنتُمْ صَـٰدِقِينَ",
            "page_number": 553,
            "juz_number": 28,
            "translations": [
                {
                    "id": 100952,
                    "resource_id": 20,
                    "text": "Say, \"O you who are Jews, if you claim that you are allies of Allāh, excluding the [other] people, then wish for death, if you should be truthful.\""
                },
                {
                    "id": 218802,
                    "resource_id": 39,
                    "text": "Katakanlah (wahai Muhammad): \"Wahai orang-orang yang berugama Yahudi, kalau kamu anggap bahawa kamulah sahaja orang-orang yang dikasihi Allah tidak termasuk umat-umat manusia yang lain, maka bercita-citalah hendakkan mati (dengan meminta kepada Allah supaya kamu dimatikan sekarang juga), jika betul kamu orang-orang yang benar!\""
                },
                {
                    "id": 1096160,
                    "resource_id": 161,
                    "text": "বল- ‘হে ইয়াহূদী হয়ে যাওয়া লোকেরা! তোমরা যদি মনে কর যে, অন্য সব লোককে বাদ দিয়ে কেবল তোমরাই আল্লাহর বন্ধু, তাহলে তোমরা মৃত্যু কামনা কর, যদি তোমরা সত্যবাদী হয়ে থাকো।"
                }
            ]
        },
        {
            "id": 5184,
            "verse_number": 7,
            "verse_key": "62:7",
            "hizb_number": 56,
            "rub_el_hizb_number": 221,
            "ruku_number": 488,
            "manzil_number": 7,
            "sajdah_number": null,
            "text_uthmani": "وَلَا يَتَمَنَّوْنَهُۥٓ أَبَدًۢا بِمَا قَدَّمَتْ أَيْدِيهِمْ ۚ وَٱللَّهُ عَلِيمٌۢ بِٱلظَّـٰلِمِينَ",
            "page_number": 553,
            "juz_number": 28,
            "translations": [
                {
                    "id": 100954,
                    "resource_id": 20,
                    "text": "But they will not wish for it, ever, because of what their hands have put forth. And Allāh is Knowing of the wrongdoers."
                },
                {
                    "id": 218804,
                    "resource_id": 39,
                    "text": "Dan (sudah tentu) mereka tidak akan bercita-cita hendakkan mati itu selama-lamanya, dengan sebab dosa-dosa yang mereka telah lakukan; dan Allah sentiasa mengetahui akan orang-orang yang zalim itu."
                },
                {
                    "id": 1096161,
                    "resource_id": 161,
                    "text": "কিন্তু তাদের হাত যে সব (কৃতকর্ম) আগে পাঠিয়েছে, সে কারণে তারা কক্ষনো মৃত্যুর কামনা করবে না। আর আল্লাহ যালিমদেরকে খুব ভাল করেই জানেন।"
                }
            ]
        },
        {
            "id": 5185,
            "verse_number": 8,
            "verse_key": "62:8",
            "hizb_number": 56,
            "rub_el_hizb_number": 221,
            "ruku_number": 488,
            "manzil_number": 7,
            "sajdah_number": null,
            "text_uthmani": "قُلْ إِنَّ ٱلْمَوْتَ ٱلَّذِى تَفِرُّونَ مِنْهُ فَإِنَّهُۥ مُلَـٰقِيكُمْ ۖ ثُمَّ تُرَدُّونَ إِلَىٰ عَـٰلِمِ ٱلْغَيْبِ وَٱلشَّهَـٰدَةِ فَيُنَبِّئُكُم بِمَا كُنتُمْ تَعْمَلُونَ",
            "page_number": 553,
            "juz_number": 28,
            "translations": [
                {
                    "id": 100956,
                    "resource_id": 20,
                    "text": "Say, \"Indeed, the death from which you flee - indeed, it will meet you. Then you will be returned to the Knower of the unseen and the witnessed, and He will inform you about what you used to do.\""
                },
                {
                    "id": 218806,
                    "resource_id": 39,
                    "text": "Katakanlah (wahai Muhammad): \"Sebenarnya maut yang kamu melarikan diri daripadanya itu, tetaplah ia akan menemui kamu; kemudian kamu akan dikembalikan kepada Allah yang mengetahui segala yang ghaib dan yang nyata, lalu Ia memberitahu kepada kamu apa yang kamu telah lakukan (serta membalasnya)\"."
                },
                {
                    "id": 1096162,
                    "resource_id": 161,
                    "text": "বল- ‘তোমরা যে মৃত্যু থেকে পালাচ্ছ তা অবশ্যই তোমাদের সাথে সাক্ষাৎ করবে। অতঃপর তোমাদেরকে দৃশ্য ও অদৃশ্যের জ্ঞানের অধিকারী (আল্লাহ)’র নিকট ফিরিয়ে নেয়া হবে; অতঃপর তোমাদেরকে জানিয়ে দেয়া হবে যা তোমরা করতে।"
                }
            ]
        },
        {
            "id": 5186,
            "verse_number": 9,
            "verse_key": "62:9",
            "hizb_number": 56,
            "rub_el_hizb_number": 221,
            "ruku_number": 489,
            "manzil_number": 7,
            "sajdah_number": null,
            "text_uthmani": "يَـٰٓأَيُّهَا ٱلَّذِينَ ءَامَنُوٓا۟ إِذَا نُودِىَ لِلصَّلَوٰةِ مِن يَوْمِ ٱلْجُمُعَةِ فَٱسْعَوْا۟ إِلَىٰ ذِكْرِ ٱللَّهِ وَذَرُوا۟ ٱلْبَيْعَ ۚ ذَٰلِكُمْ خَيْرٌ لَّكُمْ إِن كُنتُمْ تَعْلَمُونَ",
            "page_number": 554,
            "juz_number": 28,
            "translations": [
                {
                    "id": 100958,
                    "resource_id": 20,
                    "text": "O you who have believed, when [the adhān] is called for the prayer on the day of Jumuʿah [Friday], then proceed to the remembrance of Allāh and leave trade. That is better for you, if you only knew."
                },
                {
                    "id": 218808,
                    "resource_id": 39,
                    "text": "Wahai orang-orang yang beriman! Apabila diserukan azan (bang) untuk mengerjakan sembahyang pada hari Jumaat, maka segeralah kamu pergi (ke masjid) untuk mengingati Allah (dengan mengerjakan sembahyang jumaat) dan tinggalkanlah berjual-beli (pada saat itu); yang demikian adalah baik bagi kamu, jika kamu mengetahui (hakikat yang sebenarnya),"
                },
                {
                    "id": 1096163,
                    "resource_id": 161,
                    "text": "হে মু’মিনগণ! জুমু‘আহর দিনে যখন নামাযের জন্য ডাকা হয়, তখন আল্লাহর স্মরণের দিকে শীঘ্র ধাবিত হও, ক্রয়-বিক্রয় পরিত্যাগ কর, এটাই তোমাদের জন্য অতি উত্তম, যদি তোমরা জানতে!"
                }
            ]
        },
        {
            "id": 5187,
            "verse_number": 10,
            "verse_key": "62:10",
            "hizb_number": 56,
            "rub_el_hizb_number": 221,
            "ruku_number": 489,
            "manzil_number": 7,
            "sajdah_number": null,
            "text_uthmani": "فَإِذَا قُضِيَتِ ٱلصَّلَوٰةُ فَٱنتَشِرُوا۟ فِى ٱلْأَرْضِ وَٱبْتَغُوا۟ مِن فَضْلِ ٱللَّهِ وَٱذْكُرُوا۟ ٱللَّهَ كَثِيرًا لَّعَلَّكُمْ تُفْلِحُونَ",
            "page_number": 554,
            "juz_number": 28,
            "translations": [
                {
                    "id": 100941,
                    "resource_id": 20,
                    "text": "And when the prayer has been concluded, disperse within the land and seek from the bounty of Allāh, and remember Allāh often that you may succeed."
                },
                {
                    "id": 218793,
                    "resource_id": 39,
                    "text": "Kemudian setelah selesai sembahyang, maka bertebaranlah kamu di muka bumi (untuk menjalankan urusan masing-masing), dan carilah apa yang kamu hajati dari limpah kurnia Allah, serta ingatlah akan Allah banyak-banyak (dalam segala keadaan), supaya kamu berjaya (di dunia dan di akhirat)."
                },
                {
                    "id": 1096164,
                    "resource_id": 161,
                    "text": "অতঃপর যখন নামায সমাপ্ত হয়, তখন যমীনে ছড়িয়ে পড়, আর আল্লাহর অনুগ্রহ সন্ধান কর এবং আল্লাহকে বেশি বেশি স্মরণ করতে থাক- যাতে তোমরা সাফল্য লাভ করতে পার।"
                }
            ]
        }
    ],
    "pagination": {
        "per_page": 10,
        "current_page": 1,
        "next_page": 2,
        "total_pages": 2,
        "total_records": 11
    }
}