{
    "verses": [
        {
            "id": 5218,
            "verse_number": 1,
            "verse_key": "65:1",
            "hizb_number": 56,
            "rub_el_hizb_number": 223,
            "ruku_number": 494,
            "manzil_number": 7,
            "sajdah_number": null,
            "text_uthmani": " يَـٰٓأَيُّهَا ٱلنَّبِىُّ إِذَا طَلَّقْتُمُ ٱلنِّسَآءَ فَطَلِّقُوهُنَّ لِعِدَّتِهِنَّ وَأَحْصُوا۟ ٱلْعِدَّةَ ۖ وَٱتَّقُوا۟ ٱللَّهَ رَبَّكُمْ ۖ لَا تُخْرِجُوهُنَّ مِنۢ بُيُوتِهِنَّ وَلَا يَخْرُجْنَ إِلَّآ أَن يَأْتِينَ بِفَـٰحِشَةٍ مُّبَيِّنَةٍ ۚ وَتِلْكَ حُدُودُ ٱللَّهِ ۚ وَمَن يَتَعَدَّ حُدُودَ ٱللَّهِ فَقَدْ ظَلَمَ نَفْسَهُۥ ۚ لَا تَدْرِى لَعَلَّ ٱللَّهَ يُحْدِثُ بَعْدَ ذَٰلِكَ أَمْرًا",
            "page_number": 558,
            "juz_number": 28,
            "translations": [
                {
                    "id": 101013,
                    "resource_id": 20,
                    "text": "O Prophet, when you [Muslims] divorce women, divorce them for [the commencement of] their waiting period and keep count of the waiting period,<sup foot_note=197563>1</sup> and fear Allāh, your Lord. Do not turn them out of their [husbands'] houses, nor should they [themselves] leave [during that period] unless they are committing a clear immorality. And those are the limits [set by] Allāh. And whoever transgresses the limits of Allāh has certainly wronged himself. You know not; perhaps Allāh will bring about after that a [different] matter.<sup foot_note=197562>2</sup>"
                },
                {
                    "id": 218865,
                    "resource_id": 39,
                    "text": "Wahai Nabi! Apabila kamu - (engkau dan umatmu) - hendak menceraikan isteri-isteri (kamu), maka ceraikanlah mereka pada masa mereka dapat memulakan idahnya, dan hitunglah masa idah itu (dengan betul), serta bertaqwalah kepada Allah, Tuhan kamu. Janganlah kamu mengeluarkan mereka dari rumah-rumah kediamannya (sehingga selesai idahnya), dan janganlah pula (dibenarkan) mereka keluar (dari situ), kecuali (jika) mereka melakukan perbuatan keji yang nyata. Dan itulah aturan-aturan hukum Allah (maka janganlah kamu melanggarnya); dan sesiapa yang melanggar aturan-aturan hukum Allah maka sesungguhnya ia telah berlaku zalim kepada dirinya. (Patuhilah hukum-hukum itu, kerana) engkau tidak mengetahui boleh jadi Allah akan mengadakan, sesudah itu, sesuatu perkara (yang lain)."
                },
                {
                    "id": 1096195,
                    "resource_id": 161,
                    "text": "হে নবী! তোমরা যখন স্ত্রীদেরকে তালাক দিতে চাও তখন তাদেরকে তালাক দাও তাদের ‘ইদ্দাতের প্রতি লক্ষ্য রেখে, আর ‘ইদ্দাতের হিসাব সঠিকভাবে গণনা করবে, (তালাক দেয়া ও ‘ইদ্দাত পালন সংক্রান্ত শারী‘আতের বিধি-বিধান পালনে) তোমরা তোমাদের প্রতিপালক আল্লাহকে ভয় কর। তাদেরকে তাদের বাসগৃহ থেকে বের করে দিও না, আর তারা নিজেরাও যেন বের হয়ে না যায়, যদি না তারা স্পষ্ট অশ্লীলতায় লিপ্ত হয়। এগুলো আল্লাহর সীমারেখা। যে কেউ আল্লাহর সীমারেখা লঙ্ঘন করে, সে নিজের উপরই যুলম করে। তোমরা জান না, আল্লাহ হয়তো এরপরও (স্বামী-স্ত্রীর মধ্যে সমঝোতার) কোন উপায় বের করে দিবেন।"
                }
            ]
        },
        {
            "id": 5219,
            "verse_number": 2,
            "verse_key": "65:2",
            "hizb_number": 56,
            "rub_el_hizb_number": 223,
            "ruku_number": 494,
            "manzil_number": 7,
            "sajdah_number": null,
            "text_uthmani": "فَإِذَا بَلَغْنَ أَجَلَهُنَّ فَأَمْسِكُوهُنَّ بِمَعْرُوفٍ أَوْ فَارِقُوهُنَّ بِمَعْرُوفٍ وَأَشْهِدُوا۟ ذَوَىْ عَدْلٍ مِّنكُمْ وَأَقِيمُوا۟ ٱلشَّهَـٰدَةَ لِلَّهِ ۚ ذَٰلِكُمْ يُوعَظُ بِهِۦ مَن كَانَ يُؤْمِنُ بِٱللَّهِ وَٱلْيَوْمِ ٱلْـَٔاخِرِ ۚ وَمَن يَتَّقِ ٱللَّهَ يَجْعَل لَّهُۥ مَخْرَجًا",
            "page_number": 558,
            "juz_number": 28,
            "translations": [
                {
                    "id": 101018,
                    "resource_id": 20,
                    "text": "And when they have [nearly] fulfilled their term, either retain them according to acceptable terms or part with them according to acceptable terms. And bring to witness two just men from among you and establish the testimony for [the acceptance of] Allāh. That is instructed to whoever should believe in Allāh and the Last Day. And whoever fears Allāh - He will make for him a way out<sup foot_note=197564>1</sup>"
                },
                {
                    "id": 218871,
                    "resource_id": 39,
                    "text": "Kemudian, apabila mereka (hampir) habis tempoh idahnya, maka bolehlah kamu pegang mereka (rujuk) dengan cara yang baik, atau lepaskan mereka dengan cara yang baik; dan adakanlah dua orang saksi yang adil di antara kamu (semasa kamu merujukkan atau melepaskannya); dan hendaklah kamu (yang menjadi saksi) menyempurnakan persaksian itu kerana Allah semata-mata. Dengan hukum-hukum yang tersebut diberi peringatan dan pengajaran kepada sesiapa yang beriman kepada Allah dan hari akhirat; dan sesiapa yang bertaqwa kepada Allah (dengan mengerjakan suruhanNya dan meninggalkan laranganNya), nescaya Allah akan mengadakan baginya jalan keluar (dari segala perkara yang menyusahkannya),"
                },
                {
                    "id": 1096196,
                    "resource_id": 161,
                    "text": "অতঃপর যখন তাদের (‘ইদ্দাতের) সময়কাল এসে যায়, তখন তাদেরকে ভালভাবে (স্ত্রী হিসেবে) রেখে দাও, অথবা ভালভাবে তাদেরকে বিচ্ছিন্ন করে দাও। আর তোমাদের মধ্যেকার দু’জন ন্যায়পরায়ণ লোককে সাক্ষী রাখ। তোমরা আল্লাহর জন্য সঠিকভাবে সাক্ষ্য দাও। এর দ্বারা তোমাদেরকে উপদেশ দেয়া হচ্ছে যারা আল্লাহ ও আখিরাত দিবসের প্রতি ঈমান রাখে। যে কেউ আল্লাহকে ভয় করে, আল্লাহ তার জন্য (সমস্যা থেকে উদ্ধার পাওয়ার) কোন না কোন পথ বের করে দিবেন।"
                }
            ]
        },
        {
            "id": 5220,
            "verse_number": 3,
            "verse_key": "65:3",
            "hizb_number": 56,
            "rub_el_hizb_number": 223,
            "ruku_number": 494,
            "manzil_number": 7,
            "sajdah_number": null,
            "text_uthmani": "وَيَرْزُقْهُ مِنْ حَيْثُ لَا يَحْتَسِبُ ۚ وَمَن يَتَوَكَّلْ عَلَى ٱللَّهِ فَهُوَ حَسْبُهُۥٓ ۚ إِنَّ ٱللَّهَ بَـٰلِغُ أَمْرِهِۦ ۚ قَدْ جَعَلَ ٱللَّهُ لِكُلِّ شَىْءٍ قَدْرًا",
            "page_number": 558,
            "juz_number": 28,
            "translations": [
                {
                    "id": 101020,
                    "resource_id": 20,
                    "text": "And will provide for him from where he does not expect. And whoever relies upon Allāh - then He is sufficient for him. Indeed, Allāh will accomplish His purpose. Allāh has already set for everything a [decreed] extent."
                },
                {
                    "id": 218873,
                    "resource_id": 39,
                    "text": "Serta memberinya rezeki dari jalan yang tidak terlintas di hatinya. Dan (Ingatlah), sesiapa berserah diri bulat-bulat kepada Allah, maka Allah cukuplah baginya (untuk menolong dan menyelamatkannya). Sesungguhnya Allah tetap melakukan segala perkara yang dikehendakiNya. Allah telahpun menentukan kadar dan masa bagi berlakunya tiap-tiap sesuatu."
                },
                {
                    "id": 1096197,
                    "resource_id": 161,
                    "text": "আর তাকে রিযক দিবেন (এমন উৎস) থেকে যা সে ধারণাও করতে পারে না। যে কেউ আল্লাহর উপর ভরসা করে, তবে তার জন্য তিনিই যথেষ্ট। আল্লাহ নিজের কাজ সম্পূর্ণ করবেনই। আল্লাহ প্রতিটি জিনিসের জন্য করেছেন একটা সুনির্দিষ্ট মাত্রা।"
                }
            ]
        },
        {
            "id": 5221,
            "verse_number": 4,
            "verse_key": "65:4",
            "hizb_number": 56,
            "rub_el_hizb_number": 223,
            "ruku_number": 494,
            "manzil_number": 7,
            "sajdah_number": null,
            "text_uthmani": "وَٱلَّـٰٓـِٔى يَئِسْنَ مِنَ ٱلْمَحِيضِ مِن نِّسَآئِكُمْ إِنِ ٱرْتَبْتُمْ فَعِدَّتُهُنَّ ثَلَـٰثَةُ أَشْهُرٍ وَٱلَّـٰٓـِٔى لَمْ يَحِضْنَ ۚ وَأُو۟لَـٰتُ ٱلْأَحْمَالِ أَجَلُهُنَّ أَن يَضَعْنَ حَمْلَهُنَّ ۚ وَمَن يَتَّقِ ٱللَّهَ يَجْعَل لَّهُۥ مِنْ أَمْرِهِۦ يُسْرًا",
            "page_number": 558,
            "juz_number": 28,
            "translations": [
                {
                    "id": 101022,
                    "resource_id": 20,
                    "text": "And those who no longer expect menstruation among your women - if you doubt, then their period is three months, and [also for] those who have not menstruated. And for those who are pregnant, their term is until they give birth.<sup foot_note=197565>1</sup> And whoever fears Allāh - He will make for him of his matter ease."
                },
                {
                    "id": 218875,
                    "resource_id": 39,
                    "text": "Dan perempuan-perempuan dari kalangan kamu yang putus asa dari kedatangan haid, jika kamu menaruh syak (terhadap tempoh idah mereka) maka idahnya ialah tiga bulan; dan (demikian) juga idah perempuan-perempuan yang tidak berhaid. Dan perempuan-perempuan mengandung, tempoh idahnya ialah hingga mereka melahirkan anak yang dikandungnya. Dan (ingatlah), sesiapa yang bertaqwa kepada Allah, nescaya Allah memudahkan baginya segala urusannya."
                },
                {
                    "id": 1096198,
                    "resource_id": 161,
                    "text": "তোমাদের যে সব স্ত্রীগণ মাসিক ঋতু আসার বয়স অতিক্রম করেছে তাদের (‘ইদ্দাতের) ব্যাপারে যদি তোমাদের সন্দেহ সৃষ্টি হয়, সেক্ষেত্রে তাদের ‘ইদ্দাতকাল তিন মাস, আর যারা (অল্প বয়স্কা হওয়ার কারণে) এখনও ঋতুবতী হয়নি (এ নিয়ম) তাদের জন্যও। আর গর্ভবতী স্ত্রীদের ‘ইদ্দাতকাল তাদের সন্তান প্রসব পর্যন্ত। যে আল্লাহকে ভয় করে, আল্লাহ তার কাজ সহজ করে দেন।"
                }
            ]
        },
        {
            "id": 5222,
            "verse_number": 5,
            "verse_key": "65:5",
            "hizb_number": 56,
            "rub_el_hizb_number": 223,
            "ruku_number": 494,
            "manzil_number": 7,
            "sajdah_number": null,
            "text_uthmani": "ذَٰلِكَ أَمْرُ ٱللَّهِ أَنزَلَهُۥٓ إِلَيْكُمْ ۚ وَمَن يَتَّقِ ٱللَّهَ يُكَفِّرْ عَنْهُ سَيِّـَٔاتِهِۦ وَيُعْظِمْ لَهُۥٓ أَجْرًا",
            "page_number": 558,
            "juz_number": 28,
            "translations": [
                {
                    "id": 101024,
                    "resource_id": 20,
                    "text": "That is the command of Allāh, which He has sent down to you; and whoever fears Allāh - He will remove for him his misdeeds and make great for him his reward."
                },
                {
                    "id": 218876,
                    "resource_id": 39,
                    "text": "Peraturan-peraturan yang demikian adalah hukum-hukum Allah yang diturunkan dan diterangkanNya kepada kamu; dan (ingatlah), sesiapa yang bertaqwa kepada Allah, nescaya Allah menghapuskan kesalahan-kesalahannya, dan akan membesarkan pahala balasannya."
                },
                {
                    "id": 1096199,
                    "resource_id": 161,
                    "text": "এটা আল্লাহর হুকুম যা তিনি তোমাদের উপর অবতীর্ণ করেছেন। যে কেউ আল্লাহকে ভয় করে, আল্লাহ তার পাপ মোচন করে দিবেন, আর তার প্রতিফলকে বিশাল বিস্তৃত করে দিবেন।"
                }
            ]
        },
        {
            "id": 5223,
            "verse_number": 6,
            "verse_key": "65:6",
            "hizb_number": 56,
            "rub_el_hizb_number": 223,
            "ruku_number": 494,
            "manzil_number": 7,
            "sajdah_number": null,
            "text_uthmani": "أَسْكِنُوهُنَّ مِنْ حَيْثُ سَكَنتُم مِّن وُجْدِكُمْ وَلَا تُضَآرُّوهُنَّ لِتُضَيِّقُوا۟ عَلَيْهِنَّ ۚ وَإِن كُنَّ أُو۟لَـٰتِ حَمْلٍ فَأَنفِقُوا۟ عَلَيْهِنَّ حَتَّىٰ يَضَعْنَ حَمْلَهُنَّ ۚ فَإِنْ أَرْضَعْنَ لَكُمْ فَـَٔاتُوهُنَّ أُجُورَهُنَّ ۖ وَأْتَمِرُوا۟ بَيْنَكُم بِمَعْرُوفٍ ۖ وَإِن تَعَاسَرْتُمْ فَسَتُرْضِعُ لَهُۥٓ أُخْرَىٰ",
            "page_number": 559,
            "juz_number": 28,
            "translations": [
                {
                    "id": 101026,
                    "resource_id": 20,
                    "text": "Lodge them<sup foot_note=197568>1</sup> [in a section] of where you dwell out of your means and do not harm them in order to oppress them.<sup foot_note=197567>2</sup> And if they should be pregnant, then spend on them until they give birth. And if they breastfeed for you, then give them their payment and confer among yourselves in the acceptable way; but if you are in discord, then there may breastfeed for him [i.e., the father] another woman.<sup foot_note=197566>3</sup>"
                },
                {
                    "id": 218878,
                    "resource_id": 39,
                    "text": "Tempatkanlah isteri-isteri (yang menjalani idahnya) itu di tempat kediaman kamu sesuai dengan kemampuan kamu; dan janganlah kamu adakan sesuatu yang menyakiti mereka (di tempat tinggal itu) dengan tujuan hendak menyusahkan kedudukan mereka (supaya mereka keluar meninggalkan tempat itu). Dan jika mereka berkeadaan sedang mengandung, maka berikanlah kepada mereka nafkahnya sehingga mereka melahirkan anak yang dikandungnya; kemudian jika mereka menyusukan anak untuk kamu, maka berikanlah kepada mereka upahnya; dan berundinglah di antara kamu (dalam hal menyusunya) dengan cara yang baik. Dan (sebaliknya) jika kamu (dari kedua pihak) mengalami kesulitan, maka bolehlah perempuan lain menyusukannya."
                },
                {
                    "id": 1096200,
                    "resource_id": 161,
                    "text": "(‘ইদ্দাতকালে) নারীদেরকে সেভাবেই বসবাস করতে দাও যেভাবে তোমরা বসবাস কর তোমাদের সামর্থ্য অনুযায়ী, তাদেরকে সংকটে ফেলার জন্য তাদেরকে জ্বালাতন করো না। তারা যদি গর্ভবতী হয়ে থাকে, তবে তারা সন্তান প্রসব না করা পর্যন্ত তাদের ব্যয়ভার বহন কর। অতঃপর তারা যদি তোমাদের সন্তানকে দুধ পান করায়, তবে তাদেরকে তাদের পারিশ্রমিক দাও। (দুধ পান করানোর ব্যাপারে) ন্যায়সঙ্গতভাবে নিজেদের মধ্যে পরামর্শ করে লও। আর (দুধ পান করানোর ব্যাপার নিয়ে) তোমরা যদি একে অপরের প্রতি কড়াকড়ি করতেই থাক, তাহলে (এ অবস্থা থেকে রেহাই পাওয়ার জন্য) অপর কোন স্ত্রীলোক সন্তানকে দুধ পান করাবে।"
                }
            ]
        },
        {
            "id": 5224,
            "verse_number": 7,
            "verse_key": "65:7",
            "hizb_number": 56,
            "rub_el_hizb_number": 223,
            "ruku_number": 494,
            "manzil_number": 7,
            "sajdah_number": null,
            "text_uthmani": "لِيُنفِقْ ذُو سَعَةٍ مِّن سَعَتِهِۦ ۖ وَمَن قُدِرَ عَلَيْهِ رِزْقُهُۥ فَلْيُنفِقْ مِمَّآ ءَاتَىٰهُ ٱللَّهُ ۚ لَا يُكَلِّفُ ٱللَّهُ نَفْسًا إِلَّا مَآ ءَاتَىٰهَا ۚ سَيَجْعَلُ ٱللَّهُ بَعْدَ عُسْرٍ يُسْرًا",
            "page_number": 559,
            "juz_number": 28,
            "translations": [
                {
                    "id": 101028,
                    "resource_id": 20,
                    "text": "Let a man of wealth spend from his wealth, and he whose provision is restricted - let him spend from what Allāh has given him. Allāh does not charge a soul except [according to] what He has given it. Allāh will bring about, after hardship, ease [i.e., relief]."
                },
                {
                    "id": 218880,
                    "resource_id": 39,
                    "text": "Hendaklah orang yang mampu memberi nafkah menurut kemampuannya; dan sesiapa yang di sempitkan rezekinya, maka hendaklah ia memberi nafkah dari apa yang diberikan Allah kepadanya (sekadar yang mampu); Allah tidak memberati seseorang melainkan (sekadar kemampuan) yang diberikan Allah kepadanya. (Orang-orang yang dalam kesempitan hendaklah ingat bahawa) Allah akan memberikan kesenangan sesudah berlakunya kesusahan."
                },
                {
                    "id": 1096201,
                    "resource_id": 161,
                    "text": "সচ্ছল ব্যক্তি তার সচ্ছলতা অনুসারে ব্যয় করবে। আর যার রিযক সীমিত করা হয়েছে, সে ব্যয় করবে আল্লাহ তাকে যা দিয়েছেন তাত্থেকে। আল্লাহ যাকে যতটা দিয়েছেন তার অতিরিক্ত বোঝা তার উপর চাপান না। আল্লাহ কষ্টের পর আরাম দিবেন।"
                }
            ]
        },
        {
            "id": 5225,
            "verse_number": 8,
            "verse_key": "65:8",
            "hizb_number": 56,
            "rub_el_hizb_number": 223,
            "ruku_number": 495,
            "manzil_number": 7,
            "sajdah_number": null,
            "text_uthmani": "وَكَأَيِّن مِّن قَرْيَةٍ عَتَتْ عَنْ أَمْرِ رَبِّهَا وَرُسُلِهِۦ فَحَاسَبْنَـٰهَا حِسَابًا شَدِيدًا وَعَذَّبْنَـٰهَا عَذَابًا نُّكْرًا",
            "page_number": 559,
            "juz_number": 28,
            "translations": [
                {
                    "id": 101030,
                    "resource_id": 20,
                    "text": "And how many a city was insolent toward the command of its Lord and His messengers, so We took it to severe account and punished it with a terrible punishment."
                },
                {
                    "id": 218882,
                    "resource_id": 39,
                    "text": "Dan bukan sedikit negeri-negeri yang penduduknya menderhaka terhadap perintah Tuhan mereka dan Rasul-rasulNya, maka Kami hitung amal mereka satu persatu dengan hitungan yang keras rapi, serta Kami seksakan mereka dengan azab yang tidak pernah dikenal dahsyatnya."
                },
                {
                    "id": 1096202,
                    "resource_id": 161,
                    "text": "কত জনপদ তাদের প্রতিপালকের আর তাঁর রসূলদের হুকুম অমান্য করেছে। ফলে আমরা তাদের থেকে কঠিনভাবে প্রতিশোধ নিয়েছি আর তাদেরকে ‘আযাব দিয়েছি কঠিন ‘আযাব।"
                }
            ]
        },
        {
            "id": 5226,
            "verse_number": 9,
            "verse_key": "65:9",
            "hizb_number": 56,
            "rub_el_hizb_number": 223,
            "ruku_number": 495,
            "manzil_number": 7,
            "sajdah_number": null,
            "text_uthmani": "فَذَاقَتْ وَبَالَ أَمْرِهَا وَكَانَ عَـٰقِبَةُ أَمْرِهَا خُسْرًا",
            "page_number": 559,
            "juz_number": 28,
            "translations": [
                {
                    "id": 101032,
                    "resource_id": 20,
                    "text": "And it tasted the bad consequence of its affair [i.e., rebellion], and the outcome of its affair was loss."
                },
                {
                    "id": 214901,
                    "resource_id": 39,
                    "text": "Lalu mereka merasai kesan yang buruk dari perbuatan derhakanya, dan menjadilah akibat perbuatan mereka satu kerugian yang besar."
                },
                {
                    "id": 1096203,
                    "resource_id": 161,
                    "text": "তারা তাদের কৃতকর্মের খারাপ প্রতিফল আস্বাদন করল, ধ্বংসই হল তাদের কাজের পরিণতি।"
                }
            ]
        },
        {
            "id": 5227,
            "verse_number": 10,
            "verse_key": "65:10",
            "hizb_number": 56,
            "rub_el_hizb_number": 223,
            "ruku_number": 495,
            "manzil_number": 7,
            "sajdah_number": null,
            "text_uthmani": "أَعَدَّ ٱللَّهُ لَهُمْ عَذَابًا شَدِيدًا ۖ فَٱتَّقُوا۟ ٱللَّهَ يَـٰٓأُو۟لِى ٱلْأَلْبَـٰبِ ٱلَّذِينَ ءَامَنُوا۟ ۚ قَدْ أَنزَلَ ٱللَّهُ إِلَيْكُمْ ذِكْرًا",
            "page_number": 559,
            "juz_number": 28,
            "translations": [
                {
                    "id": 101014,
                    "resource_id": 20,
                    "text": "Allāh has prepared for them a severe punishment; so fear Allāh, O you of understanding who have believed. Allāh has sent down to you a message [i.e., the Qur’ān].<sup foot_note=197569>1</sup>"
                },
                {
                    "id": 218866,
                    "resource_id": 39,
                    "text": "Allah menyediakan bagi mereka azab seksa yang seberat-beratnya. Maka bertaqwalah kepada Allah kepada wahai orang yang berakal sempurna dari kalangan orang yang beriman. Sesungguhnya Allah telah menurunkan kepada kamu peringatan -"
                },
                {
                    "id": 1096204,
                    "resource_id": 161,
                    "text": "আল্লাহ তাদের জন্য কঠিন শাস্তি প্রস্তুত করে রেখেছেন। অতএব হে জ্ঞানবুদ্ধিসম্পন্ন মানুষেরা! যারা ঈমান এনেছ তোমরা আল্লাহকে ভয় কর। আল্লাহ তোমাদের প্রতি অবতীর্ণ করেছেন উপদেশ।"
                }
            ]
        }
    ],
    "pagination": {
        "per_page": 10,
        "current_page": 1,
        "next_page": 2,
        "total_pages": 2,
        "total_records": 12
    }
}