{
    "verses": [
        {
            "id": 5324,
            "verse_number": 1,
            "verse_key": "69:1",
            "hizb_number": 57,
            "rub_el_hizb_number": 227,
            "ruku_number": 502,
            "manzil_number": 7,
            "sajdah_number": null,
            "text_uthmani": " ٱلْحَآقَّةُ",
            "page_number": 566,
            "juz_number": 29,
            "translations": [
                {
                    "id": 101162,
                    "resource_id": 20,
                    "text": "The Inevitable Reality -"
                },
                {
                    "id": 219055,
                    "resource_id": 39,
                    "text": "Saat yang tetap berlaku itu -"
                },
                {
                    "id": 1096301,
                    "resource_id": 161,
                    "text": "নিশ্চিত সংঘটিতব্য বিষয়,"
                }
            ]
        },
        {
            "id": 5325,
            "verse_number": 2,
            "verse_key": "69:2",
            "hizb_number": 57,
            "rub_el_hizb_number": 227,
            "ruku_number": 502,
            "manzil_number": 7,
            "sajdah_number": null,
            "text_uthmani": "مَا ٱلْحَآقَّةُ",
            "page_number": 566,
            "juz_number": 29,
            "translations": [
                {
                    "id": 101174,
                    "resource_id": 20,
                    "text": "What is the Inevitable Reality?"
                },
                {
                    "id": 219059,
                    "resource_id": 39,
                    "text": "Apakah dia sifat dan keadaan saat yang tetap berlaku itu?"
                },
                {
                    "id": 1096302,
                    "resource_id": 161,
                    "text": "কী সেই নিশ্চিত সংঘটিতব্য বিষয়?"
                }
            ]
        },
        {
            "id": 5326,
            "verse_number": 3,
            "verse_key": "69:3",
            "hizb_number": 57,
            "rub_el_hizb_number": 227,
            "ruku_number": 502,
            "manzil_number": 7,
            "sajdah_number": null,
            "text_uthmani": "وَمَآ أَدْرَىٰكَ مَا ٱلْحَآقَّةُ",
            "page_number": 566,
            "juz_number": 29,
            "translations": [
                {
                    "id": 100777,
                    "resource_id": 20,
                    "text": "And what can make you know what is the Inevitable Reality?"
                },
                {
                    "id": 219033,
                    "resource_id": 39,
                    "text": "Dan apa jalannya engkau dapat mengetahui tentang sifat dan keadaan saat yang tetap berlaku itu? (Saat itu ialah hari kiamat)."
                },
                {
                    "id": 1096303,
                    "resource_id": 161,
                    "text": "আর তুমি কি জান কী সেই নিশ্চিত সংঘটিতব্য বিষয়?"
                }
            ]
        },
        {
            "id": 5327,
            "verse_number": 4,
            "verse_key": "69:4",
            "hizb_number": 57,
            "rub_el_hizb_number": 227,
            "ruku_number": 502,
            "manzil_number": 7,
            "sajdah_number": null,
            "text_uthmani": "كَذَّبَتْ ثَمُودُ وَعَادٌۢ بِٱلْقَارِعَةِ",
            "page_number": 566,
            "juz_number": 29,
            "translations": [
                {
                    "id": 101194,
                    "resource_id": 20,
                    "text": "Thamūd and ʿAad denied the Striking Calamity [i.e., the Resurrection]."
                },
                {
                    "id": 218888,
                    "resource_id": 39,
                    "text": "Kaum Thamud dan Aad telah mendustakan hari (kiamat) yang menggempar dan mengharukan itu."
                },
                {
                    "id": 1096304,
                    "resource_id": 161,
                    "text": "‘আদ ও সামূদ জাতি সেই আকস্মিকভাবে সংঘটিতব্য মহাবিপদকে মিথ্যে বলেছিল।"
                }
            ]
        },
        {
            "id": 5328,
            "verse_number": 5,
            "verse_key": "69:5",
            "hizb_number": 57,
            "rub_el_hizb_number": 227,
            "ruku_number": 502,
            "manzil_number": 7,
            "sajdah_number": null,
            "text_uthmani": "فَأَمَّا ثَمُودُ فَأُهْلِكُوا۟ بِٱلطَّاغِيَةِ",
            "page_number": 566,
            "juz_number": 29,
            "translations": [
                {
                    "id": 101206,
                    "resource_id": 20,
                    "text": "So as for Thamūd, they were destroyed by the overpowering [blast]."
                },
                {
                    "id": 214907,
                    "resource_id": 39,
                    "text": "Maka (masing-masing menerima azab dunianya) - adapun Thamud (kaum Nabi Soleh), maka mereka telah dibinasakan dengan (petir) yang melampau dahsyatnya."
                },
                {
                    "id": 1096305,
                    "resource_id": 161,
                    "text": "অতঃপর সামূদ জাতিকে ধ্বংস করা হয়েছিল এক প্রলয়ংকর বিপর্যয় দিয়ে।"
                }
            ]
        },
        {
            "id": 5329,
            "verse_number": 6,
            "verse_key": "69:6",
            "hizb_number": 57,
            "rub_el_hizb_number": 227,
            "ruku_number": 502,
            "manzil_number": 7,
            "sajdah_number": null,
            "text_uthmani": "وَأَمَّا عَادٌ فَأُهْلِكُوا۟ بِرِيحٍ صَرْصَرٍ عَاتِيَةٍ",
            "page_number": 566,
            "juz_number": 29,
            "translations": [
                {
                    "id": 101211,
                    "resource_id": 20,
                    "text": "And as for ʿAad, they were destroyed by a screaming,<sup foot_note=197598>1</sup> violent wind"
                },
                {
                    "id": 219051,
                    "resource_id": 39,
                    "text": "Adapun Aad (kaum Nabi Hud), maka mereka telah dibinasakan dengan angin ribut yang kencang, yang melampau kencangnya, -"
                },
                {
                    "id": 1096306,
                    "resource_id": 161,
                    "text": "আর ‘আদকে ধ্বংস করা হয়েছিল এক প্রচন্ড ঝড়ো হাওয়া দিয়ে।"
                }
            ]
        },
        {
            "id": 5330,
            "verse_number": 7,
            "verse_key": "69:7",
            "hizb_number": 57,
            "rub_el_hizb_number": 227,
            "ruku_number": 502,
            "manzil_number": 7,
            "sajdah_number": null,
            "text_uthmani": "سَخَّرَهَا عَلَيْهِمْ سَبْعَ لَيَالٍ وَثَمَـٰنِيَةَ أَيَّامٍ حُسُومًا فَتَرَى ٱلْقَوْمَ فِيهَا صَرْعَىٰ كَأَنَّهُمْ أَعْجَازُ نَخْلٍ خَاوِيَةٍ",
            "page_number": 566,
            "juz_number": 29,
            "translations": [
                {
                    "id": 101213,
                    "resource_id": 20,
                    "text": "Which He [i.e., Allāh] imposed upon them for seven nights and eight days in succession, so you would see the people therein fallen as if they were hollow trunks of palm trees."
                },
                {
                    "id": 219061,
                    "resource_id": 39,
                    "text": "Yang diarahkannya menyerang mereka tujuh malam lapan hari terus-menerus; (kalaulah engkau menyaksikannya) maka engkau akan melihat kaum itu bergelimpangan mati, seolah-olah mereka: batang-batang pohon kurma yang (tumbang dan) lompang."
                },
                {
                    "id": 1096307,
                    "resource_id": 161,
                    "text": "যা তাদের উপর প্রবাহিত হয়েছিল সাত রাত আট দিন বিরামহীনভাবে, তুমি দেখতে তারা পড়ে আছে ইতস্তত বিক্ষিপ্ত, যেন তারা পুরাতন শুকনো খেজুর গাছের কান্ড।"
                }
            ]
        },
        {
            "id": 5331,
            "verse_number": 8,
            "verse_key": "69:8",
            "hizb_number": 57,
            "rub_el_hizb_number": 227,
            "ruku_number": 502,
            "manzil_number": 7,
            "sajdah_number": null,
            "text_uthmani": "فَهَلْ تَرَىٰ لَهُم مِّنۢ بَاقِيَةٍ",
            "page_number": 566,
            "juz_number": 29,
            "translations": [
                {
                    "id": 101215,
                    "resource_id": 20,
                    "text": "Then do you see of them any remains?"
                },
                {
                    "id": 219065,
                    "resource_id": 39,
                    "text": "Dengan yang demikian, dapatkah engkau melihat lagi sisa-sisa mereka (yang masih hidup)?"
                },
                {
                    "id": 1096308,
                    "resource_id": 161,
                    "text": "তুমি তাদের কাউকে রক্ষা পেয়ে বেঁচে থাকতে দেখছ কি?"
                }
            ]
        },
        {
            "id": 5332,
            "verse_number": 9,
            "verse_key": "69:9",
            "hizb_number": 57,
            "rub_el_hizb_number": 227,
            "ruku_number": 502,
            "manzil_number": 7,
            "sajdah_number": null,
            "text_uthmani": "وَجَآءَ فِرْعَوْنُ وَمَن قَبْلَهُۥ وَٱلْمُؤْتَفِكَـٰتُ بِٱلْخَاطِئَةِ",
            "page_number": 567,
            "juz_number": 29,
            "translations": [
                {
                    "id": 101217,
                    "resource_id": 20,
                    "text": "And there came Pharaoh and those before him and the overturned cities<sup foot_note=197599>1</sup> with sin."
                },
                {
                    "id": 219069,
                    "resource_id": 39,
                    "text": "Dan (selain dari mereka) datanglah Firaun, dan orang-orang yang terdahulu daripadanya, serta penduduk negeri-negeri yang telah ditunggang balikkan - dengan melakukan perkara-perkara yang salah."
                },
                {
                    "id": 1096309,
                    "resource_id": 161,
                    "text": "ফেরাউন আর তার পূর্ববর্তীরা আর উল্টে দেয়া জনপদবাসীরা গুরুতর পাপে লিপ্ত ছিল।"
                }
            ]
        },
        {
            "id": 5333,
            "verse_number": 10,
            "verse_key": "69:10",
            "hizb_number": 57,
            "rub_el_hizb_number": 227,
            "ruku_number": 502,
            "manzil_number": 7,
            "sajdah_number": null,
            "text_uthmani": "فَعَصَوْا۟ رَسُولَ رَبِّهِمْ فَأَخَذَهُمْ أَخْذَةً رَّابِيَةً",
            "page_number": 567,
            "juz_number": 29,
            "translations": [
                {
                    "id": 101163,
                    "resource_id": 20,
                    "text": "And they disobeyed the messenger of their Lord, so He seized them with a seizure exceeding [in severity]."
                },
                {
                    "id": 219057,
                    "resource_id": 39,
                    "text": "Iaitu masing-masing menderhaka kepada Rasul (yang diutuskan oleh) Tuhan mereka, lalu Allah menyeksa mereka dengan azab yang sentiasa bertambah."
                },
                {
                    "id": 1096310,
                    "resource_id": 161,
                    "text": "তারা তাদের প্রতিপালকের রসূলকে অমান্য করেছিল, তখন তিনি তাদেরকে পাকড়াও করলেন- অত্যন্ত কঠিন পাকড়াও।"
                }
            ]
        }
    ],
    "pagination": {
        "per_page": 10,
        "current_page": 1,
        "next_page": 2,
        "total_pages": 6,
        "total_records": 52
    }
}