{
    "verses": [
        {
            "id": 5376,
            "verse_number": 1,
            "verse_key": "70:1",
            "hizb_number": 57,
            "rub_el_hizb_number": 227,
            "ruku_number": 504,
            "manzil_number": 7,
            "sajdah_number": null,
            "text_uthmani": " سَأَلَ سَآئِلٌۢ بِعَذَابٍ وَاقِعٍ",
            "page_number": 568,
            "juz_number": 29,
            "translations": [
                {
                    "id": 101218,
                    "resource_id": 20,
                    "text": "A supplicant asked for a punishment bound to happen<sup foot_note=197608>1</sup>"
                },
                {
                    "id": 219070,
                    "resource_id": 39,
                    "text": "Salah seorang (dari kalangan orang-orang kafir Makkah, secara mengejek-ejek) meminta kedatangan azab yang (dijanjikan) akan berlaku,"
                },
                {
                    "id": 1096353,
                    "resource_id": 161,
                    "text": "এক ব্যক্তি চাইল সে ‘আযাব যা অবশ্যই সংঘটিত হবে।"
                }
            ]
        },
        {
            "id": 5377,
            "verse_number": 2,
            "verse_key": "70:2",
            "hizb_number": 57,
            "rub_el_hizb_number": 227,
            "ruku_number": 504,
            "manzil_number": 7,
            "sajdah_number": null,
            "text_uthmani": "لِّلْكَـٰفِرِينَ لَيْسَ لَهُۥ دَافِعٌ",
            "page_number": 568,
            "juz_number": 29,
            "translations": [
                {
                    "id": 101229,
                    "resource_id": 20,
                    "text": "To the disbelievers; of it there is no preventer."
                },
                {
                    "id": 219146,
                    "resource_id": 39,
                    "text": "Azab yang disediakan untuk orang-orang yang kafir, yang tidak ada sesiapapun dapat menolak kedatangannya -"
                },
                {
                    "id": 1096354,
                    "resource_id": 161,
                    "text": "কাফিরদের জন্য তা প্রতিরোধ করার কেউ নেই"
                }
            ]
        },
        {
            "id": 5378,
            "verse_number": 3,
            "verse_key": "70:3",
            "hizb_number": 57,
            "rub_el_hizb_number": 227,
            "ruku_number": 504,
            "manzil_number": 7,
            "sajdah_number": null,
            "text_uthmani": "مِّنَ ٱللَّهِ ذِى ٱلْمَعَارِجِ",
            "page_number": 568,
            "juz_number": 29,
            "translations": [
                {
                    "id": 101240,
                    "resource_id": 20,
                    "text": "[It is] from Allāh, owner of the ways of ascent."
                },
                {
                    "id": 219077,
                    "resource_id": 39,
                    "text": "Dari Allah yang menguasai tempat-tempat turun naik -"
                },
                {
                    "id": 1096355,
                    "resource_id": 161,
                    "text": "(যে শাস্তি আসবে) আল্লাহর নিকট হতে যিনি আসমানে উঠার সিঁড়িগুলোর মালিক,"
                }
            ]
        },
        {
            "id": 5379,
            "verse_number": 4,
            "verse_key": "70:4",
            "hizb_number": 57,
            "rub_el_hizb_number": 227,
            "ruku_number": 504,
            "manzil_number": 7,
            "sajdah_number": null,
            "text_uthmani": "تَعْرُجُ ٱلْمَلَـٰٓئِكَةُ وَٱلرُّوحُ إِلَيْهِ فِى يَوْمٍ كَانَ مِقْدَارُهُۥ خَمْسِينَ أَلْفَ سَنَةٍ",
            "page_number": 568,
            "juz_number": 29,
            "translations": [
                {
                    "id": 101251,
                    "resource_id": 20,
                    "text": "The angels and the Spirit [i.e., Gabriel] will ascend to Him during a Day the extent of which is fifty thousand years."
                },
                {
                    "id": 219088,
                    "resource_id": 39,
                    "text": "Yang dilalui oleh malaikat-malaikat dan Jibril ke pusat pemerintahanNya (untuk menerima dan menyempurnakan tugas masing-masing, terutama) pada satu masa yang adalah tempohnya (dirasai oleh orang-orang yang bersalah) sungguh panjang, (kerana banyak hitungan hisab dan berat soal jawabnya)."
                },
                {
                    "id": 1096356,
                    "resource_id": 161,
                    "text": "ফেরেশতা এবং রূহ (অর্থাৎ জিবরীল) আল্লাহর দিকে আরোহণ করে এমন এক দিনে, যার পরিমাণ পঞ্চাশ হাজার বছর।"
                }
            ]
        },
        {
            "id": 5380,
            "verse_number": 5,
            "verse_key": "70:5",
            "hizb_number": 57,
            "rub_el_hizb_number": 227,
            "ruku_number": 504,
            "manzil_number": 7,
            "sajdah_number": null,
            "text_uthmani": "فَٱصْبِرْ صَبْرًا جَمِيلًا",
            "page_number": 568,
            "juz_number": 29,
            "translations": [
                {
                    "id": 101258,
                    "resource_id": 20,
                    "text": "So be patient with gracious patience."
                },
                {
                    "id": 219095,
                    "resource_id": 39,
                    "text": "Maka bersabarlah (wahai Muhammad terhadap ejekan golongan yang kafir itu), dengan cara kesabaran yang sebaik-baiknya."
                },
                {
                    "id": 1096357,
                    "resource_id": 161,
                    "text": "সুতরাং (হে নবী!) ধৈর্য ধর- সুন্দর সৌজন্যমূলক ধৈর্য।"
                }
            ]
        },
        {
            "id": 5381,
            "verse_number": 6,
            "verse_key": "70:6",
            "hizb_number": 57,
            "rub_el_hizb_number": 227,
            "ruku_number": 504,
            "manzil_number": 7,
            "sajdah_number": null,
            "text_uthmani": "إِنَّهُمْ يَرَوْنَهُۥ بَعِيدًا",
            "page_number": 568,
            "juz_number": 29,
            "translations": [
                {
                    "id": 101259,
                    "resource_id": 20,
                    "text": "Indeed, they see it [as] distant,"
                },
                {
                    "id": 219101,
                    "resource_id": 39,
                    "text": "Sebenarnya mereka memandang azab itu jauh (daripada berlaku),"
                },
                {
                    "id": 1096358,
                    "resource_id": 161,
                    "text": "তারা ঐ দিনটিকে সুদূর মনে করছে,"
                }
            ]
        },
        {
            "id": 5382,
            "verse_number": 7,
            "verse_key": "70:7",
            "hizb_number": 57,
            "rub_el_hizb_number": 227,
            "ruku_number": 504,
            "manzil_number": 7,
            "sajdah_number": null,
            "text_uthmani": "وَنَرَىٰهُ قَرِيبًا",
            "page_number": 568,
            "juz_number": 29,
            "translations": [
                {
                    "id": 101260,
                    "resource_id": 20,
                    "text": "But We see it [as] near."
                },
                {
                    "id": 219096,
                    "resource_id": 39,
                    "text": "Sedang Kami memandangnya dekat, (tetap akan berlaku),"
                },
                {
                    "id": 1096359,
                    "resource_id": 161,
                    "text": "কিন্তু আমি তা নিকটে দেখতে পাচ্ছি।"
                }
            ]
        },
        {
            "id": 5383,
            "verse_number": 8,
            "verse_key": "70:8",
            "hizb_number": 57,
            "rub_el_hizb_number": 227,
            "ruku_number": 504,
            "manzil_number": 7,
            "sajdah_number": null,
            "text_uthmani": "يَوْمَ تَكُونُ ٱلسَّمَآءُ كَٱلْمُهْلِ",
            "page_number": 568,
            "juz_number": 29,
            "translations": [
                {
                    "id": 101261,
                    "resource_id": 20,
                    "text": "On the Day the sky will be like murky oil,<sup foot_note=197609>1</sup>"
                },
                {
                    "id": 219097,
                    "resource_id": 39,
                    "text": "(Iaitu) pada hari langit menjadi seperti tembaga cair,"
                },
                {
                    "id": 1096360,
                    "resource_id": 161,
                    "text": "সেদিন আকাশ হবে গলিত রূপার মত,"
                }
            ]
        },
        {
            "id": 5384,
            "verse_number": 9,
            "verse_key": "70:9",
            "hizb_number": 57,
            "rub_el_hizb_number": 227,
            "ruku_number": 504,
            "manzil_number": 7,
            "sajdah_number": null,
            "text_uthmani": "وَتَكُونُ ٱلْجِبَالُ كَٱلْعِهْنِ",
            "page_number": 568,
            "juz_number": 29,
            "translations": [
                {
                    "id": 101262,
                    "resource_id": 20,
                    "text": "And the mountains will be like wool,<sup foot_note=197610>1</sup>"
                },
                {
                    "id": 219098,
                    "resource_id": 39,
                    "text": "Dan gunung-ganang pula menjadi seperti bulu (yang berterbangan)"
                },
                {
                    "id": 1096361,
                    "resource_id": 161,
                    "text": "আর পাহাড়গুলো হবে রঙ্গীণ পশমের মত,"
                }
            ]
        },
        {
            "id": 5385,
            "verse_number": 10,
            "verse_key": "70:10",
            "hizb_number": 57,
            "rub_el_hizb_number": 227,
            "ruku_number": 504,
            "manzil_number": 7,
            "sajdah_number": null,
            "text_uthmani": "وَلَا يَسْـَٔلُ حَمِيمٌ حَمِيمًا",
            "page_number": 568,
            "juz_number": 29,
            "translations": [
                {
                    "id": 101219,
                    "resource_id": 20,
                    "text": "And no friend will ask [anything of] a friend,"
                },
                {
                    "id": 219071,
                    "resource_id": 39,
                    "text": "Dan sahabat karib tidak bertanyakan hal sahabat karibnya, (kerana tiap-tiap seorang sibuk memikirkan hal keadaannya sendiri),"
                },
                {
                    "id": 1096362,
                    "resource_id": 161,
                    "text": "বন্ধু বন্ধুর খবর নিবে না,"
                }
            ]
        }
    ],
    "pagination": {
        "per_page": 10,
        "current_page": 1,
        "next_page": 2,
        "total_pages": 5,
        "total_records": 44
    }
}