{
    "verses": [
        {
            "id": 5592,
            "verse_number": 1,
            "verse_key": "76:1",
            "hizb_number": 58,
            "rub_el_hizb_number": 231,
            "ruku_number": 516,
            "manzil_number": 7,
            "sajdah_number": null,
            "text_uthmani": " هَلْ أَتَىٰ عَلَى ٱلْإِنسَـٰنِ حِينٌ مِّنَ ٱلدَّهْرِ لَمْ يَكُن شَيْـًٔا مَّذْكُورًا",
            "page_number": 578,
            "juz_number": 29,
            "translations": [
                {
                    "id": 101601,
                    "resource_id": 20,
                    "text": "Has there [not] come upon man a period of time when he was not a thing [even] mentioned?"
                },
                {
                    "id": 219431,
                    "resource_id": 39,
                    "text": "Bukankah telah berlalu kepada manusia satu ketika dari masa (yang beredar), sedang ia (masih belum wujud lagi, dan) tidak menjadi sesuatu benda yang disebut-sebut, (maka mengapa kaum musyrik itu mengingkari hari akhirat)?"
                },
                {
                    "id": 1096569,
                    "resource_id": 161,
                    "text": "মহাকালের মধ্য হতে মানুষের উপর কি এমন একটা সময় অতিবাহিত হয়নি যখন সে উল্লেখ করার যোগ্য কোন বস্তুই ছিল না?"
                }
            ]
        },
        {
            "id": 5593,
            "verse_number": 2,
            "verse_key": "76:2",
            "hizb_number": 58,
            "rub_el_hizb_number": 231,
            "ruku_number": 516,
            "manzil_number": 7,
            "sajdah_number": null,
            "text_uthmani": "إِنَّا خَلَقْنَا ٱلْإِنسَـٰنَ مِن نُّطْفَةٍ أَمْشَاجٍ نَّبْتَلِيهِ فَجَعَلْنَـٰهُ سَمِيعًۢا بَصِيرًا",
            "page_number": 578,
            "juz_number": 29,
            "translations": [
                {
                    "id": 101613,
                    "resource_id": 20,
                    "text": "Indeed, We created man from a sperm-drop mixture<sup foot_note=197665>1</sup> that We may try him; and We made him hearing and seeing."
                },
                {
                    "id": 219443,
                    "resource_id": 39,
                    "text": "Sesungguhnya Kami telah aturkan cara mencipta manusia bermulanya dari air mani yang bercampur (dari pati benih lelaki dan perempuan), serta Kami tetap mengujinya (dengan kewajipan-kewajipan); oleh itu maka Kami jadikan dia berkeadaan mendengar dan melihat."
                },
                {
                    "id": 1096570,
                    "resource_id": 161,
                    "text": "আমি মানুষকে সৃষ্টি করেছি সংমিশ্রিত শুক্রবিন্দু থেকে তাকে পরীক্ষা করার জন্য, এজন্য তাকে করেছি শ্রবণশক্তি ও দৃষ্টিশক্তির অধিকারী।"
                }
            ]
        },
        {
            "id": 5594,
            "verse_number": 3,
            "verse_key": "76:3",
            "hizb_number": 58,
            "rub_el_hizb_number": 231,
            "ruku_number": 516,
            "manzil_number": 7,
            "sajdah_number": null,
            "text_uthmani": "إِنَّا هَدَيْنَـٰهُ ٱلسَّبِيلَ إِمَّا شَاكِرًا وَإِمَّا كَفُورًا",
            "page_number": 578,
            "juz_number": 29,
            "translations": [
                {
                    "id": 101625,
                    "resource_id": 20,
                    "text": "Indeed, We guided him to the way, be he grateful or be he ungrateful."
                },
                {
                    "id": 219457,
                    "resource_id": 39,
                    "text": "Kerana keadaan itu tidak mencukupi, maka) sesungguhnya Kami telah menunjukkan kepadanya (melalui akal dan Rasul) akan jalan-jalan (yang benar dan yang salah; maka terserahlah kepadanya) sama ada ia bersyukur (dengan beriman dan taat), ataupun ia berlaku kufur (dengan mengingkari kebenaran atau menderhaka)."
                },
                {
                    "id": 1096571,
                    "resource_id": 161,
                    "text": "আমি তাকে পথ দেখিয়ে দিয়েছি, হয় সে কৃতজ্ঞ হবে, না হয় সে অকৃতজ্ঞ হবে।"
                }
            ]
        },
        {
            "id": 5595,
            "verse_number": 4,
            "verse_key": "76:4",
            "hizb_number": 58,
            "rub_el_hizb_number": 231,
            "ruku_number": 516,
            "manzil_number": 7,
            "sajdah_number": null,
            "text_uthmani": "إِنَّآ أَعْتَدْنَا لِلْكَـٰفِرِينَ سَلَـٰسِلَا۟ وَأَغْلَـٰلًا وَسَعِيرًا",
            "page_number": 578,
            "juz_number": 29,
            "translations": [
                {
                    "id": 101629,
                    "resource_id": 20,
                    "text": "Indeed, We have prepared for the disbelievers chains and shackles and a blaze."
                },
                {
                    "id": 219459,
                    "resource_id": 39,
                    "text": "(Dalam pada itu), sesungguhnya Kami telah menyediakan bagi sesiapa yang berlaku kufur (atau menderhaka): beberapa rantai dan belenggu serta neraka yang menjulang-julang."
                },
                {
                    "id": 1096572,
                    "resource_id": 161,
                    "text": "আমি (অকৃতজ্ঞ) কাফিরদের জন্য প্রস্তুত করে রেখেছি শেকল, বেড়ি আর জ্বলন্ত আগুন।"
                }
            ]
        },
        {
            "id": 5596,
            "verse_number": 5,
            "verse_key": "76:5",
            "hizb_number": 58,
            "rub_el_hizb_number": 231,
            "ruku_number": 516,
            "manzil_number": 7,
            "sajdah_number": null,
            "text_uthmani": "إِنَّ ٱلْأَبْرَارَ يَشْرَبُونَ مِن كَأْسٍ كَانَ مِزَاجُهَا كَافُورًا",
            "page_number": 578,
            "juz_number": 29,
            "translations": [
                {
                    "id": 101631,
                    "resource_id": 20,
                    "text": "Indeed, the righteous will drink from a cup [of wine] whose mixture is of Kāfūr,<sup foot_note=197666>1</sup>"
                },
                {
                    "id": 219461,
                    "resource_id": 39,
                    "text": "Sesungguhnya orang-orang yang berbakti (dengan taat dan kebajikan), akan meminum dari piala: sejenis minuman yang bercampur dengan \"Kafur\", -"
                },
                {
                    "id": 1096573,
                    "resource_id": 161,
                    "text": "(অপরদিকে) নেককার লোকেরা এমন পানপাত্র থেকে পান করবে যাতে কর্পুরের সংমিশ্রণ থাকবে।"
                }
            ]
        },
        {
            "id": 5597,
            "verse_number": 6,
            "verse_key": "76:6",
            "hizb_number": 58,
            "rub_el_hizb_number": 231,
            "ruku_number": 516,
            "manzil_number": 7,
            "sajdah_number": null,
            "text_uthmani": "عَيْنًا يَشْرَبُ بِهَا عِبَادُ ٱللَّهِ يُفَجِّرُونَهَا تَفْجِيرًا",
            "page_number": 579,
            "juz_number": 29,
            "translations": [
                {
                    "id": 101633,
                    "resource_id": 20,
                    "text": "A spring of which the [righteous] servants of Allāh will drink; they will make it gush forth in force [and abundance]."
                },
                {
                    "id": 219462,
                    "resource_id": 39,
                    "text": "Iaitu sebuah matair (di Syurga), yang diminum daripadanya oleh hamba-hamba Allah (yang taat); mereka boleh mengalirkannya (di tempat-tempat tinggal mereka) dengan aliran yang semudah-mudahnya dan menurut kemahuannya."
                },
                {
                    "id": 1096574,
                    "resource_id": 161,
                    "text": "আল্লাহর বান্দারা একটি ঝর্ণা থেকে পান করবে। তারা এই ঝর্ণাকে (তাদের) ইচ্ছেমত প্রবাহিত করবে।"
                }
            ]
        },
        {
            "id": 5598,
            "verse_number": 7,
            "verse_key": "76:7",
            "hizb_number": 58,
            "rub_el_hizb_number": 231,
            "ruku_number": 516,
            "manzil_number": 7,
            "sajdah_number": null,
            "text_uthmani": "يُوفُونَ بِٱلنَّذْرِ وَيَخَافُونَ يَوْمًا كَانَ شَرُّهُۥ مُسْتَطِيرًا",
            "page_number": 579,
            "juz_number": 29,
            "translations": [
                {
                    "id": 101635,
                    "resource_id": 20,
                    "text": "They [are those who] fulfill [their] vows and fear a Day whose evil will be widespread."
                },
                {
                    "id": 219464,
                    "resource_id": 39,
                    "text": "(Mereka dikurniakan kesenangan itu kerana) mereka menyempurnakan nazarnya (apatah lagi yang diwajibkan Tuhan kepadanya), serta mereka takutkan hari (akhirat) yang azab seksanya merebak di sana sini."
                },
                {
                    "id": 1096575,
                    "resource_id": 161,
                    "text": "যারা মানত পূরণ করে আর সেই দিনকে ভয় করে যার অনিষ্ট হবে সুদূরপ্রসারী।"
                }
            ]
        },
        {
            "id": 5599,
            "verse_number": 8,
            "verse_key": "76:8",
            "hizb_number": 58,
            "rub_el_hizb_number": 231,
            "ruku_number": 516,
            "manzil_number": 7,
            "sajdah_number": null,
            "text_uthmani": "وَيُطْعِمُونَ ٱلطَّعَامَ عَلَىٰ حُبِّهِۦ مِسْكِينًا وَيَتِيمًا وَأَسِيرًا",
            "page_number": 579,
            "juz_number": 29,
            "translations": [
                {
                    "id": 101637,
                    "resource_id": 20,
                    "text": "And they give food in spite of love for it<sup foot_note=197667>1</sup> to the needy, the orphan, and the captive,"
                },
                {
                    "id": 219466,
                    "resource_id": 39,
                    "text": "Mereka juga memberi makan benda-benda makanan yang dihajati dan disukainya, kepada orang miskin dan anak yatim serta orang tawanan,"
                },
                {
                    "id": 1096576,
                    "resource_id": 161,
                    "text": "আর তারা আল্লাহর প্রতি তাদের ভালবাসার কারণে মিসকীন, ইয়াতীম ও কয়েদীকে খাবার খাওয়ায়।"
                }
            ]
        },
        {
            "id": 5600,
            "verse_number": 9,
            "verse_key": "76:9",
            "hizb_number": 58,
            "rub_el_hizb_number": 231,
            "ruku_number": 516,
            "manzil_number": 7,
            "sajdah_number": null,
            "text_uthmani": "إِنَّمَا نُطْعِمُكُمْ لِوَجْهِ ٱللَّهِ لَا نُرِيدُ مِنكُمْ جَزَآءً وَلَا شُكُورًا",
            "page_number": 579,
            "juz_number": 29,
            "translations": [
                {
                    "id": 101639,
                    "resource_id": 20,
                    "text": "[Saying], \"We feed you only for the face [i.e., approval] of Allāh. We wish not from you reward or gratitude."
                },
                {
                    "id": 219471,
                    "resource_id": 39,
                    "text": "(Sambil berkata dengan lidah atau dengan hati): \"Sesungguhnya kami memberi makan kepada kamu kerana Allah semata-mata; kami tidak berkehendakkan sebarang balasan dari kamu atau ucapan terima kasih,"
                },
                {
                    "id": 1096577,
                    "resource_id": 161,
                    "text": "তারা বলে- ‘আমরা তোমাদেরকে খাবার খাওয়াচ্ছি কেবল আল্লাহর চেহারা (সন্তুষ্টি) লাভের জন্য, আমরা তোমাদের থেকে কোন প্রতিদান চাই না, চাই না কোন কৃতজ্ঞতা (জ্ঞাপন ও ধন্যবাদ)।"
                }
            ]
        },
        {
            "id": 5601,
            "verse_number": 10,
            "verse_key": "76:10",
            "hizb_number": 58,
            "rub_el_hizb_number": 231,
            "ruku_number": 516,
            "manzil_number": 7,
            "sajdah_number": null,
            "text_uthmani": "إِنَّا نَخَافُ مِن رَّبِّنَا يَوْمًا عَبُوسًا قَمْطَرِيرًا",
            "page_number": 579,
            "juz_number": 29,
            "translations": [
                {
                    "id": 101602,
                    "resource_id": 20,
                    "text": "Indeed, We fear from our Lord a Day austere and distressful.\""
                },
                {
                    "id": 219433,
                    "resource_id": 39,
                    "text": "\"Kami sebenarnya takutkan Tuhan kami, takut Ia kenakan kami azab hari yang padanya muka orang-orang yang bersalah: masam berkerut-kerut\"."
                },
                {
                    "id": 1096578,
                    "resource_id": 161,
                    "text": "আমরা কেবল ভয় করি আমাদের প্রতিপালকের পক্ষ হতে এক ভীতিপ্রদ ভয়ানক দিনের।"
                }
            ]
        }
    ],
    "pagination": {
        "per_page": 10,
        "current_page": 1,
        "next_page": 2,
        "total_pages": 4,
        "total_records": 31
    }
}