{
    "verses": [
        {
            "id": 5885,
            "verse_number": 1,
            "verse_key": "84:1",
            "hizb_number": 59,
            "rub_el_hizb_number": 236,
            "ruku_number": 528,
            "manzil_number": 7,
            "sajdah_number": null,
            "text_uthmani": " إِذَا ٱلسَّمَآءُ ٱنشَقَّتْ",
            "page_number": 589,
            "juz_number": 30,
            "translations": [
                {
                    "id": 101965,
                    "resource_id": 20,
                    "text": "When the sky has split [open]"
                },
                {
                    "id": 219832,
                    "resource_id": 39,
                    "text": "Apabila langit terbelah,"
                },
                {
                    "id": 1096862,
                    "resource_id": 161,
                    "text": "যখন আসমান ফেটে যাবে,"
                }
            ]
        },
        {
            "id": 5886,
            "verse_number": 2,
            "verse_key": "84:2",
            "hizb_number": 59,
            "rub_el_hizb_number": 236,
            "ruku_number": 528,
            "manzil_number": 7,
            "sajdah_number": null,
            "text_uthmani": "وَأَذِنَتْ لِرَبِّهَا وَحُقَّتْ",
            "page_number": 589,
            "juz_number": 30,
            "translations": [
                {
                    "id": 101977,
                    "resource_id": 20,
                    "text": "And has listened [i.e., responded]<sup foot_note=197734>1</sup> to its Lord and was obligated [to do so]"
                },
                {
                    "id": 219804,
                    "resource_id": 39,
                    "text": "Serta mematuhi perintah Tuhannya, dan sudah semestinya ia patuh;"
                },
                {
                    "id": 1096863,
                    "resource_id": 161,
                    "text": "এবং স্বীয় রব-এর নির্দেশ পালন করবে, আর তাই তার করণীয়।"
                }
            ]
        },
        {
            "id": 5887,
            "verse_number": 3,
            "verse_key": "84:3",
            "hizb_number": 59,
            "rub_el_hizb_number": 236,
            "ruku_number": 528,
            "manzil_number": 7,
            "sajdah_number": null,
            "text_uthmani": "وَإِذَا ٱلْأَرْضُ مُدَّتْ",
            "page_number": 589,
            "juz_number": 30,
            "translations": [
                {
                    "id": 101985,
                    "resource_id": 20,
                    "text": "And when the earth has been extended<sup foot_note=197735>1</sup>"
                },
                {
                    "id": 215863,
                    "resource_id": 39,
                    "text": "Dan apabila bumi diratakan,"
                },
                {
                    "id": 1096864,
                    "resource_id": 161,
                    "text": "এবং যমীনকে যখন প্রসারিত করা হবে,"
                }
            ]
        },
        {
            "id": 5888,
            "verse_number": 4,
            "verse_key": "84:4",
            "hizb_number": 59,
            "rub_el_hizb_number": 236,
            "ruku_number": 528,
            "manzil_number": 7,
            "sajdah_number": null,
            "text_uthmani": "وَأَلْقَتْ مَا فِيهَا وَتَخَلَّتْ",
            "page_number": 589,
            "juz_number": 30,
            "translations": [
                {
                    "id": 101987,
                    "resource_id": 20,
                    "text": "And has cast out that within it<sup foot_note=197736>1</sup> and relinquished [it]."
                },
                {
                    "id": 219814,
                    "resource_id": 39,
                    "text": "Serta mengeluarkan apa yang di dalamnya, dan menjadi kosong,"
                },
                {
                    "id": 1096865,
                    "resource_id": 161,
                    "text": "আর তা তার ভেতরে যা আছে তা বাইরে নিক্ষেপ করবে ও খালি হয়ে যাবে।"
                }
            ]
        },
        {
            "id": 5889,
            "verse_number": 5,
            "verse_key": "84:5",
            "hizb_number": 59,
            "rub_el_hizb_number": 236,
            "ruku_number": 528,
            "manzil_number": 7,
            "sajdah_number": null,
            "text_uthmani": "وَأَذِنَتْ لِرَبِّهَا وَحُقَّتْ",
            "page_number": 589,
            "juz_number": 30,
            "translations": [
                {
                    "id": 101928,
                    "resource_id": 20,
                    "text": "And has listened [i.e., responded] to its Lord and was obligated [to do so] -"
                },
                {
                    "id": 219816,
                    "resource_id": 39,
                    "text": "Serta mematuhi perintah Tuhannya, dan sudah semestinya ia patuh; - (Maka pada saat itu tiap-tiap seorang akan mengetahui apa yang telah dilakukannya)."
                },
                {
                    "id": 1096866,
                    "resource_id": 161,
                    "text": "এবং স্বীয় রব-এর নির্দেশ পালন করবে আর তাই তার করণীয়।"
                }
            ]
        },
        {
            "id": 5890,
            "verse_number": 6,
            "verse_key": "84:6",
            "hizb_number": 59,
            "rub_el_hizb_number": 236,
            "ruku_number": 528,
            "manzil_number": 7,
            "sajdah_number": null,
            "text_uthmani": "يَـٰٓأَيُّهَا ٱلْإِنسَـٰنُ إِنَّكَ كَادِحٌ إِلَىٰ رَبِّكَ كَدْحًا فَمُلَـٰقِيهِ",
            "page_number": 589,
            "juz_number": 30,
            "translations": [
                {
                    "id": 101990,
                    "resource_id": 20,
                    "text": "O mankind, indeed you are laboring toward your Lord with [great] exertion<sup foot_note=197738>1</sup> and will meet it.<sup foot_note=197737>2</sup>"
                },
                {
                    "id": 219817,
                    "resource_id": 39,
                    "text": "Wahai manusia! Sesungguhnya engkau sentiasa berpenat-lelah (menjalankan keadaan hidupmu) dengan sedaya upayamu hinggalah (semasa engkau) kembali kepada Tuhanmu, kemudian engkau tetap menemui balasan apa yang engkau telah usahakan itu (tercatit semuanya)."
                },
                {
                    "id": 1096867,
                    "resource_id": 161,
                    "text": "হে মানুষ! তোমাকে তোমার রব পর্যন্ত পৌঁছতে বহু কষ্ট স্বীকার করতে হবে, অতঃপর তুমি তাঁর সাক্ষাৎ লাভ করবে।"
                }
            ]
        },
        {
            "id": 5891,
            "verse_number": 7,
            "verse_key": "84:7",
            "hizb_number": 59,
            "rub_el_hizb_number": 236,
            "ruku_number": 528,
            "manzil_number": 7,
            "sajdah_number": null,
            "text_uthmani": "فَأَمَّا مَنْ أُوتِىَ كِتَـٰبَهُۥ بِيَمِينِهِۦ",
            "page_number": 589,
            "juz_number": 30,
            "translations": [
                {
                    "id": 101992,
                    "resource_id": 20,
                    "text": "Then as for he who is given his record in his right hand,"
                },
                {
                    "id": 219819,
                    "resource_id": 39,
                    "text": "Kemudian sesiapa yang diberi menerima surat amalnya dengan tangan kanannya, -"
                },
                {
                    "id": 1096868,
                    "resource_id": 161,
                    "text": "অতঃপর যার ‘আমালনামা তার ডান হাতে দেয়া হবে।"
                }
            ]
        },
        {
            "id": 5892,
            "verse_number": 8,
            "verse_key": "84:8",
            "hizb_number": 59,
            "rub_el_hizb_number": 236,
            "ruku_number": 528,
            "manzil_number": 7,
            "sajdah_number": null,
            "text_uthmani": "فَسَوْفَ يُحَاسَبُ حِسَابًا يَسِيرًا",
            "page_number": 589,
            "juz_number": 30,
            "translations": [
                {
                    "id": 101997,
                    "resource_id": 20,
                    "text": "He will be judged with an easy account"
                },
                {
                    "id": 214945,
                    "resource_id": 39,
                    "text": "Maka ia akan dihisab dengan cara yang mudah dan ringan,"
                },
                {
                    "id": 1096869,
                    "resource_id": 161,
                    "text": "তার হিসাব সহজভাবেই নেয়া হবে।"
                }
            ]
        },
        {
            "id": 5893,
            "verse_number": 9,
            "verse_key": "84:9",
            "hizb_number": 59,
            "rub_el_hizb_number": 236,
            "ruku_number": 528,
            "manzil_number": 7,
            "sajdah_number": null,
            "text_uthmani": "وَيَنقَلِبُ إِلَىٰٓ أَهْلِهِۦ مَسْرُورًا",
            "page_number": 589,
            "juz_number": 30,
            "translations": [
                {
                    "id": 101999,
                    "resource_id": 20,
                    "text": "And return to his people in happiness."
                },
                {
                    "id": 219822,
                    "resource_id": 39,
                    "text": "Dan ia akan pergi kepada keluarganya (yang beriman) dengan sukacita."
                },
                {
                    "id": 1096870,
                    "resource_id": 161,
                    "text": "সে তার স্বজনদের কাছে সানন্দে ফিরে যাবে।"
                }
            ]
        },
        {
            "id": 5894,
            "verse_number": 10,
            "verse_key": "84:10",
            "hizb_number": 59,
            "rub_el_hizb_number": 236,
            "ruku_number": 528,
            "manzil_number": 7,
            "sajdah_number": null,
            "text_uthmani": "وَأَمَّا مَنْ أُوتِىَ كِتَـٰبَهُۥ وَرَآءَ ظَهْرِهِۦ",
            "page_number": 589,
            "juz_number": 30,
            "translations": [
                {
                    "id": 101966,
                    "resource_id": 20,
                    "text": "But as for he who is given his record behind his back,"
                },
                {
                    "id": 219812,
                    "resource_id": 39,
                    "text": "Dan sesiapa yang diberi menerima surat amalnya (dengan tangan kiri), dari sebelah belakangnya,"
                },
                {
                    "id": 1096871,
                    "resource_id": 161,
                    "text": "আর যাকে তার ‘আমালনামা তার পিঠের পিছন দিক থেকে দেয়া হবে,"
                }
            ]
        }
    ],
    "pagination": {
        "per_page": 10,
        "current_page": 1,
        "next_page": 2,
        "total_pages": 3,
        "total_records": 25
    }
}