{
    "verses": [
        {
            "id": 5932,
            "verse_number": 1,
            "verse_key": "86:1",
            "hizb_number": 59,
            "rub_el_hizb_number": 236,
            "ruku_number": 530,
            "manzil_number": 7,
            "sajdah_number": null,
            "text_uthmani": " وَٱلسَّمَآءِ وَٱلطَّارِقِ",
            "page_number": 591,
            "juz_number": 30,
            "translations": [
                {
                    "id": 102036,
                    "resource_id": 20,
                    "text": "By the sky and the night comer"
                },
                {
                    "id": 215015,
                    "resource_id": 39,
                    "text": "Demi langit dan \"At-Taariq\"; -"
                },
                {
                    "id": 1096909,
                    "resource_id": 161,
                    "text": "শপথ আসমানের আর যা রাতে আসে তার,"
                }
            ]
        },
        {
            "id": 5933,
            "verse_number": 2,
            "verse_key": "86:2",
            "hizb_number": 59,
            "rub_el_hizb_number": 236,
            "ruku_number": 530,
            "manzil_number": 7,
            "sajdah_number": null,
            "text_uthmani": "وَمَآ أَدْرَىٰكَ مَا ٱلطَّارِقُ",
            "page_number": 591,
            "juz_number": 30,
            "translations": [
                {
                    "id": 102046,
                    "resource_id": 20,
                    "text": "And what can make you know what is the night comer?"
                },
                {
                    "id": 219865,
                    "resource_id": 39,
                    "text": "Dan apa jalannya engkau dapat mengetahui apa dia \"At-Taariq\" itu? -"
                },
                {
                    "id": 1096910,
                    "resource_id": 161,
                    "text": "তুমি কি জান যা রাতে আসে তা কী?"
                }
            ]
        },
        {
            "id": 5934,
            "verse_number": 3,
            "verse_key": "86:3",
            "hizb_number": 59,
            "rub_el_hizb_number": 236,
            "ruku_number": 530,
            "manzil_number": 7,
            "sajdah_number": null,
            "text_uthmani": "ٱلنَّجْمُ ٱلثَّاقِبُ",
            "page_number": 591,
            "juz_number": 30,
            "translations": [
                {
                    "id": 102048,
                    "resource_id": 20,
                    "text": "It is the piercing star<sup foot_note=197745>1</sup>"
                },
                {
                    "id": 219871,
                    "resource_id": 39,
                    "text": "(At-Taariq) ialah bintang yang menembusi (sinaran cahayanya);"
                },
                {
                    "id": 1096911,
                    "resource_id": 161,
                    "text": "উজ্জ্বল নক্ষত্র।"
                }
            ]
        },
        {
            "id": 5935,
            "verse_number": 4,
            "verse_key": "86:4",
            "hizb_number": 59,
            "rub_el_hizb_number": 236,
            "ruku_number": 530,
            "manzil_number": 7,
            "sajdah_number": null,
            "text_uthmani": "إِن كُلُّ نَفْسٍ لَّمَّا عَلَيْهَا حَافِظٌ",
            "page_number": 591,
            "juz_number": 30,
            "translations": [
                {
                    "id": 102050,
                    "resource_id": 20,
                    "text": "There is no soul but that it has over it a protector."
                },
                {
                    "id": 219869,
                    "resource_id": 39,
                    "text": "Tiada sesuatu diri juapun melainkan ada malaikat yang menjaga (keadaannya serta menyimpan catitan mengenai segala bawaannya)."
                },
                {
                    "id": 1096912,
                    "resource_id": 161,
                    "text": "প্রত্যেক আত্মার সাথে একজন সংরক্ষক আছে।"
                }
            ]
        },
        {
            "id": 5936,
            "verse_number": 5,
            "verse_key": "86:5",
            "hizb_number": 59,
            "rub_el_hizb_number": 236,
            "ruku_number": 530,
            "manzil_number": 7,
            "sajdah_number": null,
            "text_uthmani": "فَلْيَنظُرِ ٱلْإِنسَـٰنُ مِمَّ خُلِقَ",
            "page_number": 591,
            "juz_number": 30,
            "translations": [
                {
                    "id": 102053,
                    "resource_id": 20,
                    "text": "So let man observe from what he was created."
                },
                {
                    "id": 219873,
                    "resource_id": 39,
                    "text": "(Setelah mengetahui yang demikian), maka hendaklah manusia memikirkan: dari apa ia diciptakan."
                },
                {
                    "id": 1096913,
                    "resource_id": 161,
                    "text": "অতঃপর মানুষ চিন্তা করে দেখুক কোন জিনিস থেকে তাকে সৃষ্টি করা হয়েছে।"
                }
            ]
        },
        {
            "id": 5937,
            "verse_number": 6,
            "verse_key": "86:6",
            "hizb_number": 59,
            "rub_el_hizb_number": 236,
            "ruku_number": 530,
            "manzil_number": 7,
            "sajdah_number": null,
            "text_uthmani": "خُلِقَ مِن مَّآءٍ دَافِقٍ",
            "page_number": 591,
            "juz_number": 30,
            "translations": [
                {
                    "id": 102057,
                    "resource_id": 20,
                    "text": "He was created from a fluid, ejected,"
                },
                {
                    "id": 219875,
                    "resource_id": 39,
                    "text": "Ia diciptakan dari air (mani) yang memancut (ke dalam rahim) -"
                },
                {
                    "id": 1096914,
                    "resource_id": 161,
                    "text": "তাকে সৃষ্টি করা হয়েছে সবেগে বের হয়ে আসা পানি থেকে।"
                }
            ]
        },
        {
            "id": 5938,
            "verse_number": 7,
            "verse_key": "86:7",
            "hizb_number": 59,
            "rub_el_hizb_number": 236,
            "ruku_number": 530,
            "manzil_number": 7,
            "sajdah_number": null,
            "text_uthmani": "يَخْرُجُ مِنۢ بَيْنِ ٱلصُّلْبِ وَٱلتَّرَآئِبِ",
            "page_number": 591,
            "juz_number": 30,
            "translations": [
                {
                    "id": 102059,
                    "resource_id": 20,
                    "text": "Emerging from between the backbone and the ribs."
                },
                {
                    "id": 219881,
                    "resource_id": 39,
                    "text": "Yang keluar dari \"tulang sulbi\" lelaki dan \"tulang dada\" perempuan."
                },
                {
                    "id": 1096915,
                    "resource_id": 161,
                    "text": "যা বের হয় শিরদাঁড়া ও পাঁজরের মাঝখান থেকে।"
                }
            ]
        },
        {
            "id": 5939,
            "verse_number": 8,
            "verse_key": "86:8",
            "hizb_number": 59,
            "rub_el_hizb_number": 236,
            "ruku_number": 530,
            "manzil_number": 7,
            "sajdah_number": null,
            "text_uthmani": "إِنَّهُۥ عَلَىٰ رَجْعِهِۦ لَقَادِرٌ",
            "page_number": 591,
            "juz_number": 30,
            "translations": [
                {
                    "id": 102061,
                    "resource_id": 20,
                    "text": "Indeed, He [i.e., Allāh], to return him [to life], is Able."
                },
                {
                    "id": 219798,
                    "resource_id": 39,
                    "text": "Sesungguhnya Allah Maha Kuasa untuk mengembalikannya (hidup semula sesudah mati),"
                },
                {
                    "id": 1096916,
                    "resource_id": 161,
                    "text": "তিনি মানুষকে আবার (জীবনে) ফিরিয়ে আনতে অবশ্যই সক্ষম।"
                }
            ]
        },
        {
            "id": 5940,
            "verse_number": 9,
            "verse_key": "86:9",
            "hizb_number": 59,
            "rub_el_hizb_number": 236,
            "ruku_number": 530,
            "manzil_number": 7,
            "sajdah_number": null,
            "text_uthmani": "يَوْمَ تُبْلَى ٱلسَّرَآئِرُ",
            "page_number": 591,
            "juz_number": 30,
            "translations": [
                {
                    "id": 102063,
                    "resource_id": 20,
                    "text": "The Day when secrets will be put on trial,<sup foot_note=197746>1</sup>"
                },
                {
                    "id": 219879,
                    "resource_id": 39,
                    "text": "Pada hari didedahkan segala yang terpendam di hati (dari iktiqad, niat, dan lain-lainnya),"
                },
                {
                    "id": 1096917,
                    "resource_id": 161,
                    "text": "যেদিন (কাজকর্ম আকীদা বিশ্বাস ও নিয়্যাত সম্পর্কিত) গোপন বিষয়াদি যাচাই পরখ করা হবে।"
                }
            ]
        },
        {
            "id": 5941,
            "verse_number": 10,
            "verse_key": "86:10",
            "hizb_number": 59,
            "rub_el_hizb_number": 236,
            "ruku_number": 530,
            "manzil_number": 7,
            "sajdah_number": null,
            "text_uthmani": "فَمَا لَهُۥ مِن قُوَّةٍ وَلَا نَاصِرٍ",
            "page_number": 591,
            "juz_number": 30,
            "translations": [
                {
                    "id": 102037,
                    "resource_id": 20,
                    "text": "Then he [i.e., man] will have no power or any helper."
                },
                {
                    "id": 219857,
                    "resource_id": 39,
                    "text": "Maka (pada saat itu) tidak ada bagi manusia sebarang kekuatan (untuk membela diri), dan tidak ada penolong (yang dapat memberikan pertolongan)."
                },
                {
                    "id": 1096918,
                    "resource_id": 161,
                    "text": "সেদিন মানুষের না থাকবে নিজের কোন সামর্থ্য, আর না থাকবে কোন সাহায্যকারী।"
                }
            ]
        }
    ],
    "pagination": {
        "per_page": 10,
        "current_page": 1,
        "next_page": 2,
        "total_pages": 2,
        "total_records": 17
    }
}