{
    "verses": [
        {
            "id": 1236,
            "verse_number": 1,
            "verse_key": "9:1",
            "hizb_number": 19,
            "rub_el_hizb_number": 75,
            "ruku_number": 156,
            "manzil_number": 2,
            "sajdah_number": null,
            "text_uthmani": "بَرَآءَةٌ مِّنَ ٱللَّهِ وَرَسُولِهِۦٓ إِلَى ٱلَّذِينَ عَـٰهَدتُّم مِّنَ ٱلْمُشْرِكِينَ",
            "page_number": 187,
            "juz_number": 10,
            "translations": [
                {
                    "id": 102162,
                    "resource_id": 20,
                    "text": "[This is a declaration of] disassociation, from Allāh and His Messenger, to those with whom you had made a treaty among the polytheists.<sup foot_note=196382>1</sup>"
                },
                {
                    "id": 219979,
                    "resource_id": 39,
                    "text": "(Ini adalah) pemutusan tanggungjawab (pembatalan perjanjian) dari Allah dan RasulNya terhadap kaum kafir musyrik yang kamu mengikat perjanjian setia (dengan mereka)."
                },
                {
                    "id": 1092213,
                    "resource_id": 161,
                    "text": "মুশরিকদের মধ্যেকার যাদের সঙ্গে তোমরা সন্ধিচুক্তি করেছিলে তাদের সাথে আল্লাহ ও তাঁর রসূলের পক্ষ হতে সম্পর্কচ্ছেদের ঘোষণা দেয়া হল।"
                }
            ]
        },
        {
            "id": 1237,
            "verse_number": 2,
            "verse_key": "9:2",
            "hizb_number": 19,
            "rub_el_hizb_number": 75,
            "ruku_number": 156,
            "manzil_number": 2,
            "sajdah_number": null,
            "text_uthmani": "فَسِيحُوا۟ فِى ٱلْأَرْضِ أَرْبَعَةَ أَشْهُرٍ وَٱعْلَمُوٓا۟ أَنَّكُمْ غَيْرُ مُعْجِزِى ٱللَّهِ ۙ وَأَنَّ ٱللَّهَ مُخْزِى ٱلْكَـٰفِرِينَ",
            "page_number": 187,
            "juz_number": 10,
            "translations": [
                {
                    "id": 102219,
                    "resource_id": 20,
                    "text": "So travel freely, [O disbelievers], throughout the land [during] four months but know that you cannot cause failure to Allāh and that Allāh will disgrace the disbelievers."
                },
                {
                    "id": 220047,
                    "resource_id": 39,
                    "text": "Oleh itu hendaklah kamu (hai kaum musyrik) bergerak di muka bumi (dengan bebasnya) selama empat bulan, dan ketahuilah bahawa kamu tidak terlepas dari (azab seksa) Allah. Dan (ingatlah) sesungguhnya Allah akan menghina orang-orang yang kafir (dengan bala bencana di dunia dan azab seksa di akhirat)."
                },
                {
                    "id": 1092214,
                    "resource_id": 161,
                    "text": "অতঃপর (হে কাফিরগণ!) চার মাস তোমরা যমীনে (ইচ্ছে মত) চলাফেরা করে নাও; আর জেনে রেখ যে, তোমরা আল্লাহকে নত করতে পারবে না, আল্লাহ্ই সত্য প্রত্যাখ্যানকারীদেরকে লাঞ্ছিত করবেন।"
                }
            ]
        },
        {
            "id": 1238,
            "verse_number": 3,
            "verse_key": "9:3",
            "hizb_number": 19,
            "rub_el_hizb_number": 75,
            "ruku_number": 156,
            "manzil_number": 2,
            "sajdah_number": null,
            "text_uthmani": "وَأَذَٰنٌ مِّنَ ٱللَّهِ وَرَسُولِهِۦٓ إِلَى ٱلنَّاسِ يَوْمَ ٱلْحَجِّ ٱلْأَكْبَرِ أَنَّ ٱللَّهَ بَرِىٓءٌ مِّنَ ٱلْمُشْرِكِينَ ۙ وَرَسُولُهُۥ ۚ فَإِن تُبْتُمْ فَهُوَ خَيْرٌ لَّكُمْ ۖ وَإِن تَوَلَّيْتُمْ فَٱعْلَمُوٓا۟ أَنَّكُمْ غَيْرُ مُعْجِزِى ٱللَّهِ ۗ وَبَشِّرِ ٱلَّذِينَ كَفَرُوا۟ بِعَذَابٍ أَلِيمٍ",
            "page_number": 187,
            "juz_number": 10,
            "translations": [
                {
                    "id": 102251,
                    "resource_id": 20,
                    "text": "And [it is] an announcement from Allāh and His Messenger to the people on the day of the greater pilgrimage<sup foot_note=196384>1</sup> that Allāh is disassociated from the disbelievers, and [so is] His Messenger. So if you repent, that is best for you; but if you turn away - then know that you will not cause failure to Allāh.<sup foot_note=196383>2</sup> And give tidings to those who disbelieve of a painful punishment."
                },
                {
                    "id": 220067,
                    "resource_id": 39,
                    "text": "Dan inilah perisytiharan dari Allah dan RasulNya kepada umat manusia, (diisytiharkan) pada Hari Raya Haji yang terbesar, bahawa sesungguhnya Allah dan RasulNya memutuskan tanggungjawab terhadap orang-orang musyrik; oleh itu jika kamu (wahai kaum musyrik) bertaubat (dari kufur) maka yang demikian adalah baik bagi kamu; dan jika kamu berpaling (ingkar), maka ketahuilah sesungguhnya kamu tidak akan dapat melepaskan diri dari (azab seksa) Allah. Dan khabarkanlah (wahai Muhammad) kepada orang-orang kafir (bahawa mereka akan ditimpakan) dengan azab yang tidak terperi sakitnya."
                },
                {
                    "id": 1092215,
                    "resource_id": 161,
                    "text": "আল্লাহ ও তাঁর রসূলের পক্ষ হতে বড় হাজ্জের দিনে মানুষদের কাছে ঘোষণা দেয়া হল যে আল্লাহ মুশরিকদের সাথে সম্পর্কহীন এবং তাঁর রসূলও। কাজেই এখন যদি তোমরা তাওবাহ কর, তাতে তোমাদেরই ভাল হবে, আর যদি তোমরা মুখ ফিরিয়ে নাও তাহলে জেনে রেখ যে, তোমরা আল্লাহকে হীন-দুর্বল করতে পারবে না, আর যারা কুফরী করে চলেছে তাদেরকে ভয়াবহ শাস্তির সুসংবাদ শুনিয়ে দাও।"
                }
            ]
        },
        {
            "id": 1239,
            "verse_number": 4,
            "verse_key": "9:4",
            "hizb_number": 19,
            "rub_el_hizb_number": 75,
            "ruku_number": 156,
            "manzil_number": 2,
            "sajdah_number": null,
            "text_uthmani": "إِلَّا ٱلَّذِينَ عَـٰهَدتُّم مِّنَ ٱلْمُشْرِكِينَ ثُمَّ لَمْ يَنقُصُوكُمْ شَيْـًٔا وَلَمْ يُظَـٰهِرُوا۟ عَلَيْكُمْ أَحَدًا فَأَتِمُّوٓا۟ إِلَيْهِمْ عَهْدَهُمْ إِلَىٰ مُدَّتِهِمْ ۚ إِنَّ ٱللَّهَ يُحِبُّ ٱلْمُتَّقِينَ",
            "page_number": 187,
            "juz_number": 10,
            "translations": [
                {
                    "id": 102273,
                    "resource_id": 20,
                    "text": "Excepted are those with whom you made a treaty among the polytheists and then they have not been deficient toward you in anything or supported anyone against you; so complete for them their treaty until their term [has ended]. Indeed, Allāh loves the righteous [who fear Him]."
                },
                {
                    "id": 220100,
                    "resource_id": 39,
                    "text": "Kecuali mereka yang kamu mengikat perjanjian setia (dengannya) dari orang-orang musyrik, kemudian mereka tidak mencabuli perjanjian kamu itu sedikitpun, dan mereka tidak menolong seorangpun yang memusuhi kamu, maka sempurnakanlah kepada mereka perjanjian mereka sehingga (habis) tempohnya. Sesungguhnya Allah mengasihi orang-orang yang bertaqwa."
                },
                {
                    "id": 1092216,
                    "resource_id": 161,
                    "text": "কিন্তু মুশরিকদের মধ্যে যারা তোমাদের সঙ্গে চুক্তি রক্ষার ব্যাপারে বিন্দুমাত্র ত্রুটি করেনি, আর তোমাদের বিরুদ্ধে কাউকে সাহায্যও করেনি, তাদের সাথে নির্দিষ্ট সময় পর্যন্ত চুক্তি পূর্ণ কর। অবশ্যই আল্লাহ মুত্তাকীদের ভালবাসেন।"
                }
            ]
        },
        {
            "id": 1240,
            "verse_number": 5,
            "verse_key": "9:5",
            "hizb_number": 19,
            "rub_el_hizb_number": 75,
            "ruku_number": 156,
            "manzil_number": 2,
            "sajdah_number": null,
            "text_uthmani": "فَإِذَا ٱنسَلَخَ ٱلْأَشْهُرُ ٱلْحُرُمُ فَٱقْتُلُوا۟ ٱلْمُشْرِكِينَ حَيْثُ وَجَدتُّمُوهُمْ وَخُذُوهُمْ وَٱحْصُرُوهُمْ وَٱقْعُدُوا۟ لَهُمْ كُلَّ مَرْصَدٍ ۚ فَإِن تَابُوا۟ وَأَقَامُوا۟ ٱلصَّلَوٰةَ وَءَاتَوُا۟ ٱلزَّكَوٰةَ فَخَلُّوا۟ سَبِيلَهُمْ ۚ إِنَّ ٱللَّهَ غَفُورٌ رَّحِيمٌ",
            "page_number": 187,
            "juz_number": 10,
            "translations": [
                {
                    "id": 102292,
                    "resource_id": 20,
                    "text": "And when the inviolable months<sup foot_note=196385>1</sup> have passed, then kill the polytheists wherever you find them and capture them and besiege them and sit in wait for them at every place of ambush. But if they should repent, establish prayer, and give zakāh, let them [go] on their way. Indeed, Allāh is Forgiving and Merciful."
                },
                {
                    "id": 220118,
                    "resource_id": 39,
                    "text": "Kemudian apabila habislah (masa) bulan-bulan yang dihormati itu maka bunuhlah orang-orang musyrik itu di mana sahaja kamu menemuinya, dan tawanlah mereka, dan juga keponglah mereka, serta tunggulah mereka di tiap-tiap tempat mengintipnya. Kemudian jika mereka bertaubat (dari kekufurannya) dan mendirikan sembahyang serta memberi zakat, maka biarkanlah mereka (jangan diganggu). Sesungguhnya Allah Maha Pengampun, lagi Maha Mengasihani."
                },
                {
                    "id": 1092217,
                    "resource_id": 161,
                    "text": "তারপর (এই) নিষিদ্ধ মাস অতিক্রান্ত হয়ে গেলে মুশরিকদেরকে যেখানে পাও হত্যা কর, তাদেরকে পাকড়াও কর, তাদেরকে ঘেরাও কর, তাদের অপেক্ষায় প্রত্যেক ঘাঁটিতে ওৎ পেতে বসে থাক। কিন্তু তারা যদি তাওবাহ করে, নামায প্রতিষ্ঠা করে, যাকাত আদায় করে, তাহলে তাদের পথ ছেড়ে দাও, নিশ্চয়ই আল্লাহ বড়ই ক্ষমাশীল, বড়ই দয়ালু।"
                }
            ]
        },
        {
            "id": 1241,
            "verse_number": 6,
            "verse_key": "9:6",
            "hizb_number": 19,
            "rub_el_hizb_number": 75,
            "ruku_number": 156,
            "manzil_number": 2,
            "sajdah_number": null,
            "text_uthmani": "وَإِنْ أَحَدٌ مِّنَ ٱلْمُشْرِكِينَ ٱسْتَجَارَكَ فَأَجِرْهُ حَتَّىٰ يَسْمَعَ كَلَـٰمَ ٱللَّهِ ثُمَّ أَبْلِغْهُ مَأْمَنَهُۥ ۚ ذَٰلِكَ بِأَنَّهُمْ قَوْمٌ لَّا يَعْلَمُونَ",
            "page_number": 187,
            "juz_number": 10,
            "translations": [
                {
                    "id": 102312,
                    "resource_id": 20,
                    "text": "And if any one of the polytheists seeks your protection, then grant him protection so that he may hear the words of Allāh [i.e., the Qur’ān]. Then deliver him to his place of safety. That is because they are a people who do not know."
                },
                {
                    "id": 220136,
                    "resource_id": 39,
                    "text": "Dan jika seseorang dari kaum musyrik meminta perlindungan kepadamu (untuk memahami Islam), maka berilah perlindungan kepadanya sehingga ia sempat mendengar keterangan-keterangan Allah (tentang hakikat Islam itu), kemudian hantarlah dia ke mana-mana tempat yang ia beroleh aman. Perintah yang tersebut ialah kerana mereka itu kaum yang tidak mengetahui (hakikat Islam)."
                },
                {
                    "id": 1092218,
                    "resource_id": 161,
                    "text": "মুশরিকদের কেউ যদি তোমার কাছে আশ্রয় প্রার্থনা করে তবে তাকে আশ্রয় দাও যাতে সে আল্লাহর বাণী শোনার সুযোগ পায়; তারপর তাকে তার নিরাপদ জায়গায় পৌঁছে দাও। এটা এজন্য করতে হবে যে, এরা এমন এক সম্প্রদায় যারা (ভাল-মন্দ, সত্য-মিথ্যা সম্পর্কে) অজ্ঞ।"
                }
            ]
        },
        {
            "id": 1242,
            "verse_number": 7,
            "verse_key": "9:7",
            "hizb_number": 19,
            "rub_el_hizb_number": 75,
            "ruku_number": 157,
            "manzil_number": 2,
            "sajdah_number": null,
            "text_uthmani": "كَيْفَ يَكُونُ لِلْمُشْرِكِينَ عَهْدٌ عِندَ ٱللَّهِ وَعِندَ رَسُولِهِۦٓ إِلَّا ٱلَّذِينَ عَـٰهَدتُّمْ عِندَ ٱلْمَسْجِدِ ٱلْحَرَامِ ۖ فَمَا ٱسْتَقَـٰمُوا۟ لَكُمْ فَٱسْتَقِيمُوا۟ لَهُمْ ۚ إِنَّ ٱللَّهَ يُحِبُّ ٱلْمُتَّقِينَ",
            "page_number": 188,
            "juz_number": 10,
            "translations": [
                {
                    "id": 102342,
                    "resource_id": 20,
                    "text": "How can there be for the polytheists a treaty in the sight of Allāh and with His Messenger, except for those with whom you made a treaty at al-Masjid al-Ḥarām? So as long as they are upright toward you,<sup foot_note=196386>1</sup> be upright toward them. Indeed, Allāh loves the righteous [who fear Him]."
                },
                {
                    "id": 220161,
                    "resource_id": 39,
                    "text": "Bagaimanakah dapat diakui adanya perjanjian (keamanan) di sisi Allah dan RasulNya bagi orang-orang musyrik (sedang mereka mencabulinya)? Kecuali orang-orang (musyrik) yang kamu telah mengikat perjanjian setia dengan mereka dekat Masjid Al-Haraam. Maka selagi mereka berlaku lurus terhadap kamu, hendaklah kamu berlaku lurus pula terhadap mereka; sesungguhnya Allah mengasihi orang-orang yang bertaqwa."
                },
                {
                    "id": 1092219,
                    "resource_id": 161,
                    "text": "আল্লাহ ও তাঁর রসূলের সঙ্গে মুশরিকদের চুক্তি কী করে কার্যকর থাকতে পারে? অবশ্য ঐসব লোক ছাড়া যাদের সঙ্গে তোমরা মাসজিদুল হারামের নিকট চুক্তিবদ্ধ হয়েছিলে; তারা যদ্দিন তোমাদের সঙ্গে চুক্তি ঠিক রাখে, তোমরাও তাদের সঙ্গে কৃত চুক্তিতে দৃঢ় থাক। নিশ্চয়ই আল্লাহ মুত্তাকীদের ভালবাসেন।"
                }
            ]
        },
        {
            "id": 1243,
            "verse_number": 8,
            "verse_key": "9:8",
            "hizb_number": 19,
            "rub_el_hizb_number": 75,
            "ruku_number": 157,
            "manzil_number": 2,
            "sajdah_number": null,
            "text_uthmani": "كَيْفَ وَإِن يَظْهَرُوا۟ عَلَيْكُمْ لَا يَرْقُبُوا۟ فِيكُمْ إِلًّا وَلَا ذِمَّةً ۚ يُرْضُونَكُم بِأَفْوَٰهِهِمْ وَتَأْبَىٰ قُلُوبُهُمْ وَأَكْثَرُهُمْ فَـٰسِقُونَ",
            "page_number": 188,
            "juz_number": 10,
            "translations": [
                {
                    "id": 102358,
                    "resource_id": 20,
                    "text": "How [can there be a treaty] while, if they gain dominance over you, they do not observe concerning you any pact of kinship or covenant of protection? They satisfy you with their mouths, but their hearts refuse [compliance], and most of them are defiantly disobedient."
                },
                {
                    "id": 220177,
                    "resource_id": 39,
                    "text": "Bagaimana (boleh dikekalkan perjanjian kaum kafir musyrik itu) padahal kalau mereka dapat mengalahkan kamu, mereka tidak akan menghormati perhubungan kerabat terhadap kamu, dan tidak akan menghormati perjanjian setianya. Mereka menjadikan kamu bersenang hati hanya dengan mulut mereka, sedang hati mereka menolaknya; dan kebanyakan mereka adalah orang-orang yang fasik."
                },
                {
                    "id": 1092220,
                    "resource_id": 161,
                    "text": "কীভাবে (চুক্তি থাকতে পারে) যদি তারা তোমাদেরকে পরাজিত করতে পারে তাহলে তারা তোমাদের সঙ্গে না আত্মীয়তার মর্যাদা দেয়, আর না ওয়াদা-অঙ্গীকারের; তারা তাদের মুখের কথায় তোমাদেরকে সন্তুষ্ট রাখতে চায় কিন্তু তাদের অন্তর তা অস্বীকার করে, তাদের অধিকাংশই সত্যত্যাগী অপরাধী।"
                }
            ]
        },
        {
            "id": 1244,
            "verse_number": 9,
            "verse_key": "9:9",
            "hizb_number": 19,
            "rub_el_hizb_number": 75,
            "ruku_number": 157,
            "manzil_number": 2,
            "sajdah_number": null,
            "text_uthmani": "ٱشْتَرَوْا۟ بِـَٔايَـٰتِ ٱللَّهِ ثَمَنًا قَلِيلًا فَصَدُّوا۟ عَن سَبِيلِهِۦٓ ۚ إِنَّهُمْ سَآءَ مَا كَانُوا۟ يَعْمَلُونَ",
            "page_number": 188,
            "juz_number": 10,
            "translations": [
                {
                    "id": 102377,
                    "resource_id": 20,
                    "text": "They have exchanged the signs of Allāh for a small price and averted [people] from His way. Indeed, it was evil that they were doing."
                },
                {
                    "id": 220198,
                    "resource_id": 39,
                    "text": "Mereka menukarkan ayat-ayat Allah dengan harga yang sedikit (dari faedah-faedah dunia), lalu mereka menghalangi (dirinya dan orang-orang lain) dari ugama Allah; sesungguhnya amatlah buruknya apa yang mereka telah kerjakan."
                },
                {
                    "id": 1092221,
                    "resource_id": 161,
                    "text": "আল্লাহর আয়াতকে তারা (দুনিয়াবী স্বার্থে) অতি তুচ্ছ মূল্যে বিক্রি করে দিয়েছে, আল্লাহর পথে (মানুষদের চলার ক্ষেত্রে) প্রতিবন্ধকতা সৃষ্টি করেছে। তারা যা করে কতই না জঘন্য সে কাজ।"
                }
            ]
        },
        {
            "id": 1245,
            "verse_number": 10,
            "verse_key": "9:10",
            "hizb_number": 19,
            "rub_el_hizb_number": 75,
            "ruku_number": 157,
            "manzil_number": 2,
            "sajdah_number": null,
            "text_uthmani": "لَا يَرْقُبُونَ فِى مُؤْمِنٍ إِلًّا وَلَا ذِمَّةً ۚ وَأُو۟لَـٰٓئِكَ هُمُ ٱلْمُعْتَدُونَ",
            "page_number": 188,
            "juz_number": 10,
            "translations": [
                {
                    "id": 102163,
                    "resource_id": 20,
                    "text": "They do not observe toward a believer any pact of kinship or covenant of protection. And it is they who are the transgressors."
                },
                {
                    "id": 219980,
                    "resource_id": 39,
                    "text": "Mereka tidak menghormati pertalian kerabat dan perjanjian terhadap orang-orang yang beriman, dan merekalah orang-orang yang menceroboh."
                },
                {
                    "id": 1092222,
                    "resource_id": 161,
                    "text": "কোন ঈমানদার ব্যক্তির ব্যাপারে তারা না কোন আত্মীয়তার মর্যাদা দেয়, আর না কোন ওয়াদা-অঙ্গীকারের। এরা হল সেই লোক যারা সীমালঙ্ঘনকারী।"
                }
            ]
        }
    ],
    "pagination": {
        "per_page": 10,
        "current_page": 1,
        "next_page": 2,
        "total_pages": 13,
        "total_records": 129
    }
}