{
    "verses": [
        {
            "id": 6059,
            "verse_number": 1,
            "verse_key": "92:1",
            "hizb_number": 60,
            "rub_el_hizb_number": 238,
            "ruku_number": 536,
            "manzil_number": 7,
            "sajdah_number": null,
            "text_uthmani": " وَٱلَّيْلِ إِذَا يَغْشَىٰ",
            "page_number": 595,
            "juz_number": 30,
            "translations": [
                {
                    "id": 102222,
                    "resource_id": 20,
                    "text": "By the night when it covers<sup foot_note=197775>1</sup>"
                },
                {
                    "id": 220059,
                    "resource_id": 39,
                    "text": "Demi malam apabila ia menyelubungi segala-galanya (dengan gelap-gelitanya),"
                },
                {
                    "id": 1097036,
                    "resource_id": 161,
                    "text": "শপথ রাতের যখন তা (আলোকে) ঢেকে দেয়,"
                }
            ]
        },
        {
            "id": 6060,
            "verse_number": 2,
            "verse_key": "92:2",
            "hizb_number": 60,
            "rub_el_hizb_number": 238,
            "ruku_number": 536,
            "manzil_number": 7,
            "sajdah_number": null,
            "text_uthmani": "وَٱلنَّهَارِ إِذَا تَجَلَّىٰ",
            "page_number": 595,
            "juz_number": 30,
            "translations": [
                {
                    "id": 102234,
                    "resource_id": 20,
                    "text": "And [by] the day when it appears"
                },
                {
                    "id": 220076,
                    "resource_id": 39,
                    "text": "Dan siang apabila ia lahir terang-benderang;"
                },
                {
                    "id": 1097037,
                    "resource_id": 161,
                    "text": "শপথ দিনের যখন তা উদ্ভাসিত হয়ে উঠে।"
                }
            ]
        },
        {
            "id": 6061,
            "verse_number": 3,
            "verse_key": "92:3",
            "hizb_number": 60,
            "rub_el_hizb_number": 238,
            "ruku_number": 536,
            "manzil_number": 7,
            "sajdah_number": null,
            "text_uthmani": "وَمَا خَلَقَ ٱلذَّكَرَ وَٱلْأُنثَىٰٓ",
            "page_number": 595,
            "juz_number": 30,
            "translations": [
                {
                    "id": 102238,
                    "resource_id": 20,
                    "text": "And [by] He who created the male and female,"
                },
                {
                    "id": 220053,
                    "resource_id": 39,
                    "text": "Demi Yang menciptakan (makhluk-makhlukNya) lelaki dan perempuan, (jantan dan betina); -"
                },
                {
                    "id": 1097038,
                    "resource_id": 161,
                    "text": "আর শপথ তাঁর যিনি সৃষ্টি করেছেন পুরুষ ও নারী,"
                }
            ]
        },
        {
            "id": 6062,
            "verse_number": 4,
            "verse_key": "92:4",
            "hizb_number": 60,
            "rub_el_hizb_number": 238,
            "ruku_number": 536,
            "manzil_number": 7,
            "sajdah_number": null,
            "text_uthmani": "إِنَّ سَعْيَكُمْ لَشَتَّىٰ",
            "page_number": 595,
            "juz_number": 30,
            "translations": [
                {
                    "id": 102240,
                    "resource_id": 20,
                    "text": "Indeed, your efforts are diverse."
                },
                {
                    "id": 220064,
                    "resource_id": 39,
                    "text": "Sesungguhnya amal usaha kamu adalah berbagai-bagai keadaannya."
                },
                {
                    "id": 1097039,
                    "resource_id": 161,
                    "text": "তোমাদের চেষ্টা সাধনা অবশ্যই বিভিন্নমুখী।"
                }
            ]
        },
        {
            "id": 6063,
            "verse_number": 5,
            "verse_key": "92:5",
            "hizb_number": 60,
            "rub_el_hizb_number": 238,
            "ruku_number": 536,
            "manzil_number": 7,
            "sajdah_number": null,
            "text_uthmani": "فَأَمَّا مَنْ أَعْطَىٰ وَٱتَّقَىٰ",
            "page_number": 595,
            "juz_number": 30,
            "translations": [
                {
                    "id": 102242,
                    "resource_id": 20,
                    "text": "As for he who gives and fears Allāh"
                },
                {
                    "id": 220055,
                    "resource_id": 39,
                    "text": "Jelasnya: adapun orang yang memberikan apa yang ada padanya ke jalan kebaikan dan bertaqwa (mengerjakan suruhan Allah dan meninggalkan segala laranganNya), -"
                },
                {
                    "id": 1097040,
                    "resource_id": 161,
                    "text": "অতএব যে ব্যক্তি (আল্লাহর সন্তুষ্টির জন্য) দান করে ও (আল্লাহকে) ভয় করে,"
                }
            ]
        },
        {
            "id": 6064,
            "verse_number": 6,
            "verse_key": "92:6",
            "hizb_number": 60,
            "rub_el_hizb_number": 238,
            "ruku_number": 536,
            "manzil_number": 7,
            "sajdah_number": null,
            "text_uthmani": "وَصَدَّقَ بِٱلْحُسْنَىٰ",
            "page_number": 595,
            "juz_number": 30,
            "translations": [
                {
                    "id": 102244,
                    "resource_id": 20,
                    "text": "And believes in the best [reward],"
                },
                {
                    "id": 220057,
                    "resource_id": 39,
                    "text": "Serta ia mengakui dengan yakin akan perkara yang baik,"
                },
                {
                    "id": 1097041,
                    "resource_id": 161,
                    "text": "এবং উত্তম বিষয়কে সত্য মনে করে,"
                }
            ]
        },
        {
            "id": 6065,
            "verse_number": 7,
            "verse_key": "92:7",
            "hizb_number": 60,
            "rub_el_hizb_number": 238,
            "ruku_number": 536,
            "manzil_number": 7,
            "sajdah_number": null,
            "text_uthmani": "فَسَنُيَسِّرُهُۥ لِلْيُسْرَىٰ",
            "page_number": 595,
            "juz_number": 30,
            "translations": [
                {
                    "id": 102246,
                    "resource_id": 20,
                    "text": "We will ease him toward ease."
                },
                {
                    "id": 220180,
                    "resource_id": 39,
                    "text": "Maka sesungguhnya Kami akan memberikannya kemudahan untuk mendapat kesenangan (Syurga)."
                },
                {
                    "id": 1097042,
                    "resource_id": 161,
                    "text": "আমি তার জন্য সহজ পথে চলা সহজ করে দেব।"
                }
            ]
        },
        {
            "id": 6066,
            "verse_number": 8,
            "verse_key": "92:8",
            "hizb_number": 60,
            "rub_el_hizb_number": 238,
            "ruku_number": 536,
            "manzil_number": 7,
            "sajdah_number": null,
            "text_uthmani": "وَأَمَّا مَنۢ بَخِلَ وَٱسْتَغْنَىٰ",
            "page_number": 595,
            "juz_number": 30,
            "translations": [
                {
                    "id": 102248,
                    "resource_id": 20,
                    "text": "But as for he who withholds and considers himself free of need"
                },
                {
                    "id": 220061,
                    "resource_id": 39,
                    "text": "Sebaliknya: orang yang bakhil (daripada berbuat kebajikan) dan merasa cukup dengan kekayaan dan kemewahannya, -"
                },
                {
                    "id": 1097043,
                    "resource_id": 161,
                    "text": "আর যে ব্যক্তি কৃপণতা করে আর (আল্লাহর প্রতি) বেপরোয়া হয়,"
                }
            ]
        },
        {
            "id": 6067,
            "verse_number": 9,
            "verse_key": "92:9",
            "hizb_number": 60,
            "rub_el_hizb_number": 238,
            "ruku_number": 536,
            "manzil_number": 7,
            "sajdah_number": null,
            "text_uthmani": "وَكَذَّبَ بِٱلْحُسْنَىٰ",
            "page_number": 595,
            "juz_number": 30,
            "translations": [
                {
                    "id": 102250,
                    "resource_id": 20,
                    "text": "And denies the best [reward],"
                },
                {
                    "id": 220066,
                    "resource_id": 39,
                    "text": "Serta ia mendustakan perkara yang baik,"
                },
                {
                    "id": 1097044,
                    "resource_id": 161,
                    "text": "আর যা উত্তম তা অমান্য করে,"
                }
            ]
        },
        {
            "id": 6068,
            "verse_number": 10,
            "verse_key": "92:10",
            "hizb_number": 60,
            "rub_el_hizb_number": 238,
            "ruku_number": 536,
            "manzil_number": 7,
            "sajdah_number": null,
            "text_uthmani": "فَسَنُيَسِّرُهُۥ لِلْعُسْرَىٰ",
            "page_number": 595,
            "juz_number": 30,
            "translations": [
                {
                    "id": 102223,
                    "resource_id": 20,
                    "text": "We will ease him toward difficulty."
                },
                {
                    "id": 220065,
                    "resource_id": 39,
                    "text": "Maka sesungguhnya Kami akan memberikannya kemudahan untuk mendapat kesusahan dan kesengsaraan;"
                },
                {
                    "id": 1097045,
                    "resource_id": 161,
                    "text": "আমি তার জন্য কঠিন পথ (অর্থাৎ অন্যায়, অসত্য, হিংসা ও হানাহানির পথ) সহজ করে দিব।"
                }
            ]
        }
    ],
    "pagination": {
        "per_page": 10,
        "current_page": 1,
        "next_page": 2,
        "total_pages": 3,
        "total_records": 21
    }
}